,index,Sex,FamilySize,Age,Education,Lighting,Cooking,w
0,0,sex_male,Size_4,age_46_55,Education_College,Lighting_yes,Cooking_yes,662.5872340425532
1,1,sex_female,Size_4,age_36_45,Education_College,Lighting_yes,Cooking_yes,662.5872340425532
2,2,sex_male,Size_5,age_46_55,Education_Post_Secondary,Lighting_yes,Cooking_yes,662.5872340425532
3,3,sex_male,Size_1,age_46_55,Education_Post_Graduate,Lighting_yes,Cooking_yes,662.5872340425532
4,4,sex_male,Size_6,age_46_55,Education_College,Lighting_yes,Cooking_yes,662.5872340425532
5,5,sex_male,Size_4,age_56_65,Education_High_School,Lighting_yes,Cooking_yes,662.5872340425532
6,6,sex_male,Size_3,age_56_65,Education_College,Lighting_yes,Cooking_yes,662.5872340425532
7,7,sex_male,Size_1,age_36_45,Education_High_School,Lighting_yes,Cooking_yes,662.5872340425532
8,8,sex_male,Size_1,age_46_55,Education_College,Lighting_yes,Cooking_yes,662.5872340425532
9,9,sex_male,Size_1,age_56_65,Education_Post_Secondary,Lighting_yes,Cooking_yes,662.5872340425532
10,10,sex_male,Size_2,age_46_55,Education_Post_Secondary,Lighting_yes,Cooking_yes,662.5872340425532
11,11,sex_male,Size_2,age_56_65,Education_College,Lighting_yes,Cooking_yes,662.5872340425532
12,12,sex_male,Size_4,age_46_55,Education_College,Lighting_yes,Cooking_yes,662.5872340425532
13,13,sex_female,Size_3,age_56_65,Education_Post_Secondary,Lighting_yes,Cooking_yes,662.5872340425532
14,14,sex_female,Size_2,age_56_65,Education_Post_Secondary,Lighting_yes,Cooking_yes,662.5872340425532
15,15,sex_female,Size_2,age_36_45,Education_College,Lighting_yes,Cooking_yes,662.5872340425532
16,16,sex_male,Size_2,age_26_35,Education_Post_Graduate,Lighting_yes,Cooking_yes,662.5872340425532
17,17,sex_male,Size_3,age_56_65,Education_College,Lighting_yes,Cooking_yes,662.5872340425532
18,18,sex_female,Size_5,age_56_65,Education_Post_Secondary,Lighting_yes,Cooking_yes,662.5872340425532
19,19,sex_female,Size_2,age_56_65,Education_Post_Secondary,Lighting_yes,Cooking_yes,662.5872340425532
20,20,sex_female,Size_2,age_26_35,Education_Post_Secondary,Lighting_yes,Cooking_yes,662.5872340425532
21,21,sex_male,Size_3,age_46_55,Education_College,Lighting_yes,Cooking_yes,662.5872340425532
22,22,sex_male,Size_4,age_56_65,Education_High_School,Lighting_yes,Cooking_yes,662.5872340425532
23,23,sex_male,Size_4,age_36_45,Education_Post_Secondary,Lighting_yes,Cooking_yes,662.5872340425532
24,24,sex_male,Size_4,age_26_35,Education_Post_Secondary,Lighting_yes,Cooking_yes,662.5872340425532
25,25,sex_male,Size_4,age_36_45,Education_College,Lighting_yes,Cooking_yes,662.5872340425532
26,26,sex_female,Size_5,age_46_55,Education_Post_Secondary,Lighting_yes,Cooking_yes,662.5872340425532
27,27,sex_male,Size_4,age_46_55,Education_Elementary_School,Lighting_yes,Cooking_yes,662.5872340425532
28,28,sex_female,Size_3,age_46_55,Education_College,Lighting_yes,Cooking_yes,662.5872340425532
29,29,sex_male,Size_2,age_56_65,Education_College,Lighting_yes,Cooking_yes,662.5872340425532
30,30,sex_male,Size_2,age_66_75,Education_Post_Secondary,Lighting_yes,Cooking_yes,662.5872340425532
31,31,sex_male,Size_2,age_36_45,Education_Post_Secondary,Lighting_yes,Cooking_yes,662.5872340425532
32,32,sex_female,Size_1,age_46_55,Education_Elementary_School,Lighting_yes,Cooking_yes,662.5872340425532
33,33,sex_female,Size_2,age_26_35,Education_Post_Secondary,Lighting_yes,Cooking_yes,662.5872340425532
34,34,sex_female,Size_4,age_46_55,Education_Post_Secondary,Lighting_yes,Cooking_yes,662.5872340425532
35,35,sex_male,Size_4,age_56_65,Education_College,Lighting_yes,Cooking_yes,662.5872340425532
36,36,sex_male,Size_4,age_56_65,Education_Post_Secondary,Lighting_yes,Cooking_yes,662.5872340425532
37,37,sex_male,Size_4,age_46_55,Education_College,Lighting_yes,Cooking_yes,662.5872340425532
38,38,sex_female,Size_3,age_36_45,Education_Elementary_School,Lighting_yes,Cooking_yes,662.5872340425532
39,39,sex_male,Size_3,age_36_45,Education_Elementary_School,Lighting_yes,Cooking_yes,662.5872340425532
40,40,sex_male,Size_3,age_56_65,Education_Post_Secondary,Lighting_yes,Cooking_yes,662.5872340425532
41,41,sex_male,Size_1,age_46_55,Education_College,Lighting_yes,Cooking_yes,662.5872340425532
42,42,sex_male,Size_3,age_46_55,Education_Post_Secondary,Lighting_yes,Cooking_yes,662.5872340425532
43,43,sex_male,Size_1,age_46_55,Education_College,Lighting_yes,Cooking_yes,662.5872340425532
44,44,sex_male,Size_1,age_46_55,Education_College,Lighting_yes,Cooking_yes,662.5872340425532
45,45,sex_male,Size_2,age_46_55,Education_College,Lighting_yes,Cooking_yes,662.5872340425532
46,46,sex_male,Size_3,age_46_55,Education_College,Lighting_yes,Cooking_yes,662.5872340425532
47,47,sex_male,Size_3,age_26_35,Education_College,Lighting_yes,Cooking_yes,662.5872340425532
48,48,sex_male,Size_3,age_46_55,Education_College,Lighting_yes,Cooking_yes,662.5872340425532
49,49,sex_female,Size_4,age_46_55,Education_Post_Graduate,Lighting_yes,Cooking_yes,662.5872340425532
50,50,sex_male,Size_4,age_56_65,Education_College,Lighting_yes,Cooking_yes,662.5872340425532
51,51,sex_male,Size_4,age_56_65,Education_Post_Secondary,Lighting_yes,Cooking_yes,662.5872340425532
52,52,sex_male,Size_2,age_46_55,Education_Post_Secondary,Lighting_yes,Cooking_yes,662.5872340425532
53,53,sex_male,Size_4,age_36_45,Education_Post_Secondary,Lighting_yes,Cooking_yes,662.5872340425532
54,54,sex_male,Size_3,age_36_45,Education_Post_Secondary,Lighting_yes,Cooking_yes,662.5872340425532
55,55,sex_female,Size_5,age_26_35,Education_Post_Secondary,Lighting_yes,Cooking_yes,662.5872340425532
56,56,sex_male,Size_5,age_56_65,Education_Post_Graduate,Lighting_yes,Cooking_yes,662.5872340425532
57,57,sex_female,Size_4,age_46_55,Education_Post_Secondary,Lighting_yes,Cooking_yes,662.5872340425532
58,58,sex_male,Size_4,age_46_55,Education_High_School,Lighting_yes,Cooking_yes,662.5872340425532
59,59,sex_male,Size_4,age_36_45,Education_College,Lighting_yes,Cooking_yes,662.5872340425532
60,60,sex_male,Size_4,age_46_55,Education_Post_Secondary,Lighting_yes,Cooking_yes,662.5872340425532
61,61,sex_male,Size_4,age_46_55,Education_High_School,Lighting_yes,Cooking_yes,662.5872340425532
62,62,sex_male,Size_4,age_36_45,Education_Post_Secondary,Lighting_yes,Cooking_yes,662.5872340425532
63,63,sex_male,Size_2,age_36_45,Education_Post_Secondary,Lighting_yes,Cooking_yes,662.5872340425532
64,64,sex_male,Size_8,age_36_45,Education_Post_Graduate,Lighting_yes,Cooking_yes,662.5872340425532
65,65,sex_female,Size_4,age_46_55,Education_College,Lighting_yes,Cooking_yes,662.5872340425532
66,66,sex_female,Size_4,age_46_55,Education_College,Lighting_yes,Cooking_yes,662.5872340425532
67,67,sex_male,Size_3,age_46_55,Education_Post_Secondary,Lighting_yes,Cooking_yes,662.5872340425532
68,68,sex_male,Size_2,age_36_45,Education_College,Lighting_yes,Cooking_yes,662.5872340425532
69,69,sex_female,Size_3,age_26_35,Education_Post_Secondary,Lighting_yes,Cooking_yes,662.5872340425532
70,70,sex_male,Size_6,age_46_55,Education_Post_Secondary,Lighting_yes,Cooking_yes,662.5872340425532
71,71,sex_male,Size_6,age_46_55,Education_Post_Secondary,Lighting_yes,Cooking_yes,662.5872340425532
72,72,sex_male,Size_6,age_56_65,Education_College,Lighting_yes,Cooking_yes,662.5872340425532
73,73,sex_male,Size_4,age_66_75,Education_Post_Secondary,Lighting_yes,Cooking_yes,662.5872340425532
74,74,sex_female,Size_4,age_46_55,Education_Elementary_School,Lighting_yes,Cooking_yes,662.5872340425532
75,75,sex_female,Size_2,age_56_65,Education_Elementary_School,Lighting_yes,Cooking_yes,662.5872340425532
76,76,sex_male,Size_2,age_36_45,Education_High_School,Lighting_yes,Cooking_yes,662.5872340425532
77,77,sex_female,Size_3,age_36_45,Education_High_School,Lighting_yes,Cooking_yes,662.5872340425532
78,78,sex_female,Size_3,age_46_55,Education_Elementary_School,Lighting_yes,Cooking_yes,662.5872340425532
79,79,sex_male,Size_3,age_36_45,Education_College,Lighting_yes,Cooking_yes,662.5872340425532
80,80,sex_male,Size_1,age_36_45,Education_Elementary_School,Lighting_yes,Cooking_yes,662.5872340425532
81,81,sex_male,Size_5,age_46_55,Education_Elementary_School,Lighting_yes,Cooking_yes,662.5872340425532
82,82,sex_male,Size_4,age_56_65,Education_College,Lighting_yes,Cooking_yes,662.5872340425532
83,83,sex_female,Size_2,age_56_65,Education_College,Lighting_yes,Cooking_yes,662.5872340425532
84,84,sex_male,Size_4,age_56_65,Education_Elementary_School,Lighting_yes,Cooking_yes,662.5872340425532
85,85,sex_female,Size_3,age_56_65,Education_High_School,Lighting_yes,Cooking_yes,662.5872340425532
86,86,sex_male,Size_2,age_56_65,Education_Elementary_School,Lighting_yes,Cooking_yes,662.5872340425532
87,87,sex_male,Size_2,age_46_55,Education_Post_Secondary,Lighting_yes,Cooking_yes,662.5872340425532
88,88,sex_male,Size_2,age_46_55,Education_Post_Secondary,Lighting_yes,Cooking_yes,662.5872340425532
89,89,sex_male,Size_3,age_46_55,Education_Post_Secondary,Lighting_yes,Cooking_yes,662.5872340425532
90,90,sex_male,Size_2,age_46_55,Education_High_School,Lighting_yes,Cooking_yes,662.5872340425532
91,91,sex_male,Size_2,age_36_45,Education_Post_Secondary,Lighting_yes,Cooking_yes,662.5872340425532
92,92,sex_male,Size_1,age_46_55,Education_Elementary_School,Lighting_yes,Cooking_yes,662.5872340425532
93,93,sex_male,Size_2,age_46_55,Education_Post_Secondary,Lighting_yes,Cooking_yes,662.5872340425532
94,94,sex_female,Size_2,age_56_65,Education_Elementary_School,Lighting_yes,Cooking_yes,662.5872340425532
95,95,sex_male,Size_2,age_36_45,Education_College,Lighting_yes,Cooking_yes,662.5872340425532
96,96,sex_male,Size_2,age_46_55,Education_High_School,Lighting_yes,Cooking_yes,662.5872340425532
97,97,sex_male,Size_2,age_46_55,Education_Post_Graduate,Lighting_yes,Cooking_yes,662.5872340425532
98,98,sex_female,Size_4,age_46_55,Education_Post_Secondary,Lighting_yes,Cooking_yes,662.5872340425532
99,99,sex_male,Size_2,age_46_55,Education_Post_Secondary,Lighting_yes,Cooking_yes,662.5872340425532
100,100,sex_female,Size_1,age_36_45,Education_College,Lighting_yes,Cooking_yes,662.5872340425532
101,101,sex_female,Size_1,age_46_55,Education_High_School,Lighting_yes,Cooking_yes,662.5872340425532
102,102,sex_female,Size_1,age_36_45,Education_College,Lighting_yes,Cooking_yes,662.5872340425532
103,103,sex_female,Size_3,age_26_35,Education_Post_Secondary,Lighting_yes,Cooking_yes,662.5872340425532
104,104,sex_female,Size_4,age_46_55,Education_Elementary_School,Lighting_yes,Cooking_yes,662.5872340425532
105,105,sex_male,Size_3,age_66_75,Education_Post_Secondary,Lighting_yes,Cooking_yes,662.5872340425532
106,106,sex_male,Size_4,age_46_55,Education_High_School,Lighting_yes,Cooking_yes,662.5872340425532
107,107,sex_female,Size_4,age_46_55,Education_Post_Graduate,Lighting_yes,Cooking_yes,662.5872340425532
108,108,sex_male,Size_7,age_46_55,Education_College,Lighting_yes,Cooking_yes,662.5872340425532
109,109,sex_male,Size_6,age_36_45,Education_Post_Graduate,Lighting_yes,Cooking_yes,662.5872340425532
110,110,sex_male,Size_2,age_46_55,Education_Elementary_School,Lighting_yes,Cooking_yes,662.5872340425532
111,111,sex_male,Size_2,age_46_55,Education_Post_Secondary,Lighting_yes,Cooking_yes,662.5872340425532
112,112,sex_female,Size_1,age_56_65,Education_Elementary_School,Lighting_yes,Cooking_yes,662.5872340425532
113,113,sex_male,Size_1,age_66_75,Education_Post_Secondary,Lighting_yes,Cooking_yes,662.5872340425532
114,114,sex_female,Size_1,age_46_55,Education_Post_Secondary,Lighting_yes,Cooking_yes,662.5872340425532
115,115,sex_male,Size_2,age_66_75,Education_College,Lighting_yes,Cooking_yes,662.5872340425532
116,116,sex_female,Size_2,age_36_45,Education_College,Lighting_yes,Cooking_yes,662.5872340425532
117,117,sex_female,Size_2,age_26_35,Education_Post_Secondary,Lighting_yes,Cooking_yes,662.5872340425532
118,118,sex_female,Size_4,age_56_65,Education_College,Lighting_yes,Cooking_yes,662.5872340425532
119,119,sex_male,Size_4,age_46_55,Education_High_School,Lighting_yes,Cooking_yes,662.5872340425532
120,120,sex_male,Size_3,age_56_65,Education_Post_Graduate,Lighting_yes,Cooking_yes,662.5872340425532
121,121,sex_male,Size_5,age_46_55,Education_Post_Secondary,Lighting_yes,Cooking_yes,662.5872340425532
122,122,sex_male,Size_2,age_46_55,Education_Post_Secondary,Lighting_yes,Cooking_yes,662.5872340425532
123,123,sex_female,Size_2,age_36_45,Education_High_School,Lighting_yes,Cooking_yes,662.5872340425532
124,124,sex_male,Size_3,age_36_45,Education_Post_Secondary,Lighting_yes,Cooking_yes,662.5872340425532
125,125,sex_male,Size_5,age_46_55,Education_High_School,Lighting_yes,Cooking_yes,662.5872340425532
126,126,sex_male,Size_1,age_26_35,Education_College,Lighting_yes,Cooking_yes,662.5872340425532
127,127,sex_female,Size_4,age_36_45,Education_High_School,Lighting_yes,Cooking_yes,662.5872340425532
128,128,sex_male,Size_4,age_26_35,Education_Elementary_School,Lighting_yes,Cooking_yes,662.5872340425532
129,129,sex_female,Size_2,age_36_45,Education_College,Lighting_yes,Cooking_yes,662.5872340425532
130,130,sex_female,Size_3,age_36_45,Education_College,Lighting_yes,Cooking_yes,662.5872340425532
131,131,sex_male,Size_1,age_36_45,Education_Post_Secondary,Lighting_yes,Cooking_yes,662.5872340425532
132,132,sex_male,Size_1,age_46_55,Education_Post_Secondary,Lighting_yes,Cooking_yes,662.5872340425532
133,133,sex_female,Size_2,age_66_75,Education_Post_Secondary,Lighting_yes,Cooking_yes,662.5872340425532
134,134,sex_male,Size_2,age_66_75,Education_Post_Secondary,Lighting_yes,Cooking_yes,662.5872340425532
135,135,sex_female,Size_3,age_56_65,Education_College,Lighting_yes,Cooking_yes,662.5872340425532
136,136,sex_male,Size_3,age_46_55,Education_Post_Secondary,Lighting_yes,Cooking_yes,662.5872340425532
137,137,sex_female,Size_3,age_46_55,Education_Elementary_School,Lighting_yes,Cooking_yes,662.5872340425532
138,138,sex_male,Size_4,age_46_55,Education_College,Lighting_yes,Cooking_yes,662.5872340425532
139,139,sex_male,Size_5,age_56_65,Education_College,Lighting_yes,Cooking_yes,662.5872340425532
140,140,sex_male,Size_6,age_46_55,Education_High_School,Lighting_yes,Cooking_yes,662.5872340425532
141,141,sex_female,Size_3,age_56_65,Education_Post_Graduate,Lighting_yes,Cooking_yes,662.5872340425532
142,142,sex_male,Size_3,age_46_55,Education_College,Lighting_yes,Cooking_yes,662.5872340425532
143,143,sex_male,Size_4,age_56_65,Education_High_School,Lighting_yes,Cooking_yes,662.5872340425532
144,144,sex_female,Size_3,age_36_45,Education_Post_Secondary,Lighting_yes,Cooking_yes,662.5872340425532
145,145,sex_male,Size_3,age_36_45,Education_High_School,Lighting_yes,Cooking_yes,662.5872340425532
146,146,sex_male,Size_2,age_56_65,Education_Post_Secondary,Lighting_yes,Cooking_yes,662.5872340425532
147,147,sex_female,Size_3,age_56_65,Education_Post_Secondary,Lighting_yes,Cooking_yes,662.5872340425532
148,148,sex_male,Size_2,age_36_45,Education_College,Lighting_yes,Cooking_yes,662.5872340425532
149,149,sex_male,Size_4,age_36_45,Education_Post_Secondary,Lighting_yes,Cooking_yes,662.5872340425532
150,150,sex_female,Size_4,age_56_65,Education_College,Lighting_yes,Cooking_yes,662.5872340425532
151,151,sex_female,Size_2,age_56_65,Education_College,Lighting_yes,Cooking_yes,662.5872340425532
152,152,sex_female,Size_4,age_36_45,Education_College,Lighting_yes,Cooking_yes,662.5872340425532
153,153,sex_male,Size_4,age_46_55,Education_Elementary_School,Lighting_yes,Cooking_yes,662.5872340425532
154,154,sex_male,Size_3,age_46_55,Education_High_School,Lighting_yes,Cooking_yes,662.5872340425532
155,155,sex_male,Size_2,age_46_55,Education_Elementary_School,Lighting_yes,Cooking_yes,662.5872340425532
156,156,sex_male,Size_4,age_56_65,Education_Post_Secondary,Lighting_yes,Cooking_yes,662.5872340425532
157,157,sex_female,Size_3,age_26_35,Education_Post_Secondary,Lighting_yes,Cooking_yes,662.5872340425532
158,158,sex_male,Size_3,age_36_45,Education_Post_Secondary,Lighting_yes,Cooking_yes,662.5872340425532
159,159,sex_female,Size_2,age_56_65,Education_College,Lighting_yes,Cooking_yes,662.5872340425532
160,160,sex_male,Size_3,age_56_65,Education_College,Lighting_yes,Cooking_yes,662.5872340425532
161,161,sex_male,Size_3,age_46_55,Education_College,Lighting_yes,Cooking_yes,662.5872340425532
162,162,sex_male,Size_3,age_46_55,Education_College,Lighting_yes,Cooking_yes,662.5872340425532
163,163,sex_male,Size_1,age_46_55,Education_Post_Secondary,Lighting_yes,Cooking_yes,662.5872340425532
164,164,sex_female,Size_1,age_46_55,Education_Post_Secondary,Lighting_yes,Cooking_yes,662.5872340425532
165,165,sex_female,Size_1,age_56_65,Education_Post_Graduate,Lighting_yes,Cooking_yes,662.5872340425532
166,166,sex_male,Size_3,age_66_75,Education_Post_Secondary,Lighting_yes,Cooking_yes,662.5872340425532
167,167,sex_female,Size_3,age_66_75,Education_Post_Secondary,Lighting_yes,Cooking_yes,662.5872340425532
168,168,sex_female,Size_1,age_26_35,Education_Post_Secondary,Lighting_yes,Cooking_yes,662.5872340425532
169,169,sex_male,Size_3,age_56_65,Education_High_School,Lighting_yes,Cooking_yes,662.5872340425532
170,170,sex_male,Size_3,age_36_45,Education_Post_Secondary,Lighting_yes,Cooking_yes,662.5872340425532
171,171,sex_male,Size_2,age_56_65,Education_Post_Secondary,Lighting_yes,Cooking_yes,662.5872340425532
172,172,sex_male,Size_2,age_46_55,Education_Post_Secondary,Lighting_yes,Cooking_yes,662.5872340425532
173,173,sex_male,Size_4,age_46_55,Education_College,Lighting_yes,Cooking_yes,662.5872340425532
174,174,sex_female,Size_2,age_46_55,Education_College,Lighting_yes,Cooking_yes,662.5872340425532
175,175,sex_male,Size_3,age_36_45,Education_Post_Secondary,Lighting_yes,Cooking_yes,662.5872340425532
176,176,sex_female,Size_1,age_36_45,Education_Post_Secondary,Lighting_yes,Cooking_yes,662.5872340425532
177,177,sex_female,Size_2,age_46_55,Education_College,Lighting_yes,Cooking_yes,662.5872340425532
178,178,sex_male,Size_2,age_46_55,Education_Elementary_School,Lighting_yes,Cooking_yes,662.5872340425532
179,179,sex_male,Size_3,age_46_55,Education_Post_Secondary,Lighting_yes,Cooking_yes,662.5872340425532
180,180,sex_male,Size_3,age_36_45,Education_Post_Graduate,Lighting_yes,Cooking_yes,662.5872340425532
181,181,sex_female,Size_8,age_36_45,Education_Post_Secondary,Lighting_yes,Cooking_yes,662.5872340425532
182,182,sex_male,Size_2,age_46_55,Education_High_School,Lighting_yes,Cooking_yes,662.5872340425532
183,183,sex_female,Size_2,age_36_45,Education_High_School,Lighting_yes,Cooking_yes,662.5872340425532
184,184,sex_female,Size_3,age_46_55,Education_Elementary_School,Lighting_yes,Cooking_yes,662.5872340425532
185,185,sex_female,Size_4,age_26_35,Education_Post_Graduate,Lighting_yes,Cooking_yes,662.5872340425532
186,186,sex_male,Size_4,age_46_55,Education_Post_Secondary,Lighting_yes,Cooking_yes,662.5872340425532
187,187,sex_female,Size_4,age_26_35,Education_College,Lighting_yes,Cooking_yes,662.5872340425532
188,188,sex_male,Size_3,age_66_75,Education_Post_Secondary,Lighting_yes,Cooking_yes,662.5872340425532
189,189,sex_female,Size_1,age_46_55,Education_Post_Secondary,Lighting_yes,Cooking_yes,662.5872340425532
190,190,sex_male,Size_1,age_46_55,Education_College,Lighting_yes,Cooking_yes,662.5872340425532
191,191,sex_male,Size_2,age_46_55,Education_Post_Secondary,Lighting_yes,Cooking_yes,662.5872340425532
192,192,sex_female,Size_4,age_36_45,Education_Post_Secondary,Lighting_yes,Cooking_yes,662.5872340425532
193,193,sex_female,Size_1,age_36_45,Education_College,Lighting_yes,Cooking_yes,662.5872340425532
194,194,sex_female,Size_4,age_26_35,Education_College,Lighting_yes,Cooking_yes,662.5872340425532
195,195,sex_female,Size_4,age_56_65,Education_Post_Secondary,Lighting_yes,Cooking_yes,662.5872340425532
196,196,sex_female,Size_4,age_56_65,Education_College,Lighting_yes,Cooking_yes,662.5872340425532
197,197,sex_female,Size_5,age_36_45,Education_Elementary_School,Lighting_yes,Cooking_yes,662.5872340425532
198,198,sex_female,Size_1,age_46_55,Education_College,Lighting_yes,Cooking_yes,662.5872340425532
199,199,sex_female,Size_5,age_56_65,Education_College,Lighting_yes,Cooking_yes,662.5872340425532
200,200,sex_female,Size_6,age_36_45,Education_Post_Graduate,Lighting_yes,Cooking_yes,662.5872340425532
201,201,sex_female,Size_1,age_36_45,Education_High_School,Lighting_yes,Cooking_yes,662.5872340425532
202,202,sex_male,Size_2,age_36_45,Education_Post_Graduate,Lighting_yes,Cooking_yes,662.5872340425532
203,203,sex_male,Size_2,age_56_65,Education_Post_Graduate,Lighting_yes,Cooking_yes,662.5872340425532
204,204,sex_male,Size_2,age_46_55,Education_High_School,Lighting_yes,Cooking_yes,662.5872340425532
205,205,sex_male,Size_1,age_36_45,Education_College,Lighting_yes,Cooking_yes,662.5872340425532
206,206,sex_male,Size_3,age_46_55,Education_High_School,Lighting_yes,Cooking_yes,662.5872340425532
207,207,sex_female,Size_4,age_46_55,Education_Post_Secondary,Lighting_yes,Cooking_yes,662.5872340425532
208,208,sex_female,Size_6,age_36_45,Education_College,Lighting_yes,Cooking_yes,662.5872340425532
209,209,sex_male,Size_3,age_46_55,Education_College,Lighting_yes,Cooking_yes,662.5872340425532
210,210,sex_male,Size_3,age_36_45,Education_High_School,Lighting_yes,Cooking_yes,662.5872340425532
211,211,sex_female,Size_4,age_46_55,Education_Elementary_School,Lighting_yes,Cooking_yes,662.5872340425532
212,212,sex_male,Size_3,age_56_65,Education_College,Lighting_yes,Cooking_yes,662.5872340425532
213,213,sex_female,Size_6,age_36_45,Education_College,Lighting_yes,Cooking_yes,662.5872340425532
214,214,sex_female,Size_4,age_46_55,Education_College,Lighting_yes,Cooking_yes,662.5872340425532
215,215,sex_male,Size_4,age_36_45,Education_Elementary_School,Lighting_yes,Cooking_yes,662.5872340425532
216,216,sex_female,Size_4,age_56_65,Education_Elementary_School,Lighting_yes,Cooking_yes,662.5872340425532
217,217,sex_male,Size_2,age_56_65,Education_Elementary_School,Lighting_yes,Cooking_yes,662.5872340425532
218,218,sex_male,Size_1,age_36_45,Education_Post_Secondary,Lighting_yes,Cooking_yes,662.5872340425532
219,219,sex_female,Size_4,age_56_65,Education_Elementary_School,Lighting_yes,Cooking_no,662.5872340425532
220,220,sex_female,Size_1,age_36_45,Education_Post_Graduate,Lighting_yes,Cooking_yes,662.5872340425532
221,221,sex_male,Size_4,age_66_75,Education_College,Lighting_yes,Cooking_yes,662.5872340425532
222,222,sex_female,Size_4,age_46_55,Education_College,Lighting_yes,Cooking_yes,662.5872340425532
223,223,sex_male,Size_8,age_56_65,Education_College,Lighting_yes,Cooking_yes,662.5872340425532
224,224,sex_male,Size_4,age_36_45,Education_College,Lighting_yes,Cooking_yes,662.5872340425532
225,225,sex_male,Size_4,age_19_25,Education_High_School,Lighting_yes,Cooking_yes,662.5872340425532
226,226,sex_female,Size_4,age_46_55,Education_High_School,Lighting_yes,Cooking_yes,662.5872340425532
227,227,sex_male,Size_4,age_36_45,Education_College,Lighting_yes,Cooking_yes,662.5872340425532
228,228,sex_male,Size_6,age_36_45,Education_Post_Secondary,Lighting_yes,Cooking_yes,662.5872340425532
229,229,sex_female,Size_7,age_56_65,Education_High_School,Lighting_yes,Cooking_yes,662.5872340425532
230,230,sex_male,Size_3,age_36_45,Education_College,Lighting_yes,Cooking_yes,662.5872340425532
231,231,sex_male,Size_3,age_76_85,Education_Post_Graduate,Lighting_yes,Cooking_yes,662.5872340425532
232,232,sex_male,Size_1,age_56_65,Education_High_School,Lighting_yes,Cooking_yes,662.5872340425532
233,233,sex_male,Size_2,age_46_55,Education_College,Lighting_yes,Cooking_yes,662.5872340425532
234,234,sex_male,Size_2,age_46_55,Education_High_School,Lighting_yes,Cooking_yes,662.5872340425532
235,235,sex_male,Size_2,age_46_55,Education_Elementary_School,Lighting_yes,Cooking_yes,662.5872340425532
236,236,sex_male,Size_2,age_56_65,Education_Post_Secondary,Lighting_yes,Cooking_yes,662.5872340425532
237,237,sex_male,Size_2,age_56_65,Education_College,Lighting_yes,Cooking_yes,662.5872340425532
238,238,sex_female,Size_2,age_56_65,Education_College,Lighting_yes,Cooking_yes,662.5872340425532
239,239,sex_male,Size_2,age_66_75,Education_Elementary_School,Lighting_yes,Cooking_yes,662.5872340425532
240,240,sex_female,Size_2,age_36_45,Education_College,Lighting_yes,Cooking_yes,662.5872340425532
241,241,sex_female,Size_6,age_46_55,Education_College,Lighting_yes,Cooking_yes,662.5872340425532
242,242,sex_male,Size_1,age_36_45,Education_College,Lighting_yes,Cooking_yes,662.5872340425532
243,243,sex_male,Size_1,age_66_75,Education_Post_Secondary,Lighting_yes,Cooking_yes,662.5872340425532
244,244,sex_male,Size_4,age_26_35,Education_Post_Secondary,Lighting_yes,Cooking_yes,662.5872340425532
245,245,sex_female,Size_3,age_56_65,Education_High_School,Lighting_yes,Cooking_yes,662.5872340425532
246,246,sex_female,Size_1,age_46_55,Education_College,Lighting_yes,Cooking_yes,662.5872340425532
247,247,sex_male,Size_5,age_46_55,Education_College,Lighting_yes,Cooking_yes,662.5872340425532
248,248,sex_female,Size_3,age_36_45,Education_Post_Secondary,Lighting_yes,Cooking_yes,662.5872340425532
249,249,sex_male,Size_3,age_56_65,Education_Post_Secondary,Lighting_yes,Cooking_yes,662.5872340425532
250,250,sex_male,Size_4,age_36_45,Education_Post_Secondary,Lighting_yes,Cooking_yes,662.5872340425532
251,251,sex_male,Size_3,age_46_55,Education_Post_Secondary,Lighting_yes,Cooking_yes,662.5872340425532
252,252,sex_male,Size_3,age_46_55,Education_Post_Secondary,Lighting_yes,Cooking_yes,662.5872340425532
253,253,sex_male,Size_5,age_56_65,Education_Post_Secondary,Lighting_yes,Cooking_yes,662.5872340425532
254,254,sex_male,Size_1,age_26_35,Education_Post_Secondary,Lighting_yes,Cooking_yes,662.5872340425532
255,255,sex_male,Size_1,age_36_45,Education_Elementary_School,Lighting_yes,Cooking_yes,662.5872340425532
256,256,sex_female,Size_1,age_56_65,Education_Elementary_School,Lighting_yes,Cooking_yes,662.5872340425532
257,257,sex_male,Size_3,age_56_65,Education_Post_Secondary,Lighting_yes,Cooking_yes,662.5872340425532
258,258,sex_female,Size_3,age_46_55,Education_Post_Secondary,Lighting_yes,Cooking_yes,662.5872340425532
259,259,sex_female,Size_4,age_46_55,Education_Elementary_School,Lighting_yes,Cooking_yes,662.5872340425532
260,260,sex_female,Size_2,age_56_65,Education_Post_Secondary,Lighting_yes,Cooking_yes,662.5872340425532
261,261,sex_male,Size_1,age_56_65,Education_Elementary_School,Lighting_yes,Cooking_yes,662.5872340425532
262,262,sex_male,Size_1,age_56_65,Education_Post_Secondary,Lighting_yes,Cooking_yes,662.5872340425532
263,263,sex_male,Size_1,age_46_55,Education_High_School,Lighting_yes,Cooking_yes,662.5872340425532
264,264,sex_male,Size_4,age_36_45,Education_Elementary_School,Lighting_yes,Cooking_yes,662.5872340425532
265,265,sex_male,Size_4,age_36_45,Education_Post_Secondary,Lighting_yes,Cooking_yes,662.5872340425532
266,266,sex_female,Size_7,age_36_45,Education_College,Lighting_yes,Cooking_yes,662.5872340425532
267,267,sex_male,Size_6,age_36_45,Education_High_School,Lighting_yes,Cooking_yes,662.5872340425532
268,268,sex_male,Size_4,age_56_65,Education_Elementary_School,Lighting_yes,Cooking_yes,662.5872340425532
269,269,sex_female,Size_7,age_66_75,Education_College,Lighting_yes,Cooking_yes,662.5872340425532
270,270,sex_male,Size_6,age_56_65,Education_College,Lighting_yes,Cooking_yes,662.5872340425532
271,271,sex_male,Size_1,age_56_65,Education_College,Lighting_yes,Cooking_yes,662.5872340425532
272,272,sex_male,Size_1,age_46_55,Education_Elementary_School,Lighting_yes,Cooking_yes,662.5872340425532
273,273,sex_female,Size_3,age_56_65,Education_College,Lighting_yes,Cooking_yes,662.5872340425532
274,274,sex_male,Size_3,age_36_45,Education_College,Lighting_yes,Cooking_yes,662.5872340425532
275,275,sex_male,Size_6,age_56_65,Education_Post_Secondary,Lighting_yes,Cooking_yes,662.5872340425532
276,276,sex_male,Size_6,age_46_55,Education_Post_Secondary,Lighting_yes,Cooking_yes,662.5872340425532
277,277,sex_male,Size_3,age_46_55,Education_College,Lighting_yes,Cooking_yes,662.5872340425532
278,278,sex_male,Size_2,age_46_55,Education_Post_Secondary,Lighting_yes,Cooking_yes,662.5872340425532
279,279,sex_male,Size_2,age_46_55,Education_College,Lighting_yes,Cooking_yes,662.5872340425532
280,280,sex_male,Size_1,age_56_65,Education_High_School,Lighting_yes,Cooking_yes,662.5872340425532
281,281,sex_female,Size_5,age_36_45,Education_Post_Secondary,Lighting_yes,Cooking_yes,662.5872340425532
282,282,sex_female,Size_4,age_56_65,Education_Post_Graduate,Lighting_yes,Cooking_yes,662.5872340425532
283,283,sex_female,Size_6,age_46_55,Education_Elementary_School,Lighting_yes,Cooking_yes,662.5872340425532
284,284,sex_male,Size_6,age_36_45,Education_Post_Secondary,Lighting_yes,Cooking_yes,662.5872340425532
285,285,sex_male,Size_7,age_26_35,Education_Post_Secondary,Lighting_yes,Cooking_yes,662.5872340425532
286,286,sex_male,Size_7,age_36_45,Education_Post_Secondary,Lighting_yes,Cooking_yes,662.5872340425532
287,287,sex_female,Size_10,age_36_45,Education_Post_Secondary,Lighting_yes,Cooking_yes,662.5872340425532
288,288,sex_female,Size_10,age_36_45,Education_College,Lighting_yes,Cooking_yes,662.5872340425532
289,289,sex_female,Size_9,age_56_65,Education_Post_Secondary,Lighting_yes,Cooking_yes,662.5872340425532
290,290,sex_female,Size_10,age_46_55,Education_Post_Graduate,Lighting_yes,Cooking_yes,662.5872340425532
291,291,sex_male,Size_5,age_56_65,Education_Post_Secondary,Lighting_yes,Cooking_yes,662.5872340425532
292,292,sex_female,Size_7,age_56_65,Education_Post_Secondary,Lighting_yes,Cooking_yes,662.5872340425532
293,293,sex_male,Size_1,age_26_35,Education_Elementary_School,Lighting_yes,Cooking_yes,662.5872340425532
294,294,sex_female,Size_6,age_46_55,Education_Elementary_School,Lighting_yes,Cooking_yes,662.5872340425532
295,295,sex_male,Size_1,age_36_45,Education_College,Lighting_yes,Cooking_yes,662.5872340425532
296,296,sex_male,Size_4,age_26_35,Education_Post_Secondary,Lighting_yes,Cooking_yes,662.5872340425532
297,297,sex_male,Size_1,age_36_45,Education_College,Lighting_yes,Cooking_yes,662.5872340425532
298,298,sex_male,Size_1,age_56_65,Education_Post_Graduate,Lighting_yes,Cooking_yes,662.5872340425532
299,299,sex_female,Size_1,age_46_55,Education_College,Lighting_yes,Cooking_yes,662.5872340425532
300,300,sex_male,Size_2,age_36_45,Education_Post_Secondary,Lighting_yes,Cooking_yes,662.5872340425532
301,301,sex_male,Size_6,age_46_55,Education_Post_Secondary,Lighting_yes,Cooking_yes,662.5872340425532
302,302,sex_male,Size_4,age_56_65,Education_College,Lighting_yes,Cooking_yes,662.5872340425532
303,303,sex_male,Size_6,age_56_65,Education_High_School,Lighting_yes,Cooking_yes,662.5872340425532
304,304,sex_female,Size_3,age_36_45,Education_Post_Secondary,Lighting_yes,Cooking_yes,662.5872340425532
305,305,sex_female,Size_2,age_36_45,Education_Post_Secondary,Lighting_yes,Cooking_yes,662.5872340425532
306,306,sex_male,Size_2,age_46_55,Education_Elementary_School,Lighting_yes,Cooking_yes,662.5872340425532
307,307,sex_male,Size_2,age_46_55,Education_College,Lighting_yes,Cooking_yes,662.5872340425532
308,308,sex_male,Size_2,age_46_55,Education_College,Lighting_yes,Cooking_yes,662.5872340425532
309,309,sex_male,Size_3,age_36_45,Education_Post_Secondary,Lighting_yes,Cooking_yes,662.5872340425532
310,310,sex_male,Size_1,age_36_45,Education_High_School,Lighting_yes,Cooking_yes,662.5872340425532
311,311,sex_female,Size_2,age_36_45,Education_Elementary_School,Lighting_yes,Cooking_yes,662.5872340425532
312,312,sex_male,Size_4,age_36_45,Education_College,Lighting_yes,Cooking_yes,662.5872340425532
313,313,sex_male,Size_4,age_36_45,Education_College,Lighting_yes,Cooking_yes,662.5872340425532
314,314,sex_female,Size_3,age_46_55,Education_Elementary_School,Lighting_yes,Cooking_yes,662.5872340425532
315,315,sex_female,Size_5,age_56_65,Education_Post_Secondary,Lighting_yes,Cooking_yes,662.5872340425532
316,316,sex_male,Size_2,age_36_45,Education_College,Lighting_yes,Cooking_yes,662.5872340425532
317,317,sex_female,Size_2,age_36_45,Education_Post_Secondary,Lighting_yes,Cooking_yes,662.5872340425532
318,318,sex_female,Size_5,age_36_45,Education_Elementary_School,Lighting_yes,Cooking_yes,662.5872340425532
319,319,sex_male,Size_1,age_56_65,Education_College,Lighting_yes,Cooking_yes,662.5872340425532
320,320,sex_female,Size_4,age_46_55,Education_College,Lighting_yes,Cooking_yes,662.5872340425532
321,321,sex_male,Size_4,age_46_55,Education_College,Lighting_yes,Cooking_yes,662.5872340425532
322,322,sex_male,Size_5,age_46_55,Education_College,Lighting_yes,Cooking_yes,662.5872340425532
323,323,sex_female,Size_6,age_46_55,Education_Post_Secondary,Lighting_yes,Cooking_yes,662.5872340425532
324,324,sex_male,Size_2,age_46_55,Education_Post_Secondary,Lighting_yes,Cooking_yes,662.5872340425532
325,325,sex_female,Size_2,age_56_65,Education_College,Lighting_yes,Cooking_yes,662.5872340425532
326,326,sex_female,Size_4,age_46_55,Education_High_School,Lighting_yes,Cooking_yes,662.5872340425532
327,327,sex_male,Size_4,age_46_55,Education_Elementary_School,Lighting_yes,Cooking_yes,662.5872340425532
328,328,sex_male,Size_8,age_66_75,Education_Elementary_School,Lighting_yes,Cooking_yes,662.5872340425532
329,329,sex_male,Size_7,age_36_45,Education_College,Lighting_yes,Cooking_yes,662.5872340425532
330,330,sex_male,Size_7,age_46_55,Education_College,Lighting_yes,Cooking_yes,662.5872340425532
331,331,sex_male,Size_2,age_46_55,Education_Elementary_School,Lighting_yes,Cooking_yes,662.5872340425532
332,332,sex_male,Size_4,age_56_65,Education_College,Lighting_yes,Cooking_yes,662.5872340425532
333,333,sex_female,Size_4,age_56_65,Education_Post_Secondary,Lighting_yes,Cooking_yes,662.5872340425532
334,334,sex_male,Size_3,age_56_65,Education_Post_Graduate,Lighting_yes,Cooking_yes,662.5872340425532
335,335,sex_male,Size_3,age_26_35,Education_Post_Secondary,Lighting_yes,Cooking_yes,662.5872340425532
336,336,sex_male,Size_3,age_26_35,Education_High_School,Lighting_yes,Cooking_yes,662.5872340425532
337,337,sex_female,Size_1,age_26_35,Education_High_School,Lighting_yes,Cooking_yes,662.5872340425532
338,338,sex_female,Size_2,age_19_25,Education_Post_Secondary,Lighting_yes,Cooking_yes,662.5872340425532
339,339,sex_female,Size_2,age_66_75,Education_Elementary_School,Lighting_yes,Cooking_yes,662.5872340425532
340,340,sex_male,Size_3,age_66_75,Education_College,Lighting_yes,Cooking_yes,662.5872340425532
341,341,sex_male,Size_3,age_46_55,Education_Post_Secondary,Lighting_yes,Cooking_yes,662.5872340425532
342,342,sex_male,Size_3,age_56_65,Education_Post_Secondary,Lighting_yes,Cooking_yes,662.5872340425532
343,343,sex_male,Size_4,age_46_55,Education_Post_Secondary,Lighting_yes,Cooking_yes,662.5872340425532
344,344,sex_female,Size_4,age_46_55,Education_College,Lighting_yes,Cooking_yes,662.5872340425532
345,345,sex_female,Size_2,age_46_55,Education_College,Lighting_yes,Cooking_yes,662.5872340425532
346,346,sex_female,Size_2,age_46_55,Education_Elementary_School,Lighting_yes,Cooking_yes,662.5872340425532
347,347,sex_male,Size_4,age_46_55,Education_College,Lighting_yes,Cooking_yes,662.5872340425532
348,348,sex_male,Size_4,age_46_55,Education_Elementary_School,Lighting_yes,Cooking_yes,662.5872340425532
349,349,sex_male,Size_4,age_66_75,Education_Post_Secondary,Lighting_yes,Cooking_yes,662.5872340425532
350,350,sex_male,Size_1,age_56_65,Education_High_School,Lighting_yes,Cooking_yes,662.5872340425532
351,351,sex_female,Size_1,age_46_55,Education_Post_Secondary,Lighting_yes,Cooking_yes,662.5872340425532
352,352,sex_female,Size_4,age_46_55,Education_College,Lighting_yes,Cooking_yes,662.5872340425532
353,353,sex_male,Size_4,age_56_65,Education_Post_Secondary,Lighting_yes,Cooking_yes,662.5872340425532
354,354,sex_male,Size_4,age_36_45,Education_Elementary_School,Lighting_yes,Cooking_yes,662.5872340425532
355,355,sex_female,Size_1,age_46_55,Education_Elementary_School,Lighting_yes,Cooking_yes,662.5872340425532
356,356,sex_male,Size_3,age_66_75,Education_Post_Secondary,Lighting_yes,Cooking_yes,662.5872340425532
357,357,sex_female,Size_2,age_46_55,Education_Post_Secondary,Lighting_yes,Cooking_yes,662.5872340425532
358,358,sex_male,Size_3,age_56_65,Education_Post_Secondary,Lighting_yes,Cooking_yes,662.5872340425532
359,359,sex_male,Size_3,age_46_55,Education_High_School,Lighting_yes,Cooking_yes,662.5872340425532
360,360,sex_male,Size_2,age_46_55,Education_Post_Secondary,Lighting_yes,Cooking_yes,662.5872340425532
361,361,sex_male,Size_2,age_56_65,Education_Post_Secondary,Lighting_yes,Cooking_yes,662.5872340425532
362,362,sex_female,Size_3,age_46_55,Education_Post_Secondary,Lighting_yes,Cooking_yes,662.5872340425532
363,363,sex_male,Size_4,age_56_65,Education_Post_Secondary,Lighting_yes,Cooking_yes,662.5872340425532
364,364,sex_male,Size_3,age_46_55,Education_Post_Secondary,Lighting_yes,Cooking_yes,662.5872340425532
365,365,sex_male,Size_4,age_46_55,Education_College,Lighting_yes,Cooking_yes,662.5872340425532
366,366,sex_male,Size_4,age_56_65,Education_College,Lighting_yes,Cooking_yes,662.5872340425532
367,367,sex_male,Size_1,age_56_65,Education_College,Lighting_yes,Cooking_yes,662.5872340425532
368,368,sex_male,Size_1,age_36_45,Education_Post_Secondary,Lighting_yes,Cooking_yes,662.5872340425532
369,369,sex_male,Size_1,age_56_65,Education_Elementary_School,Lighting_yes,Cooking_yes,662.5872340425532
370,370,sex_male,Size_2,age_36_45,Education_High_School,Lighting_yes,Cooking_yes,662.5872340425532
371,371,sex_female,Size_2,age_56_65,Education_Elementary_School,Lighting_yes,Cooking_yes,662.5872340425532
372,372,sex_female,Size_3,age_46_55,Education_Post_Secondary,Lighting_yes,Cooking_yes,662.5872340425532
373,373,sex_male,Size_3,age_56_65,Education_Post_Secondary,Lighting_yes,Cooking_yes,662.5872340425532
374,374,sex_female,Size_5,age_56_65,Education_High_School,Lighting_yes,Cooking_yes,662.5872340425532
375,375,sex_male,Size_2,age_56_65,Education_High_School,Lighting_yes,Cooking_yes,662.5872340425532
376,376,sex_female,Size_3,age_36_45,Education_College,Lighting_yes,Cooking_yes,662.5872340425532
377,377,sex_male,Size_3,age_56_65,Education_College,Lighting_yes,Cooking_yes,662.5872340425532
378,378,sex_female,Size_3,age_36_45,Education_College,Lighting_yes,Cooking_yes,662.5872340425532
379,379,sex_female,Size_4,age_46_55,Education_College,Lighting_yes,Cooking_yes,662.5872340425532
380,380,sex_female,Size_3,age_56_65,Education_College,Lighting_yes,Cooking_yes,662.5872340425532
381,381,sex_male,Size_3,age_56_65,Education_High_School,Lighting_yes,Cooking_yes,662.5872340425532
382,382,sex_male,Size_3,age_46_55,Education_College,Lighting_yes,Cooking_yes,662.5872340425532
383,383,sex_female,Size_4,age_36_45,Education_Post_Secondary,Lighting_yes,Cooking_yes,662.5872340425532
384,384,sex_female,Size_3,age_26_35,Education_Elementary_School,Lighting_yes,Cooking_yes,662.5872340425532
385,385,sex_female,Size_1,age_56_65,Education_High_School,Lighting_yes,Cooking_yes,662.5872340425532
386,386,sex_male,Size_1,age_56_65,Education_College,Lighting_yes,Cooking_yes,662.5872340425532
387,387,sex_female,Size_4,age_56_65,Education_Post_Secondary,Lighting_yes,Cooking_yes,662.5872340425532
388,388,sex_female,Size_2,age_56_65,Education_College,Lighting_yes,Cooking_yes,662.5872340425532
389,389,sex_female,Size_6,age_46_55,Education_College,Lighting_yes,Cooking_yes,662.5872340425532
390,390,sex_male,Size_6,age_26_35,Education_College,Lighting_yes,Cooking_yes,662.5872340425532
391,391,sex_male,Size_5,age_26_35,Education_College,Lighting_yes,Cooking_yes,662.5872340425532
392,392,sex_male,Size_5,age_66_75,Education_College,Lighting_yes,Cooking_yes,662.5872340425532
393,393,sex_female,Size_2,age_26_35,Education_College,Lighting_yes,Cooking_yes,662.5872340425532
394,394,sex_male,Size_3,age_46_55,Education_Post_Secondary,Lighting_yes,Cooking_yes,662.5872340425532
395,395,sex_male,Size_5,age_56_65,Education_Post_Secondary,Lighting_yes,Cooking_yes,662.5872340425532
396,396,sex_female,Size_3,age_46_55,Education_Post_Secondary,Lighting_yes,Cooking_yes,662.5872340425532
397,397,sex_male,Size_2,age_46_55,Education_Post_Secondary,Lighting_yes,Cooking_yes,662.5872340425532
398,398,sex_male,Size_3,age_46_55,Education_Post_Secondary,Lighting_yes,Cooking_yes,662.5872340425532
399,399,sex_male,Size_2,age_46_55,Education_College,Lighting_yes,Cooking_yes,662.5872340425532
400,400,sex_male,Size_1,age_56_65,Education_High_School,Lighting_yes,Cooking_yes,662.5872340425532
401,401,sex_female,Size_3,age_56_65,Education_High_School,Lighting_yes,Cooking_yes,662.5872340425532
402,402,sex_male,Size_2,age_56_65,Education_Post_Secondary,Lighting_yes,Cooking_yes,662.5872340425532
403,403,sex_female,Size_3,age_46_55,Education_Post_Secondary,Lighting_yes,Cooking_yes,662.5872340425532
404,404,sex_male,Size_3,age_56_65,Education_Elementary_School,Lighting_yes,Cooking_yes,662.5872340425532
405,405,sex_female,Size_3,age_66_75,Education_College,Lighting_yes,Cooking_yes,662.5872340425532
406,406,sex_male,Size_3,age_76_85,Education_Post_Graduate,Lighting_yes,Cooking_yes,662.5872340425532
407,407,sex_female,Size_2,age_76_85,Education_College,Lighting_yes,Cooking_yes,662.5872340425532
408,408,sex_female,Size_4,age_56_65,Education_Post_Secondary,Lighting_yes,Cooking_yes,662.5872340425532
409,409,sex_male,Size_5,age_66_75,Education_Elementary_School,Lighting_yes,Cooking_yes,662.5872340425532
410,410,sex_male,Size_2,age_66_75,Education_Post_Secondary,Lighting_yes,Cooking_yes,662.5872340425532
411,411,sex_female,Size_4,age_46_55,Education_Elementary_School,Lighting_yes,Cooking_yes,662.5872340425532
412,412,sex_male,Size_2,age_46_55,Education_Post_Secondary,Lighting_yes,Cooking_yes,662.5872340425532
413,413,sex_female,Size_2,age_26_35,Education_Post_Secondary,Lighting_yes,Cooking_yes,662.5872340425532
414,414,sex_male,Size_2,age_26_35,Education_High_School,Lighting_yes,Cooking_yes,662.5872340425532
415,415,sex_male,Size_3,age_36_45,Education_Elementary_School,Lighting_yes,Cooking_yes,662.5872340425532
416,416,sex_female,Size_5,age_46_55,Education_College,Lighting_yes,Cooking_yes,662.5872340425532
417,417,sex_female,Size_3,age_66_75,Education_College,Lighting_yes,Cooking_yes,662.5872340425532
418,418,sex_male,Size_4,age_46_55,Education_College,Lighting_yes,Cooking_yes,662.5872340425532
419,419,sex_male,Size_4,age_56_65,Education_High_School,Lighting_yes,Cooking_yes,662.5872340425532
420,420,sex_male,Size_1,age_46_55,Education_College,Lighting_yes,Cooking_yes,662.5872340425532
421,421,sex_male,Size_3,age_36_45,Education_Elementary_School,Lighting_yes,Cooking_yes,662.5872340425532
422,422,sex_male,Size_3,age_36_45,Education_College,Lighting_yes,Cooking_yes,662.5872340425532
423,423,sex_male,Size_1,age_56_65,Education_Post_Graduate,Lighting_yes,Cooking_yes,662.5872340425532
424,424,sex_male,Size_4,age_46_55,Education_College,Lighting_yes,Cooking_yes,662.5872340425532
425,425,sex_male,Size_7,age_46_55,Education_College,Lighting_yes,Cooking_yes,662.5872340425532
426,426,sex_male,Size_7,age_56_65,Education_Post_Secondary,Lighting_yes,Cooking_yes,662.5872340425532
427,427,sex_male,Size_3,age_36_45,Education_Elementary_School,Lighting_yes,Cooking_yes,662.5872340425532
428,428,sex_female,Size_3,age_46_55,Education_College,Lighting_yes,Cooking_yes,662.5872340425532
429,429,sex_male,Size_3,age_56_65,Education_Elementary_School,Lighting_yes,Cooking_yes,662.5872340425532
430,430,sex_male,Size_5,age_36_45,Education_Post_Graduate,Lighting_yes,Cooking_yes,662.5872340425532
431,431,sex_male,Size_4,age_36_45,Education_Post_Secondary,Lighting_yes,Cooking_yes,662.5872340425532
432,432,sex_female,Size_2,age_36_45,Education_College,Lighting_yes,Cooking_yes,662.5872340425532
433,433,sex_male,Size_1,age_46_55,Education_Post_Secondary,Lighting_yes,Cooking_yes,662.5872340425532
434,434,sex_female,Size_4,age_56_65,Education_High_School,Lighting_yes,Cooking_yes,662.5872340425532
435,435,sex_female,Size_6,age_36_45,Education_Elementary_School,Lighting_yes,Cooking_yes,662.5872340425532
436,436,sex_male,Size_3,age_76_85,Education_Elementary_School,Lighting_yes,Cooking_yes,662.5872340425532
437,437,sex_male,Size_2,age_36_45,Education_College,Lighting_yes,Cooking_yes,662.5872340425532
438,438,sex_male,Size_3,age_46_55,Education_High_School,Lighting_yes,Cooking_yes,662.5872340425532
439,439,sex_male,Size_3,age_46_55,Education_College,Lighting_yes,Cooking_yes,662.5872340425532
440,440,sex_female,Size_3,age_46_55,Education_Post_Secondary,Lighting_yes,Cooking_yes,662.5872340425532
441,441,sex_male,Size_4,age_46_55,Education_High_School,Lighting_no,Cooking_yes,662.5872340425532
442,442,sex_male,Size_2,age_56_65,Education_College,Lighting_yes,Cooking_yes,662.5872340425532
443,443,sex_male,Size_6,age_46_55,Education_College,Lighting_yes,Cooking_yes,662.5872340425532
444,444,sex_male,Size_6,age_56_65,Education_College,Lighting_yes,Cooking_yes,662.5872340425532
445,445,sex_female,Size_5,age_46_55,Education_Post_Secondary,Lighting_yes,Cooking_no,662.5872340425532
446,446,sex_male,Size_2,age_46_55,Education_College,Lighting_yes,Cooking_yes,662.5872340425532
447,447,sex_male,Size_5,age_56_65,Education_College,Lighting_yes,Cooking_yes,662.5872340425532
448,448,sex_female,Size_5,age_46_55,Education_College,Lighting_yes,Cooking_yes,662.5872340425532
449,449,sex_female,Size_5,age_26_35,Education_College,Lighting_yes,Cooking_yes,662.5872340425532
450,450,sex_male,Size_5,age_56_65,Education_College,Lighting_yes,Cooking_yes,662.5872340425532
451,451,sex_male,Size_3,age_46_55,Education_College,Lighting_yes,Cooking_yes,662.5872340425532
452,452,sex_male,Size_3,age_36_45,Education_Post_Secondary,Lighting_yes,Cooking_yes,662.5872340425532
453,453,sex_female,Size_5,age_36_45,Education_Post_Secondary,Lighting_yes,Cooking_yes,662.5872340425532
454,454,sex_male,Size_5,age_46_55,Education_Post_Secondary,Lighting_yes,Cooking_yes,662.5872340425532
455,455,sex_male,Size_2,age_56_65,Education_Post_Secondary,Lighting_yes,Cooking_yes,662.5872340425532
456,456,sex_male,Size_2,age_46_55,Education_Post_Secondary,Lighting_yes,Cooking_yes,662.5872340425532
457,457,sex_male,Size_3,age_46_55,Education_High_School,Lighting_yes,Cooking_yes,662.5872340425532
458,458,sex_male,Size_1,age_46_55,Education_Post_Graduate,Lighting_yes,Cooking_yes,662.5872340425532
459,459,sex_female,Size_1,age_46_55,Education_Post_Secondary,Lighting_yes,Cooking_yes,662.5872340425532
460,460,sex_male,Size_1,age_46_55,Education_High_School,Lighting_yes,Cooking_yes,662.5872340425532
461,461,sex_male,Size_1,age_46_55,Education_Post_Secondary,Lighting_yes,Cooking_yes,662.5872340425532
462,462,sex_female,Size_5,age_46_55,Education_College,Lighting_yes,Cooking_yes,662.5872340425532
463,463,sex_male,Size_5,age_56_65,Education_Post_Secondary,Lighting_yes,Cooking_yes,662.5872340425532
464,464,sex_male,Size_4,age_26_35,Education_High_School,Lighting_yes,Cooking_yes,662.5872340425532
465,465,sex_female,Size_5,age_36_45,Education_High_School,Lighting_yes,Cooking_yes,662.5872340425532
466,466,sex_male,Size_4,age_66_75,Education_Post_Secondary,Lighting_yes,Cooking_yes,662.5872340425532
467,467,sex_male,Size_7,age_26_35,Education_Post_Secondary,Lighting_yes,Cooking_yes,662.5872340425532
468,468,sex_female,Size_4,age_36_45,Education_College,Lighting_yes,Cooking_yes,662.5872340425532
469,469,sex_male,Size_4,age_56_65,Education_High_School,Lighting_yes,Cooking_yes,662.5872340425532
