,real_index,i_Sex,i_FamilySize,i_Age,i_Education,e_Cooking,Income,Electricity,w,wf,sw
0,0.0,sex_male,Size_3,age_56_65,Education_Elementary_School,Cooking_yes,2812.956122528769,195.58935524100025,1,207.6739068563856,1.0
1,1.0,sex_male,Size_4,age_46_55,Education_Post_Secondary,Cooking_yes,6680.847474629481,146.18317903381597,1,95.77305132346541,21.0
2,2.0,sex_male,Size_3,age_46_55,Education_Post_Secondary,Cooking_yes,6443.440880636851,172.64156472662614,1,1052.9987535258151,21.0
5,5.0,sex_male,Size_5,age_46_55,Education_Elementary_School,Cooking_yes,3273.3213610104917,159.09879101743246,1,55.160462000761356,1.0
6,6.0,sex_male,Size_6,age_36_45,Education_Elementary_School,Cooking_yes,3432.9023840975688,164.06025563400053,1,208.09335917545224,1.0
7,7.0,sex_male,Size_6,age_46_55,Education_Post_Secondary,Cooking_yes,7439.300921282382,160.58007118559755,1,67.14643706018005,21.0
10,10.0,sex_male,Size_5,age_46_55,Education_Elementary_School,Cooking_yes,3358.650344312653,170.25457453306174,1,55.160462000761356,1.0
11,11.0,sex_female,Size_3,age_56_65,Education_Post_Secondary,Cooking_yes,6833.270229425025,205.0263022918305,1,326.331895970293,21.0
12,12.0,sex_male,Size_3,age_46_55,Education_High_School,Cooking_yes,3711.514603389656,159.6243869580116,1,1620.830045087093,1.0
13,13.0,sex_female,Size_2,age_46_55,Education_High_School,Cooking_yes,3534.9951534457373,152.48417788082216,1,1739.737248491598,1.0
14,14.0,sex_male,Size_5,age_36_45,Education_Elementary_School,Cooking_yes,3095.2854423039053,165.48915766825448,1,348.48362797909704,1.0
15,15.0,sex_male,Size_5,age_46_55,Education_High_School,Cooking_yes,4251.782889432977,181.84182036049305,1,272.3679974251014,1.0
16,16.0,sex_female,Size_7,age_36_45,Education_College,Cooking_yes,12580.025496783774,192.7820099669904,1,456.4404565015593,21.0
17,17.0,sex_female,Size_7,age_46_55,Education_High_School,Cooking_yes,4872.706150755094,194.79189978440482,1,472.8715429742181,1.0
18,18.0,sex_male,Size_9,age_36_45,Education_Post_Graduate,Cooking_no,14844.818111410845,134.54167496354142,1,146.74140987151515,51.0
19,19.0,sex_male,Size_3,age_56_65,Education_College,Cooking_yes,11807.625177788595,175.4539780561763,1,214.12718982973115,21.0
20,20.0,sex_male,Size_2,age_66_75,Education_High_School,Cooking_yes,3804.1648852879107,163.61581731891815,1,779.0254535683132,1.0
21,21.0,sex_male,Size_5,age_46_55,Education_Elementary_School,Cooking_yes,3362.6134678732265,184.9299262551284,1,53.160462000761356,1.0
22,22.0,sex_female,Size_5,age_46_55,Education_College,Cooking_yes,12352.708836204907,211.52603329586933,1,178.89549022495186,21.0
23,23.0,sex_male,Size_4,age_46_55,Education_College,Cooking_yes,11812.185560725735,210.6410563691317,1,43.850090433748576,21.0
24,24.0,sex_male,Size_2,age_36_45,Education_Post_Secondary,Cooking_yes,6192.905580541499,164.83677429799047,1,1209.9473776578106,21.0
26,26.0,sex_male,Size_7,age_36_45,Education_Post_Secondary,Cooking_yes,7540.522642079921,156.83266189101425,1,433.0816721404324,21.0
27,27.0,sex_female,Size_8,age_36_45,Education_Post_Secondary,Cooking_yes,7823.006601275548,161.2876269307019,1,531.6699765761094,21.0
28,28.0,sex_male,Size_3,age_56_65,Education_Elementary_School,Cooking_no,2828.745238112871,116.7477444544733,1,152.1740180880202,1.0
29,29.0,sex_male,Size_4,age_46_55,Education_Post_Secondary,Cooking_yes,6836.2233469243565,169.30510162842478,1,98.77305132346541,21.0
30,30.0,sex_female,Size_6,age_46_55,Education_High_School,Cooking_no,4741.23276508017,100.86351961338389,1,190.75958510393747,1.0
31,31.0,sex_male,Size_3,age_56_65,Education_Elementary_School,Cooking_yes,2888.6254678175733,142.1360711428587,1,209.6739068563856,1.0
32,32.0,sex_male,Size_6,age_46_55,Education_Post_Graduate,Cooking_no,14261.060583621529,125.8326039699098,1,17.736130682546516,51.0
34,34.0,sex_female,Size_2,age_46_55,Education_Post_Graduate,Cooking_no,13359.99700395934,142.9086643401726,1,584.4956505526864,51.0
35,35.0,sex_female,Size_2,age_56_65,Education_College,Cooking_yes,11714.472653115168,154.57965279961633,1,304.0343932342363,21.0
36,36.0,sex_male,Size_3,age_56_65,Education_Post_Secondary,Cooking_yes,6797.69677584412,160.72146998789395,1,267.05015071944916,21.0
37,37.0,sex_male,Size_3,age_66_75,Education_High_School,Cooking_yes,4028.495548035763,184.17221957577286,1,790.3999954146527,1.0
39,39.0,sex_female,Size_4,age_36_45,Education_College,Cooking_no,11807.34853631753,120.37807957980637,1,272.95511289456397,21.0
40,40.0,sex_female,Size_4,age_26_35,Education_Elementary_School,Cooking_yes,2737.480570806724,167.19533607805303,1,103.78032678394436,1.0
41,41.0,sex_female,Size_5,age_46_55,Education_Elementary_School,Cooking_no,3263.3874796742853,139.54066741257662,1,116.94231848324104,1.0
42,42.0,sex_female,Size_4,age_46_55,Education_Post_Secondary,Cooking_yes,6772.712982843905,166.98978812586202,1,160.0547965743105,21.0
43,43.0,sex_female,Size_4,age_36_45,Education_Post_Secondary,Cooking_yes,6964.009136161433,193.61897208900558,1,324.3779625526462,21.0
44,44.0,sex_female,Size_3,age_56_65,Education_College,Cooking_yes,12004.095248923912,188.6675337967426,1,303.4089350805761,21.0
45,45.0,sex_male,Size_3,age_26_35,Education_High_School,Cooking_yes,3412.151839863429,120.83503022706614,1,1664.93181915979,1.0
46,46.0,sex_male,Size_4,age_26_35,Education_Post_Secondary,Cooking_no,6537.835563040771,105.83444000196188,1,83.37493662779859,21.0
47,47.0,sex_male,Size_5,age_36_45,Education_Post_Secondary,Cooking_yes,6948.106898161074,195.49846236889613,1,352.8598718421606,21.0
49,49.0,sex_male,Size_4,age_46_55,Education_College,Cooking_yes,11833.625747460575,189.901925435744,1,45.850090433748576,21.0
51,51.0,sex_male,Size_6,age_36_45,Education_College,Cooking_yes,12268.855234368591,177.13021857863131,1,223.5466421487978,21.0
53,53.0,sex_male,Size_2,age_56_65,Education_Post_Graduate,Cooking_yes,13239.055783330712,183.45125966013043,1,140.7651912638388,51.0
54,54.0,sex_male,Size_3,age_36_45,Education_Elementary_School,Cooking_yes,2700.8326729989717,171.25060036422144,1,1701.945675641087,1.0
55,55.0,sex_male,Size_2,age_56_65,Education_Post_Secondary,Cooking_yes,6464.733458208032,166.76023076174312,1,270.6756088731082,21.0
56,56.0,sex_male,Size_5,age_46_55,Education_Post_Secondary,Cooking_yes,7075.31887109548,158.60414825899338,1,147.53670586382492,21.0
57,57.0,sex_male,Size_6,age_46_55,Education_College,Cooking_yes,12431.151177011592,177.2684028903588,1,17.2234761704632,21.0
58,58.0,sex_male,Size_7,age_46_55,Education_High_School,Cooking_yes,4858.526585639439,213.02288869832168,1,354.5897977233743,1.0
59,59.0,sex_male,Size_4,age_46_55,Education_College,Cooking_yes,11827.839835405171,170.89821183746525,1,40.850090433748576,21.0
60,60.0,sex_male,Size_4,age_46_55,Education_Post_Secondary,Cooking_no,6775.613380143154,117.0505348357487,1,56.27316255510122,21.0
62,62.0,sex_male,Size_3,age_46_55,Education_High_School,Cooking_yes,3566.0515906266087,149.0193333442887,1,1628.830045087093,1.0
66,66.0,sex_male,Size_7,age_46_55,Education_College,Cooking_yes,12712.561651060076,221.7850929989317,1,180.8355452723797,21.0
67,67.0,sex_male,Size_5,age_36_45,Education_College,Cooking_no,11935.540887809831,181.47217847884582,1,270.4370221840783,21.0
70,70.0,sex_male,Size_5,age_46_55,Education_College,Cooking_yes,12215.39308532363,191.10324473158101,1,104.61374497410685,21.0
71,71.0,sex_male,Size_4,age_46_55,Education_College,Cooking_yes,11835.470065250349,177.1479296180124,1,43.850090433748576,21.0
72,72.0,sex_male,Size_3,age_46_55,Education_Post_Secondary,Cooking_no,6457.208286426461,141.0204477380616,1,1004.498864757451,21.0
76,76.0,sex_male,Size_8,age_36_45,Education_College,Cooking_yes,12681.422500909706,204.44985058706143,1,393.46527043554636,21.0
80,80.0,sex_male,Size_6,age_36_45,Education_Post_Secondary,Cooking_yes,7202.212872444573,174.8637713982269,1,261.4696030385157,21.0
81,81.0,sex_male,Size_4,age_46_55,Education_High_School,Cooking_no,3993.6179771684456,115.10882919895674,1,104.10445411637774,1.0
84,84.0,sex_female,Size_3,age_46_55,Education_College,Cooking_yes,11763.851384076985,181.48888702549687,1,1088.3575378869434,21.0
85,85.0,sex_male,Size_6,age_46_55,Education_College,Cooking_yes,12474.322447791712,129.50664654441928,1,19.2234761704632,21.0
86,86.0,sex_male,Size_6,age_46_55,Education_Post_Secondary,Cooking_yes,7326.42819068783,212.77435776084943,1,69.14643706018005,21.0
87,87.0,sex_male,Size_5,age_36_45,Education_Post_Secondary,Cooking_yes,6931.853219000781,159.83744654922242,1,357.8598718421606,21.0
91,91.0,sex_male,Size_6,age_46_55,Education_College,Cooking_yes,12393.69282386007,191.72922873315758,1,16.2234761704632,21.0
92,92.0,sex_male,Size_5,age_46_55,Education_Post_Secondary,Cooking_no,6996.935183014576,149.58120900222715,1,112.03681709546069,21.0
93,93.0,sex_male,Size_2,age_46_55,Education_College,Cooking_yes,11492.997398816291,208.740811043892,1,998.7012507897582,21.0
94,94.0,sex_male,Size_2,age_46_55,Education_Elementary_School,Cooking_yes,2368.839203664856,160.55937821757774,1,1412.2479678164113,1.0
95,95.0,sex_male,Size_10,age_56_65,Education_College,Cooking_yes,13733.620786447244,167.69462398073946,1,2769.240710086219,21.0
97,97.0,sex_male,Size_6,age_36_45,Education_College,Cooking_yes,12215.584155423614,192.15315292502154,1,208.5466421487978,21.0
98,98.0,sex_male,Size_6,age_46_55,Education_Post_Secondary,Cooking_yes,7364.3664071420435,165.39733630249953,1,67.14643706018005,21.0
99,99.0,sex_male,Size_4,age_46_55,Education_Post_Graduate,Cooking_yes,13657.684451165198,181.9518479352739,1,50.86263371419608,51.0
100,100.0,sex_male,Size_4,age_26_35,Education_Post_Secondary,Cooking_yes,6514.036685209959,190.10315546845771,1,102.8748253961628,21.0
101,101.0,sex_male,Size_4,age_46_55,Education_Post_Secondary,Cooking_yes,6865.1161902032545,185.3966021494951,1,93.77305132346541,21.0
103,103.0,sex_male,Size_3,age_56_65,Education_Post_Secondary,Cooking_yes,6660.308757147824,138.03098122874584,1,264.05015071944916,21.0
104,104.0,sex_male,Size_3,age_26_35,Education_High_School,Cooking_yes,3403.002224737032,171.69488171844142,1,1653.93181915979,1.0
105,105.0,sex_female,Size_3,age_46_55,Education_Post_Secondary,Cooking_yes,6733.420339183469,176.04375911727325,1,1099.28049877666,21.0
106,106.0,sex_female,Size_3,age_36_45,Education_Post_Secondary,Cooking_yes,6483.1790523511645,188.85453053167296,1,1296.6036647549954,21.0
108,108.0,sex_male,Size_3,age_46_55,Education_Post_Secondary,Cooking_yes,6593.2802499884765,149.30778678454615,1,1013.9987535258151,21.0
109,109.0,sex_female,Size_4,age_36_45,Education_High_School,Cooking_yes,4007.56172999464,194.5395550448376,1,573.2092541139227,1.0
110,110.0,sex_male,Size_3,age_36_45,Education_Post_Secondary,Cooking_yes,6478.913417380642,182.4421131612043,1,1225.3219195041504,21.0
111,111.0,sex_female,Size_3,age_46_55,Education_Post_Secondary,Cooking_yes,6732.242072574274,185.88843283767795,1,1138.28049877666,21.0
112,112.0,sex_male,Size_3,age_56_65,Education_High_School,Cooking_yes,3930.296937655162,171.17580770272585,1,424.8814422807257,1.0
113,113.0,sex_male,Size_3,age_26_35,Education_College,Cooking_yes,11334.021753053074,189.8786493159,1,1054.1775667087954,21.0
114,114.0,sex_female,Size_3,age_26_35,Education_Post_Secondary,Cooking_yes,6389.528652725943,199.96542839777808,1,1197.3822728493578,21.0
115,115.0,sex_male,Size_3,age_26_35,Education_Elementary_School,Cooking_yes,2382.201446631082,156.4855405051029,1,1445.7242837354502,1.0
116,116.0,sex_female,Size_3,age_46_55,Education_College,Cooking_yes,11782.882596333546,203.17990492361218,1,1076.3575378869434,21.0
117,117.0,sex_male,Size_5,age_26_35,Education_Elementary_School,Cooking_yes,2958.381946793973,194.5066182242505,1,91.26223607345871,1.0
120,120.0,sex_male,Size_8,age_36_45,Education_College,Cooking_yes,12783.585927520005,168.68367363123141,1,385.46527043554636,21.0
121,121.0,sex_male,Size_2,age_56_65,Education_Elementary_School,Cooking_yes,2612.4632524983317,170.62327156053527,1,201.29936501004457,1.0
122,122.0,sex_male,Size_3,age_46_55,Education_College,Cooking_yes,11629.72771507163,178.7235347396909,1,1002.075792636098,21.0
123,123.0,sex_female,Size_4,age_36_45,Education_High_School,Cooking_yes,3908.5976956374825,163.09381965882508,1,579.2092541139227,1.0
124,124.0,sex_male,Size_4,age_46_55,Education_High_School,Cooking_yes,3930.2489643701488,171.680232184063,1,158.60434288474315,1.0
125,125.0,sex_male,Size_4,age_46_55,Education_Post_Secondary,Cooking_no,6774.107363178719,148.4405218154104,1,47.27316255510122,21.0
126,126.0,sex_female,Size_6,age_46_55,Education_Post_Secondary,Cooking_yes,7487.095972667529,161.17678025462905,1,138.42818231102515,21.0
127,127.0,sex_female,Size_5,age_36_45,Education_Elementary_School,Cooking_yes,3273.027844739333,156.8065027756663,1,466.76537322994096,1.0
128,128.0,sex_male,Size_5,age_26_35,Education_Elementary_School,Cooking_no,2942.347386889599,118.19624152857573,1,34.76234730509451,1.0
130,130.0,sex_male,Size_3,age_46_55,Education_Elementary_School,Cooking_yes,2637.7347053592384,128.63571187618192,1,1413.6225096627516,1.0
131,131.0,sex_male,Size_2,age_46_55,Education_Elementary_School,Cooking_yes,2645.822498651804,210.00003393835502,1,1396.2479678164113,1.0
132,132.0,sex_male,Size_3,age_26_35,Education_High_School,Cooking_yes,3351.5548586451,121.78949029456446,1,1667.93181915979,1.0
133,133.0,sex_male,Size_2,age_36_45,Education_Post_Secondary,Cooking_yes,5960.513634050558,149.184106291125,1,1309.9473776578106,21.0
134,134.0,sex_female,Size_7,age_46_55,Education_Post_Secondary,Cooking_yes,7867.501166820256,209.30161863431252,1,294.04025141294164,21.0
135,135.0,sex_male,Size_4,age_46_55,Education_College,Cooking_yes,11882.354215474172,206.8088245912361,1,41.850090433748576,21.0
136,136.0,sex_male,Size_5,age_46_55,Education_College,Cooking_yes,12185.814610067768,175.73919105801468,1,119.61374497410685,21.0
137,137.0,sex_male,Size_5,age_46_55,Education_Post_Secondary,Cooking_yes,7084.952401104671,186.74358959482387,1,153.53670586382492,21.0
138,138.0,sex_male,Size_4,age_36_45,Education_Post_Secondary,Cooking_yes,6613.493616573888,216.04006316215725,1,271.0962173018012,21.0
139,139.0,sex_female,Size_3,age_36_45,Education_Post_Graduate,Cooking_yes,13456.748694101687,218.33163628463777,1,728.6932471457267,51.0
140,140.0,sex_male,Size_3,age_36_45,Education_High_School,Cooking_yes,3602.8653084552643,200.89157427567872,1,1921.153211065428,1.0
142,142.0,sex_male,Size_5,age_46_55,Education_Post_Secondary,Cooking_yes,6944.7218469135305,167.63782328891568,1,167.53670586382492,21.0
145,145.0,sex_male,Size_2,age_26_35,Education_Post_Secondary,Cooking_yes,5969.668300210096,183.8981966758529,1,1091.7259857521735,21.0
146,146.0,sex_male,Size_3,age_36_45,Education_College,Cooking_yes,11502.165016263833,225.12444582062275,1,1210.398958614434,21.0
147,147.0,sex_female,Size_5,age_36_45,Education_College,Cooking_no,12045.465686900134,123.12233737849968,1,347.7187674349234,21.0
148,148.0,sex_female,Size_3,age_56_65,Education_College,Cooking_yes,11850.08652904839,218.7358265244857,1,301.4089350805761,21.0
149,149.0,sex_female,Size_3,age_56_65,Education_College,Cooking_yes,11852.168305672705,219.04191273109868,1,326.4089350805761,21.0
150,150.0,sex_male,Size_3,age_46_55,Education_Post_Secondary,Cooking_yes,6539.195323621204,229.36450758644744,1,1024.9987535258151,21.0
151,151.0,sex_male,Size_5,age_46_55,Education_Post_Secondary,Cooking_yes,7135.376550199961,168.26735729205072,1,137.53670586382492,21.0
152,152.0,sex_male,Size_5,age_36_45,Education_College,Cooking_yes,12029.686488430241,133.987057738026,1,318.93691095244264,21.0
153,153.0,sex_male,Size_5,age_36_45,Education_Elementary_School,Cooking_yes,3100.53248662841,141.1135449483355,1,349.48362797909704,1.0
154,154.0,sex_male,Size_4,age_36_45,Education_College,Cooking_yes,11796.441782554417,239.09777763856968,1,226.1732564120831,21.0
156,156.0,sex_male,Size_5,age_46_55,Education_Elementary_School,Cooking_yes,3323.518447310949,166.81512475390494,1,51.160462000761356,1.0
157,157.0,sex_female,Size_4,age_46_55,Education_College,Cooking_yes,12028.676611649267,159.06594433556313,1,135.1318356845925,21.0
158,158.0,sex_female,Size_4,age_36_45,Education_Post_Graduate,Cooking_no,13599.845527345977,111.26427531456044,1,166.9676561750116,51.0
161,161.0,sex_male,Size_3,age_46_55,Education_College,Cooking_yes,11673.438091051854,219.34596452797612,1,999.075792636098,21.0
162,162.0,sex_male,Size_3,age_36_45,Education_Post_Secondary,Cooking_no,6273.216340110892,95.10923819342104,1,1209.8220307357865,21.0
163,163.0,sex_male,Size_3,age_56_65,Education_Post_Secondary,Cooking_no,6609.26931403662,115.02560438578988,1,217.55026195108366,21.0
164,164.0,sex_male,Size_5,age_46_55,Education_College,Cooking_yes,12257.425027300142,200.1113344556566,1,115.61374497410685,21.0
165,165.0,sex_female,Size_3,age_46_55,Education_Post_Graduate,Cooking_yes,13658.129693133877,185.68455276481842,1,656.3700811673907,51.0
166,166.0,sex_male,Size_3,age_56_65,Education_College,Cooking_yes,11850.754430321973,180.46337433895846,1,203.12718982973115,21.0
167,167.0,sex_male,Size_2,age_36_45,Education_High_School,Cooking_yes,3289.052832663728,185.1005663873069,1,1903.7786692190882,1.0
168,168.0,sex_male,Size_3,age_46_55,Education_Elementary_School,Cooking_yes,2712.173993140021,157.82977217759966,1,1403.6225096627516,1.0
169,169.0,sex_female,Size_3,age_36_45,Education_Post_Graduate,Cooking_yes,13424.56799598292,165.47752354901888,1,722.6932471457267,51.0
171,171.0,sex_female,Size_3,age_46_55,Education_Post_Secondary,Cooking_no,6630.4321007200315,115.3688153422571,1,1123.780610008296,21.0
172,172.0,sex_male,Size_3,age_46_55,Education_College,Cooking_yes,11644.313119443896,172.88714194210425,1,997.075792636098,21.0
173,173.0,sex_female,Size_4,age_46_55,Education_Post_Secondary,Cooking_yes,6945.354530243898,171.52565565156206,1,170.0547965743105,21.0
174,174.0,sex_female,Size_4,age_36_45,Education_High_School,Cooking_yes,3891.1301071695775,167.4417431301963,1,574.2092541139227,1.0
176,176.0,sex_female,Size_2,age_36_45,Education_College,Cooking_yes,11403.621126439792,179.57132528555934,1,1306.3061620189385,21.0
177,177.0,sex_male,Size_2,age_46_55,Education_Post_Secondary,Cooking_yes,6206.947356752617,156.71336733939316,1,1059.6242116794767,21.0
178,178.0,sex_male,Size_2,age_36_45,Education_High_School,Cooking_yes,3418.0395073178497,196.7776592216328,1,1914.7786692190882,1.0
179,179.0,sex_male,Size_4,age_46_55,Education_College,Cooking_yes,11936.03832523286,184.20158107397708,1,38.850090433748576,21.0
180,180.0,sex_female,Size_2,age_46_55,Education_College,Cooking_yes,11601.49300294872,183.29593143946892,1,1095.9829960406034,21.0
181,181.0,sex_female,Size_2,age_56_65,Education_College,Cooking_yes,11726.202223088832,212.18991944451744,1,290.0343932342363,21.0
182,182.0,sex_male,Size_3,age_46_55,Education_College,Cooking_yes,11686.906046794908,205.77510212212934,1,1016.075792636098,21.0
183,183.0,sex_male,Size_3,age_46_55,Education_Post_Secondary,Cooking_yes,6516.7597660810925,201.8283406106097,1,1044.9987535258151,21.0
186,186.0,sex_male,Size_4,age_46_55,Education_Post_Graduate,Cooking_no,13592.394263564174,143.53464102026717,1,42.36274494583188,51.0
187,187.0,sex_female,Size_3,age_46_55,Education_Post_Secondary,Cooking_yes,6727.811341891439,170.38198101030727,1,1131.28049877666,21.0
188,188.0,sex_male,Size_3,age_56_65,Education_Elementary_School,Cooking_yes,2894.1405797365996,170.23905935037158,1,209.6739068563856,1.0
189,189.0,sex_female,Size_4,age_26_35,Education_High_School,Cooking_yes,3735.529677344749,192.67192260368688,1,312.98786220828566,1.0
190,190.0,sex_male,Size_4,age_36_45,Education_High_School,Cooking_yes,3828.3150223336493,142.65968089710097,1,455.9275088630777,1.0
191,191.0,sex_male,Size_5,age_46_55,Education_Post_Secondary,Cooking_yes,7084.484969529954,149.14272619810654,1,156.53670586382492,21.0
193,193.0,sex_male,Size_3,age_56_65,Education_College,Cooking_yes,11778.858934643942,147.6449815919875,1,196.12718982973115,21.0
194,194.0,sex_female,Size_3,age_56_65,Education_College,Cooking_yes,11927.238021004106,162.73077932221474,1,310.4089350805761,21.0
195,195.0,sex_female,Size_3,age_46_55,Education_College,Cooking_yes,11810.226440993574,154.20115404190915,1,1124.3575378869434,21.0
196,196.0,sex_male,Size_7,age_46_55,Education_Post_Secondary,Cooking_no,7544.0071109086475,192.61668298312316,1,188.25861739373244,21.0
198,198.0,sex_male,Size_4,age_46_55,Education_Post_Secondary,Cooking_no,6813.1278805154725,175.39558637188333,1,46.27316255510122,21.0
199,199.0,sex_female,Size_4,age_46_55,Education_College,Cooking_yes,12087.795242109629,222.0853428070519,1,120.13183568459249,21.0
200,200.0,sex_female,Size_3,age_46_55,Education_College,Cooking_yes,11696.310874333252,213.87557217242698,1,1067.3575378869434,21.0
201,201.0,sex_male,Size_3,age_46_55,Education_Post_Secondary,Cooking_no,6635.592423634373,187.2237641939958,1,983.498864757451,21.0
202,202.0,sex_male,Size_3,age_46_55,Education_College,Cooking_yes,11635.270804748943,180.4339338625923,1,982.075792636098,21.0
203,203.0,sex_male,Size_4,age_36_45,Education_College,Cooking_yes,11809.832484488496,194.48539986598976,1,235.1732564120831,21.0
204,204.0,sex_male,Size_4,age_26_35,Education_College,Cooking_yes,11436.589503468716,222.9185905457848,1,76.95186450644593,21.0
205,205.0,sex_male,Size_4,age_36_45,Education_Post_Secondary,Cooking_yes,6489.3028806458215,170.4800816480729,1,269.0962173018012,21.0
206,206.0,sex_male,Size_6,age_46_55,Education_Post_Secondary,Cooking_yes,7299.9778764851335,128.47326053749777,1,68.14643706018005,21.0
209,209.0,sex_male,Size_4,age_26_35,Education_College,Cooking_yes,11529.570307440019,176.04634919749566,1,69.95186450644593,21.0
210,210.0,sex_female,Size_5,age_26_35,Education_Post_Graduate,Cooking_yes,13715.01545925319,162.27913603459817,1,153.009807578098,51.0
211,211.0,sex_male,Size_8,age_46_55,Education_College,Cooking_yes,12931.097715405058,159.53905037378848,1,193.14210445721199,21.0
213,213.0,sex_male,Size_4,age_46_55,Education_College,Cooking_yes,11866.528476329131,219.57391799378868,1,41.850090433748576,21.0
214,214.0,sex_male,Size_4,age_36_45,Education_College,Cooking_yes,11845.04370760632,198.82035253864345,1,240.1732564120831,21.0
215,215.0,sex_male,Size_4,age_46_55,Education_Post_Secondary,Cooking_yes,6880.499707972549,156.70570701753005,1,86.77305132346541,21.0
216,216.0,sex_male,Size_4,age_46_55,Education_College,Cooking_yes,11980.858139987422,185.5064417583447,1,40.850090433748576,21.0
217,217.0,sex_male,Size_2,age_36_45,Education_Elementary_School,Cooking_yes,2371.496948148543,161.22425498677964,1,1710.5711337947473,1.0
218,218.0,sex_male,Size_8,age_36_45,Education_Post_Secondary,Cooking_yes,7706.4270450663635,163.31840963192116,1,447.3882313252643,21.0
220,220.0,sex_male,Size_2,age_46_55,Education_Elementary_School,Cooking_yes,2568.527344339572,117.62157940431268,1,1406.2479678164113,1.0
221,221.0,sex_female,Size_3,age_46_55,Education_Post_Secondary,Cooking_no,6641.750076214373,115.35537636321214,1,1084.780610008296,21.0
222,222.0,sex_female,Size_4,age_46_55,Education_Post_Secondary,Cooking_yes,7052.573246656506,160.20927768549598,1,189.0547965743105,21.0
229,229.0,sex_female,Size_6,age_46_55,Education_Post_Secondary,Cooking_yes,7477.849044223853,194.51853964170658,1,138.42818231102515,21.0
230,230.0,sex_male,Size_5,age_36_45,Education_College,Cooking_yes,11969.701686475648,168.70507665103284,1,293.93691095244264,21.0
231,231.0,sex_male,Size_3,age_26_35,Education_College,Cooking_no,11365.620314045322,150.86323383249294,1,999.6776779404308,21.0
232,232.0,sex_female,Size_3,age_36_45,Education_Elementary_School,Cooking_yes,2674.3731041244005,206.9526881947776,1,1818.227420891932,1.0
233,233.0,sex_male,Size_7,age_26_35,Education_Post_Graduate,Cooking_yes,13981.203106006755,207.00552083715385,1,151.9498626255246,51.0
234,234.0,sex_male,Size_6,age_46_55,Education_College,Cooking_yes,12403.053887681292,131.19174849853832,1,18.2234761704632,21.0
235,235.0,sex_male,Size_6,age_36_45,Education_Elementary_School,Cooking_yes,3391.838648431598,129.0375062168921,1,204.09335917545224,1.0
236,236.0,sex_male,Size_4,age_46_55,Education_Post_Graduate,Cooking_yes,13690.9699027048,170.8723739032266,1,51.86263371419608,51.0
238,238.0,sex_male,Size_4,age_36_45,Education_College,Cooking_yes,11563.884067017518,213.2357415676813,1,246.1732564120831,21.0
240,240.0,sex_male,Size_6,age_36_45,Education_Post_Secondary,Cooking_no,7153.770823325797,124.43548600655345,1,220.9697142701516,21.0
242,242.0,sex_male,Size_5,age_46_55,Education_Post_Secondary,Cooking_yes,6959.119823380651,180.3209506380755,1,156.53670586382492,21.0
243,243.0,sex_male,Size_7,age_46_55,Education_Post_Graduate,Cooking_yes,14395.260972007141,165.91611896018125,1,115.84808855282722,51.0
244,244.0,sex_female,Size_6,age_36_45,Education_College,Cooking_yes,12416.638131116533,192.56437458131862,1,299.82838739964285,21.0
246,246.0,sex_male,Size_6,age_46_55,Education_Post_Secondary,Cooking_yes,7399.3304371645145,208.61820815663222,1,67.14643706018005,21.0
247,247.0,sex_female,Size_5,age_26_35,Education_College,Cooking_yes,11902.957523689092,145.46780904386247,1,213.99726429764928,21.0
248,248.0,sex_male,Size_7,age_36_45,Education_College,Cooking_no,12520.468219815664,165.94803482658511,1,331.65882248235,21.0
249,249.0,sex_female,Size_7,age_36_45,Education_College,Cooking_yes,12606.286189459275,155.16193174545722,1,459.4404565015593,21.0
250,250.0,sex_male,Size_4,age_46_55,Education_College,Cooking_yes,11874.300703117451,161.4867427518191,1,39.850090433748576,21.0
251,251.0,sex_male,Size_2,age_36_45,Education_College,Cooking_yes,11231.084121479162,194.873880337868,1,1215.0244167680935,21.0
252,252.0,sex_male,Size_2,age_46_55,Education_Post_Secondary,Cooking_yes,6360.5463448602795,164.1079808001403,1,1049.6242116794767,21.0
253,253.0,sex_male,Size_3,age_46_55,Education_Post_Secondary,Cooking_no,6623.2288037386525,131.8804607000258,1,999.498864757451,21.0
254,254.0,sex_male,Size_3,age_36_45,Education_Post_Secondary,Cooking_yes,6405.309771839802,154.1526452535716,1,1234.3219195041504,21.0
255,255.0,sex_male,Size_2,age_46_55,Education_College,Cooking_yes,11432.49002414439,189.53901727785657,1,1026.7012507897582,21.0
256,256.0,sex_male,Size_2,age_56_65,Education_Elementary_School,Cooking_yes,2644.640595783991,153.20018210859024,1,203.29936501004457,1.0
257,257.0,sex_male,Size_2,age_66_75,Education_Elementary_School,Cooking_yes,2821.7581583938286,158.58748019030838,1,570.8179181439718,1.0
258,258.0,sex_female,Size_2,age_36_45,Education_Elementary_School,Cooking_yes,2445.1995204406353,167.19411356442725,1,1816.8528790455925,1.0
259,259.0,sex_male,Size_4,age_46_55,Education_Post_Graduate,Cooking_yes,13604.838409508846,130.72362971378158,1,50.86263371419608,51.0
260,260.0,sex_male,Size_4,age_36_45,Education_College,Cooking_yes,11714.174025978084,158.70751963490162,1,235.1732564120831,21.0
262,262.0,sex_male,Size_5,age_36_45,Education_Post_Secondary,Cooking_yes,6990.320010566839,184.63596617252568,1,393.8598718421606,21.0
263,263.0,sex_male,Size_5,age_46_55,Education_Elementary_School,Cooking_yes,3321.212817120976,181.46345470427462,1,54.160462000761356,1.0
264,264.0,sex_female,Size_3,age_46_55,Education_College,Cooking_no,11785.856001102802,125.86882588460342,1,1036.8576491185777,21.0
265,265.0,sex_male,Size_2,age_66_75,Education_College,Cooking_no,11630.071972532687,115.62826542609864,1,426.7713123489542,21.0
266,266.0,sex_male,Size_2,age_56_65,Education_High_School,Cooking_yes,3699.04879775202,142.16510005992473,1,419.5069004343858,1.0
267,267.0,sex_male,Size_2,age_56_65,Education_Post_Secondary,Cooking_yes,6456.900588499799,201.47174886176487,1,248.67560887310822,21.0
268,268.0,sex_male,Size_2,age_56_65,Education_Post_Secondary,Cooking_yes,6503.122398326762,187.4968839118267,1,258.6756088731082,21.0
269,269.0,sex_male,Size_4,age_36_45,Education_College,Cooking_yes,11749.214375384397,159.97201209668194,1,233.1732564120831,21.0
270,270.0,sex_male,Size_4,age_46_55,Education_College,Cooking_yes,11850.09341780502,168.72035889980262,1,42.850090433748576,21.0
271,271.0,sex_male,Size_4,age_36_45,Education_Post_Secondary,Cooking_yes,6656.932875717397,174.37568492842567,1,286.0962173018012,21.0
272,272.0,sex_male,Size_4,age_46_55,Education_College,Cooking_no,12006.716617270271,165.73580752567875,1,5.350201665383182,21.0
273,273.0,sex_female,Size_3,age_56_65,Education_Post_Secondary,Cooking_no,6946.541736188101,136.6836057966924,1,305.8320072019288,21.0
274,274.0,sex_male,Size_2,age_36_45,Education_Post_Secondary,Cooking_yes,6024.379296106546,182.8916498002673,1,1289.9473776578106,21.0
277,277.0,sex_female,Size_2,age_56_65,Education_Post_Secondary,Cooking_yes,6475.9001371964905,143.1968392725601,1,328.95735412395334,21.0
278,278.0,sex_female,Size_2,age_56_65,Education_Post_Secondary,Cooking_yes,6471.2581668578905,141.47563378083618,1,308.95735412395334,21.0
279,279.0,sex_male,Size_6,age_36_45,Education_Post_Secondary,Cooking_yes,7101.449619993615,157.71797188289878,1,265.4696030385157,21.0
280,280.0,sex_male,Size_3,age_36_45,Education_Elementary_School,Cooking_no,2682.242813307278,131.18027288333084,1,1641.4457868727231,1.0
281,281.0,sex_male,Size_3,age_36_45,Education_College,Cooking_yes,11561.775697949517,164.0696988581787,1,1197.398958614434,21.0
282,282.0,sex_male,Size_3,age_56_65,Education_Elementary_School,Cooking_yes,2806.078987207037,182.45009278337739,1,210.6739068563856,1.0
283,283.0,sex_male,Size_3,age_26_35,Education_Elementary_School,Cooking_yes,2472.546929705169,178.52921975715287,1,1447.7242837354502,1.0
284,284.0,sex_male,Size_3,age_46_55,Education_High_School,Cooking_no,3678.685812803064,109.43574556597609,1,1576.3301563187285,1.0
285,285.0,sex_male,Size_3,age_46_55,Education_Post_Secondary,Cooking_no,6563.158406563553,134.10344299262385,1,1014.498864757451,21.0
286,286.0,sex_male,Size_2,age_56_65,Education_College,Cooking_yes,11535.928439058733,175.40183793028118,1,218.75264798339128,21.0
287,287.0,sex_male,Size_2,age_36_45,Education_Elementary_School,Cooking_yes,2406.170627776553,178.4197487719442,1,1701.5711337947473,1.0
288,288.0,sex_male,Size_2,age_36_45,Education_College,Cooking_yes,11139.281630251566,220.2392686519646,1,1199.0244167680935,21.0
289,289.0,sex_male,Size_2,age_46_55,Education_High_School,Cooking_yes,3503.7914004476124,164.63727244279542,1,1620.455503240753,1.0
290,290.0,sex_male,Size_7,age_36_45,Education_College,Cooking_yes,12424.842710740344,195.5692679702049,1,370.1587112507143,21.0
292,292.0,sex_male,Size_7,age_36_45,Education_Post_Secondary,Cooking_yes,7301.1995682852075,206.6565245470528,1,377.0816721404324,21.0
293,293.0,sex_female,Size_4,age_36_45,Education_College,Cooking_yes,11751.097178813045,233.6364868629251,1,302.45500166292817,21.0
295,295.0,sex_male,Size_4,age_26_35,Education_College,Cooking_yes,11552.341195653418,199.74803411336538,1,66.95186450644593,21.0
298,298.0,sex_male,Size_5,age_36_45,Education_College,Cooking_no,11885.06860778646,158.20173802552281,1,272.4370221840783,21.0
299,299.0,sex_male,Size_2,age_26_35,Education_College,Cooking_yes,10899.77126992998,186.56923612967134,1,1009.8030248624555,21.0
300,300.0,sex_male,Size_3,age_46_55,Education_Post_Graduate,Cooking_yes,13354.347690184759,173.81052404402303,1,545.0883359165455,51.0
301,301.0,sex_male,Size_3,age_46_55,Education_Elementary_School,Cooking_yes,2800.2891538819435,182.2912059893061,1,1405.6225096627516,1.0
302,302.0,sex_male,Size_3,age_46_55,Education_High_School,Cooking_yes,3740.636952425675,148.11931884168112,1,1629.830045087093,1.0
305,305.0,sex_male,Size_4,age_46_55,Education_Post_Graduate,Cooking_yes,13610.54767567375,209.894352427236,1,42.86263371419608,51.0
306,306.0,sex_female,Size_3,age_46_55,Education_Post_Secondary,Cooking_yes,6797.1458924595445,178.22852233169118,1,1115.28049877666,21.0
307,307.0,sex_male,Size_3,age_46_55,Education_High_School,Cooking_yes,3683.542231259984,133.02207592146195,1,1626.830045087093,1.0
308,308.0,sex_female,Size_3,age_36_45,Education_College,Cooking_yes,11652.56012443677,212.15251166390544,1,1267.680703865278,21.0
309,309.0,sex_male,Size_6,age_46_55,Education_Post_Secondary,Cooking_yes,7339.363359789879,138.6580873445281,1,60.14643706018005,21.0
310,310.0,sex_female,Size_5,age_46_55,Education_Post_Secondary,Cooking_no,7117.0608319213625,119.23137172547644,1,189.31856234630578,21.0
311,311.0,sex_female,Size_4,age_46_55,Education_Elementary_School,Cooking_yes,3119.2041460128276,208.97165260928472,1,66.67855271124698,1.0
312,312.0,sex_male,Size_4,age_46_55,Education_Post_Secondary,Cooking_yes,6847.555651292108,134.39003552270307,1,92.77305132346541,21.0
313,313.0,sex_male,Size_4,age_46_55,Education_College,Cooking_yes,11917.966325546455,161.4658232776641,1,47.850090433748576,21.0
314,314.0,sex_male,Size_2,age_46_55,Education_Elementary_School,Cooking_yes,2520.349773823792,140.5518191694733,1,1411.2479678164113,1.0
315,315.0,sex_female,Size_2,age_46_55,Education_Elementary_School,Cooking_yes,2689.717921396858,147.81890976943845,1,1527.5297130672568,1.0
316,316.0,sex_male,Size_2,age_36_45,Education_Post_Graduate,Cooking_no,13009.880573757706,136.29414343611427,1,663.5370712801773,51.0
317,317.0,sex_male,Size_3,age_46_55,Education_Elementary_School,Cooking_yes,2885.6066197115088,143.55067003334148,1,1412.6225096627516,1.0
318,318.0,sex_male,Size_3,age_36_45,Education_College,Cooking_yes,11637.182357727548,168.3771622858689,1,1235.398958614434,21.0
319,319.0,sex_male,Size_5,age_46_55,Education_College,Cooking_yes,12211.52238734392,185.40843999168567,1,119.61374497410685,21.0
320,320.0,sex_male,Size_2,age_46_55,Education_Post_Secondary,Cooking_yes,6310.961830735177,169.6614554732373,1,1073.6242116794767,21.0
321,321.0,sex_male,Size_5,age_46_55,Education_Post_Secondary,Cooking_yes,7065.864222246142,194.13778470495132,1,156.53670586382492,21.0
322,322.0,sex_male,Size_4,age_36_45,Education_Post_Secondary,Cooking_no,6683.862097831189,90.30424612881106,1,251.59632853343692,21.0
324,324.0,sex_male,Size_6,age_36_45,Education_Elementary_School,Cooking_yes,3352.565349129215,155.37063979408742,1,206.09335917545224,1.0
326,326.0,sex_female,Size_2,age_76_85,Education_Post_Secondary,Cooking_yes,6930.2102140520265,197.83370961043425,1,1320.999993975604,21.0
327,327.0,sex_male,Size_2,age_46_55,Education_College,Cooking_yes,11289.85928671666,148.88927659357188,1,1038.7012507897582,21.0
329,329.0,sex_female,Size_2,age_36_45,Education_Post_Secondary,Cooking_yes,6362.127499298807,101.39622046921222,1,1309.2291229086559,21.0
330,330.0,sex_male,Size_4,age_36_45,Education_College,Cooking_yes,11803.093313997782,173.83683519146786,1,226.1732564120831,21.0
331,331.0,sex_male,Size_3,age_36_45,Education_Elementary_School,Cooking_yes,2692.695316218508,157.45668759063298,1,1699.945675641087,1.0
332,332.0,sex_male,Size_3,age_46_55,Education_Post_Secondary,Cooking_yes,6468.334047551299,167.87575981638832,1,1072.9987535258151,21.0
333,333.0,sex_male,Size_3,age_46_55,Education_High_School,Cooking_yes,3692.3036915229663,174.36974514174167,1,1627.830045087093,1.0
334,334.0,sex_male,Size_5,age_46_55,Education_Elementary_School,Cooking_yes,3277.6358514873773,150.034071131593,1,54.160462000761356,1.0
335,335.0,sex_male,Size_3,age_66_75,Education_Post_Secondary,Cooking_yes,6883.112933739693,159.11038256317053,1,513.5687038533749,21.0
336,336.0,sex_female,Size_3,age_46_55,Education_Post_Secondary,Cooking_yes,6662.0719223655005,199.16785277348393,1,1136.28049877666,21.0
337,337.0,sex_male,Size_3,age_46_55,Education_Post_Secondary,Cooking_yes,6632.8708653581725,161.78425780233843,1,1063.9987535258151,21.0
338,338.0,sex_female,Size_4,age_36_45,Education_High_School,Cooking_yes,3817.2139556855213,184.00416830942345,1,577.2092541139227,1.0
339,339.0,sex_male,Size_3,age_46_55,Education_Elementary_School,Cooking_yes,2766.2232353773934,200.24931022538692,1,1415.6225096627516,1.0
340,340.0,sex_female,Size_3,age_36_45,Education_College,Cooking_yes,11668.229008104312,215.93199082189255,1,1271.680703865278,21.0
341,341.0,sex_male,Size_3,age_36_45,Education_Post_Secondary,Cooking_yes,6263.291168596825,151.39960069661063,1,1215.3219195041504,21.0
342,342.0,sex_male,Size_3,age_66_75,Education_College,Cooking_yes,11819.777431162684,188.04839925549354,1,460.64574296365834,21.0
343,343.0,sex_male,Size_3,age_56_65,Education_Post_Secondary,Cooking_yes,6775.54312961586,159.30963605756742,1,245.05015071944916,21.0
344,344.0,sex_male,Size_3,age_36_45,Education_College,Cooking_yes,11421.088559903765,110.43431334007576,1,1215.398958614434,21.0
345,345.0,sex_female,Size_3,age_46_55,Education_Post_Secondary,Cooking_yes,6577.6877017062025,154.58131798718085,1,1112.28049877666,21.0
346,346.0,sex_male,Size_4,age_46_55,Education_College,Cooking_yes,11887.793506170758,198.43839347147977,1,41.850090433748576,21.0
347,347.0,sex_male,Size_3,age_56_65,Education_College,Cooking_yes,11724.608041038422,186.68699497945755,1,212.12718982973115,21.0
348,348.0,sex_male,Size_7,age_36_45,Education_Post_Secondary,Cooking_yes,7514.36670097683,200.2445076056429,1,424.0816721404324,21.0
350,350.0,sex_male,Size_3,age_46_55,Education_High_School,Cooking_yes,3768.498225057947,173.36278177222167,1,1626.830045087093,1.0
351,351.0,sex_female,Size_5,age_46_55,Education_Post_Secondary,Cooking_yes,7234.3411873132945,175.55115711735652,1,215.81845111466987,21.0
352,352.0,sex_male,Size_2,age_46_55,Education_College,Cooking_no,11348.984255614223,145.98051787670119,1,977.2013620213941,21.0
353,353.0,sex_female,Size_5,age_46_55,Education_Post_Graduate,Cooking_yes,14123.36870390921,169.4103687407081,1,142.90803350540062,51.0
355,355.0,sex_male,Size_2,age_56_65,Education_Elementary_School,Cooking_yes,2580.1279096916105,177.7628490108001,1,203.29936501004457,1.0
356,356.0,sex_male,Size_3,age_46_55,Education_Elementary_School,Cooking_yes,2743.389778712226,177.2713533762878,1,1410.6225096627516,1.0
357,357.0,sex_male,Size_3,age_56_65,Education_College,Cooking_yes,11679.052229389856,163.62763744952832,1,229.12718982973115,21.0
358,358.0,sex_male,Size_5,age_36_45,Education_College,Cooking_no,11980.558305294353,139.8390241992043,1,263.4370221840783,21.0
359,359.0,sex_male,Size_4,age_36_45,Education_Post_Secondary,Cooking_yes,6597.4688730937205,170.60977672373113,1,276.0962173018012,21.0
360,360.0,sex_male,Size_2,age_36_45,Education_College,Cooking_no,11170.35779871248,146.31541688857652,1,1141.5245279997287,21.0
361,361.0,sex_male,Size_3,age_46_55,Education_Post_Secondary,Cooking_yes,6573.003554164898,165.37445268326374,1,1030.9987535258151,21.0
363,363.0,sex_female,Size_2,age_56_65,Education_Elementary_School,Cooking_no,2826.9445891971973,147.74535060065338,1,269.08122149252546,1.0
364,364.0,sex_male,Size_2,age_66_75,Education_Elementary_School,Cooking_yes,2762.517895855649,161.9202602852632,1,567.8179181439718,1.0
365,365.0,sex_male,Size_2,age_66_75,Education_Post_Secondary,Cooking_yes,6560.536139396671,172.83752362410772,1,514.1941620070354,21.0
366,366.0,sex_female,Size_2,age_46_55,Education_Post_Secondary,Cooking_yes,6496.477793580796,152.84183603332613,1,1123.9059569303201,21.0
367,367.0,sex_male,Size_4,age_26_35,Education_High_School,Cooking_no,3598.877449706011,118.60404212911357,1,143.20622818907628,1.0
368,368.0,sex_female,Size_7,age_36_45,Education_College,Cooking_yes,12708.080310395495,158.23019288072982,1,444.4404565015593,21.0
369,369.0,sex_male,Size_3,age_46_55,Education_Post_Secondary,Cooking_yes,6582.285294327932,157.93851441405292,1,1021.9987535258151,21.0
370,370.0,sex_male,Size_3,age_26_35,Education_Elementary_School,Cooking_no,2473.464744217973,113.80199261666807,1,1381.2243949670844,1.0
371,371.0,sex_female,Size_4,age_19_25,Education_College,Cooking_yes,11597.504132439837,182.2697635722304,1,936.8637285992954,21.0
372,372.0,sex_female,Size_3,age_19_25,Education_Elementary_School,Cooking_no,2477.3476171272505,126.89596722947495,1,2712.136259059936,1.0
373,373.0,sex_male,Size_2,age_56_65,Education_High_School,Cooking_yes,3534.765106900401,193.19626032419015,1,419.5069004343858,1.0
375,375.0,sex_female,Size_8,age_26_35,Education_Elementary_School,Cooking_yes,3918.7671983505534,130.75048819155123,1,330.0723408074078,1.0
377,377.0,sex_female,Size_2,age_56_65,Education_Post_Secondary,Cooking_no,6515.520176721458,134.2680094237752,1,289.45746535558897,21.0
379,379.0,sex_female,Size_6,age_46_55,Education_College,Cooking_yes,12601.660794265345,167.0844045273294,1,97.50522142130708,21.0
381,381.0,sex_male,Size_5,age_46_55,Education_High_School,Cooking_yes,4120.841881482365,213.3241662227524,1,268.3679974251014,1.0
383,383.0,sex_male,Size_2,age_46_55,Education_College,Cooking_yes,11391.192783962713,135.15811518609706,1,986.7012507897582,21.0
385,385.0,sex_female,Size_3,age_56_65,Education_College,Cooking_yes,12004.154680299675,187.0964680900882,1,303.4089350805761,21.0
386,386.0,sex_male,Size_2,age_46_55,Education_High_School,Cooking_yes,3543.012662407557,140.38372509244869,1,1617.455503240753,1.0
387,387.0,sex_male,Size_4,age_46_55,Education_High_School,Cooking_yes,4066.076219202271,146.78803908726098,1,161.60434288474315,1.0
388,388.0,sex_male,Size_5,age_36_45,Education_Post_Secondary,Cooking_yes,6804.469788163359,169.9900530296285,1,372.8598718421606,21.0
389,389.0,sex_male,Size_5,age_46_55,Education_High_School,Cooking_yes,4220.380633430302,190.10052592888508,1,271.3679974251014,1.0
391,391.0,sex_male,Size_8,age_46_55,Education_Post_Graduate,Cooking_yes,14704.097063588946,212.70252411613566,1,134.15464773765945,51.0
392,392.0,sex_male,Size_10,age_66_75,Education_College,Cooking_yes,13804.41877873052,176.26655895647338,1,3019.759263220146,21.0
394,394.0,sex_male,Size_8,age_46_55,Education_College,Cooking_no,12969.407540031621,133.6566160754769,1,156.6422156888466,21.0
395,395.0,sex_male,Size_7,age_36_45,Education_Post_Secondary,Cooking_yes,7464.675380361104,224.57391677737468,1,423.0816721404324,21.0
396,396.0,sex_male,Size_7,age_46_55,Education_Elementary_School,Cooking_yes,3864.986096710064,122.15494456164343,1,139.38226229903304,1.0
397,397.0,sex_female,Size_3,age_46_55,Education_College,Cooking_yes,11865.216040560546,212.10333066855168,1,1090.3575378869434,21.0
399,399.0,sex_male,Size_5,age_46_55,Education_College,Cooking_yes,12051.07746095573,116.47819116443016,1,110.61374497410685,21.0
400,400.0,sex_male,Size_2,age_56_65,Education_Post_Secondary,Cooking_yes,6567.1518728547535,217.56362183916144,1,276.6756088731082,21.0
402,402.0,sex_female,Size_4,age_46_55,Education_College,Cooking_no,12076.955836436277,153.83816015229715,1,89.63194691622826,21.0
403,403.0,sex_male,Size_4,age_36_45,Education_Post_Secondary,Cooking_no,6640.65451106254,129.2871543132971,1,240.59632853343692,21.0
404,404.0,sex_male,Size_7,age_46_55,Education_Post_Secondary,Cooking_yes,7572.748918781555,171.78584780648174,1,206.75850616209664,21.0
406,406.0,sex_female,Size_5,age_46_55,Education_Elementary_School,Cooking_yes,3376.7080991506236,135.52512430407995,1,176.44220725160525,1.0
408,408.0,sex_male,Size_2,age_46_55,Education_Post_Graduate,Cooking_yes,13142.064974020672,175.6388550980354,1,558.7137940702069,51.0
409,409.0,sex_female,Size_2,age_46_55,Education_High_School,Cooking_yes,3599.1133584793597,173.90360055771373,1,1737.737248491598,1.0
410,410.0,sex_female,Size_3,age_36_45,Education_Post_Secondary,Cooking_yes,6524.992608617428,147.93841918600063,1,1343.6036647549954,21.0
411,411.0,sex_female,Size_3,age_56_65,Education_College,Cooking_no,11984.772561084712,132.4465015871157,1,267.909046312212,21.0
412,412.0,sex_male,Size_5,age_36_45,Education_High_School,Cooking_yes,4058.231426655697,186.96784661013675,1,567.6911634034371,1.0
413,413.0,sex_male,Size_3,age_36_45,Education_Elementary_School,Cooking_yes,2654.006288211897,209.8358373331385,1,1705.945675641087,1.0
415,415.0,sex_male,Size_3,age_36_45,Education_College,Cooking_no,11497.915028557107,179.46593325772903,1,1133.899069846069,21.0
416,416.0,sex_male,Size_2,age_46_55,Education_College,Cooking_yes,11449.268912451027,197.3247358102533,1,1017.7012507897582,21.0
419,419.0,sex_male,Size_2,age_56_65,Education_Post_Secondary,Cooking_yes,6481.8842121866965,155.42276522208343,1,266.6756088731082,21.0
420,420.0,sex_male,Size_3,age_46_55,Education_College,Cooking_yes,11670.96695312032,213.5196413948909,1,1009.075792636098,21.0
421,421.0,sex_male,Size_3,age_46_55,Education_Elementary_School,Cooking_yes,2863.938014480733,136.47635534234328,1,1404.6225096627516,1.0
424,424.0,sex_male,Size_3,age_46_55,Education_Post_Secondary,Cooking_yes,6440.2252089347985,188.00785928303605,1,1059.9987535258151,21.0
425,425.0,sex_male,Size_3,age_46_55,Education_Post_Secondary,Cooking_yes,6535.287040721864,195.0982603269393,1,1033.9987535258151,21.0
426,426.0,sex_female,Size_4,age_36_45,Education_Post_Secondary,Cooking_yes,6805.059979345611,169.4170617114371,1,353.3779625526462,21.0
427,427.0,sex_male,Size_6,age_46_55,Education_Post_Secondary,Cooking_no,7318.9469732470325,161.5497206122324,1,31.646548291815854,21.0
431,431.0,sex_male,Size_3,age_26_35,Education_College,Cooking_yes,11320.75187909082,237.60901899420082,1,1028.1775667087954,21.0
432,432.0,sex_female,Size_3,age_26_35,Education_College,Cooking_no,11457.186231009544,151.11816247304398,1,1095.9594231912765,21.0
433,433.0,sex_female,Size_4,age_26_35,Education_Post_Secondary,Cooking_yes,6603.971102538281,211.88403960205954,1,199.15657064700787,21.0
435,435.0,sex_male,Size_4,age_36_45,Education_High_School,Cooking_no,3908.0686112645753,163.23345795089026,1,400.42762009471335,1.0
436,436.0,sex_male,Size_3,age_36_45,Education_College,Cooking_no,11510.506914818974,191.3326494961207,1,1168.899069846069,21.0
437,437.0,sex_male,Size_2,age_46_55,Education_Elementary_School,Cooking_yes,2499.311965375558,249.40310821322163,1,1399.2479678164113,1.0
438,438.0,sex_male,Size_2,age_36_45,Education_High_School,Cooking_no,3307.406289689493,131.25526683790682,1,1854.2787804507238,1.0
439,439.0,sex_male,Size_5,age_46_55,Education_Post_Secondary,Cooking_yes,7052.841998829163,167.9035629961169,1,162.53670586382492,21.0
441,441.0,sex_male,Size_3,age_46_55,Education_College,Cooking_yes,11576.52144197116,158.40600601261033,1,1022.075792636098,21.0
442,442.0,sex_female,Size_3,age_56_65,Education_College,Cooking_yes,11794.403584508309,183.26193566987573,1,293.4089350805761,21.0
443,443.0,sex_female,Size_4,age_46_55,Education_Post_Secondary,Cooking_yes,7040.201281282859,183.01186886419566,1,170.0547965743105,21.0
445,445.0,sex_male,Size_6,age_36_45,Education_College,Cooking_yes,12249.14375803076,135.76731303548343,1,205.5466421487978,21.0
448,448.0,sex_male,Size_5,age_36_45,Education_College,Cooking_yes,12100.250711909563,216.12939469597413,1,311.93691095244264,21.0
449,449.0,sex_male,Size_2,age_36_45,Education_College,Cooking_yes,11098.494878511916,133.26063952391948,1,1198.0244167680935,21.0
450,450.0,sex_male,Size_2,age_46_55,Education_Post_Secondary,Cooking_yes,6235.061905974558,143.49461138180808,1,1073.6242116794767,21.0
451,451.0,sex_male,Size_3,age_56_65,Education_Post_Graduate,Cooking_yes,13549.111954803891,189.2702781367989,1,147.1397331101798,51.0
452,452.0,sex_male,Size_3,age_36_45,Education_Post_Secondary,Cooking_yes,6347.722525257051,182.05181660402573,1,1235.3219195041504,21.0
453,453.0,sex_male,Size_2,age_36_45,Education_Post_Graduate,Cooking_yes,12948.4132374902,196.00718314769657,1,667.0369600485412,51.0
454,454.0,sex_male,Size_2,age_56_65,Education_Post_Secondary,Cooking_yes,6394.5281475171105,159.16849368131392,1,240.67560887310822,21.0
455,455.0,sex_male,Size_4,age_36_45,Education_College,Cooking_yes,11784.521406683833,197.6188041555596,1,227.1732564120831,21.0
456,456.0,sex_male,Size_6,age_26_35,Education_Post_Graduate,Cooking_yes,13872.825417992162,155.55133848104953,1,60.3377935236081,51.0
457,457.0,sex_female,Size_6,age_46_55,Education_College,Cooking_yes,12695.82302461408,208.513120818598,1,98.50522142130708,21.0
458,458.0,sex_male,Size_5,age_46_55,Education_Post_Secondary,Cooking_yes,7028.869704183237,153.94885008937513,1,150.53670586382492,21.0
459,459.0,sex_male,Size_5,age_36_45,Education_College,Cooking_yes,12042.1661788595,171.27636775469185,1,320.93691095244264,21.0
460,460.0,sex_male,Size_9,age_36_45,Education_Elementary_School,Cooking_yes,4194.637409204764,138.52024622033872,1,225.77547238608517,1.0
461,461.0,sex_male,Size_6,age_46_55,Education_College,Cooking_yes,12528.987078407607,152.58243730626933,1,21.2234761704632,21.0
462,462.0,sex_male,Size_9,age_36_45,Education_High_School,Cooking_no,5097.898958974293,120.51852109640608,1,384.4831190420609,1.0
463,463.0,sex_female,Size_4,age_36_45,Education_College,Cooking_yes,11921.989291707368,185.68760103491158,1,321.45500166292817,21.0
0,,sex_male,Size_3,age_56_65,Education_Elementary_School,Cooking_yes,2812.956122528769,122.94188043720015,4,4.0,
1,,sex_male,Size_4,age_46_55,Education_Post_Secondary,Cooking_yes,6680.847474629481,91.88656967839862,41,41.0,
2,,sex_male,Size_3,age_46_55,Education_Post_Secondary,Cooking_yes,6443.440880636851,108.51755497102215,577,577.0,
6,,sex_male,Size_6,age_36_45,Education_Elementary_School,Cooking_yes,3432.9023840975688,103.12358925565748,2,2.0,
7,,sex_male,Size_6,age_46_55,Education_Post_Secondary,Cooking_yes,7439.300921282382,100.93604474523273,34,34.0,
11,,sex_female,Size_3,age_56_65,Education_Post_Secondary,Cooking_yes,6833.270229425025,128.87367572629344,200,200.0,
12,,sex_male,Size_3,age_46_55,Education_High_School,Cooking_yes,3711.514603389656,100.33532894503585,36,36.0,
13,,sex_female,Size_2,age_46_55,Education_High_School,Cooking_yes,3534.9951534457373,95.8471975250882,36,36.0,
14,,sex_male,Size_5,age_36_45,Education_Elementary_School,Cooking_yes,3095.2854423039053,104.0217562486171,8,8.0,
15,,sex_male,Size_5,age_46_55,Education_High_School,Cooking_yes,4251.782889432977,114.30057279802419,2,2.0,
16,,sex_female,Size_7,age_36_45,Education_College,Cooking_yes,12580.025496783774,121.17726340782252,232,232.0,
17,,sex_female,Size_7,age_46_55,Education_High_School,Cooking_yes,4872.706150755094,122.44062272162589,10,10.0,
18,,sex_male,Size_9,age_36_45,Education_Post_Graduate,Cooking_no,14844.818111410845,84.56905283422604,244,244.0,
19,,sex_male,Size_3,age_56_65,Education_College,Cooking_yes,11807.625177788595,110.28535763531082,121,121.0,
20,,sex_male,Size_2,age_66_75,Education_High_School,Cooking_yes,3804.1648852879107,102.84422802903426,21,21.0,
21,,sex_male,Size_5,age_46_55,Education_Elementary_School,Cooking_yes,3362.6134678732265,116.24166793179499,2,2.0,
22,,sex_female,Size_5,age_46_55,Education_College,Cooking_yes,12352.708836204907,132.95922092883214,122,122.0,
23,,sex_male,Size_4,age_46_55,Education_College,Cooking_yes,11812.185560725735,132.40294971773992,24,24.0,
24,,sex_male,Size_2,age_36_45,Education_Post_Secondary,Cooking_yes,6192.905580541499,103.61168670159401,718,718.0,
26,,sex_male,Size_7,age_36_45,Education_Post_Secondary,Cooking_yes,7540.522642079921,98.58053033149467,202,202.0,
27,,sex_female,Size_8,age_36_45,Education_Post_Secondary,Cooking_yes,7823.006601275548,101.3807940707269,263,263.0,
28,,sex_male,Size_3,age_56_65,Education_Elementary_School,Cooking_no,2828.745238112871,73.38429651424036,2,2.0,
29,,sex_male,Size_4,age_46_55,Education_Post_Secondary,Cooking_yes,6836.2233469243565,106.42034959500985,38,38.0,
30,,sex_female,Size_6,age_46_55,Education_High_School,Cooking_no,4741.23276508017,63.39992661412701,2,2.0,
31,,sex_male,Size_3,age_56_65,Education_Elementary_School,Cooking_yes,2888.6254678175733,89.34267328979689,2,2.0,
32,,sex_male,Size_6,age_46_55,Education_Post_Graduate,Cooking_no,14261.060583621529,79.09477963822901,51,51.0,
34,,sex_female,Size_2,age_46_55,Education_Post_Graduate,Cooking_no,13359.99700395934,89.82830329953707,1132,1132.0,
35,,sex_female,Size_2,age_56_65,Education_College,Cooking_yes,11714.472653115168,97.16435318833027,150,150.0,
36,,sex_male,Size_3,age_56_65,Education_Post_Secondary,Cooking_yes,6797.69677584412,101.02492399239048,137,137.0,
37,,sex_male,Size_3,age_66_75,Education_High_School,Cooking_yes,4028.495548035763,115.76539516191437,13,13.0,
39,,sex_female,Size_4,age_36_45,Education_College,Cooking_no,11807.34853631753,75.666221450164,161,161.0,
40,,sex_female,Size_4,age_26_35,Education_Elementary_School,Cooking_yes,2737.480570806724,105.0942112490619,1,1.0,
41,,sex_female,Size_5,age_46_55,Education_Elementary_School,Cooking_no,3263.3874796742853,87.71127665933388,3,3.0,
42,,sex_female,Size_4,age_46_55,Education_Post_Secondary,Cooking_yes,6772.712982843905,104.96500967911327,99,99.0,
43,,sex_female,Size_4,age_36_45,Education_Post_Secondary,Cooking_yes,6964.009136161433,121.7033538845178,236,236.0,
44,,sex_female,Size_3,age_56_65,Education_College,Cooking_yes,12004.095248923912,118.59102124366677,154,154.0,
45,,sex_male,Size_3,age_26_35,Education_High_School,Cooking_yes,3412.151839863429,75.95344757129871,30,30.0,
46,,sex_male,Size_4,age_26_35,Education_Post_Secondary,Cooking_no,6537.835563040771,66.52450514409033,34,34.0,
47,,sex_male,Size_5,age_36_45,Education_Post_Secondary,Cooking_yes,6948.106898161074,122.8847477747347,196,196.0,
49,,sex_male,Size_4,age_46_55,Education_College,Cooking_yes,11833.625747460575,119.36692455961051,22,22.0,
51,,sex_male,Size_6,age_36_45,Education_College,Cooking_yes,12268.855234368591,111.33899453513968,110,110.0,
53,,sex_male,Size_2,age_56_65,Education_Post_Graduate,Cooking_yes,13239.055783330712,115.31222035779626,285,285.0,
54,,sex_male,Size_3,age_36_45,Education_Elementary_School,Cooking_yes,2700.8326729989717,107.64323451465347,37,37.0,
55,,sex_male,Size_2,age_56_65,Education_Post_Secondary,Cooking_yes,6464.733458208032,104.82071647880996,130,130.0,
56,,sex_male,Size_5,age_46_55,Education_Post_Secondary,Cooking_yes,7075.31887109548,99.69403604851011,100,100.0,
57,,sex_male,Size_6,age_46_55,Education_College,Cooking_yes,12431.151177011592,111.42585324536839,15,15.0,
58,,sex_male,Size_7,age_46_55,Education_High_School,Cooking_yes,4858.526585639439,133.9001014675165,6,6.0,
59,,sex_male,Size_4,age_46_55,Education_College,Cooking_yes,11827.839835405171,107.42173315497816,27,27.0,
60,,sex_male,Size_4,age_46_55,Education_Post_Secondary,Cooking_no,6775.613380143154,73.57462189675633,23,23.0,
62,,sex_male,Size_3,age_46_55,Education_High_School,Cooking_yes,3566.0515906266087,93.66929524498147,28,28.0,
66,,sex_male,Size_7,age_46_55,Education_College,Cooking_yes,12712.561651060076,139.40777274218564,84,84.0,
67,,sex_male,Size_5,age_36_45,Education_College,Cooking_no,11935.540887809831,114.06822647241736,152,152.0,
70,,sex_male,Size_5,age_46_55,Education_College,Cooking_yes,12215.39308532363,120.1220395455652,74,74.0,
71,,sex_male,Size_4,age_46_55,Education_College,Cooking_yes,11835.470065250349,111.35012718846494,24,24.0,
72,,sex_male,Size_3,age_46_55,Education_Post_Secondary,Cooking_no,6457.208286426461,88.64142429249586,568,568.0,
76,,sex_male,Size_8,age_36_45,Education_College,Cooking_yes,12681.422500909706,128.51133465472432,210,210.0,
80,,sex_male,Size_6,age_36_45,Education_Post_Secondary,Cooking_yes,7202.212872444573,109.9143705931712,141,141.0,
81,,sex_male,Size_4,age_46_55,Education_High_School,Cooking_no,3993.6179771684456,72.3541212107728,2,2.0,
84,,sex_female,Size_3,age_46_55,Education_College,Cooking_yes,11763.851384076985,114.07872898745516,595,595.0,
85,,sex_male,Size_6,age_46_55,Education_College,Cooking_yes,12474.322447791712,81.40417782792069,13,13.0,
86,,sex_male,Size_6,age_46_55,Education_Post_Secondary,Cooking_yes,7326.42819068783,133.74388202110535,32,32.0,
87,,sex_male,Size_5,age_36_45,Education_Post_Secondary,Cooking_yes,6931.853219000781,100.46925211665409,191,191.0,
91,,sex_male,Size_6,age_46_55,Education_College,Cooking_yes,12393.69282386007,120.51551520369905,16,16.0,
92,,sex_male,Size_5,age_46_55,Education_Post_Secondary,Cooking_no,6996.935183014576,94.02247422997135,78,78.0,
93,,sex_male,Size_2,age_46_55,Education_College,Cooking_yes,11492.997398816291,131.20850979901783,559,559.0,
94,,sex_male,Size_2,age_46_55,Education_Elementary_School,Cooking_yes,2368.839203664856,100.92303773676315,22,22.0,
95,,sex_male,Size_10,age_56_65,Education_College,Cooking_yes,13733.620786447244,105.40804935932195,1615,1615.0,
97,,sex_male,Size_6,age_36_45,Education_College,Cooking_yes,12215.584155423614,120.78198183858497,125,125.0,
98,,sex_male,Size_6,age_46_55,Education_Post_Secondary,Cooking_yes,7364.3664071420435,103.96403996157113,34,34.0,
99,,sex_male,Size_4,age_46_55,Education_Post_Graduate,Cooking_yes,13657.684451165198,114.36973298788644,111,111.0,
100,,sex_male,Size_4,age_26_35,Education_Post_Secondary,Cooking_yes,6514.036685209959,119.49341200874484,72,72.0,
101,,sex_male,Size_4,age_46_55,Education_Post_Secondary,Cooking_yes,6865.1161902032545,116.53500706539691,43,43.0,
103,,sex_male,Size_3,age_56_65,Education_Post_Secondary,Cooking_yes,6660.308757147824,86.76233105806881,140,140.0,
104,,sex_male,Size_3,age_26_35,Education_High_School,Cooking_yes,3403.002224737032,107.92249708016318,41,41.0,
105,,sex_female,Size_3,age_46_55,Education_Post_Secondary,Cooking_yes,6733.420339183469,110.6560771594289,653,653.0,
106,,sex_female,Size_3,age_36_45,Education_Post_Secondary,Cooking_yes,6483.1790523511645,118.70856204848015,757,757.0,
108,,sex_male,Size_3,age_46_55,Education_Post_Secondary,Cooking_yes,6593.2802499884765,93.85060883600043,616,616.0,
109,,sex_female,Size_4,age_36_45,Education_High_School,Cooking_yes,4007.56172999464,122.28200602818364,14,14.0,
110,,sex_male,Size_3,age_36_45,Education_Post_Secondary,Cooking_yes,6478.913417380642,114.67789970132841,706,706.0,
111,,sex_female,Size_3,age_46_55,Education_Post_Secondary,Cooking_yes,6732.242072574274,116.84415778368329,614,614.0,
112,,sex_male,Size_3,age_56_65,Education_High_School,Cooking_yes,3930.296937655162,107.59622198457053,6,6.0,
113,,sex_male,Size_3,age_26_35,Education_College,Cooking_yes,11334.021753053074,119.35229385570857,545,545.0,
114,,sex_female,Size_3,age_26_35,Education_Post_Secondary,Cooking_yes,6389.528652725943,125.69255499288907,593,593.0,
115,,sex_male,Size_3,age_26_35,Education_Elementary_School,Cooking_yes,2382.201446631082,98.36233974606468,30,30.0,
116,,sex_female,Size_3,age_46_55,Education_College,Cooking_yes,11782.882596333546,127.71308309484195,607,607.0,
117,,sex_male,Size_5,age_26_35,Education_Elementary_School,Cooking_yes,2958.381946793973,122.2613028838146,2,2.0,
120,,sex_male,Size_8,age_36_45,Education_College,Cooking_yes,12783.585927520005,106.02973771105974,218,218.0,
121,,sex_male,Size_2,age_56_65,Education_Elementary_School,Cooking_yes,2612.4632524983317,107.24891355233646,7,7.0,
122,,sex_male,Size_3,age_46_55,Education_College,Cooking_yes,11629.72771507163,112.34050755066285,559,559.0,
123,,sex_female,Size_4,age_36_45,Education_High_School,Cooking_yes,3908.5976956374825,102.51611521411863,8,8.0,
124,,sex_male,Size_4,age_46_55,Education_High_School,Cooking_yes,3930.2489643701488,107.91328880141101,5,5.0,
125,,sex_male,Size_4,age_46_55,Education_Post_Secondary,Cooking_no,6774.107363178719,93.30547085540081,32,32.0,
126,,sex_female,Size_6,age_46_55,Education_Post_Secondary,Cooking_yes,7487.095972667529,101.3111190171954,85,85.0,
127,,sex_female,Size_5,age_36_45,Education_Elementary_School,Cooking_yes,3273.027844739333,98.56408745899024,12,12.0,
128,,sex_male,Size_5,age_26_35,Education_Elementary_School,Cooking_no,2942.347386889599,74.29478038939045,1,1.0,
130,,sex_male,Size_3,age_46_55,Education_Elementary_School,Cooking_yes,2637.7347053592384,80.85673317931435,24,24.0,
131,,sex_male,Size_2,age_46_55,Education_Elementary_School,Cooking_yes,2645.822498651804,132.0000213326803,38,38.0,
132,,sex_male,Size_3,age_26_35,Education_High_School,Cooking_yes,3351.5548586451,76.55339389944052,27,27.0,
133,,sex_male,Size_2,age_36_45,Education_Post_Secondary,Cooking_yes,5960.513634050558,93.77286681156428,618,618.0,
134,,sex_female,Size_7,age_46_55,Education_Post_Secondary,Cooking_yes,7867.501166820256,131.56101742728214,162,162.0,
135,,sex_male,Size_4,age_46_55,Education_College,Cooking_yes,11882.354215474172,129.99411831449126,26,26.0,
136,,sex_male,Size_5,age_46_55,Education_College,Cooking_yes,12185.814610067768,110.46463437932351,59,59.0,
137,,sex_male,Size_5,age_46_55,Education_Post_Secondary,Cooking_yes,7084.952401104671,117.381684888175,94,94.0,
138,,sex_male,Size_4,age_36_45,Education_Post_Secondary,Cooking_yes,6613.493616573888,135.79661113049883,167,167.0,
139,,sex_female,Size_3,age_36_45,Education_Post_Graduate,Cooking_yes,13456.748694101687,137.23702852177232,1350,1350.0,
140,,sex_male,Size_3,age_36_45,Education_High_School,Cooking_yes,3602.8653084552643,126.27470383042662,37,37.0,
142,,sex_male,Size_5,age_46_55,Education_Post_Secondary,Cooking_yes,6944.7218469135305,105.37234606731843,80,80.0,
145,,sex_male,Size_2,age_26_35,Education_Post_Secondary,Cooking_yes,5969.668300210096,115.59315219625039,573,573.0,
146,,sex_male,Size_3,age_36_45,Education_College,Cooking_yes,11502.165016263833,141.50679451582002,652,652.0,
147,,sex_female,Size_5,age_36_45,Education_College,Cooking_no,12045.465686900134,77.39118349505694,197,197.0,
148,,sex_female,Size_3,age_56_65,Education_College,Cooking_yes,11850.08652904839,137.49109095824815,156,156.0,
149,,sex_female,Size_3,age_56_65,Education_College,Cooking_yes,11852.168305672705,137.68348800240489,131,131.0,
150,,sex_male,Size_3,age_46_55,Education_Post_Secondary,Cooking_yes,6539.195323621204,144.17197619719553,605,605.0,
151,,sex_male,Size_5,age_46_55,Education_Post_Secondary,Cooking_yes,7135.376550199961,105.7680531550033,110,110.0,
152,,sex_male,Size_5,age_36_45,Education_College,Cooking_yes,12029.686488430241,84.2204362924735,161,161.0,
153,,sex_male,Size_5,age_36_45,Education_Elementary_School,Cooking_yes,3100.53248662841,88.69994253895374,7,7.0,
154,,sex_male,Size_4,age_36_45,Education_College,Cooking_yes,11796.441782554417,150.2900316585295,143,143.0,
156,,sex_male,Size_5,age_46_55,Education_Elementary_School,Cooking_yes,3323.518447310949,104.8552212738831,4,4.0,
157,,sex_female,Size_4,age_46_55,Education_College,Cooking_yes,12028.676611649267,99.98430786806826,55,55.0,
158,,sex_female,Size_4,age_36_45,Education_Post_Graduate,Cooking_no,13599.845527345977,69.93754448343799,361,361.0,
161,,sex_male,Size_3,age_46_55,Education_College,Cooking_yes,11673.438091051854,137.87460627472785,562,562.0,
162,,sex_male,Size_3,age_36_45,Education_Post_Secondary,Cooking_no,6273.216340110892,59.78294972157894,664,664.0,
163,,sex_male,Size_3,age_56_65,Education_Post_Secondary,Cooking_no,6609.26931403662,72.30180847106791,129,129.0,
164,,sex_male,Size_5,age_46_55,Education_College,Cooking_yes,12257.425027300142,125.78426737212699,63,63.0,
165,,sex_female,Size_3,age_46_55,Education_Post_Graduate,Cooking_yes,13658.129693133877,116.71600459502872,1121,1121.0,
166,,sex_male,Size_3,age_56_65,Education_College,Cooking_yes,11850.754430321973,113.4341210130596,132,132.0,
167,,sex_male,Size_2,age_36_45,Education_High_School,Cooking_yes,3289.052832663728,116.34892744345005,51,51.0,
168,,sex_male,Size_3,age_46_55,Education_Elementary_School,Cooking_yes,2712.173993140021,99.20728536877694,34,34.0,
169,,sex_female,Size_3,age_36_45,Education_Post_Graduate,Cooking_yes,13424.56799598292,104.01444337366901,1356,1356.0,
171,,sex_female,Size_3,age_46_55,Education_Post_Secondary,Cooking_no,6630.4321007200315,72.51754107227589,571,571.0,
172,,sex_male,Size_3,age_46_55,Education_College,Cooking_yes,11644.313119443896,108.67191779217981,564,564.0,
173,,sex_female,Size_4,age_46_55,Education_Post_Secondary,Cooking_yes,6945.354530243898,107.81612640955329,89,89.0,
174,,sex_female,Size_4,age_36_45,Education_High_School,Cooking_yes,3891.1301071695775,105.24909568183767,13,13.0,
176,,sex_female,Size_2,age_36_45,Education_College,Cooking_yes,11403.621126439792,112.87340446520872,675,675.0,
177,,sex_male,Size_2,age_46_55,Education_Post_Secondary,Cooking_yes,6206.947356752617,98.50554518476142,567,567.0,
178,,sex_male,Size_2,age_36_45,Education_High_School,Cooking_yes,3418.0395073178497,123.68881436788347,40,40.0,
179,,sex_male,Size_4,age_46_55,Education_College,Cooking_yes,11936.03832523286,115.78385096078559,29,29.0,
180,,sex_female,Size_2,age_46_55,Education_College,Cooking_yes,11601.49300294872,115.2145854762376,584,584.0,
181,,sex_female,Size_2,age_56_65,Education_College,Cooking_yes,11726.202223088832,133.37652079369667,164,164.0,
182,,sex_male,Size_3,age_46_55,Education_College,Cooking_yes,11686.906046794908,129.34434990533845,545,545.0,
183,,sex_male,Size_3,age_46_55,Education_Post_Secondary,Cooking_yes,6516.7597660810925,126.86352838381181,585,585.0,
186,,sex_male,Size_4,age_46_55,Education_Post_Graduate,Cooking_no,13592.394263564174,90.22177435559651,62,62.0,
187,,sex_female,Size_3,age_46_55,Education_Post_Secondary,Cooking_yes,6727.811341891439,107.09724520647886,621,621.0,
188,,sex_male,Size_3,age_56_65,Education_Elementary_School,Cooking_yes,2894.1405797365996,107.00740873451927,2,2.0,
189,,sex_female,Size_4,age_26_35,Education_High_School,Cooking_yes,3735.529677344749,121.10806563660319,11,11.0,
190,,sex_male,Size_4,age_36_45,Education_High_School,Cooking_yes,3828.3150223336493,89.67179942103489,9,9.0,
191,,sex_male,Size_5,age_46_55,Education_Post_Secondary,Cooking_yes,7084.484969529954,93.74685646738125,91,91.0,
193,,sex_male,Size_3,age_56_65,Education_College,Cooking_yes,11778.858934643942,92.80541700067785,139,139.0,
194,,sex_female,Size_3,age_56_65,Education_College,Cooking_yes,11927.238021004106,102.2879184311064,147,147.0,
195,,sex_female,Size_3,age_46_55,Education_College,Cooking_yes,11810.226440993574,96.92643968348575,559,559.0,
196,,sex_male,Size_7,age_46_55,Education_Post_Secondary,Cooking_no,7544.0071109086475,121.0733435893917,88,88.0,
198,,sex_male,Size_4,age_46_55,Education_Post_Secondary,Cooking_no,6813.1278805154725,110.24865429089809,33,33.0,
199,,sex_female,Size_4,age_46_55,Education_College,Cooking_yes,12087.795242109629,139.59650119300403,70,70.0,
200,,sex_female,Size_3,age_46_55,Education_College,Cooking_yes,11696.310874333252,134.4360739369541,616,616.0,
201,,sex_male,Size_3,age_46_55,Education_Post_Secondary,Cooking_no,6635.592423634373,117.68350892194022,589,589.0,
202,,sex_male,Size_3,age_46_55,Education_College,Cooking_yes,11635.270804748943,113.4156155707723,579,579.0,
203,,sex_male,Size_4,age_36_45,Education_College,Cooking_yes,11809.832484488496,122.2479656300507,134,134.0,
204,,sex_male,Size_4,age_26_35,Education_College,Cooking_yes,11436.589503468716,140.1202569144933,29,29.0,
205,,sex_male,Size_4,age_36_45,Education_Post_Secondary,Cooking_yes,6489.3028806458215,107.15890846450297,169,169.0,
206,,sex_male,Size_6,age_46_55,Education_Post_Secondary,Cooking_yes,7299.9778764851335,80.75462090928431,33,33.0,
209,,sex_male,Size_4,age_26_35,Education_College,Cooking_yes,11529.570307440019,110.65770520985441,36,36.0,
210,,sex_female,Size_5,age_26_35,Education_Post_Graduate,Cooking_yes,13715.01545925319,102.00402836460457,280,280.0,
211,,sex_male,Size_8,age_46_55,Education_College,Cooking_yes,12931.097715405058,100.28168880638133,109,109.0,
213,,sex_male,Size_4,age_46_55,Education_College,Cooking_yes,11866.528476329131,138.01789131038146,26,26.0,
214,,sex_male,Size_4,age_36_45,Education_College,Cooking_yes,11845.04370760632,124.97279302429017,129,129.0,
215,,sex_male,Size_4,age_46_55,Education_Post_Secondary,Cooking_yes,6880.499707972549,98.5007301253046,50,50.0,
216,,sex_male,Size_4,age_46_55,Education_College,Cooking_yes,11980.858139987422,116.60404910524524,27,27.0,
217,,sex_male,Size_2,age_36_45,Education_Elementary_School,Cooking_yes,2371.496948148543,101.34096027740435,25,25.0,
218,,sex_male,Size_8,age_36_45,Education_Post_Secondary,Cooking_yes,7706.4270450663635,102.65728605435044,225,225.0,
220,,sex_male,Size_2,age_46_55,Education_Elementary_School,Cooking_yes,2568.527344339572,73.93356419699654,28,28.0,
221,,sex_female,Size_3,age_46_55,Education_Post_Secondary,Cooking_no,6641.750076214373,72.50909371401906,610,610.0,
222,,sex_female,Size_4,age_46_55,Education_Post_Secondary,Cooking_yes,7052.573246656506,100.7029745451689,70,70.0,
229,,sex_female,Size_6,age_46_55,Education_Post_Secondary,Cooking_yes,7477.849044223853,122.26879634621557,85,85.0,
230,,sex_male,Size_5,age_36_45,Education_College,Cooking_yes,11969.701686475648,106.04319103779207,186,186.0,
231,,sex_male,Size_3,age_26_35,Education_College,Cooking_no,11365.620314045322,94.82831840899556,542,542.0,
232,,sex_female,Size_3,age_36_45,Education_Elementary_School,Cooking_yes,2674.3731041244005,130.0845468652888,43,43.0,
233,,sex_male,Size_7,age_26_35,Education_Post_Graduate,Cooking_yes,13981.203106006755,130.1177559547824,245,245.0,
234,,sex_male,Size_6,age_46_55,Education_College,Cooking_yes,12403.053887681292,82.46338477050979,14,14.0,
235,,sex_male,Size_6,age_36_45,Education_Elementary_School,Cooking_yes,3391.838648431598,81.10928962204646,6,6.0,
236,,sex_male,Size_4,age_46_55,Education_Post_Graduate,Cooking_yes,13690.9699027048,107.40549216774242,110,110.0,
238,,sex_male,Size_4,age_36_45,Education_College,Cooking_yes,11563.884067017518,134.0338946996854,123,123.0,
240,,sex_male,Size_6,age_36_45,Education_Post_Secondary,Cooking_no,7153.770823325797,78.21659120411931,124,124.0,
242,,sex_male,Size_5,age_46_55,Education_Post_Secondary,Cooking_yes,6959.119823380651,113.34459754393316,91,91.0,
243,,sex_male,Size_7,age_46_55,Education_Post_Graduate,Cooking_yes,14395.260972007141,104.29013191782822,243,243.0,
244,,sex_female,Size_6,age_36_45,Education_College,Cooking_yes,12416.638131116533,121.04046402254313,156,156.0,
246,,sex_male,Size_6,age_46_55,Education_Post_Secondary,Cooking_yes,7399.3304371645145,131.13144512702596,34,34.0,
247,,sex_female,Size_5,age_26_35,Education_College,Cooking_yes,11902.957523689092,91.43690854185641,125,125.0,
248,,sex_male,Size_7,age_36_45,Education_College,Cooking_no,12520.468219815664,104.31019331956779,177,177.0,
249,,sex_female,Size_7,age_36_45,Education_College,Cooking_yes,12606.286189459275,97.53035709714455,229,229.0,
250,,sex_male,Size_4,age_46_55,Education_College,Cooking_yes,11874.300703117451,101.50595258685772,28,28.0,
251,,sex_male,Size_2,age_36_45,Education_College,Cooking_yes,11231.084121479162,122.49215335523131,644,644.0,
252,,sex_male,Size_2,age_46_55,Education_Post_Secondary,Cooking_yes,6360.5463448602795,103.15358793151675,577,577.0,
253,,sex_male,Size_3,age_46_55,Education_Post_Secondary,Cooking_no,6623.2288037386525,82.89628958287335,573,573.0,
254,,sex_male,Size_3,age_36_45,Education_Post_Secondary,Cooking_yes,6405.309771839802,96.89594844510214,697,697.0,
255,,sex_male,Size_2,age_46_55,Education_College,Cooking_yes,11432.49002414439,119.13881086036699,531,531.0,
256,,sex_male,Size_2,age_56_65,Education_Elementary_School,Cooking_yes,2644.640595783991,96.29725732539958,5,5.0,
257,,sex_male,Size_2,age_66_75,Education_Elementary_School,Cooking_yes,2821.7581583938286,99.68355897676527,10,10.0,
258,,sex_female,Size_2,age_36_45,Education_Elementary_School,Cooking_yes,2445.1995204406353,105.0934428119257,41,41.0,
259,,sex_male,Size_4,age_46_55,Education_Post_Graduate,Cooking_yes,13604.838409508846,82.16913867723413,111,111.0,
260,,sex_male,Size_4,age_36_45,Education_College,Cooking_yes,11714.174025978084,99.75901234193816,134,134.0,
262,,sex_male,Size_5,age_36_45,Education_Post_Secondary,Cooking_yes,6990.320010566839,116.05689302273042,155,155.0,
263,,sex_male,Size_5,age_46_55,Education_Elementary_School,Cooking_yes,3321.212817120976,114.06274295697261,1,1.0,
264,,sex_female,Size_3,age_46_55,Education_College,Cooking_no,11785.856001102802,79.11754769889357,589,589.0,
265,,sex_male,Size_2,age_66_75,Education_College,Cooking_no,11630.071972532687,72.68062398211914,220,220.0,
266,,sex_male,Size_2,age_56_65,Education_High_School,Cooking_yes,3699.04879775202,89.36092003766697,8,8.0,
267,,sex_male,Size_2,age_56_65,Education_Post_Secondary,Cooking_yes,6456.900588499799,126.63938499882363,152,152.0,
268,,sex_male,Size_2,age_56_65,Education_Post_Secondary,Cooking_yes,6503.122398326762,117.8551841731482,142,142.0,
269,,sex_male,Size_4,age_36_45,Education_College,Cooking_yes,11749.214375384397,100.55383617505721,136,136.0,
270,,sex_male,Size_4,age_46_55,Education_College,Cooking_yes,11850.09341780502,106.05279702273307,25,25.0,
271,,sex_male,Size_4,age_36_45,Education_Post_Secondary,Cooking_yes,6656.932875717397,109.60757338358185,152,152.0,
272,,sex_male,Size_4,age_46_55,Education_College,Cooking_no,12006.716617270271,104.17679330185521,5,5.0,
273,,sex_female,Size_3,age_56_65,Education_Post_Secondary,Cooking_no,6946.541736188101,85.91540935792094,163,163.0,
274,,sex_male,Size_2,age_36_45,Education_Post_Secondary,Cooking_yes,6024.379296106546,114.96046558873944,638,638.0,
277,,sex_female,Size_2,age_56_65,Education_Post_Secondary,Cooking_yes,6475.9001371964905,90.00944182846635,194,194.0,
278,,sex_female,Size_2,age_56_65,Education_Post_Secondary,Cooking_yes,6471.2581668578905,88.92754123366845,214,214.0,
279,,sex_male,Size_6,age_36_45,Education_Post_Secondary,Cooking_yes,7101.449619993615,99.1370108978221,137,137.0,
280,,sex_male,Size_3,age_36_45,Education_Elementary_School,Cooking_no,2682.242813307278,82.4561715266651,40,40.0,
281,,sex_male,Size_3,age_36_45,Education_College,Cooking_yes,11561.775697949517,103.12952499656946,665,665.0,
282,,sex_male,Size_3,age_56_65,Education_Elementary_School,Cooking_yes,2806.078987207037,114.6829154638372,1,1.0,
283,,sex_male,Size_3,age_26_35,Education_Elementary_School,Cooking_yes,2472.546929705169,112.21836670449609,28,28.0,
284,,sex_male,Size_3,age_46_55,Education_High_School,Cooking_no,3678.685812803064,68.78818292718498,23,23.0,
285,,sex_male,Size_3,age_46_55,Education_Post_Secondary,Cooking_no,6563.158406563553,84.29359273822071,558,558.0,
286,,sex_male,Size_2,age_56_65,Education_College,Cooking_yes,11535.928439058733,110.25258384189102,113,113.0,
287,,sex_male,Size_2,age_36_45,Education_Elementary_School,Cooking_yes,2406.170627776553,112.14955637093635,34,34.0,
288,,sex_male,Size_2,age_36_45,Education_College,Cooking_yes,11139.281630251566,138.43611172409203,660,660.0,
289,,sex_male,Size_2,age_46_55,Education_High_School,Cooking_yes,3503.7914004476124,103.48628553547141,33,33.0,
290,,sex_male,Size_7,age_36_45,Education_College,Cooking_yes,12424.842710740344,122.92925415270021,196,196.0,
292,,sex_male,Size_7,age_36_45,Education_Post_Secondary,Cooking_yes,7301.1995682852075,129.8983868581475,258,258.0,
293,,sex_female,Size_4,age_36_45,Education_College,Cooking_yes,11751.097178813045,146.85722031383864,189,189.0,
295,,sex_male,Size_4,age_26_35,Education_College,Cooking_yes,11552.341195653418,125.55590715697252,39,39.0,
298,,sex_male,Size_5,age_36_45,Education_College,Cooking_no,11885.06860778646,99.44109247318576,150,150.0,
299,,sex_male,Size_2,age_26_35,Education_College,Cooking_yes,10899.77126992998,117.2720912815077,586,586.0,
300,,sex_male,Size_3,age_46_55,Education_Post_Graduate,Cooking_yes,13354.347690184759,109.25232939910019,1110,1110.0,
301,,sex_male,Size_3,age_46_55,Education_Elementary_School,Cooking_yes,2800.2891538819435,114.58304376470669,32,32.0,
302,,sex_male,Size_3,age_46_55,Education_High_School,Cooking_yes,3740.636952425675,93.10357184334242,27,27.0,
305,,sex_male,Size_4,age_46_55,Education_Post_Graduate,Cooking_yes,13610.54767567375,131.93359295426262,119,119.0,
306,,sex_female,Size_3,age_46_55,Education_Post_Secondary,Cooking_yes,6797.1458924595445,112.02935689420589,637,637.0,
307,,sex_male,Size_3,age_46_55,Education_High_School,Cooking_yes,3683.542231259984,83.61387629349036,30,30.0,
308,,sex_female,Size_3,age_36_45,Education_College,Cooking_yes,11652.56012443677,133.3530073315977,717,717.0,
309,,sex_male,Size_6,age_46_55,Education_Post_Secondary,Cooking_yes,7339.363359789879,87.15651204513195,41,41.0,
310,,sex_female,Size_5,age_46_55,Education_Post_Secondary,Cooking_no,7117.0608319213625,74.94543365601376,123,123.0,
312,,sex_male,Size_4,age_46_55,Education_Post_Secondary,Cooking_yes,6847.555651292108,84.4737366142705,44,44.0,
313,,sex_male,Size_4,age_46_55,Education_College,Cooking_yes,11917.966325546455,101.49280320310315,20,20.0,
314,,sex_male,Size_2,age_46_55,Education_Elementary_School,Cooking_yes,2520.349773823792,88.34685776366894,23,23.0,
315,,sex_female,Size_2,age_46_55,Education_Elementary_School,Cooking_yes,2689.717921396858,92.91474328364703,29,29.0,
316,,sex_male,Size_2,age_36_45,Education_Post_Graduate,Cooking_no,13009.880573757706,85.67060444555754,1232,1232.0,
317,,sex_male,Size_3,age_46_55,Education_Elementary_School,Cooking_yes,2885.6066197115088,90.23184973524322,25,25.0,
318,,sex_male,Size_3,age_36_45,Education_College,Cooking_yes,11637.182357727548,105.83707343683189,627,627.0,
319,,sex_male,Size_5,age_46_55,Education_College,Cooking_yes,12211.52238734392,116.54244799477385,59,59.0,
320,,sex_male,Size_2,age_46_55,Education_Post_Secondary,Cooking_yes,6310.961830735177,106.6443434403206,553,553.0,
321,,sex_male,Size_5,age_46_55,Education_Post_Secondary,Cooking_yes,7065.864222246142,122.02946467168368,91,91.0,
322,,sex_male,Size_4,age_36_45,Education_Post_Secondary,Cooking_no,6683.862097831189,56.76266899525267,129,129.0,
324,,sex_male,Size_6,age_36_45,Education_Elementary_School,Cooking_yes,3352.565349129215,97.66154501342638,4,4.0,
326,,sex_female,Size_2,age_76_85,Education_Post_Secondary,Cooking_yes,6930.2102140520265,124.35261746941582,742,742.0,
327,,sex_male,Size_2,age_46_55,Education_College,Cooking_yes,11289.85928671666,93.58754528738804,519,519.0,
329,,sex_female,Size_2,age_36_45,Education_Post_Secondary,Cooking_yes,6362.127499298807,63.73476715207625,741,741.0,
330,,sex_male,Size_4,age_36_45,Education_College,Cooking_yes,11803.093313997782,109.26886783463694,143,143.0,
331,,sex_male,Size_3,age_36_45,Education_Elementary_School,Cooking_yes,2692.695316218508,98.9727750569693,39,39.0,
332,,sex_male,Size_3,age_46_55,Education_Post_Secondary,Cooking_yes,6468.334047551299,105.52190617030124,557,557.0,
333,,sex_male,Size_3,age_46_55,Education_High_School,Cooking_yes,3692.3036915229663,109.60383980338048,29,29.0,
334,,sex_male,Size_5,age_46_55,Education_Elementary_School,Cooking_yes,3277.6358514873773,94.30713042557275,1,1.0,
335,,sex_male,Size_3,age_66_75,Education_Post_Secondary,Cooking_yes,6883.112933739693,100.01224046827862,263,263.0,
336,,sex_female,Size_3,age_46_55,Education_Post_Secondary,Cooking_yes,6662.0719223655005,125.19122174333275,616,616.0,
337,,sex_male,Size_3,age_46_55,Education_Post_Secondary,Cooking_yes,6632.8708653581725,101.69296204718415,566,566.0,
338,,sex_female,Size_4,age_36_45,Education_High_School,Cooking_yes,3817.2139556855213,115.65976293735189,10,10.0,
339,,sex_male,Size_3,age_46_55,Education_Elementary_School,Cooking_yes,2766.2232353773934,125.87099499881464,22,22.0,
340,,sex_female,Size_3,age_36_45,Education_College,Cooking_yes,11668.229008104312,135.7286799451896,713,713.0,
341,,sex_male,Size_3,age_36_45,Education_Post_Secondary,Cooking_yes,6263.291168596825,95.1654632950124,716,716.0,
342,,sex_male,Size_3,age_66_75,Education_College,Cooking_yes,11819.777431162684,118.20185096059593,247,247.0,
343,,sex_male,Size_3,age_56_65,Education_Post_Secondary,Cooking_yes,6775.54312961586,100.13748552189952,159,159.0,
344,,sex_male,Size_3,age_36_45,Education_College,Cooking_yes,11421.088559903765,69.41585409947619,647,647.0,
345,,sex_female,Size_3,age_46_55,Education_Post_Secondary,Cooking_yes,6577.6877017062025,97.16539987765654,640,640.0,
346,,sex_male,Size_4,age_46_55,Education_College,Cooking_yes,11887.793506170758,124.73270446778729,26,26.0,
347,,sex_male,Size_3,age_56_65,Education_College,Cooking_yes,11724.608041038422,117.34611112994475,123,123.0,
348,,sex_male,Size_7,age_36_45,Education_Post_Secondary,Cooking_yes,7514.36670097683,125.86797620926124,211,211.0,
350,,sex_male,Size_3,age_46_55,Education_High_School,Cooking_yes,3768.498225057947,108.97089139968219,30,30.0,
351,,sex_female,Size_5,age_46_55,Education_Post_Secondary,Cooking_yes,7234.3411873132945,110.3464416166241,154,154.0,
352,,sex_male,Size_2,age_46_55,Education_College,Cooking_no,11348.984255614223,91.75918266535503,523,523.0,
353,,sex_female,Size_5,age_46_55,Education_Post_Graduate,Cooking_yes,14123.36870390921,106.48651749415937,252,252.0,
355,,sex_male,Size_2,age_56_65,Education_Elementary_School,Cooking_yes,2580.1279096916105,111.73664794964577,5,5.0,
356,,sex_male,Size_3,age_46_55,Education_Elementary_School,Cooking_yes,2743.389778712226,111.42770783652377,27,27.0,
357,,sex_male,Size_3,age_56_65,Education_College,Cooking_yes,11679.052229389856,102.8516578254178,106,106.0,
358,,sex_male,Size_5,age_36_45,Education_College,Cooking_no,11980.558305294353,87.8988152109284,159,159.0,
359,,sex_male,Size_4,age_36_45,Education_Post_Secondary,Cooking_yes,6597.4688730937205,107.24043108348813,162,162.0,
360,,sex_male,Size_2,age_36_45,Education_College,Cooking_no,11170.35779871248,91.96969061567667,660,660.0,
361,,sex_male,Size_3,age_46_55,Education_Post_Secondary,Cooking_yes,6573.003554164898,103.94965597233721,599,599.0,
363,,sex_female,Size_2,age_56_65,Education_Elementary_School,Cooking_no,2826.9445891971973,92.86850609183927,4,4.0,
364,,sex_male,Size_2,age_66_75,Education_Elementary_School,Cooking_yes,2762.517895855649,101.77844932216544,13,13.0,
365,,sex_male,Size_2,age_66_75,Education_Post_Secondary,Cooking_yes,6560.536139396671,108.64072913515342,259,259.0,
366,,sex_female,Size_2,age_46_55,Education_Post_Secondary,Cooking_yes,6496.477793580796,96.07201122094786,625,625.0,
367,,sex_male,Size_4,age_26_35,Education_High_School,Cooking_no,3598.877449706011,74.55111219544281,1,1.0,
368,,sex_female,Size_7,age_36_45,Education_College,Cooking_yes,12708.080310395495,99.45897838217303,244,244.0,
369,,sex_male,Size_3,age_46_55,Education_Post_Secondary,Cooking_yes,6582.285294327932,99.2756376316904,608,608.0,
370,,sex_male,Size_3,age_26_35,Education_Elementary_School,Cooking_no,2473.464744217973,71.53268107333422,37,37.0,
371,,sex_female,Size_4,age_19_25,Education_College,Cooking_yes,11597.504132439837,114.5695656739734,520,520.0,
372,,sex_female,Size_3,age_19_25,Education_Elementary_School,Cooking_no,2477.3476171272505,79.76317940138425,57,57.0,
373,,sex_male,Size_2,age_56_65,Education_High_School,Cooking_yes,3534.765106900401,121.4376493466338,8,8.0,
375,,sex_female,Size_8,age_26_35,Education_Elementary_School,Cooking_yes,3918.7671983505534,82.18602114897506,9,9.0,
377,,sex_female,Size_2,age_56_65,Education_Post_Secondary,Cooking_no,6515.520176721458,84.3970344949444,176,176.0,
379,,sex_female,Size_6,age_46_55,Education_College,Cooking_yes,12601.660794265345,105.02448284574992,57,57.0,
381,,sex_male,Size_5,age_46_55,Education_High_School,Cooking_yes,4120.841881482365,134.08947591144437,6,6.0,
383,,sex_male,Size_2,age_46_55,Education_College,Cooking_yes,11391.192783962713,84.95652954554673,571,571.0,
385,,sex_female,Size_3,age_56_65,Education_College,Cooking_yes,12004.154680299675,117.60349422805544,154,154.0,
386,,sex_male,Size_2,age_46_55,Education_High_School,Cooking_yes,3543.012662407557,88.24119862953917,36,36.0,
387,,sex_male,Size_4,age_46_55,Education_High_School,Cooking_yes,4066.076219202271,92.26676742627834,2,2.0,
388,,sex_male,Size_5,age_36_45,Education_Post_Secondary,Cooking_yes,6804.469788163359,106.85089047576649,176,176.0,
389,,sex_male,Size_5,age_46_55,Education_High_School,Cooking_yes,4220.380633430302,119.49175915529919,3,3.0,
391,,sex_male,Size_8,age_46_55,Education_Post_Graduate,Cooking_yes,14704.097063588946,133.69872944442812,262,262.0,
392,,sex_male,Size_10,age_66_75,Education_College,Cooking_yes,13804.41877873052,110.7961227726404,1737,1737.0,
394,,sex_male,Size_8,age_46_55,Education_College,Cooking_no,12969.407540031621,84.01273010458549,88,88.0,
395,,sex_male,Size_7,age_36_45,Education_Post_Secondary,Cooking_yes,7464.675380361104,141.1607476886355,212,212.0,
396,,sex_male,Size_7,age_46_55,Education_Elementary_School,Cooking_yes,3864.986096710064,76.78310801017587,2,2.0,
397,,sex_female,Size_3,age_46_55,Education_College,Cooking_yes,11865.216040560546,133.32209356308962,593,593.0,
399,,sex_male,Size_5,age_46_55,Education_College,Cooking_yes,12051.07746095573,73.21486301764182,68,68.0,
400,,sex_male,Size_2,age_56_65,Education_Post_Secondary,Cooking_yes,6567.1518728547535,136.75427658461575,124,124.0,
402,,sex_female,Size_4,age_46_55,Education_College,Cooking_no,12076.955836436277,96.69827209572964,43,43.0,
403,,sex_male,Size_4,age_36_45,Education_Post_Secondary,Cooking_no,6640.65451106254,81.26621128264388,140,140.0,
404,,sex_male,Size_7,age_46_55,Education_Post_Secondary,Cooking_yes,7572.748918781555,107.97967576407423,127,127.0,
406,,sex_female,Size_5,age_46_55,Education_Elementary_School,Cooking_yes,3376.7080991506236,85.18722099113597,1,1.0,
408,,sex_male,Size_2,age_46_55,Education_Post_Graduate,Cooking_yes,13142.064974020672,110.40156606162225,1093,1093.0,
409,,sex_female,Size_2,age_46_55,Education_High_School,Cooking_yes,3599.1133584793597,109.3108346362772,38,38.0,
410,,sex_female,Size_3,age_36_45,Education_Post_Secondary,Cooking_yes,6524.992608617428,92.98986348834325,710,710.0,
411,,sex_female,Size_3,age_56_65,Education_College,Cooking_no,11984.772561084712,83.2520867119013,132,132.0,
412,,sex_male,Size_5,age_36_45,Education_High_School,Cooking_yes,4058.231426655697,117.52264644065738,8,8.0,
413,,sex_male,Size_3,age_36_45,Education_Elementary_School,Cooking_yes,2654.006288211897,131.89681203797278,33,33.0,
415,,sex_male,Size_3,age_36_45,Education_College,Cooking_no,11497.915028557107,112.80715804771539,671,671.0,
416,,sex_male,Size_2,age_46_55,Education_College,Cooking_yes,11449.268912451027,124.03269108073063,540,540.0,
419,,sex_male,Size_2,age_56_65,Education_Post_Secondary,Cooking_yes,6481.8842121866965,97.69430956816673,134,134.0,
420,,sex_male,Size_3,age_46_55,Education_College,Cooking_yes,11670.96695312032,134.2123460196457,552,552.0,
421,,sex_male,Size_3,age_46_55,Education_Elementary_School,Cooking_yes,2863.938014480733,85.78513764375863,33,33.0,
424,,sex_male,Size_3,age_46_55,Education_Post_Secondary,Cooking_yes,6440.2252089347985,118.17636869219409,570,570.0,
425,,sex_male,Size_3,age_46_55,Education_Post_Secondary,Cooking_yes,6535.287040721864,122.63319220550471,596,596.0,
426,,sex_female,Size_4,age_36_45,Education_Post_Secondary,Cooking_yes,6805.059979345611,106.4907245043319,207,207.0,
427,,sex_male,Size_6,age_46_55,Education_Post_Secondary,Cooking_no,7318.9469732470325,101.54553867054608,12,12.0,
431,,sex_male,Size_3,age_26_35,Education_College,Cooking_yes,11320.75187909082,149.35424051064052,571,571.0,
432,,sex_female,Size_3,age_26_35,Education_College,Cooking_no,11457.186231009544,94.9885592687705,568,568.0,
433,,sex_female,Size_4,age_26_35,Education_Post_Secondary,Cooking_yes,6603.971102538281,133.1842534641517,98,98.0,
435,,sex_male,Size_4,age_36_45,Education_High_School,Cooking_no,3908.0686112645753,102.6038878548453,7,7.0,
436,,sex_male,Size_3,age_36_45,Education_College,Cooking_no,11510.506914818974,120.26623682613301,636,636.0,
437,,sex_male,Size_2,age_46_55,Education_Elementary_School,Cooking_yes,2499.311965375558,156.76766801973932,35,35.0,
438,,sex_male,Size_2,age_36_45,Education_High_School,Cooking_no,3307.406289689493,82.50331058382714,43,43.0,
439,,sex_male,Size_5,age_46_55,Education_Post_Secondary,Cooking_yes,7052.841998829163,105.53938245470205,85,85.0,
441,,sex_male,Size_3,age_46_55,Education_College,Cooking_yes,11576.52144197116,99.56948949364077,539,539.0,
442,,sex_female,Size_3,age_56_65,Education_College,Cooking_yes,11794.403584508309,115.19321670677903,164,164.0,
443,,sex_female,Size_4,age_46_55,Education_Post_Secondary,Cooking_yes,7040.201281282859,115.03603185749441,89,89.0,
445,,sex_male,Size_6,age_36_45,Education_College,Cooking_yes,12249.14375803076,85.33945390801816,128,128.0,
448,,sex_male,Size_5,age_36_45,Education_College,Cooking_yes,12100.250711909563,135.8527623803266,168,168.0,
449,,sex_male,Size_2,age_36_45,Education_College,Cooking_yes,11098.494878511916,83.76383055789225,661,661.0,
450,,sex_male,Size_2,age_46_55,Education_Post_Secondary,Cooking_yes,6235.061905974558,90.19661286856508,553,553.0,
451,,sex_male,Size_3,age_56_65,Education_Post_Graduate,Cooking_yes,13549.111954803891,118.96988911455931,282,282.0,
452,,sex_male,Size_3,age_36_45,Education_Post_Secondary,Cooking_yes,6347.722525257051,114.43257043681618,696,696.0,
453,,sex_male,Size_2,age_36_45,Education_Post_Graduate,Cooking_yes,12948.4132374902,123.20451512140927,1286,1286.0,
454,,sex_male,Size_2,age_56_65,Education_Post_Secondary,Cooking_yes,6394.5281475171105,100.04876745682589,160,160.0,
455,,sex_male,Size_4,age_36_45,Education_College,Cooking_yes,11784.521406683833,124.21753404063745,142,142.0,
456,,sex_male,Size_6,age_26_35,Education_Post_Graduate,Cooking_yes,13872.825417992162,97.77512704523113,104,104.0,
457,,sex_female,Size_6,age_46_55,Education_College,Cooking_yes,12695.82302461408,131.06539022883302,56,56.0,
458,,sex_male,Size_5,age_46_55,Education_Post_Secondary,Cooking_yes,7028.869704183237,96.76784862760722,97,97.0,
459,,sex_male,Size_5,age_36_45,Education_College,Cooking_yes,12042.1661788595,107.65943116009201,159,159.0,
460,,sex_male,Size_9,age_36_45,Education_Elementary_School,Cooking_yes,4194.637409204764,87.06986905278434,5,5.0,
461,,sex_male,Size_6,age_46_55,Education_College,Cooking_yes,12528.987078407607,95.90896059251214,11,11.0,
462,,sex_male,Size_9,age_36_45,Education_High_School,Cooking_no,5097.898958974293,75.75449897488382,8,8.0,
463,,sex_female,Size_4,age_36_45,Education_College,Cooking_yes,11921.989291707368,116.71792065051585,170,170.0,
