,real_index,i_Sex,i_FamilySize,i_Age,i_Education,e_Cooking,Income,Electricity,w,wf,sw
0,0.0,sex_male,Size_3,age_56_65,Education_Elementary_School,Cooking_yes,2812.956122528769,195.58935524100025,1,201.6739068563856,1.0
1,1.0,sex_male,Size_4,age_46_55,Education_Post_Secondary,Cooking_yes,6680.847474629481,146.18317903381597,1,37.77305132346541,21.0
2,2.0,sex_male,Size_3,age_46_55,Education_Post_Secondary,Cooking_yes,6443.440880636851,172.64156472662614,1,419.9987535258151,21.0
5,5.0,sex_male,Size_5,age_46_55,Education_Elementary_School,Cooking_yes,3273.3213610104917,159.09879101743246,1,51.160462000761356,1.0
6,6.0,sex_male,Size_6,age_36_45,Education_Elementary_School,Cooking_yes,3432.9023840975688,164.06025563400053,1,198.09335917545224,1.0
7,7.0,sex_male,Size_6,age_46_55,Education_Post_Secondary,Cooking_yes,7439.300921282382,160.58007118559755,1,29.146437060180048,21.0
10,10.0,sex_male,Size_5,age_46_55,Education_Elementary_School,Cooking_yes,3358.650344312653,170.25457453306174,1,53.160462000761356,1.0
11,11.0,sex_female,Size_3,age_56_65,Education_Post_Secondary,Cooking_yes,6833.270229425025,205.0263022918305,1,130.33189597029298,21.0
12,12.0,sex_male,Size_3,age_46_55,Education_High_School,Cooking_yes,3711.514603389656,159.6243869580116,1,1548.830045087093,1.0
13,13.0,sex_female,Size_2,age_46_55,Education_High_School,Cooking_yes,3534.9951534457373,152.48417788082216,1,1666.737248491598,1.0
14,14.0,sex_male,Size_5,age_36_45,Education_Elementary_School,Cooking_yes,3095.2854423039053,165.48915766825448,1,328.48362797909704,1.0
15,15.0,sex_male,Size_5,age_46_55,Education_High_School,Cooking_yes,4251.782889432977,181.84182036049305,1,262.3679974251014,1.0
16,16.0,sex_female,Size_7,age_36_45,Education_College,Cooking_yes,12580.025496783774,192.7820099669904,1,162.4404565015593,21.0
17,17.0,sex_female,Size_7,age_46_55,Education_High_School,Cooking_yes,4872.706150755094,194.79189978440482,1,457.8715429742181,1.0
18,18.0,sex_male,Size_9,age_36_45,Education_Post_Graduate,Cooking_no,14844.818111410845,134.54167496354142,1,20.741409871515145,51.0
19,19.0,sex_male,Size_3,age_56_65,Education_College,Cooking_yes,11807.625177788595,175.4539780561763,1,92.12718982973115,21.0
20,20.0,sex_male,Size_2,age_66_75,Education_High_School,Cooking_yes,3804.1648852879107,163.61581731891815,1,751.0254535683132,1.0
21,21.0,sex_male,Size_5,age_46_55,Education_Elementary_School,Cooking_yes,3362.6134678732265,184.9299262551284,1,49.160462000761356,1.0
22,22.0,sex_female,Size_5,age_46_55,Education_College,Cooking_yes,12352.708836204907,211.52603329586933,1,66.89549022495186,21.0
23,23.0,sex_male,Size_4,age_46_55,Education_College,Cooking_yes,11812.185560725735,210.6410563691317,1,17.850090433748576,21.0
24,24.0,sex_male,Size_2,age_36_45,Education_Post_Secondary,Cooking_yes,6192.905580541499,164.83677429799047,1,499.94737765781065,21.0
26,26.0,sex_male,Size_7,age_36_45,Education_Post_Secondary,Cooking_yes,7540.522642079921,156.83266189101425,1,163.08167214043237,21.0
27,27.0,sex_female,Size_8,age_36_45,Education_Post_Secondary,Cooking_yes,7823.006601275548,161.2876269307019,1,221.66997657610943,21.0
28,28.0,sex_male,Size_3,age_56_65,Education_Elementary_School,Cooking_no,2828.745238112871,116.7477444544733,1,142.1740180880202,1.0
29,29.0,sex_male,Size_4,age_46_55,Education_Post_Secondary,Cooking_yes,6836.2233469243565,169.30510162842478,1,29.77305132346541,21.0
30,30.0,sex_female,Size_6,age_46_55,Education_High_School,Cooking_no,4741.23276508017,100.86351961338389,1,184.75958510393747,1.0
31,31.0,sex_male,Size_3,age_56_65,Education_Elementary_School,Cooking_yes,2888.6254678175733,142.1360711428587,1,198.6739068563856,1.0
32,32.0,sex_male,Size_6,age_46_55,Education_Post_Graduate,Cooking_no,14261.060583621529,125.8326039699098,1,1.7361306825465164,51.0
34,34.0,sex_female,Size_2,age_46_55,Education_Post_Graduate,Cooking_no,13359.99700395934,142.9086643401726,1,73.49565055268636,51.0
35,35.0,sex_female,Size_2,age_56_65,Education_College,Cooking_yes,11714.472653115168,154.57965279961633,1,133.0343932342363,21.0
36,36.0,sex_male,Size_3,age_56_65,Education_Post_Secondary,Cooking_yes,6797.69677584412,160.72146998789395,1,107.05015071944916,21.0
37,37.0,sex_male,Size_3,age_66_75,Education_High_School,Cooking_yes,4028.495548035763,184.17221957577286,1,752.3999954146527,1.0
39,39.0,sex_female,Size_4,age_36_45,Education_College,Cooking_no,11807.34853631753,120.37807957980637,1,121.95511289456397,21.0
40,40.0,sex_female,Size_4,age_26_35,Education_Elementary_School,Cooking_yes,2737.480570806724,167.19533607805303,1,98.78032678394436,1.0
41,41.0,sex_female,Size_5,age_46_55,Education_Elementary_School,Cooking_no,3263.3874796742853,139.54066741257662,1,107.94231848324104,1.0
42,42.0,sex_female,Size_4,age_46_55,Education_Post_Secondary,Cooking_yes,6772.712982843905,166.98978812586202,1,61.0547965743105,21.0
43,43.0,sex_female,Size_4,age_36_45,Education_Post_Secondary,Cooking_yes,6964.009136161433,193.61897208900558,1,165.37796255264618,21.0
44,44.0,sex_female,Size_3,age_56_65,Education_College,Cooking_yes,12004.095248923912,188.6675337967426,1,144.4089350805761,21.0
45,45.0,sex_male,Size_3,age_26_35,Education_High_School,Cooking_yes,3412.151839863429,120.83503022706614,1,1604.93181915979,1.0
46,46.0,sex_male,Size_4,age_26_35,Education_Post_Secondary,Cooking_no,6537.835563040771,105.83444000196188,1,38.37493662779859,21.0
47,47.0,sex_male,Size_5,age_36_45,Education_Post_Secondary,Cooking_yes,6948.106898161074,195.49846236889613,1,138.8598718421606,21.0
49,49.0,sex_male,Size_4,age_46_55,Education_College,Cooking_yes,11833.625747460575,189.901925435744,1,23.850090433748576,21.0
51,51.0,sex_male,Size_6,age_36_45,Education_College,Cooking_yes,12268.855234368591,177.13021857863131,1,86.54664214879779,21.0
53,53.0,sex_male,Size_2,age_56_65,Education_Post_Graduate,Cooking_yes,13239.055783330712,183.45125966013043,1,22.7651912638388,51.0
54,54.0,sex_male,Size_3,age_36_45,Education_Elementary_School,Cooking_yes,2700.8326729989717,171.25060036422144,1,1642.945675641087,1.0
55,55.0,sex_male,Size_2,age_56_65,Education_Post_Secondary,Cooking_yes,6464.733458208032,166.76023076174312,1,101.67560887310822,21.0
56,56.0,sex_male,Size_5,age_46_55,Education_Post_Secondary,Cooking_yes,7075.31887109548,158.60414825899338,1,71.53670586382492,21.0
57,57.0,sex_male,Size_6,age_46_55,Education_College,Cooking_yes,12431.151177011592,177.2684028903588,1,9.2234761704632,21.0
58,58.0,sex_male,Size_7,age_46_55,Education_High_School,Cooking_yes,4858.526585639439,213.02288869832168,1,340.5897977233743,1.0
59,59.0,sex_male,Size_4,age_46_55,Education_College,Cooking_yes,11827.839835405171,170.89821183746525,1,21.850090433748576,21.0
60,60.0,sex_male,Size_4,age_46_55,Education_Post_Secondary,Cooking_no,6775.613380143154,117.0505348357487,1,17.273162555101223,21.0
62,62.0,sex_male,Size_3,age_46_55,Education_High_School,Cooking_yes,3566.0515906266087,149.0193333442887,1,1563.830045087093,1.0
66,66.0,sex_male,Size_7,age_46_55,Education_College,Cooking_yes,12712.561651060076,221.7850929989317,1,68.8355452723797,21.0
67,67.0,sex_male,Size_5,age_36_45,Education_College,Cooking_no,11935.540887809831,181.47217847884582,1,116.43702218407827,21.0
70,70.0,sex_male,Size_5,age_46_55,Education_College,Cooking_yes,12215.39308532363,191.10324473158101,1,44.61374497410685,21.0
71,71.0,sex_male,Size_4,age_46_55,Education_College,Cooking_yes,11835.470065250349,177.1479296180124,1,18.850090433748576,21.0
72,72.0,sex_male,Size_3,age_46_55,Education_Post_Secondary,Cooking_no,6457.208286426461,141.0204477380616,1,433.498864757451,21.0
76,76.0,sex_male,Size_8,age_36_45,Education_College,Cooking_yes,12681.422500909706,204.44985058706143,1,152.46527043554636,21.0
80,80.0,sex_male,Size_6,age_36_45,Education_Post_Secondary,Cooking_yes,7202.212872444573,174.8637713982269,1,95.46960303851569,21.0
81,81.0,sex_male,Size_4,age_46_55,Education_High_School,Cooking_no,3993.6179771684456,115.10882919895674,1,98.10445411637774,1.0
84,84.0,sex_female,Size_3,age_46_55,Education_College,Cooking_yes,11763.851384076985,181.48888702549687,1,416.3575378869434,21.0
85,85.0,sex_male,Size_6,age_46_55,Education_College,Cooking_yes,12474.322447791712,129.50664654441928,1,9.2234761704632,21.0
86,86.0,sex_male,Size_6,age_46_55,Education_Post_Secondary,Cooking_yes,7326.42819068783,212.77435776084943,1,20.146437060180048,21.0
87,87.0,sex_male,Size_5,age_36_45,Education_Post_Secondary,Cooking_yes,6931.853219000781,159.83744654922242,1,161.8598718421606,21.0
91,91.0,sex_male,Size_6,age_46_55,Education_College,Cooking_yes,12393.69282386007,191.72922873315758,1,9.2234761704632,21.0
92,92.0,sex_male,Size_5,age_46_55,Education_Post_Secondary,Cooking_no,6996.935183014576,149.58120900222715,1,58.03681709546069,21.0
93,93.0,sex_male,Size_2,age_46_55,Education_College,Cooking_yes,11492.997398816291,208.740811043892,1,401.7012507897582,21.0
94,94.0,sex_male,Size_2,age_46_55,Education_Elementary_School,Cooking_yes,2368.839203664856,160.55937821757774,1,1350.2479678164113,1.0
95,95.0,sex_male,Size_10,age_56_65,Education_College,Cooking_yes,13733.620786447244,167.69462398073946,1,1111.2407100862192,21.0
97,97.0,sex_male,Size_6,age_36_45,Education_College,Cooking_yes,12215.584155423614,192.15315292502154,1,92.54664214879779,21.0
98,98.0,sex_male,Size_6,age_46_55,Education_Post_Secondary,Cooking_yes,7364.3664071420435,165.39733630249953,1,28.146437060180048,21.0
99,99.0,sex_male,Size_4,age_46_55,Education_Post_Graduate,Cooking_yes,13657.684451165198,181.9518479352739,1,7.862633714196079,51.0
100,100.0,sex_male,Size_4,age_26_35,Education_Post_Secondary,Cooking_yes,6514.036685209959,190.10315546845771,1,49.874825396162805,21.0
101,101.0,sex_male,Size_4,age_46_55,Education_Post_Secondary,Cooking_yes,6865.1161902032545,185.3966021494951,1,36.77305132346541,21.0
103,103.0,sex_male,Size_3,age_56_65,Education_Post_Secondary,Cooking_yes,6660.308757147824,138.03098122874584,1,117.05015071944916,21.0
104,104.0,sex_male,Size_3,age_26_35,Education_High_School,Cooking_yes,3403.002224737032,171.69488171844142,1,1598.93181915979,1.0
105,105.0,sex_female,Size_3,age_46_55,Education_Post_Secondary,Cooking_yes,6733.420339183469,176.04375911727325,1,459.2804987766599,21.0
106,106.0,sex_female,Size_3,age_36_45,Education_Post_Secondary,Cooking_yes,6483.1790523511645,188.85453053167296,1,517.6036647549954,21.0
108,108.0,sex_male,Size_3,age_46_55,Education_Post_Secondary,Cooking_yes,6593.2802499884765,149.30778678454615,1,424.9987535258151,21.0
109,109.0,sex_female,Size_4,age_36_45,Education_High_School,Cooking_yes,4007.56172999464,194.5395550448376,1,559.2092541139227,1.0
110,110.0,sex_male,Size_3,age_36_45,Education_Post_Secondary,Cooking_yes,6478.913417380642,182.4421131612043,1,540.3219195041504,21.0
111,111.0,sex_female,Size_3,age_46_55,Education_Post_Secondary,Cooking_yes,6732.242072574274,185.88843283767795,1,465.2804987766599,21.0
112,112.0,sex_male,Size_3,age_56_65,Education_High_School,Cooking_yes,3930.296937655162,171.17580770272585,1,400.8814422807257,1.0
113,113.0,sex_male,Size_3,age_26_35,Education_College,Cooking_yes,11334.021753053074,189.8786493159,1,433.17756670879544,21.0
114,114.0,sex_female,Size_3,age_26_35,Education_Post_Secondary,Cooking_yes,6389.528652725943,199.96542839777808,1,490.38227284935783,21.0
115,115.0,sex_male,Size_3,age_26_35,Education_Elementary_School,Cooking_yes,2382.201446631082,156.4855405051029,1,1394.7242837354502,1.0
116,116.0,sex_female,Size_3,age_46_55,Education_College,Cooking_yes,11782.882596333546,203.17990492361218,1,446.3575378869434,21.0
117,117.0,sex_male,Size_5,age_26_35,Education_Elementary_School,Cooking_yes,2958.381946793973,194.5066182242505,1,90.26223607345871,1.0
120,120.0,sex_male,Size_8,age_36_45,Education_College,Cooking_yes,12783.585927520005,168.68367363123141,1,146.46527043554636,21.0
121,121.0,sex_male,Size_2,age_56_65,Education_Elementary_School,Cooking_yes,2612.4632524983317,170.62327156053527,1,189.29936501004457,1.0
122,122.0,sex_male,Size_3,age_46_55,Education_College,Cooking_yes,11629.72771507163,178.7235347396909,1,404.07579263609796,21.0
123,123.0,sex_female,Size_4,age_36_45,Education_High_School,Cooking_yes,3908.5976956374825,163.09381965882508,1,553.2092541139227,1.0
124,124.0,sex_male,Size_4,age_46_55,Education_High_School,Cooking_yes,3930.2489643701488,171.680232184063,1,148.60434288474315,1.0
125,125.0,sex_male,Size_4,age_46_55,Education_Post_Secondary,Cooking_no,6774.107363178719,148.4405218154104,1,25.273162555101223,21.0
126,126.0,sex_female,Size_6,age_46_55,Education_Post_Secondary,Cooking_yes,7487.095972667529,161.17678025462905,1,55.428182311025154,21.0
127,127.0,sex_female,Size_5,age_36_45,Education_Elementary_School,Cooking_yes,3273.027844739333,156.8065027756663,1,447.76537322994096,1.0
128,128.0,sex_male,Size_5,age_26_35,Education_Elementary_School,Cooking_no,2942.347386889599,118.19624152857573,1,31.762347305094508,1.0
130,130.0,sex_male,Size_3,age_46_55,Education_Elementary_School,Cooking_yes,2637.7347053592384,128.63571187618192,1,1356.6225096627516,1.0
131,131.0,sex_male,Size_2,age_46_55,Education_Elementary_School,Cooking_yes,2645.822498651804,210.00003393835502,1,1325.2479678164113,1.0
132,132.0,sex_male,Size_3,age_26_35,Education_High_School,Cooking_yes,3351.5548586451,121.78949029456446,1,1588.93181915979,1.0
133,133.0,sex_male,Size_2,age_36_45,Education_Post_Secondary,Cooking_yes,5960.513634050558,149.184106291125,1,504.94737765781065,21.0
134,134.0,sex_female,Size_7,age_46_55,Education_Post_Secondary,Cooking_yes,7867.501166820256,209.30161863431252,1,122.04025141294164,21.0
135,135.0,sex_male,Size_4,age_46_55,Education_College,Cooking_yes,11882.354215474172,206.8088245912361,1,11.850090433748576,21.0
136,136.0,sex_male,Size_5,age_46_55,Education_College,Cooking_yes,12185.814610067768,175.73919105801468,1,51.61374497410685,21.0
137,137.0,sex_male,Size_5,age_46_55,Education_Post_Secondary,Cooking_yes,7084.952401104671,186.74358959482387,1,55.53670586382492,21.0
138,138.0,sex_male,Size_4,age_36_45,Education_Post_Secondary,Cooking_yes,6613.493616573888,216.04006316215725,1,120.09621730180118,21.0
139,139.0,sex_female,Size_3,age_36_45,Education_Post_Graduate,Cooking_yes,13456.748694101687,218.33163628463777,1,85.69324714572667,51.0
140,140.0,sex_male,Size_3,age_36_45,Education_High_School,Cooking_yes,3602.8653084552643,200.89157427567872,1,1831.153211065428,1.0
142,142.0,sex_male,Size_5,age_46_55,Education_Post_Secondary,Cooking_yes,6944.7218469135305,167.63782328891568,1,69.53670586382492,21.0
145,145.0,sex_male,Size_2,age_26_35,Education_Post_Secondary,Cooking_yes,5969.668300210096,183.8981966758529,1,467.72598575217353,21.0
146,146.0,sex_male,Size_3,age_36_45,Education_College,Cooking_yes,11502.165016263833,225.12444582062275,1,496.3989586144339,21.0
147,147.0,sex_female,Size_5,age_36_45,Education_College,Cooking_no,12045.465686900134,123.12233737849968,1,138.7187674349234,21.0
148,148.0,sex_female,Size_3,age_56_65,Education_College,Cooking_yes,11850.08652904839,218.7358265244857,1,117.4089350805761,21.0
149,149.0,sex_female,Size_3,age_56_65,Education_College,Cooking_yes,11852.168305672705,219.04191273109868,1,108.4089350805761,21.0
150,150.0,sex_male,Size_3,age_46_55,Education_Post_Secondary,Cooking_yes,6539.195323621204,229.36450758644744,1,432.9987535258151,21.0
151,151.0,sex_male,Size_5,age_46_55,Education_Post_Secondary,Cooking_yes,7135.376550199961,168.26735729205072,1,66.53670586382492,21.0
152,152.0,sex_male,Size_5,age_36_45,Education_College,Cooking_yes,12029.686488430241,133.987057738026,1,111.93691095244264,21.0
153,153.0,sex_male,Size_5,age_36_45,Education_Elementary_School,Cooking_yes,3100.53248662841,141.1135449483355,1,331.48362797909704,1.0
154,154.0,sex_male,Size_4,age_36_45,Education_College,Cooking_yes,11796.441782554417,239.09777763856968,1,103.1732564120831,21.0
156,156.0,sex_male,Size_5,age_46_55,Education_Elementary_School,Cooking_yes,3323.518447310949,166.81512475390494,1,52.160462000761356,1.0
157,157.0,sex_female,Size_4,age_46_55,Education_College,Cooking_yes,12028.676611649267,159.06594433556313,1,54.13183568459249,21.0
158,158.0,sex_female,Size_4,age_36_45,Education_Post_Graduate,Cooking_no,13599.845527345977,111.26427531456044,1,20.967656175011598,51.0
161,161.0,sex_male,Size_3,age_46_55,Education_College,Cooking_yes,11673.438091051854,219.34596452797612,1,404.07579263609796,21.0
162,162.0,sex_male,Size_3,age_36_45,Education_Post_Secondary,Cooking_no,6273.216340110892,95.10923819342104,1,519.8220307357865,21.0
163,163.0,sex_male,Size_3,age_56_65,Education_Post_Secondary,Cooking_no,6609.26931403662,115.02560438578988,1,81.55026195108366,21.0
164,164.0,sex_male,Size_5,age_46_55,Education_College,Cooking_yes,12257.425027300142,200.1113344556566,1,40.61374497410685,21.0
165,165.0,sex_female,Size_3,age_46_55,Education_Post_Graduate,Cooking_yes,13658.129693133877,185.68455276481842,1,65.37008116739071,51.0
166,166.0,sex_male,Size_3,age_56_65,Education_College,Cooking_yes,11850.754430321973,180.46337433895846,1,86.12718982973115,21.0
167,167.0,sex_male,Size_2,age_36_45,Education_High_School,Cooking_yes,3289.052832663728,185.1005663873069,1,1826.7786692190882,1.0
168,168.0,sex_male,Size_3,age_46_55,Education_Elementary_School,Cooking_yes,2712.173993140021,157.82977217759966,1,1352.6225096627516,1.0
169,169.0,sex_female,Size_3,age_36_45,Education_Post_Graduate,Cooking_yes,13424.56799598292,165.47752354901888,1,76.69324714572667,51.0
171,171.0,sex_female,Size_3,age_46_55,Education_Post_Secondary,Cooking_no,6630.4321007200315,115.3688153422571,1,428.780610008296,21.0
172,172.0,sex_male,Size_3,age_46_55,Education_College,Cooking_yes,11644.313119443896,172.88714194210425,1,404.07579263609796,21.0
173,173.0,sex_female,Size_4,age_46_55,Education_Post_Secondary,Cooking_yes,6945.354530243898,171.52565565156206,1,68.0547965743105,21.0
174,174.0,sex_female,Size_4,age_36_45,Education_High_School,Cooking_yes,3891.1301071695775,167.4417431301963,1,546.2092541139227,1.0
176,176.0,sex_female,Size_2,age_36_45,Education_College,Cooking_yes,11403.621126439792,179.57132528555934,1,485.3061620189385,21.0
177,177.0,sex_male,Size_2,age_46_55,Education_Post_Secondary,Cooking_yes,6206.947356752617,156.71336733939316,1,454.62421167947673,21.0
178,178.0,sex_male,Size_2,age_36_45,Education_High_School,Cooking_yes,3418.0395073178497,196.7776592216328,1,1855.7786692190882,1.0
179,179.0,sex_male,Size_4,age_46_55,Education_College,Cooking_yes,11936.03832523286,184.20158107397708,1,20.850090433748576,21.0
180,180.0,sex_female,Size_2,age_46_55,Education_College,Cooking_yes,11601.49300294872,183.29593143946892,1,426.98299604060344,21.0
181,181.0,sex_female,Size_2,age_56_65,Education_College,Cooking_yes,11726.202223088832,212.18991944451744,1,125.03439323423629,21.0
182,182.0,sex_male,Size_3,age_46_55,Education_College,Cooking_yes,11686.906046794908,205.77510212212934,1,408.07579263609796,21.0
183,183.0,sex_male,Size_3,age_46_55,Education_Post_Secondary,Cooking_yes,6516.7597660810925,201.8283406106097,1,426.9987535258151,21.0
186,186.0,sex_male,Size_4,age_46_55,Education_Post_Graduate,Cooking_no,13592.394263564174,143.53464102026717,1,6.362744945831878,51.0
187,187.0,sex_female,Size_3,age_46_55,Education_Post_Secondary,Cooking_yes,6727.811341891439,170.38198101030727,1,485.2804987766599,21.0
188,188.0,sex_male,Size_3,age_56_65,Education_Elementary_School,Cooking_yes,2894.1405797365996,170.23905935037158,1,199.6739068563856,1.0
189,189.0,sex_female,Size_4,age_26_35,Education_High_School,Cooking_yes,3735.529677344749,192.67192260368688,1,309.98786220828566,1.0
190,190.0,sex_male,Size_4,age_36_45,Education_High_School,Cooking_yes,3828.3150223336493,142.65968089710097,1,446.9275088630777,1.0
191,191.0,sex_male,Size_5,age_46_55,Education_Post_Secondary,Cooking_yes,7084.484969529954,149.14272619810654,1,68.53670586382492,21.0
193,193.0,sex_male,Size_3,age_56_65,Education_College,Cooking_yes,11778.858934643942,147.6449815919875,1,93.12718982973115,21.0
194,194.0,sex_female,Size_3,age_56_65,Education_College,Cooking_yes,11927.238021004106,162.73077932221474,1,126.4089350805761,21.0
195,195.0,sex_female,Size_3,age_46_55,Education_College,Cooking_yes,11810.226440993574,154.20115404190915,1,462.3575378869434,21.0
196,196.0,sex_male,Size_7,age_46_55,Education_Post_Secondary,Cooking_no,7544.0071109086475,192.61668298312316,1,83.25861739373244,21.0
198,198.0,sex_male,Size_4,age_46_55,Education_Post_Secondary,Cooking_no,6813.1278805154725,175.39558637188333,1,21.273162555101223,21.0
199,199.0,sex_female,Size_4,age_46_55,Education_College,Cooking_yes,12087.795242109629,222.0853428070519,1,40.13183568459249,21.0
200,200.0,sex_female,Size_3,age_46_55,Education_College,Cooking_yes,11696.310874333252,213.87557217242698,1,449.3575378869434,21.0
201,201.0,sex_male,Size_3,age_46_55,Education_Post_Secondary,Cooking_no,6635.592423634373,187.2237641939958,1,413.498864757451,21.0
202,202.0,sex_male,Size_3,age_46_55,Education_College,Cooking_yes,11635.270804748943,180.4339338625923,1,419.07579263609796,21.0
203,203.0,sex_male,Size_4,age_36_45,Education_College,Cooking_yes,11809.832484488496,194.48539986598976,1,98.1732564120831,21.0
204,204.0,sex_male,Size_4,age_26_35,Education_College,Cooking_yes,11436.589503468716,222.9185905457848,1,29.95186450644593,21.0
205,205.0,sex_male,Size_4,age_36_45,Education_Post_Secondary,Cooking_yes,6489.3028806458215,170.4800816480729,1,104.09621730180118,21.0
206,206.0,sex_male,Size_6,age_46_55,Education_Post_Secondary,Cooking_yes,7299.9778764851335,128.47326053749777,1,31.146437060180048,21.0
209,209.0,sex_male,Size_4,age_26_35,Education_College,Cooking_yes,11529.570307440019,176.04634919749566,1,20.95186450644593,21.0
210,210.0,sex_female,Size_5,age_26_35,Education_Post_Graduate,Cooking_yes,13715.01545925319,162.27913603459817,1,22.00980757809799,51.0
211,211.0,sex_male,Size_8,age_46_55,Education_College,Cooking_yes,12931.097715405058,159.53905037378848,1,94.14210445721199,21.0
213,213.0,sex_male,Size_4,age_46_55,Education_College,Cooking_yes,11866.528476329131,219.57391799378868,1,21.850090433748576,21.0
214,214.0,sex_male,Size_4,age_36_45,Education_College,Cooking_yes,11845.04370760632,198.82035253864345,1,108.1732564120831,21.0
215,215.0,sex_male,Size_4,age_46_55,Education_Post_Secondary,Cooking_yes,6880.499707972549,156.70570701753005,1,39.77305132346541,21.0
216,216.0,sex_male,Size_4,age_46_55,Education_College,Cooking_yes,11980.858139987422,185.5064417583447,1,18.850090433748576,21.0
217,217.0,sex_male,Size_2,age_36_45,Education_Elementary_School,Cooking_yes,2371.496948148543,161.22425498677964,1,1619.5711337947473,1.0
218,218.0,sex_male,Size_8,age_36_45,Education_Post_Secondary,Cooking_yes,7706.4270450663635,163.31840963192116,1,167.38823132526431,21.0
220,220.0,sex_male,Size_2,age_46_55,Education_Elementary_School,Cooking_yes,2568.527344339572,117.62157940431268,1,1345.2479678164113,1.0
221,221.0,sex_female,Size_3,age_46_55,Education_Post_Secondary,Cooking_no,6641.750076214373,115.35537636321214,1,450.780610008296,21.0
222,222.0,sex_female,Size_4,age_46_55,Education_Post_Secondary,Cooking_yes,7052.573246656506,160.20927768549598,1,68.0547965743105,21.0
229,229.0,sex_female,Size_6,age_46_55,Education_Post_Secondary,Cooking_yes,7477.849044223853,194.51853964170658,1,66.42818231102515,21.0
230,230.0,sex_male,Size_5,age_36_45,Education_College,Cooking_yes,11969.701686475648,168.70507665103284,1,115.93691095244264,21.0
231,231.0,sex_male,Size_3,age_26_35,Education_College,Cooking_no,11365.620314045322,150.86323383249294,1,415.67767794043084,21.0
232,232.0,sex_female,Size_3,age_36_45,Education_Elementary_School,Cooking_yes,2674.3731041244005,206.9526881947776,1,1753.227420891932,1.0
233,233.0,sex_male,Size_7,age_26_35,Education_Post_Graduate,Cooking_yes,13981.203106006755,207.00552083715385,1,15.949862625524588,51.0
234,234.0,sex_male,Size_6,age_46_55,Education_College,Cooking_yes,12403.053887681292,131.19174849853832,1,8.2234761704632,21.0
235,235.0,sex_male,Size_6,age_36_45,Education_Elementary_School,Cooking_yes,3391.838648431598,129.0375062168921,1,196.09335917545224,1.0
236,236.0,sex_male,Size_4,age_46_55,Education_Post_Graduate,Cooking_yes,13690.9699027048,170.8723739032266,1,2.862633714196079,51.0
238,238.0,sex_male,Size_4,age_36_45,Education_College,Cooking_yes,11563.884067017518,213.2357415676813,1,103.1732564120831,21.0
240,240.0,sex_male,Size_6,age_36_45,Education_Post_Secondary,Cooking_no,7153.770823325797,124.43548600655345,1,86.9697142701516,21.0
242,242.0,sex_male,Size_5,age_46_55,Education_Post_Secondary,Cooking_yes,6959.119823380651,180.3209506380755,1,69.53670586382492,21.0
243,243.0,sex_male,Size_7,age_46_55,Education_Post_Graduate,Cooking_yes,14395.260972007141,165.91611896018125,1,10.848088552827221,51.0
244,244.0,sex_female,Size_6,age_36_45,Education_College,Cooking_yes,12416.638131116533,192.56437458131862,1,122.82838739964285,21.0
246,246.0,sex_male,Size_6,age_46_55,Education_Post_Secondary,Cooking_yes,7399.3304371645145,208.61820815663222,1,28.146437060180048,21.0
247,247.0,sex_female,Size_5,age_26_35,Education_College,Cooking_yes,11902.957523689092,145.46780904386247,1,89.99726429764928,21.0
248,248.0,sex_male,Size_7,age_36_45,Education_College,Cooking_no,12520.468219815664,165.94803482658511,1,138.65882248235,21.0
249,249.0,sex_female,Size_7,age_36_45,Education_College,Cooking_yes,12606.286189459275,155.16193174545722,1,169.4404565015593,21.0
250,250.0,sex_male,Size_4,age_46_55,Education_College,Cooking_yes,11874.300703117451,161.4867427518191,1,20.850090433748576,21.0
251,251.0,sex_male,Size_2,age_36_45,Education_College,Cooking_yes,11231.084121479162,194.873880337868,1,470.0244167680935,21.0
252,252.0,sex_male,Size_2,age_46_55,Education_Post_Secondary,Cooking_yes,6360.5463448602795,164.1079808001403,1,411.62421167947673,21.0
253,253.0,sex_male,Size_3,age_46_55,Education_Post_Secondary,Cooking_no,6623.2288037386525,131.8804607000258,1,415.498864757451,21.0
254,254.0,sex_male,Size_3,age_36_45,Education_Post_Secondary,Cooking_yes,6405.309771839802,154.1526452535716,1,515.3219195041504,21.0
255,255.0,sex_male,Size_2,age_46_55,Education_College,Cooking_yes,11432.49002414439,189.53901727785657,1,404.7012507897582,21.0
256,256.0,sex_male,Size_2,age_56_65,Education_Elementary_School,Cooking_yes,2644.640595783991,153.20018210859024,1,191.29936501004457,1.0
257,257.0,sex_male,Size_2,age_66_75,Education_Elementary_School,Cooking_yes,2821.7581583938286,158.58748019030838,1,554.8179181439718,1.0
258,258.0,sex_female,Size_2,age_36_45,Education_Elementary_School,Cooking_yes,2445.1995204406353,167.19411356442725,1,1757.8528790455925,1.0
259,259.0,sex_male,Size_4,age_46_55,Education_Post_Graduate,Cooking_yes,13604.838409508846,130.72362971378158,1,6.862633714196079,51.0
260,260.0,sex_male,Size_4,age_36_45,Education_College,Cooking_yes,11714.174025978084,158.70751963490162,1,106.1732564120831,21.0
262,262.0,sex_male,Size_5,age_36_45,Education_Post_Secondary,Cooking_yes,6990.320010566839,184.63596617252568,1,151.8598718421606,21.0
263,263.0,sex_male,Size_5,age_46_55,Education_Elementary_School,Cooking_yes,3321.212817120976,181.46345470427462,1,52.160462000761356,1.0
264,264.0,sex_female,Size_3,age_46_55,Education_College,Cooking_no,11785.856001102802,125.86882588460342,1,434.8576491185777,21.0
265,265.0,sex_male,Size_2,age_66_75,Education_College,Cooking_no,11630.071972532687,115.62826542609864,1,162.7713123489542,21.0
266,266.0,sex_male,Size_2,age_56_65,Education_High_School,Cooking_yes,3699.04879775202,142.16510005992473,1,402.5069004343858,1.0
267,267.0,sex_male,Size_2,age_56_65,Education_Post_Secondary,Cooking_yes,6456.900588499799,201.47174886176487,1,107.67560887310822,21.0
268,268.0,sex_male,Size_2,age_56_65,Education_Post_Secondary,Cooking_yes,6503.122398326762,187.4968839118267,1,111.67560887310822,21.0
269,269.0,sex_male,Size_4,age_36_45,Education_College,Cooking_yes,11749.214375384397,159.97201209668194,1,93.1732564120831,21.0
270,270.0,sex_male,Size_4,age_46_55,Education_College,Cooking_yes,11850.09341780502,168.72035889980262,1,16.850090433748576,21.0
271,271.0,sex_male,Size_4,age_36_45,Education_Post_Secondary,Cooking_yes,6656.932875717397,174.37568492842567,1,115.09621730180118,21.0
272,272.0,sex_male,Size_4,age_46_55,Education_College,Cooking_no,12006.716617270271,165.73580752567875,1,3.3502016653831816,21.0
273,273.0,sex_female,Size_3,age_56_65,Education_Post_Secondary,Cooking_no,6946.541736188101,136.6836057966924,1,110.83200720192877,21.0
274,274.0,sex_male,Size_2,age_36_45,Education_Post_Secondary,Cooking_yes,6024.379296106546,182.8916498002673,1,521.9473776578106,21.0
277,277.0,sex_female,Size_2,age_56_65,Education_Post_Secondary,Cooking_yes,6475.9001371964905,143.1968392725601,1,133.95735412395334,21.0
278,278.0,sex_female,Size_2,age_56_65,Education_Post_Secondary,Cooking_yes,6471.2581668578905,141.47563378083618,1,123.95735412395334,21.0
279,279.0,sex_male,Size_6,age_36_45,Education_Post_Secondary,Cooking_yes,7101.449619993615,157.71797188289878,1,110.46960303851569,21.0
280,280.0,sex_male,Size_3,age_36_45,Education_Elementary_School,Cooking_no,2682.242813307278,131.18027288333084,1,1590.4457868727231,1.0
281,281.0,sex_male,Size_3,age_36_45,Education_College,Cooking_yes,11561.775697949517,164.0696988581787,1,506.3989586144339,21.0
282,282.0,sex_male,Size_3,age_56_65,Education_Elementary_School,Cooking_yes,2806.078987207037,182.45009278337739,1,195.6739068563856,1.0
283,283.0,sex_male,Size_3,age_26_35,Education_Elementary_School,Cooking_yes,2472.546929705169,178.52921975715287,1,1380.7242837354502,1.0
284,284.0,sex_male,Size_3,age_46_55,Education_High_School,Cooking_no,3678.685812803064,109.43574556597609,1,1516.3301563187285,1.0
285,285.0,sex_male,Size_3,age_46_55,Education_Post_Secondary,Cooking_no,6563.158406563553,134.10344299262385,1,424.498864757451,21.0
286,286.0,sex_male,Size_2,age_56_65,Education_College,Cooking_yes,11535.928439058733,175.40183793028118,1,93.75264798339128,21.0
287,287.0,sex_male,Size_2,age_36_45,Education_Elementary_School,Cooking_yes,2406.170627776553,178.4197487719442,1,1622.5711337947473,1.0
288,288.0,sex_male,Size_2,age_36_45,Education_College,Cooking_yes,11139.281630251566,220.2392686519646,1,509.0244167680935,21.0
289,289.0,sex_male,Size_2,age_46_55,Education_High_School,Cooking_yes,3503.7914004476124,164.63727244279542,1,1564.455503240753,1.0
290,290.0,sex_male,Size_7,age_36_45,Education_College,Cooking_yes,12424.842710740344,195.5692679702049,1,172.1587112507143,21.0
292,292.0,sex_male,Size_7,age_36_45,Education_Post_Secondary,Cooking_yes,7301.1995682852075,206.6565245470528,1,183.08167214043237,21.0
293,293.0,sex_female,Size_4,age_36_45,Education_College,Cooking_yes,11751.097178813045,233.6364868629251,1,147.45500166292817,21.0
295,295.0,sex_male,Size_4,age_26_35,Education_College,Cooking_yes,11552.341195653418,199.74803411336538,1,27.95186450644593,21.0
298,298.0,sex_male,Size_5,age_36_45,Education_College,Cooking_no,11885.06860778646,158.20173802552281,1,101.43702218407827,21.0
299,299.0,sex_male,Size_2,age_26_35,Education_College,Cooking_yes,10899.77126992998,186.56923612967134,1,414.80302486245546,21.0
300,300.0,sex_male,Size_3,age_46_55,Education_Post_Graduate,Cooking_yes,13354.347690184759,173.81052404402303,1,78.08833591654547,51.0
301,301.0,sex_male,Size_3,age_46_55,Education_Elementary_School,Cooking_yes,2800.2891538819435,182.2912059893061,1,1339.6225096627516,1.0
302,302.0,sex_male,Size_3,age_46_55,Education_High_School,Cooking_yes,3740.636952425675,148.11931884168112,1,1559.830045087093,1.0
305,305.0,sex_male,Size_4,age_46_55,Education_Post_Graduate,Cooking_yes,13610.54767567375,209.894352427236,1,5.862633714196079,51.0
306,306.0,sex_female,Size_3,age_46_55,Education_Post_Secondary,Cooking_yes,6797.1458924595445,178.22852233169118,1,491.2804987766599,21.0
307,307.0,sex_male,Size_3,age_46_55,Education_High_School,Cooking_yes,3683.542231259984,133.02207592146195,1,1550.830045087093,1.0
308,308.0,sex_female,Size_3,age_36_45,Education_College,Cooking_yes,11652.56012443677,212.15251166390544,1,495.680703865278,21.0
309,309.0,sex_male,Size_6,age_46_55,Education_Post_Secondary,Cooking_yes,7339.363359789879,138.6580873445281,1,20.146437060180048,21.0
310,310.0,sex_female,Size_5,age_46_55,Education_Post_Secondary,Cooking_no,7117.0608319213625,119.23137172547644,1,83.31856234630578,21.0
311,311.0,sex_female,Size_4,age_46_55,Education_Elementary_School,Cooking_yes,3119.2041460128276,208.97165260928472,1,61.67855271124698,1.0
312,312.0,sex_male,Size_4,age_46_55,Education_Post_Secondary,Cooking_yes,6847.555651292108,134.39003552270307,1,39.77305132346541,21.0
313,313.0,sex_male,Size_4,age_46_55,Education_College,Cooking_yes,11917.966325546455,161.4658232776641,1,20.850090433748576,21.0
314,314.0,sex_male,Size_2,age_46_55,Education_Elementary_School,Cooking_yes,2520.349773823792,140.5518191694733,1,1346.2479678164113,1.0
315,315.0,sex_female,Size_2,age_46_55,Education_Elementary_School,Cooking_yes,2689.717921396858,147.81890976943845,1,1437.5297130672568,1.0
316,316.0,sex_male,Size_2,age_36_45,Education_Post_Graduate,Cooking_no,13009.880573757706,136.29414343611427,1,76.53707128017732,51.0
317,317.0,sex_male,Size_3,age_46_55,Education_Elementary_School,Cooking_yes,2885.6066197115088,143.55067003334148,1,1339.6225096627516,1.0
318,318.0,sex_male,Size_3,age_36_45,Education_College,Cooking_yes,11637.182357727548,168.3771622858689,1,506.3989586144339,21.0
319,319.0,sex_male,Size_5,age_46_55,Education_College,Cooking_yes,12211.52238734392,185.40843999168567,1,48.61374497410685,21.0
320,320.0,sex_male,Size_2,age_46_55,Education_Post_Secondary,Cooking_yes,6310.961830735177,169.6614554732373,1,444.62421167947673,21.0
321,321.0,sex_male,Size_5,age_46_55,Education_Post_Secondary,Cooking_yes,7065.864222246142,194.13778470495132,1,65.53670586382492,21.0
322,322.0,sex_male,Size_4,age_36_45,Education_Post_Secondary,Cooking_no,6683.862097831189,90.30424612881106,1,124.59632853343692,21.0
324,324.0,sex_male,Size_6,age_36_45,Education_Elementary_School,Cooking_yes,3352.565349129215,155.37063979408742,1,197.09335917545224,1.0
326,326.0,sex_female,Size_2,age_76_85,Education_Post_Secondary,Cooking_yes,6930.2102140520265,197.83370961043425,1,561.999993975604,21.0
327,327.0,sex_male,Size_2,age_46_55,Education_College,Cooking_yes,11289.85928671666,148.88927659357188,1,418.7012507897582,21.0
329,329.0,sex_female,Size_2,age_36_45,Education_Post_Secondary,Cooking_yes,6362.127499298807,101.39622046921222,1,555.2291229086559,21.0
330,330.0,sex_male,Size_4,age_36_45,Education_College,Cooking_yes,11803.093313997782,173.83683519146786,1,110.1732564120831,21.0
331,331.0,sex_male,Size_3,age_36_45,Education_Elementary_School,Cooking_yes,2692.695316218508,157.45668759063298,1,1632.945675641087,1.0
332,332.0,sex_male,Size_3,age_46_55,Education_Post_Secondary,Cooking_yes,6468.334047551299,167.87575981638832,1,442.9987535258151,21.0
333,333.0,sex_male,Size_3,age_46_55,Education_High_School,Cooking_yes,3692.3036915229663,174.36974514174167,1,1535.830045087093,1.0
334,334.0,sex_male,Size_5,age_46_55,Education_Elementary_School,Cooking_yes,3277.6358514873773,150.034071131593,1,51.160462000761356,1.0
335,335.0,sex_male,Size_3,age_66_75,Education_Post_Secondary,Cooking_yes,6883.112933739693,159.11038256317053,1,199.56870385337493,21.0
336,336.0,sex_female,Size_3,age_46_55,Education_Post_Secondary,Cooking_yes,6662.0719223655005,199.16785277348393,1,483.2804987766599,21.0
337,337.0,sex_male,Size_3,age_46_55,Education_Post_Secondary,Cooking_yes,6632.8708653581725,161.78425780233843,1,396.9987535258151,21.0
338,338.0,sex_female,Size_4,age_36_45,Education_High_School,Cooking_yes,3817.2139556855213,184.00416830942345,1,560.2092541139227,1.0
339,339.0,sex_male,Size_3,age_46_55,Education_Elementary_School,Cooking_yes,2766.2232353773934,200.24931022538692,1,1358.6225096627516,1.0
340,340.0,sex_female,Size_3,age_36_45,Education_College,Cooking_yes,11668.229008104312,215.93199082189255,1,518.680703865278,21.0
341,341.0,sex_male,Size_3,age_36_45,Education_Post_Secondary,Cooking_yes,6263.291168596825,151.39960069661063,1,499.3219195041504,21.0
342,342.0,sex_male,Size_3,age_66_75,Education_College,Cooking_yes,11819.777431162684,188.04839925549354,1,183.64574296365834,21.0
343,343.0,sex_male,Size_3,age_56_65,Education_Post_Secondary,Cooking_yes,6775.54312961586,159.30963605756742,1,97.05015071944916,21.0
344,344.0,sex_male,Size_3,age_36_45,Education_College,Cooking_yes,11421.088559903765,110.43431334007576,1,484.3989586144339,21.0
345,345.0,sex_female,Size_3,age_46_55,Education_Post_Secondary,Cooking_yes,6577.6877017062025,154.58131798718085,1,456.2804987766599,21.0
346,346.0,sex_male,Size_4,age_46_55,Education_College,Cooking_yes,11887.793506170758,198.43839347147977,1,17.850090433748576,21.0
347,347.0,sex_male,Size_3,age_56_65,Education_College,Cooking_yes,11724.608041038422,186.68699497945755,1,99.12718982973115,21.0
348,348.0,sex_male,Size_7,age_36_45,Education_Post_Secondary,Cooking_yes,7514.36670097683,200.2445076056429,1,155.08167214043237,21.0
350,350.0,sex_male,Size_3,age_46_55,Education_High_School,Cooking_yes,3768.498225057947,173.36278177222167,1,1543.830045087093,1.0
351,351.0,sex_female,Size_5,age_46_55,Education_Post_Secondary,Cooking_yes,7234.3411873132945,175.55115711735652,1,89.81845111466987,21.0
352,352.0,sex_male,Size_2,age_46_55,Education_College,Cooking_no,11348.984255614223,145.98051787670119,1,365.20136202139406,21.0
353,353.0,sex_female,Size_5,age_46_55,Education_Post_Graduate,Cooking_yes,14123.36870390921,169.4103687407081,1,11.908033505400624,51.0
355,355.0,sex_male,Size_2,age_56_65,Education_Elementary_School,Cooking_yes,2580.1279096916105,177.7628490108001,1,196.29936501004457,1.0
356,356.0,sex_male,Size_3,age_46_55,Education_Elementary_School,Cooking_yes,2743.389778712226,177.2713533762878,1,1348.6225096627516,1.0
357,357.0,sex_male,Size_3,age_56_65,Education_College,Cooking_yes,11679.052229389856,163.62763744952832,1,75.12718982973115,21.0
358,358.0,sex_male,Size_5,age_36_45,Education_College,Cooking_no,11980.558305294353,139.8390241992043,1,97.43702218407827,21.0
359,359.0,sex_male,Size_4,age_36_45,Education_Post_Secondary,Cooking_yes,6597.4688730937205,170.60977672373113,1,104.09621730180118,21.0
360,360.0,sex_male,Size_2,age_36_45,Education_College,Cooking_no,11170.35779871248,146.31541688857652,1,469.52452799972866,21.0
361,361.0,sex_male,Size_3,age_46_55,Education_Post_Secondary,Cooking_yes,6573.003554164898,165.37445268326374,1,402.9987535258151,21.0
363,363.0,sex_female,Size_2,age_56_65,Education_Elementary_School,Cooking_no,2826.9445891971973,147.74535060065338,1,256.08122149252546,1.0
364,364.0,sex_male,Size_2,age_66_75,Education_Elementary_School,Cooking_yes,2762.517895855649,161.9202602852632,1,547.8179181439718,1.0
365,365.0,sex_male,Size_2,age_66_75,Education_Post_Secondary,Cooking_yes,6560.536139396671,172.83752362410772,1,208.1941620070354,21.0
366,366.0,sex_female,Size_2,age_46_55,Education_Post_Secondary,Cooking_yes,6496.477793580796,152.84183603332613,1,459.90595693032014,21.0
367,367.0,sex_male,Size_4,age_26_35,Education_High_School,Cooking_no,3598.877449706011,118.60404212911357,1,136.20622818907628,1.0
368,368.0,sex_female,Size_7,age_36_45,Education_College,Cooking_yes,12708.080310395495,158.23019288072982,1,164.4404565015593,21.0
369,369.0,sex_male,Size_3,age_46_55,Education_Post_Secondary,Cooking_yes,6582.285294327932,157.93851441405292,1,429.9987535258151,21.0
370,370.0,sex_male,Size_3,age_26_35,Education_Elementary_School,Cooking_no,2473.464744217973,113.80199261666807,1,1324.2243949670844,1.0
371,371.0,sex_female,Size_4,age_19_25,Education_College,Cooking_yes,11597.504132439837,182.2697635722304,1,378.8637285992954,21.0
372,372.0,sex_female,Size_3,age_19_25,Education_Elementary_School,Cooking_no,2477.3476171272505,126.89596722947495,1,2573.136259059936,1.0
373,373.0,sex_male,Size_2,age_56_65,Education_High_School,Cooking_yes,3534.765106900401,193.19626032419015,1,398.5069004343858,1.0
375,375.0,sex_female,Size_8,age_26_35,Education_Elementary_School,Cooking_yes,3918.7671983505534,130.75048819155123,1,321.0723408074078,1.0
377,377.0,sex_female,Size_2,age_56_65,Education_Post_Secondary,Cooking_no,6515.520176721458,134.2680094237752,1,124.45746535558897,21.0
379,379.0,sex_female,Size_6,age_46_55,Education_College,Cooking_yes,12601.660794265345,167.0844045273294,1,40.505221421307084,21.0
381,381.0,sex_male,Size_5,age_46_55,Education_High_School,Cooking_yes,4120.841881482365,213.3241662227524,1,260.3679974251014,1.0
383,383.0,sex_male,Size_2,age_46_55,Education_College,Cooking_yes,11391.192783962713,135.15811518609706,1,424.7012507897582,21.0
385,385.0,sex_female,Size_3,age_56_65,Education_College,Cooking_yes,12004.154680299675,187.0964680900882,1,125.4089350805761,21.0
386,386.0,sex_male,Size_2,age_46_55,Education_High_School,Cooking_yes,3543.012662407557,140.38372509244869,1,1560.455503240753,1.0
387,387.0,sex_male,Size_4,age_46_55,Education_High_School,Cooking_yes,4066.076219202271,146.78803908726098,1,153.60434288474315,1.0
388,388.0,sex_male,Size_5,age_36_45,Education_Post_Secondary,Cooking_yes,6804.469788163359,169.9900530296285,1,142.8598718421606,21.0
389,389.0,sex_male,Size_5,age_46_55,Education_High_School,Cooking_yes,4220.380633430302,190.10052592888508,1,250.3679974251014,1.0
391,391.0,sex_male,Size_8,age_46_55,Education_Post_Graduate,Cooking_yes,14704.097063588946,212.70252411613566,1,22.154647737659445,51.0
392,392.0,sex_male,Size_10,age_66_75,Education_College,Cooking_yes,13804.41877873052,176.26655895647338,1,1205.7592632201458,21.0
394,394.0,sex_male,Size_8,age_46_55,Education_College,Cooking_no,12969.407540031621,133.6566160754769,1,64.64221568884659,21.0
395,395.0,sex_male,Size_7,age_36_45,Education_Post_Secondary,Cooking_yes,7464.675380361104,224.57391677737468,1,177.08167214043237,21.0
396,396.0,sex_male,Size_7,age_46_55,Education_Elementary_School,Cooking_yes,3864.986096710064,122.15494456164343,1,135.38226229903304,1.0
397,397.0,sex_female,Size_3,age_46_55,Education_College,Cooking_yes,11865.216040560546,212.10333066855168,1,449.3575378869434,21.0
399,399.0,sex_male,Size_5,age_46_55,Education_College,Cooking_yes,12051.07746095573,116.47819116443016,1,42.61374497410685,21.0
400,400.0,sex_male,Size_2,age_56_65,Education_Post_Secondary,Cooking_yes,6567.1518728547535,217.56362183916144,1,104.67560887310822,21.0
402,402.0,sex_female,Size_4,age_46_55,Education_College,Cooking_no,12076.955836436277,153.83816015229715,1,34.63194691622826,21.0
403,403.0,sex_male,Size_4,age_36_45,Education_Post_Secondary,Cooking_no,6640.65451106254,129.2871543132971,1,89.59632853343692,21.0
404,404.0,sex_male,Size_7,age_46_55,Education_Post_Secondary,Cooking_yes,7572.748918781555,171.78584780648174,1,90.75850616209664,21.0
406,406.0,sex_female,Size_5,age_46_55,Education_Elementary_School,Cooking_yes,3376.7080991506236,135.52512430407995,1,170.44220725160525,1.0
408,408.0,sex_male,Size_2,age_46_55,Education_Post_Graduate,Cooking_yes,13142.064974020672,175.6388550980354,1,62.71379407020686,51.0
409,409.0,sex_female,Size_2,age_46_55,Education_High_School,Cooking_yes,3599.1133584793597,173.90360055771373,1,1667.737248491598,1.0
410,410.0,sex_female,Size_3,age_36_45,Education_Post_Secondary,Cooking_yes,6524.992608617428,147.93841918600063,1,570.6036647549954,21.0
411,411.0,sex_female,Size_3,age_56_65,Education_College,Cooking_no,11984.772561084712,132.4465015871157,1,102.90904631221201,21.0
412,412.0,sex_male,Size_5,age_36_45,Education_High_School,Cooking_yes,4058.231426655697,186.96784661013675,1,543.6911634034371,1.0
413,413.0,sex_male,Size_3,age_36_45,Education_Elementary_School,Cooking_yes,2654.006288211897,209.8358373331385,1,1626.945675641087,1.0
415,415.0,sex_male,Size_3,age_36_45,Education_College,Cooking_no,11497.915028557107,179.46593325772903,1,484.8990698460691,21.0
416,416.0,sex_male,Size_2,age_46_55,Education_College,Cooking_yes,11449.268912451027,197.3247358102533,1,429.7012507897582,21.0
419,419.0,sex_male,Size_2,age_56_65,Education_Post_Secondary,Cooking_yes,6481.8842121866965,155.42276522208343,1,99.67560887310822,21.0
420,420.0,sex_male,Size_3,age_46_55,Education_College,Cooking_yes,11670.96695312032,213.5196413948909,1,402.07579263609796,21.0
421,421.0,sex_male,Size_3,age_46_55,Education_Elementary_School,Cooking_yes,2863.938014480733,136.47635534234328,1,1355.6225096627516,1.0
424,424.0,sex_male,Size_3,age_46_55,Education_Post_Secondary,Cooking_yes,6440.2252089347985,188.00785928303605,1,432.9987535258151,21.0
425,425.0,sex_male,Size_3,age_46_55,Education_Post_Secondary,Cooking_yes,6535.287040721864,195.0982603269393,1,433.9987535258151,21.0
426,426.0,sex_female,Size_4,age_36_45,Education_Post_Secondary,Cooking_yes,6805.059979345611,169.4170617114371,1,162.37796255264618,21.0
427,427.0,sex_male,Size_6,age_46_55,Education_Post_Secondary,Cooking_no,7318.9469732470325,161.5497206122324,1,5.646548291815854,21.0
431,431.0,sex_male,Size_3,age_26_35,Education_College,Cooking_yes,11320.75187909082,237.60901899420082,1,400.17756670879544,21.0
432,432.0,sex_female,Size_3,age_26_35,Education_College,Cooking_no,11457.186231009544,151.11816247304398,1,436.9594231912765,21.0
433,433.0,sex_female,Size_4,age_26_35,Education_Post_Secondary,Cooking_yes,6603.971102538281,211.88403960205954,1,70.15657064700787,21.0
435,435.0,sex_male,Size_4,age_36_45,Education_High_School,Cooking_no,3908.0686112645753,163.23345795089026,1,384.42762009471335,1.0
436,436.0,sex_male,Size_3,age_36_45,Education_College,Cooking_no,11510.506914818974,191.3326494961207,1,517.8990698460691,21.0
437,437.0,sex_male,Size_2,age_46_55,Education_Elementary_School,Cooking_yes,2499.311965375558,249.40310821322163,1,1345.2479678164113,1.0
438,438.0,sex_male,Size_2,age_36_45,Education_High_School,Cooking_no,3307.406289689493,131.25526683790682,1,1770.2787804507238,1.0
439,439.0,sex_male,Size_5,age_46_55,Education_Post_Secondary,Cooking_yes,7052.841998829163,167.9035629961169,1,62.53670586382492,21.0
441,441.0,sex_male,Size_3,age_46_55,Education_College,Cooking_yes,11576.52144197116,158.40600601261033,1,396.07579263609796,21.0
442,442.0,sex_female,Size_3,age_56_65,Education_College,Cooking_yes,11794.403584508309,183.26193566987573,1,124.4089350805761,21.0
443,443.0,sex_female,Size_4,age_46_55,Education_Post_Secondary,Cooking_yes,7040.201281282859,183.01186886419566,1,67.0547965743105,21.0
445,445.0,sex_male,Size_6,age_36_45,Education_College,Cooking_yes,12249.14375803076,135.76731303548343,1,88.54664214879779,21.0
448,448.0,sex_male,Size_5,age_36_45,Education_College,Cooking_yes,12100.250711909563,216.12939469597413,1,145.93691095244264,21.0
449,449.0,sex_male,Size_2,age_36_45,Education_College,Cooking_yes,11098.494878511916,133.26063952391948,1,521.0244167680935,21.0
450,450.0,sex_male,Size_2,age_46_55,Education_Post_Secondary,Cooking_yes,6235.061905974558,143.49461138180808,1,385.62421167947673,21.0
451,451.0,sex_male,Size_3,age_56_65,Education_Post_Graduate,Cooking_yes,13549.111954803891,189.2702781367989,1,15.139733110179804,51.0
452,452.0,sex_male,Size_3,age_36_45,Education_Post_Secondary,Cooking_yes,6347.722525257051,182.05181660402573,1,512.3219195041504,21.0
453,453.0,sex_male,Size_2,age_36_45,Education_Post_Graduate,Cooking_yes,12948.4132374902,196.00718314769657,1,91.03696004854123,51.0
454,454.0,sex_male,Size_2,age_56_65,Education_Post_Secondary,Cooking_yes,6394.5281475171105,159.16849368131392,1,126.67560887310822,21.0
455,455.0,sex_male,Size_4,age_36_45,Education_College,Cooking_yes,11784.521406683833,197.6188041555596,1,102.1732564120831,21.0
456,456.0,sex_male,Size_6,age_26_35,Education_Post_Graduate,Cooking_yes,13872.825417992162,155.55133848104953,1,5.337793523608099,51.0
457,457.0,sex_female,Size_6,age_46_55,Education_College,Cooking_yes,12695.82302461408,208.513120818598,1,33.505221421307084,21.0
458,458.0,sex_male,Size_5,age_46_55,Education_Post_Secondary,Cooking_yes,7028.869704183237,153.94885008937513,1,75.53670586382492,21.0
459,459.0,sex_male,Size_5,age_36_45,Education_College,Cooking_yes,12042.1661788595,171.27636775469185,1,113.93691095244264,21.0
460,460.0,sex_male,Size_9,age_36_45,Education_Elementary_School,Cooking_yes,4194.637409204764,138.52024622033872,1,215.77547238608517,1.0
461,461.0,sex_male,Size_6,age_46_55,Education_College,Cooking_yes,12528.987078407607,152.58243730626933,1,12.2234761704632,21.0
462,462.0,sex_male,Size_9,age_36_45,Education_High_School,Cooking_no,5097.898958974293,120.51852109640608,1,371.4831190420609,1.0
463,463.0,sex_female,Size_4,age_36_45,Education_College,Cooking_yes,11921.989291707368,185.68760103491158,1,134.45500166292817,21.0
0,,sex_male,Size_3,age_56_65,Education_Elementary_School,Cooking_yes,2812.956122528769,104.78001173625015,10,10.0,
1,,sex_male,Size_4,age_46_55,Education_Post_Secondary,Cooking_yes,6680.847474629481,78.31241733954428,99,99.0,
2,,sex_male,Size_3,age_46_55,Education_Post_Secondary,Cooking_yes,6443.440880636851,92.48655253212117,1210,1210.0,
5,,sex_male,Size_5,age_46_55,Education_Elementary_School,Cooking_yes,3273.3213610104917,85.23149518791026,4,4.0,
6,,sex_male,Size_6,age_36_45,Education_Elementary_School,Cooking_yes,3432.9023840975688,87.88942266107172,12,12.0,
7,,sex_male,Size_6,age_46_55,Education_Post_Secondary,Cooking_yes,7439.300921282382,86.02503813514156,72,72.0,
10,,sex_male,Size_5,age_46_55,Education_Elementary_School,Cooking_yes,3358.650344312653,91.2078077855688,2,2.0,
11,,sex_female,Size_3,age_56_65,Education_Post_Secondary,Cooking_yes,6833.270229425025,109.83551908490921,396,396.0,
12,,sex_male,Size_3,age_46_55,Education_High_School,Cooking_yes,3711.514603389656,85.51306444179194,108,108.0,
13,,sex_female,Size_2,age_46_55,Education_High_School,Cooking_yes,3534.9951534457373,81.68795243615475,109,109.0,
14,,sex_male,Size_5,age_36_45,Education_Elementary_School,Cooking_yes,3095.2854423039053,88.65490589370778,28,28.0,
15,,sex_male,Size_5,age_46_55,Education_High_School,Cooking_yes,4251.782889432977,97.415260907407,12,12.0,
16,,sex_female,Size_7,age_36_45,Education_College,Cooking_yes,12580.025496783774,103.27607676803058,526,526.0,
17,,sex_female,Size_7,age_46_55,Education_High_School,Cooking_yes,4872.706150755094,104.35280345593117,25,25.0,
18,,sex_male,Size_9,age_36_45,Education_Post_Graduate,Cooking_no,14844.818111410845,72.0758973018972,370,370.0,
19,,sex_male,Size_3,age_56_65,Education_College,Cooking_yes,11807.625177788595,93.99320253009446,243,243.0,
20,,sex_male,Size_2,age_66_75,Education_High_School,Cooking_yes,3804.1648852879107,87.65133070656331,49,49.0,
21,,sex_male,Size_5,age_46_55,Education_Elementary_School,Cooking_yes,3362.6134678732265,99.06960335096167,6,6.0,
22,,sex_female,Size_5,age_46_55,Education_College,Cooking_yes,12352.708836204907,113.31751783707287,234,234.0,
23,,sex_male,Size_4,age_46_55,Education_College,Cooking_yes,11812.185560725735,112.843423054892,50,50.0,
24,,sex_male,Size_2,age_36_45,Education_Post_Secondary,Cooking_yes,6192.905580541499,88.30541480249491,1428,1428.0,
26,,sex_male,Size_7,age_36_45,Education_Post_Secondary,Cooking_yes,7540.522642079921,84.0174974416148,472,472.0,
27,,sex_female,Size_8,age_36_45,Education_Post_Secondary,Cooking_yes,7823.006601275548,86.40408585573317,573,573.0,
28,,sex_male,Size_3,age_56_65,Education_Elementary_School,Cooking_no,2828.745238112871,62.543434529182136,12,12.0,
29,,sex_male,Size_4,age_46_55,Education_Post_Secondary,Cooking_yes,6836.2233469243565,90.69916158665615,107,107.0,
30,,sex_female,Size_6,age_46_55,Education_High_School,Cooking_no,4741.23276508017,54.0340283643128,8,8.0,
31,,sex_male,Size_3,age_56_65,Education_Elementary_School,Cooking_yes,2888.6254678175733,76.14432382653146,13,13.0,
32,,sex_male,Size_6,age_46_55,Education_Post_Graduate,Cooking_no,14261.060583621529,67.41032355530884,67,67.0,
34,,sex_female,Size_2,age_46_55,Education_Post_Graduate,Cooking_no,13359.99700395934,76.5582130393782,1643,1643.0,
35,,sex_female,Size_2,age_56_65,Education_College,Cooking_yes,11714.472653115168,82.81052828550877,321,321.0,
36,,sex_male,Size_3,age_56_65,Education_Post_Secondary,Cooking_yes,6797.69677584412,86.10078749351463,297,297.0,
37,,sex_male,Size_3,age_66_75,Education_High_School,Cooking_yes,4028.495548035763,98.66368905844976,51,51.0,
39,,sex_female,Size_4,age_36_45,Education_College,Cooking_no,11807.34853631753,64.48825691775342,312,312.0,
40,,sex_female,Size_4,age_26_35,Education_Elementary_School,Cooking_yes,2737.480570806724,89.56893004181414,6,6.0,
41,,sex_female,Size_5,age_46_55,Education_Elementary_School,Cooking_no,3263.3874796742853,74.7539289710232,12,12.0,
42,,sex_female,Size_4,age_46_55,Education_Post_Secondary,Cooking_yes,6772.712982843905,89.4588150674261,198,198.0,
43,,sex_female,Size_4,age_36_45,Education_Post_Secondary,Cooking_yes,6964.009136161433,103.72444933339587,395,395.0,
44,,sex_female,Size_3,age_56_65,Education_College,Cooking_yes,12004.095248923912,101.07189310539783,313,313.0,
45,,sex_male,Size_3,age_26_35,Education_High_School,Cooking_yes,3412.151839863429,64.73305190735687,90,90.0,
46,,sex_male,Size_4,age_26_35,Education_Post_Secondary,Cooking_no,6537.835563040771,56.697021429622446,79,79.0,
47,,sex_male,Size_5,age_36_45,Education_Post_Secondary,Cooking_yes,6948.106898161074,104.73131912619438,410,410.0,
49,,sex_male,Size_4,age_46_55,Education_College,Cooking_yes,11833.625747460575,101.73317434057716,44,44.0,
51,,sex_male,Size_6,age_36_45,Education_College,Cooking_yes,12268.855234368591,94.8911885242668,247,247.0,
53,,sex_male,Size_2,age_56_65,Education_Post_Graduate,Cooking_yes,13239.055783330712,98.27746053221274,403,403.0,
54,,sex_male,Size_3,age_36_45,Education_Elementary_School,Cooking_yes,2700.8326729989717,91.7413930522615,96,96.0,
55,,sex_male,Size_2,age_56_65,Education_Post_Secondary,Cooking_yes,6464.733458208032,89.33583790807668,299,299.0,
56,,sex_male,Size_5,age_46_55,Education_Post_Secondary,Cooking_yes,7075.31887109548,84.96650799588933,176,176.0,
57,,sex_male,Size_6,age_46_55,Education_College,Cooking_yes,12431.151177011592,94.9652158341208,23,23.0,
58,,sex_male,Size_7,age_46_55,Education_High_School,Cooking_yes,4858.526585639439,114.1194046598152,20,20.0,
59,,sex_male,Size_4,age_46_55,Education_College,Cooking_yes,11827.839835405171,91.5526134843564,46,46.0,
60,,sex_male,Size_4,age_46_55,Education_Post_Secondary,Cooking_no,6775.613380143154,62.70564366200825,62,62.0,
62,,sex_male,Size_3,age_46_55,Education_High_School,Cooking_yes,3566.0515906266087,79.83178572015467,93,93.0,
66,,sex_male,Size_7,age_46_55,Education_College,Cooking_yes,12712.561651060076,118.81344267799915,196,196.0,
67,,sex_male,Size_5,age_36_45,Education_College,Cooking_no,11935.540887809831,97.21723847081027,306,306.0,
70,,sex_male,Size_5,age_46_55,Education_College,Cooking_yes,12215.39308532363,102.37673824906128,134,134.0,
71,,sex_male,Size_4,age_46_55,Education_College,Cooking_yes,11835.470065250349,94.90067658107809,49,49.0,
72,,sex_male,Size_3,age_46_55,Education_Post_Secondary,Cooking_no,6457.208286426461,75.54666843110444,1139,1139.0,
76,,sex_male,Size_8,age_36_45,Education_College,Cooking_yes,12681.422500909706,109.52670567164007,451,451.0,
80,,sex_male,Size_6,age_36_45,Education_Post_Secondary,Cooking_yes,7202.212872444573,93.67702039190729,307,307.0,
81,,sex_male,Size_4,age_46_55,Education_High_School,Cooking_no,3993.6179771684456,61.665444213726836,8,8.0,
84,,sex_female,Size_3,age_46_55,Education_College,Cooking_yes,11763.851384076985,97.22618947794477,1267,1267.0,
85,,sex_male,Size_6,age_46_55,Education_College,Cooking_yes,12474.322447791712,69.37856064879605,23,23.0,
86,,sex_male,Size_6,age_46_55,Education_Post_Secondary,Cooking_yes,7326.42819068783,113.98626308616936,81,81.0,
87,,sex_male,Size_5,age_36_45,Education_Post_Secondary,Cooking_yes,6931.853219000781,85.62720350851203,387,387.0,
91,,sex_male,Size_6,age_46_55,Education_College,Cooking_yes,12393.69282386007,102.71208682133444,23,23.0,
92,,sex_male,Size_5,age_46_55,Education_Post_Secondary,Cooking_no,6996.935183014576,80.13279053690742,132,132.0,
93,,sex_male,Size_2,age_46_55,Education_College,Cooking_yes,11492.997398816291,111.8254344877993,1156,1156.0,
94,,sex_male,Size_2,age_46_55,Education_Elementary_School,Cooking_yes,2368.839203664856,86.01395261655952,84,84.0,
95,,sex_male,Size_10,age_56_65,Education_College,Cooking_yes,13733.620786447244,89.83640570396759,3273,3273.0,
97,,sex_male,Size_6,age_36_45,Education_College,Cooking_yes,12215.584155423614,102.93918906697584,241,241.0,
98,,sex_male,Size_6,age_46_55,Education_Post_Secondary,Cooking_yes,7364.3664071420435,88.60571587633905,73,73.0,
99,,sex_male,Size_4,age_46_55,Education_Post_Graduate,Cooking_yes,13657.684451165198,97.4742042510396,154,154.0,
100,,sex_male,Size_4,age_26_35,Education_Post_Secondary,Cooking_yes,6514.036685209959,101.84097614381665,125,125.0,
101,,sex_male,Size_4,age_46_55,Education_Post_Secondary,Cooking_yes,6865.1161902032545,99.31960829437239,100,100.0,
103,,sex_male,Size_3,age_56_65,Education_Post_Secondary,Cooking_yes,6660.308757147824,73.94516851539957,287,287.0,
104,,sex_male,Size_3,age_26_35,Education_High_School,Cooking_yes,3403.002224737032,91.97940092059363,96,96.0,
105,,sex_female,Size_3,age_46_55,Education_Post_Secondary,Cooking_yes,6733.420339183469,94.30915666996783,1293,1293.0,
106,,sex_female,Size_3,age_36_45,Education_Post_Secondary,Cooking_yes,6483.1790523511645,101.17206992768196,1536,1536.0,
108,,sex_male,Size_3,age_46_55,Education_Post_Secondary,Cooking_yes,6593.2802499884765,79.98631434886403,1205,1205.0,
109,,sex_female,Size_4,age_36_45,Education_High_School,Cooking_yes,4007.56172999464,104.21761877402017,28,28.0,
110,,sex_male,Size_3,age_36_45,Education_Post_Secondary,Cooking_yes,6478.913417380642,97.73684633635946,1391,1391.0,
111,,sex_female,Size_3,age_46_55,Education_Post_Secondary,Cooking_yes,6732.242072574274,99.58308902018463,1287,1287.0,
112,,sex_male,Size_3,age_56_65,Education_High_School,Cooking_yes,3930.296937655162,91.70132555503172,30,30.0,
113,,sex_male,Size_3,age_26_35,Education_College,Cooking_yes,11334.021753053074,101.72070499066072,1166,1166.0,
114,,sex_female,Size_3,age_26_35,Education_Post_Secondary,Cooking_yes,6389.528652725943,107.12433664166684,1300,1300.0,
115,,sex_male,Size_3,age_26_35,Education_Elementary_School,Cooking_yes,2382.201446631082,83.83153955630515,81,81.0,
116,,sex_female,Size_3,age_46_55,Education_College,Cooking_yes,11782.882596333546,108.84637763764941,1237,1237.0,
117,,sex_male,Size_5,age_26_35,Education_Elementary_School,Cooking_yes,2958.381946793973,104.19997404870564,3,3.0,
120,,sex_male,Size_8,age_36_45,Education_College,Cooking_yes,12783.585927520005,90.36625373101684,457,457.0,
121,,sex_male,Size_2,age_56_65,Education_Elementary_School,Cooking_yes,2612.4632524983317,91.40532405028677,19,19.0,
122,,sex_male,Size_3,age_46_55,Education_College,Cooking_yes,11629.72771507163,95.74475075340585,1157,1157.0,
123,,sex_female,Size_4,age_36_45,Education_High_School,Cooking_yes,3908.5976956374825,87.37168910294203,34,34.0,
124,,sex_male,Size_4,age_46_55,Education_High_School,Cooking_yes,3930.2489643701488,91.97155295574805,15,15.0,
125,,sex_male,Size_4,age_46_55,Education_Post_Secondary,Cooking_no,6774.107363178719,79.52170811539844,54,54.0,
126,,sex_female,Size_6,age_46_55,Education_Post_Secondary,Cooking_yes,7487.095972667529,86.34470370783701,168,168.0,
127,,sex_female,Size_5,age_36_45,Education_Elementary_School,Cooking_yes,3273.027844739333,84.00348362982125,31,31.0,
128,,sex_male,Size_5,age_26_35,Education_Elementary_School,Cooking_no,2942.347386889599,63.31941510459415,4,4.0,
130,,sex_male,Size_3,age_46_55,Education_Elementary_School,Cooking_yes,2637.7347053592384,68.91198850509747,81,81.0,
131,,sex_male,Size_2,age_46_55,Education_Elementary_School,Cooking_yes,2645.822498651804,112.50001818126164,109,109.0,
132,,sex_male,Size_3,age_26_35,Education_High_School,Cooking_yes,3351.5548586451,65.24436980065954,106,106.0,
133,,sex_male,Size_2,age_36_45,Education_Post_Secondary,Cooking_yes,5960.513634050558,79.92005694167412,1423,1423.0,
134,,sex_female,Size_7,age_46_55,Education_Post_Secondary,Cooking_yes,7867.501166820256,112.12586712552458,334,334.0,
135,,sex_male,Size_4,age_46_55,Education_College,Cooking_yes,11882.354215474172,110.79044174530507,56,56.0,
136,,sex_male,Size_5,age_46_55,Education_College,Cooking_yes,12185.814610067768,94.14599520965074,127,127.0,
137,,sex_male,Size_5,age_46_55,Education_Post_Secondary,Cooking_yes,7084.952401104671,100.04120871151281,192,192.0,
138,,sex_male,Size_4,age_36_45,Education_Post_Secondary,Cooking_yes,6613.493616573888,115.73574812258427,318,318.0,
139,,sex_female,Size_3,age_36_45,Education_Post_Graduate,Cooking_yes,13456.748694101687,116.96337658105597,1993,1993.0,
140,,sex_male,Size_3,age_36_45,Education_High_School,Cooking_yes,3602.8653084552643,107.62048621911362,127,127.0,
142,,sex_male,Size_5,age_46_55,Education_Post_Secondary,Cooking_yes,6944.7218469135305,89.80597676191913,178,178.0,
145,,sex_male,Size_2,age_26_35,Education_Post_Secondary,Cooking_yes,5969.668300210096,98.51689107634978,1197,1197.0,
146,,sex_male,Size_3,age_36_45,Education_College,Cooking_yes,11502.165016263833,120.60238168961935,1366,1366.0,
147,,sex_female,Size_5,age_36_45,Education_College,Cooking_no,12045.465686900134,65.95839502419626,406,406.0,
148,,sex_female,Size_3,age_56_65,Education_College,Cooking_yes,11850.08652904839,117.17990706668878,340,340.0,
149,,sex_female,Size_3,age_56_65,Education_College,Cooking_yes,11852.168305672705,117.34388182023146,349,349.0,
150,,sex_male,Size_3,age_46_55,Education_Post_Secondary,Cooking_yes,6539.195323621204,122.87384334988258,1197,1197.0,
151,,sex_male,Size_5,age_46_55,Education_Post_Secondary,Cooking_yes,7135.376550199961,90.14322712074147,181,181.0,
152,,sex_male,Size_5,age_36_45,Education_College,Cooking_yes,12029.686488430241,71.77878093108538,368,368.0,
153,,sex_male,Size_5,age_36_45,Education_Elementary_School,Cooking_yes,3100.53248662841,75.5965419366083,25,25.0,
154,,sex_male,Size_4,age_36_45,Education_College,Cooking_yes,11796.441782554417,128.08809516351948,266,266.0,
156,,sex_male,Size_5,age_46_55,Education_Elementary_School,Cooking_yes,3323.518447310949,89.36524540387767,3,3.0,
157,,sex_female,Size_4,age_46_55,Education_College,Cooking_yes,12028.676611649267,85.21389875119455,136,136.0,
158,,sex_female,Size_4,age_36_45,Education_Post_Graduate,Cooking_no,13599.845527345977,59.60586177565739,507,507.0,
161,,sex_male,Size_3,age_46_55,Education_College,Cooking_yes,11673.438091051854,117.5067667114158,1157,1157.0,
162,,sex_male,Size_3,age_36_45,Education_Post_Secondary,Cooking_no,6273.216340110892,50.95137760361842,1354,1354.0,
163,,sex_male,Size_3,age_56_65,Education_Post_Secondary,Cooking_no,6609.26931403662,61.620859492387446,265,265.0,
164,,sex_male,Size_5,age_46_55,Education_College,Cooking_yes,12257.425027300142,107.20250060124462,138,138.0,
165,,sex_female,Size_3,age_46_55,Education_Post_Graduate,Cooking_yes,13658.129693133877,99.47386755258131,1712,1712.0,
166,,sex_male,Size_3,age_56_65,Education_College,Cooking_yes,11850.754430321973,96.6768076815849,249,249.0,
167,,sex_male,Size_2,age_36_45,Education_High_School,Cooking_yes,3289.052832663728,99.16101770748587,128,128.0,
168,,sex_male,Size_3,age_46_55,Education_Elementary_School,Cooking_yes,2712.173993140021,84.55166366657126,85,85.0,
169,,sex_female,Size_3,age_36_45,Education_Post_Graduate,Cooking_yes,13424.56799598292,88.64867332983157,2002,2002.0,
171,,sex_female,Size_3,age_46_55,Education_Post_Secondary,Cooking_no,6630.4321007200315,61.8047225047806,1266,1266.0,
172,,sex_male,Size_3,age_46_55,Education_College,Cooking_yes,11644.313119443896,92.61811175469872,1157,1157.0,
173,,sex_female,Size_4,age_46_55,Education_Post_Secondary,Cooking_yes,6945.354530243898,91.88874409905112,191,191.0,
174,,sex_female,Size_4,age_36_45,Education_High_School,Cooking_yes,3891.1301071695775,89.70093381974803,41,41.0,
176,,sex_female,Size_2,age_36_45,Education_College,Cooking_yes,11403.621126439792,96.19892426012109,1496,1496.0,
177,,sex_male,Size_2,age_46_55,Education_Post_Secondary,Cooking_yes,6206.947356752617,83.9535896461035,1172,1172.0,
178,,sex_male,Size_2,age_36_45,Education_High_School,Cooking_yes,3418.0395073178497,105.41660315444616,99,99.0,
179,,sex_male,Size_4,age_46_55,Education_College,Cooking_yes,11936.03832523286,98.67941843248774,47,47.0,
180,,sex_female,Size_2,age_46_55,Education_College,Cooking_yes,11601.49300294872,98.1942489854298,1253,1253.0,
181,,sex_female,Size_2,age_56_65,Education_College,Cooking_yes,11726.202223088832,113.6731711309915,329,329.0,
182,,sex_male,Size_3,age_46_55,Education_College,Cooking_yes,11686.906046794908,110.23666185114074,1153,1153.0,
183,,sex_male,Size_3,age_46_55,Education_Post_Secondary,Cooking_yes,6516.7597660810925,108.12232532711236,1203,1203.0,
186,,sex_male,Size_4,age_46_55,Education_Post_Graduate,Cooking_no,13592.394263564174,76.89355768942886,98,98.0,
187,,sex_female,Size_3,age_46_55,Education_Post_Secondary,Cooking_yes,6727.811341891439,91.27606125552177,1267,1267.0,
188,,sex_male,Size_3,age_56_65,Education_Elementary_School,Cooking_yes,2894.1405797365996,91.19949608055622,12,12.0,
189,,sex_female,Size_4,age_26_35,Education_High_School,Cooking_yes,3735.529677344749,103.21710139483227,14,14.0,
190,,sex_male,Size_4,age_36_45,Education_High_School,Cooking_yes,3828.3150223336493,76.4248290520184,18,18.0,
191,,sex_male,Size_5,age_46_55,Education_Post_Secondary,Cooking_yes,7084.484969529954,79.89788903469994,179,179.0,
193,,sex_male,Size_3,age_56_65,Education_College,Cooking_yes,11778.858934643942,79.09552585285046,242,242.0,
194,,sex_female,Size_3,age_56_65,Education_College,Cooking_yes,11927.238021004106,87.17720320832935,331,331.0,
195,,sex_female,Size_3,age_46_55,Education_College,Cooking_yes,11810.226440993574,82.60776109387992,1221,1221.0,
196,,sex_male,Size_7,age_46_55,Education_Post_Secondary,Cooking_no,7544.0071109086475,103.18750874095885,193,193.0,
198,,sex_male,Size_4,age_46_55,Education_Post_Secondary,Cooking_no,6813.1278805154725,93.9619212706518,58,58.0,
199,,sex_female,Size_4,age_46_55,Education_College,Cooking_yes,12087.795242109629,118.9742907894921,150,150.0,
200,,sex_female,Size_3,age_46_55,Education_College,Cooking_yes,11696.310874333252,114.5761993780859,1234,1234.0,
201,,sex_male,Size_3,age_46_55,Education_Post_Secondary,Cooking_no,6635.592423634373,100.29844510392634,1159,1159.0,
202,,sex_male,Size_3,age_46_55,Education_College,Cooking_yes,11635.270804748943,96.66103599781732,1142,1142.0,
203,,sex_male,Size_4,age_36_45,Education_College,Cooking_yes,11809.832484488496,104.18860707106596,271,271.0,
204,,sex_male,Size_4,age_26_35,Education_College,Cooking_yes,11436.589503468716,119.42067350667045,76,76.0,
205,,sex_male,Size_4,age_36_45,Education_Post_Secondary,Cooking_yes,6489.3028806458215,91.3286151686105,334,334.0,
206,,sex_male,Size_6,age_46_55,Education_Post_Secondary,Cooking_yes,7299.9778764851335,68.82496100223096,70,70.0,
209,,sex_male,Size_4,age_26_35,Education_College,Cooking_yes,11529.570307440019,94.31054421294412,85,85.0,
210,,sex_female,Size_5,age_26_35,Education_Post_Graduate,Cooking_yes,13715.01545925319,86.93525144710618,411,411.0,
211,,sex_male,Size_8,age_46_55,Education_College,Cooking_yes,12931.097715405058,85.46734841452955,208,208.0,
213,,sex_male,Size_4,age_46_55,Education_College,Cooking_yes,11866.528476329131,117.62888463952967,46,46.0,
214,,sex_male,Size_4,age_36_45,Education_College,Cooking_yes,11845.04370760632,106.51090314570186,261,261.0,
215,,sex_male,Size_4,age_46_55,Education_Post_Secondary,Cooking_yes,6880.499707972549,83.94948590224826,97,97.0,
216,,sex_male,Size_4,age_46_55,Education_College,Cooking_yes,11980.858139987422,99.37845094197039,49,49.0,
217,,sex_male,Size_2,age_36_45,Education_Elementary_School,Cooking_yes,2371.496948148543,86.37013660006053,116,116.0,
218,,sex_male,Size_8,age_36_45,Education_Post_Secondary,Cooking_yes,7706.4270450663635,87.49200515995778,505,505.0,
220,,sex_male,Size_2,age_46_55,Education_Elementary_School,Cooking_yes,2568.527344339572,63.01156039516752,89,89.0,
221,,sex_female,Size_3,age_46_55,Education_Post_Secondary,Cooking_no,6641.750076214373,61.7975230517208,1244,1244.0,
222,,sex_female,Size_4,age_46_55,Education_Post_Secondary,Cooking_yes,7052.573246656506,85.82639876008714,191,191.0,
229,,sex_female,Size_6,age_46_55,Education_Post_Secondary,Cooking_yes,7477.849044223853,104.20636052234283,157,157.0,
230,,sex_male,Size_5,age_36_45,Education_College,Cooking_yes,11969.701686475648,90.37771963448189,364,364.0,
231,,sex_male,Size_3,age_26_35,Education_College,Cooking_no,11365.620314045322,80.81958955312123,1126,1126.0,
232,,sex_female,Size_3,age_36_45,Education_Elementary_School,Cooking_yes,2674.3731041244005,110.8675115329166,108,108.0,
233,,sex_male,Size_7,age_26_35,Education_Post_Graduate,Cooking_yes,13981.203106006755,110.89581473418959,381,381.0,
234,,sex_male,Size_6,age_46_55,Education_College,Cooking_yes,12403.053887681292,70.28129383850268,24,24.0,
235,,sex_male,Size_6,age_36_45,Education_Elementary_School,Cooking_yes,3391.838648431598,69.12723547333506,14,14.0,
236,,sex_male,Size_4,age_46_55,Education_Post_Graduate,Cooking_yes,13690.9699027048,91.5387717338714,159,159.0,
238,,sex_male,Size_4,age_36_45,Education_College,Cooking_yes,11563.884067017518,114.23343298268642,266,266.0,
240,,sex_male,Size_6,age_36_45,Education_Post_Secondary,Cooking_no,7153.770823325797,66.66186750351079,258,258.0,
242,,sex_male,Size_5,age_46_55,Education_Post_Secondary,Cooking_yes,6959.119823380651,96.6005092703976,178,178.0,
243,,sex_male,Size_7,age_46_55,Education_Post_Graduate,Cooking_yes,14395.260972007141,88.88363515723996,348,348.0,
244,,sex_female,Size_6,age_36_45,Education_College,Cooking_yes,12416.638131116533,103.15948638284928,333,333.0,
246,,sex_male,Size_6,age_46_55,Education_Post_Secondary,Cooking_yes,7399.3304371645145,111.75975436962442,73,73.0,
247,,sex_female,Size_5,age_26_35,Education_College,Cooking_yes,11902.957523689092,77.92918341635492,249,249.0,
248,,sex_male,Size_7,age_36_45,Education_College,Cooking_no,12520.468219815664,88.90073294281348,370,370.0,
249,,sex_female,Size_7,age_36_45,Education_College,Cooking_yes,12606.286189459275,83.12246343506638,519,519.0,
250,,sex_male,Size_4,age_46_55,Education_College,Cooking_yes,11874.300703117451,86.51075504561739,47,47.0,
251,,sex_male,Size_2,age_36_45,Education_College,Cooking_yes,11231.084121479162,104.39672160957217,1389,1389.0,
252,,sex_male,Size_2,age_46_55,Education_Post_Secondary,Cooking_yes,6360.5463448602795,87.91498971436089,1215,1215.0,
253,,sex_male,Size_3,age_46_55,Education_Post_Secondary,Cooking_no,6623.2288037386525,70.65024680358526,1157,1157.0,
254,,sex_male,Size_3,age_36_45,Education_Post_Secondary,Cooking_yes,6405.309771839802,82.58177424298479,1416,1416.0,
255,,sex_male,Size_2,age_46_55,Education_College,Cooking_yes,11432.49002414439,101.5387592559946,1153,1153.0,
256,,sex_male,Size_2,age_56_65,Education_Elementary_School,Cooking_yes,2644.640595783991,82.07152612960193,17,17.0,
257,,sex_male,Size_2,age_66_75,Education_Elementary_School,Cooking_yes,2821.7581583938286,84.9575786733795,26,26.0,
258,,sex_female,Size_2,age_36_45,Education_Elementary_School,Cooking_yes,2445.1995204406353,89.56827512380033,100,100.0,
259,,sex_male,Size_4,age_46_55,Education_Post_Graduate,Cooking_yes,13604.838409508846,70.03051591809728,155,155.0,
260,,sex_male,Size_4,age_36_45,Education_College,Cooking_yes,11714.174025978084,85.0218855186973,263,263.0,
262,,sex_male,Size_5,age_36_45,Education_Post_Secondary,Cooking_yes,6990.320010566839,98.91212473528164,397,397.0,
263,,sex_male,Size_5,age_46_55,Education_Elementary_School,Cooking_yes,3321.212817120976,97.21256502014714,3,3.0,
264,,sex_female,Size_3,age_46_55,Education_College,Cooking_no,11785.856001102802,67.42972815246613,1191,1191.0,
265,,sex_male,Size_2,age_66_75,Education_College,Cooking_no,11630.071972532687,61.94371362112428,484,484.0,
266,,sex_male,Size_2,age_56_65,Education_High_School,Cooking_yes,3699.04879775202,76.15987503210255,25,25.0,
267,,sex_male,Size_2,age_56_65,Education_Post_Secondary,Cooking_yes,6456.900588499799,107.93129403308834,293,293.0,
268,,sex_male,Size_2,age_56_65,Education_Post_Secondary,Cooking_yes,6503.122398326762,100.44475923847861,289,289.0,
269,,sex_male,Size_4,age_36_45,Education_College,Cooking_yes,11749.214375384397,85.69929219465105,276,276.0,
270,,sex_male,Size_4,age_46_55,Education_College,Cooking_yes,11850.09341780502,90.3859065534657,51,51.0,
271,,sex_male,Size_4,age_36_45,Education_Post_Secondary,Cooking_yes,6656.932875717397,93.41554549737091,323,323.0,
272,,sex_male,Size_4,age_46_55,Education_College,Cooking_no,12006.716617270271,88.78703974589935,7,7.0,
273,,sex_female,Size_3,age_56_65,Education_Post_Secondary,Cooking_no,6946.541736188101,73.22336024822809,358,358.0,
274,,sex_male,Size_2,age_36_45,Education_Post_Secondary,Cooking_yes,6024.379296106546,97.97766953585749,1406,1406.0,
277,,sex_female,Size_2,age_56_65,Education_Post_Secondary,Cooking_yes,6475.9001371964905,76.71259246744293,389,389.0,
278,,sex_female,Size_2,age_56_65,Education_Post_Secondary,Cooking_yes,6471.2581668578905,75.79051809687654,399,399.0,
279,,sex_male,Size_6,age_36_45,Education_Post_Secondary,Cooking_yes,7101.449619993615,84.49177065155293,292,292.0,
280,,sex_male,Size_3,age_36_45,Education_Elementary_School,Cooking_no,2682.242813307278,70.27514618749868,91,91.0,
281,,sex_male,Size_3,age_36_45,Education_College,Cooking_yes,11561.775697949517,87.89448153116717,1356,1356.0,
282,,sex_male,Size_3,age_56_65,Education_Elementary_School,Cooking_yes,2806.078987207037,97.74112113395219,16,16.0,
283,,sex_male,Size_3,age_26_35,Education_Elementary_School,Cooking_yes,2472.546929705169,95.6406534413319,95,95.0,
284,,sex_male,Size_3,age_46_55,Education_High_School,Cooking_no,3678.685812803064,58.6262922674872,83,83.0,
285,,sex_male,Size_3,age_46_55,Education_Post_Secondary,Cooking_no,6563.158406563553,71.84113017461993,1148,1148.0,
286,,sex_male,Size_2,age_56_65,Education_College,Cooking_yes,11535.928439058733,93.9652703197935,238,238.0,
287,,sex_male,Size_2,age_36_45,Education_Elementary_School,Cooking_yes,2406.170627776553,95.58200827068441,113,113.0,
288,,sex_male,Size_2,age_36_45,Education_College,Cooking_yes,11139.281630251566,117.98532249212391,1350,1350.0,
289,,sex_male,Size_2,age_46_55,Education_High_School,Cooking_yes,3503.7914004476124,88.19853880864042,89,89.0,
290,,sex_male,Size_7,age_36_45,Education_College,Cooking_yes,12424.842710740344,104.76925069832407,394,394.0,
292,,sex_male,Size_7,age_36_45,Education_Post_Secondary,Cooking_yes,7301.1995682852075,110.70885243592117,452,452.0,
293,,sex_female,Size_4,age_36_45,Education_College,Cooking_yes,11751.097178813045,125.16240367656704,344,344.0,
295,,sex_male,Size_4,age_26_35,Education_College,Cooking_yes,11552.341195653418,107.00787541787433,78,78.0,
298,,sex_male,Size_5,age_36_45,Education_College,Cooking_no,11885.06860778646,84.75093108510153,321,321.0,
299,,sex_male,Size_2,age_26_35,Education_College,Cooking_yes,10899.77126992998,99.94780506946681,1181,1181.0,
300,,sex_male,Size_3,age_46_55,Education_Post_Graduate,Cooking_yes,13354.347690184759,93.1127807378695,1577,1577.0,
301,,sex_male,Size_3,age_46_55,Education_Elementary_School,Cooking_yes,2800.2891538819435,97.65600320855685,98,98.0,
302,,sex_male,Size_3,age_46_55,Education_High_School,Cooking_yes,3740.636952425675,79.34963509375775,97,97.0,
305,,sex_male,Size_4,age_46_55,Education_Post_Graduate,Cooking_yes,13610.54767567375,112.4434030860193,156,156.0,
306,,sex_female,Size_3,age_46_55,Education_Post_Secondary,Cooking_yes,6797.1458924595445,95.47956553483458,1261,1261.0,
307,,sex_male,Size_3,age_46_55,Education_High_School,Cooking_yes,3683.542231259984,71.26182638649749,106,106.0,
308,,sex_female,Size_3,age_36_45,Education_College,Cooking_yes,11652.56012443677,113.6531312485208,1489,1489.0,
309,,sex_male,Size_6,age_46_55,Education_Post_Secondary,Cooking_yes,7339.363359789879,74.28111822028292,81,81.0,
310,,sex_female,Size_5,age_46_55,Education_Post_Secondary,Cooking_no,7117.0608319213625,63.8739491386481,229,229.0,
311,,sex_female,Size_4,age_46_55,Education_Elementary_School,Cooking_yes,3119.2041460128276,111.94909961211684,5,5.0,
312,,sex_male,Size_4,age_46_55,Education_Post_Secondary,Cooking_yes,6847.555651292108,71.99466188716238,97,97.0,
313,,sex_male,Size_4,age_46_55,Education_College,Cooking_yes,11917.966325546455,86.49954818446292,47,47.0,
314,,sex_male,Size_2,age_46_55,Education_Elementary_School,Cooking_yes,2520.349773823792,75.29561741221785,88,88.0,
315,,sex_female,Size_2,age_46_55,Education_Elementary_School,Cooking_yes,2689.717921396858,79.18870166219918,119,119.0,
316,,sex_male,Size_2,age_36_45,Education_Post_Graduate,Cooking_no,13009.880573757706,73.01471969791837,1819,1819.0,
317,,sex_male,Size_3,age_46_55,Education_Elementary_School,Cooking_yes,2885.6066197115088,76.90214466071866,98,98.0,
318,,sex_male,Size_3,age_36_45,Education_College,Cooking_yes,11637.182357727548,90.20205122457264,1356,1356.0,
319,,sex_male,Size_5,age_46_55,Education_College,Cooking_yes,12211.52238734392,99.32594999554591,130,130.0,
320,,sex_male,Size_2,age_46_55,Education_Post_Secondary,Cooking_yes,6310.961830735177,90.89006543209143,1182,1182.0,
321,,sex_male,Size_5,age_46_55,Education_Post_Secondary,Cooking_yes,7065.864222246142,104.0023846633668,182,182.0,
322,,sex_male,Size_4,age_36_45,Education_Post_Secondary,Cooking_no,6683.862097831189,48.37727471186307,256,256.0,
324,,sex_male,Size_6,age_36_45,Education_Elementary_School,Cooking_yes,3352.565349129215,83.23427131826114,13,13.0,
326,,sex_female,Size_2,age_76_85,Education_Post_Secondary,Cooking_yes,6930.2102140520265,105.98234443416122,1501,1501.0,
327,,sex_male,Size_2,age_46_55,Education_College,Cooking_yes,11289.85928671666,79.76211246084209,1139,1139.0,
329,,sex_female,Size_2,age_36_45,Education_Post_Secondary,Cooking_yes,6362.127499298807,54.319403822792275,1495,1495.0,
330,,sex_male,Size_4,age_36_45,Education_College,Cooking_yes,11803.093313997782,93.12687599542923,259,259.0,
331,,sex_male,Size_3,age_36_45,Education_Elementary_School,Cooking_yes,2692.695316218508,84.3517969235534,106,106.0,
332,,sex_male,Size_3,age_46_55,Education_Post_Secondary,Cooking_yes,6468.334047551299,89.93344275877948,1187,1187.0,
333,,sex_male,Size_3,age_46_55,Education_High_School,Cooking_yes,3692.3036915229663,93.4123634687902,121,121.0,
334,,sex_male,Size_5,age_46_55,Education_Elementary_School,Cooking_yes,3277.6358514873773,80.3753952490677,4,4.0,
335,,sex_male,Size_3,age_66_75,Education_Post_Secondary,Cooking_yes,6883.112933739693,85.23770494455566,577,577.0,
336,,sex_female,Size_3,age_46_55,Education_Post_Secondary,Cooking_yes,6662.0719223655005,106.69706398579498,1269,1269.0,
337,,sex_male,Size_3,age_46_55,Education_Post_Secondary,Cooking_yes,6632.8708653581725,86.6701381083956,1233,1233.0,
338,,sex_female,Size_4,age_36_45,Education_High_School,Cooking_yes,3817.2139556855213,98.57366159433401,27,27.0,
339,,sex_male,Size_3,age_46_55,Education_Elementary_School,Cooking_yes,2766.2232353773934,107.27641619217158,79,79.0,
340,,sex_female,Size_3,age_36_45,Education_College,Cooking_yes,11668.229008104312,115.67785222601388,1466,1466.0,
341,,sex_male,Size_3,age_36_45,Education_Post_Secondary,Cooking_yes,6263.291168596825,81.10692894461286,1432,1432.0,
342,,sex_male,Size_3,age_66_75,Education_College,Cooking_yes,11819.777431162684,100.74021388687156,524,524.0,
343,,sex_male,Size_3,age_56_65,Education_Post_Secondary,Cooking_yes,6775.54312961586,85.34444788798255,307,307.0,
344,,sex_male,Size_3,age_36_45,Education_College,Cooking_yes,11421.088559903765,59.16123928932631,1378,1378.0,
345,,sex_female,Size_3,age_46_55,Education_Post_Secondary,Cooking_yes,6577.6877017062025,82.81142035027547,1296,1296.0,
346,,sex_male,Size_4,age_46_55,Education_College,Cooking_yes,11887.793506170758,106.30628221686418,50,50.0,
347,,sex_male,Size_3,age_56_65,Education_College,Cooking_yes,11724.608041038422,100.01089016756656,236,236.0,
348,,sex_male,Size_7,age_36_45,Education_Post_Secondary,Cooking_yes,7514.36670097683,107.27384336016586,480,480.0,
350,,sex_male,Size_3,age_46_55,Education_High_School,Cooking_yes,3768.498225057947,92.87291880654733,113,113.0,
351,,sex_female,Size_5,age_46_55,Education_Post_Secondary,Cooking_yes,7234.3411873132945,94.04526274144101,280,280.0,
352,,sex_male,Size_2,age_46_55,Education_College,Cooking_no,11348.984255614223,78.20384886251851,1135,1135.0,
353,,sex_female,Size_5,age_46_55,Education_Post_Graduate,Cooking_yes,14123.36870390921,90.7555546825222,383,383.0,
355,,sex_male,Size_2,age_56_65,Education_Elementary_School,Cooking_yes,2580.1279096916105,95.2300976843572,12,12.0,
356,,sex_male,Size_3,age_46_55,Education_Elementary_School,Cooking_yes,2743.389778712226,94.96679645158277,89,89.0,
357,,sex_male,Size_3,age_56_65,Education_College,Cooking_yes,11679.052229389856,87.65766291939019,260,260.0,
358,,sex_male,Size_5,age_36_45,Education_College,Cooking_no,11980.558305294353,74.91376296385945,325,325.0,
359,,sex_male,Size_4,age_36_45,Education_Post_Secondary,Cooking_yes,6597.4688730937205,91.39809467342741,334,334.0,
360,,sex_male,Size_2,age_36_45,Education_College,Cooking_no,11170.35779871248,78.38325904745172,1332,1332.0,
361,,sex_male,Size_3,age_46_55,Education_Post_Secondary,Cooking_yes,6573.003554164898,88.59345679460559,1227,1227.0,
363,,sex_female,Size_2,age_56_65,Education_Elementary_School,Cooking_no,2826.9445891971973,79.14929496463576,17,17.0,
364,,sex_male,Size_2,age_66_75,Education_Elementary_School,Cooking_yes,2762.517895855649,86.74299658139101,33,33.0,
365,,sex_male,Size_2,age_66_75,Education_Post_Secondary,Cooking_yes,6560.536139396671,92.59153051291487,565,565.0,
366,,sex_female,Size_2,age_46_55,Education_Post_Secondary,Cooking_yes,6496.477793580796,81.8795550178533,1289,1289.0,
367,,sex_male,Size_4,age_26_35,Education_High_School,Cooking_no,3598.877449706011,63.53787971202514,8,8.0,
368,,sex_female,Size_7,age_36_45,Education_College,Cooking_yes,12708.080310395495,84.76617475753385,524,524.0,
369,,sex_male,Size_3,age_46_55,Education_Post_Secondary,Cooking_yes,6582.285294327932,84.60991843609979,1200,1200.0,
370,,sex_male,Size_3,age_26_35,Education_Elementary_School,Cooking_no,2473.464744217973,60.96535318750077,94,94.0,
371,,sex_female,Size_4,age_19_25,Education_College,Cooking_yes,11597.504132439837,97.64451619940917,1078,1078.0,
372,,sex_female,Size_3,age_19_25,Education_Elementary_School,Cooking_no,2477.3476171272505,67.9799824443616,196,196.0,
373,,sex_male,Size_2,age_56_65,Education_High_School,Cooking_yes,3534.765106900401,103.49799660224474,29,29.0,
375,,sex_female,Size_8,age_26_35,Education_Elementary_School,Cooking_yes,3918.7671983505534,70.04490438833103,18,18.0,
377,,sex_female,Size_2,age_56_65,Education_Post_Secondary,Cooking_no,6515.520176721458,71.92929076273673,341,341.0,
379,,sex_female,Size_6,age_46_55,Education_College,Cooking_yes,12601.660794265345,89.50950242535505,114,114.0,
381,,sex_male,Size_5,age_46_55,Education_High_School,Cooking_yes,4120.841881482365,114.28080333361738,14,14.0,
383,,sex_male,Size_2,age_46_55,Education_College,Cooking_yes,11391.192783962713,72.40613313540915,1133,1133.0,
385,,sex_female,Size_3,age_56_65,Education_College,Cooking_yes,12004.154680299675,100.23025076254727,332,332.0,
386,,sex_male,Size_2,age_46_55,Education_High_School,Cooking_yes,3543.012662407557,75.20556701381182,93,93.0,
387,,sex_male,Size_4,age_46_55,Education_High_School,Cooking_yes,4066.076219202271,78.63644951103268,10,10.0,
388,,sex_male,Size_5,age_36_45,Education_Post_Secondary,Cooking_yes,6804.469788163359,91.06609983730101,406,406.0,
389,,sex_male,Size_5,age_46_55,Education_High_School,Cooking_yes,4220.380633430302,101.83956746190273,24,24.0,
391,,sex_male,Size_8,age_46_55,Education_Post_Graduate,Cooking_yes,14704.097063588946,113.94778077650126,374,374.0,
392,,sex_male,Size_10,age_66_75,Education_College,Cooking_yes,13804.41877873052,94.42851372668218,3551,3551.0,
394,,sex_male,Size_8,age_46_55,Education_College,Cooking_no,12969.407540031621,71.60175861186264,180,180.0,
395,,sex_male,Size_7,age_36_45,Education_Post_Secondary,Cooking_yes,7464.675380361104,120.30745541645074,458,458.0,
396,,sex_male,Size_7,age_46_55,Education_Elementary_School,Cooking_yes,3864.986096710064,65.440148872309,6,6.0,
397,,sex_female,Size_3,age_46_55,Education_College,Cooking_yes,11865.216040560546,113.62678428672413,1234,1234.0,
399,,sex_male,Size_5,age_46_55,Education_College,Cooking_yes,12051.07746095573,62.39903098094474,136,136.0,
400,,sex_male,Size_2,age_56_65,Education_Post_Secondary,Cooking_yes,6567.1518728547535,116.55194027097936,296,296.0,
402,,sex_female,Size_4,age_46_55,Education_College,Cooking_no,12076.955836436277,82.41330008158778,98,98.0,
403,,sex_male,Size_4,age_36_45,Education_Post_Secondary,Cooking_no,6640.65451106254,69.2609755249806,291,291.0,
404,,sex_male,Size_7,age_46_55,Education_Post_Secondary,Cooking_yes,7572.748918781555,92.02813275347238,243,243.0,
406,,sex_female,Size_5,age_46_55,Education_Elementary_School,Cooking_yes,3376.7080991506236,72.60274516289999,7,7.0,
408,,sex_male,Size_2,age_46_55,Education_Post_Graduate,Cooking_yes,13142.064974020672,94.09224380251898,1589,1589.0,
409,,sex_female,Size_2,age_46_55,Education_High_School,Cooking_yes,3599.1133584793597,93.16264315591809,108,108.0,
410,,sex_female,Size_3,age_36_45,Education_Post_Secondary,Cooking_yes,6524.992608617428,79.25272456392892,1483,1483.0,
411,,sex_female,Size_3,age_56_65,Education_College,Cooking_no,11984.772561084712,70.95348299309771,297,297.0,
412,,sex_male,Size_5,age_36_45,Education_High_School,Cooking_yes,4058.231426655697,100.16134639828756,32,32.0,
413,,sex_male,Size_3,age_36_45,Education_Elementary_School,Cooking_yes,2654.006288211897,112.41205571418136,112,112.0,
415,,sex_male,Size_3,age_36_45,Education_College,Cooking_no,11497.915028557107,96.142464245212,1320,1320.0,
416,,sex_male,Size_2,age_46_55,Education_College,Cooking_yes,11449.268912451027,105.70967989834999,1128,1128.0,
419,,sex_male,Size_2,age_56_65,Education_Post_Secondary,Cooking_yes,6481.8842121866965,83.26219565468756,301,301.0,
420,,sex_male,Size_3,age_46_55,Education_College,Cooking_yes,11670.96695312032,114.38552217583442,1159,1159.0,
421,,sex_male,Size_3,age_46_55,Education_Elementary_School,Cooking_yes,2863.938014480733,73.11233321911249,82,82.0,
424,,sex_male,Size_3,age_46_55,Education_Post_Secondary,Cooking_yes,6440.2252089347985,100.71849604448362,1197,1197.0,
425,,sex_male,Size_3,age_46_55,Education_Post_Secondary,Cooking_yes,6535.287040721864,104.51692517514608,1196,1196.0,
426,,sex_female,Size_4,age_36_45,Education_Post_Secondary,Cooking_yes,6805.059979345611,90.7591402025556,398,398.0,
427,,sex_male,Size_6,age_46_55,Education_Post_Secondary,Cooking_no,7318.9469732470325,86.54449318512451,38,38.0,
431,,sex_male,Size_3,age_26_35,Education_College,Cooking_yes,11320.75187909082,127.29054588975046,1199,1199.0,
432,,sex_female,Size_3,age_26_35,Education_College,Cooking_no,11457.186231009544,80.95615846770215,1227,1227.0,
433,,sex_female,Size_4,age_26_35,Education_Post_Secondary,Cooking_yes,6603.971102538281,113.50930692967478,227,227.0,
435,,sex_male,Size_4,age_36_45,Education_High_School,Cooking_no,3908.0686112645753,87.44649533083408,23,23.0,
436,,sex_male,Size_3,age_36_45,Education_College,Cooking_no,11510.506914818974,102.4996336586361,1287,1287.0,
437,,sex_male,Size_2,age_46_55,Education_Elementary_School,Cooking_yes,2499.311965375558,133.60880797136875,89,89.0,
438,,sex_male,Size_2,age_36_45,Education_High_School,Cooking_no,3307.406289689493,70.31532152030724,127,127.0,
439,,sex_male,Size_5,age_46_55,Education_Post_Secondary,Cooking_yes,7052.841998829163,89.94833731934835,185,185.0,
441,,sex_male,Size_3,age_46_55,Education_College,Cooking_yes,11576.52144197116,84.86036036389841,1165,1165.0,
442,,sex_female,Size_3,age_56_65,Education_College,Cooking_yes,11794.403584508309,98.17603696600487,333,333.0,
443,,sex_female,Size_4,age_46_55,Education_Post_Secondary,Cooking_yes,7040.201281282859,98.04207260581913,192,192.0,
445,,sex_male,Size_6,age_36_45,Education_College,Cooking_yes,12249.14375803076,72.73248912615185,245,245.0,
448,,sex_male,Size_5,age_36_45,Education_College,Cooking_yes,12100.250711909563,115.78360430141473,334,334.0,
449,,sex_male,Size_2,age_36_45,Education_College,Cooking_yes,11098.494878511916,71.38962831638545,1338,1338.0,
450,,sex_male,Size_2,age_46_55,Education_Post_Secondary,Cooking_yes,6235.061905974558,76.87211324025435,1241,1241.0,
451,,sex_male,Size_3,age_56_65,Education_Post_Graduate,Cooking_yes,13549.111954803891,101.39479185899943,414,414.0,
452,,sex_male,Size_3,age_36_45,Education_Post_Secondary,Cooking_yes,6347.722525257051,97.5277588950138,1419,1419.0,
453,,sex_male,Size_2,age_36_45,Education_Post_Graduate,Cooking_yes,12948.4132374902,105.00384811483747,1862,1862.0,
454,,sex_male,Size_2,age_56_65,Education_Post_Secondary,Cooking_yes,6394.5281475171105,85.2688359007039,274,274.0,
455,,sex_male,Size_4,age_36_45,Education_College,Cooking_yes,11784.521406683833,105.86721651190695,267,267.0,
456,,sex_male,Size_6,age_26_35,Education_Post_Graduate,Cooking_yes,13872.825417992162,83.33107418627655,159,159.0,
457,,sex_female,Size_6,age_46_55,Education_College,Cooking_yes,12695.82302461408,111.7034575813918,121,121.0,
458,,sex_male,Size_5,age_46_55,Education_Post_Secondary,Cooking_yes,7028.869704183237,82.47259826216526,172,172.0,
459,,sex_male,Size_5,age_36_45,Education_College,Cooking_yes,12042.1661788595,91.75519701144208,366,366.0,
460,,sex_male,Size_9,age_36_45,Education_Elementary_School,Cooking_yes,4194.637409204764,74.20727476089576,15,15.0,
461,,sex_male,Size_6,age_46_55,Education_College,Cooking_yes,12528.987078407607,81.74059141407287,20,20.0,
462,,sex_male,Size_9,age_36_45,Education_High_School,Cooking_no,5097.898958974293,64.56349344450327,21,21.0,
463,,sex_female,Size_4,age_36_45,Education_College,Cooking_yes,11921.989291707368,99.47550055441694,357,357.0,
