,index,i_Sex,i_Urbanity,i_FamilySize,i_Age,i_Education,e_Lighting,e_TV,e_Cooking,e_Refrigeration,Income,Electricity,w,wf
0,0,sex_male,Urbanity_Urban,Size_8,age_46_55,Education_College,Lighting_yes,TV_no,Cooking_no,Refrigeration_no,13227.969106627006,32.797080283400476,473.98148148148147,679.4986105268437
1,1,sex_male,Urbanity_Urban,Size_10,age_56_65,Education_Elementary_School,Lighting_yes,TV_yes,Cooking_no,Refrigeration_yes,4947.926986210758,168.0306725003446,473.98148148148147,521.4286474957428
2,2,sex_male,Urbanity_Urban,Size_10,age_86_100,Education_Elementary_School,Lighting_yes,TV_yes,Cooking_no,Refrigeration_no,5531.569634303334,98.81937372417677,473.98148148148147,2143.366763553788
3,3,sex_male,Urbanity_Urban,Size_10,age_36_45,Education_College,Lighting_yes,TV_yes,Cooking_no,Refrigeration_no,13548.648116290493,31.41880316100205,473.98148148148147,930.1110712564205
4,4,sex_male,Urbanity_Urban,Size_8,age_26_35,Education_High_School,Lighting_yes,TV_yes,Cooking_no,Refrigeration_no,4828.779718458952,82.83751809186391,473.98148148148147,949.2995604298784
5,5,sex_male,Urbanity_Urban,Size_6,age_56_65,Education_High_School,Lighting_yes,TV_no,Cooking_no,Refrigeration_no,5137.723412941553,36.23035833663912,473.98148148148147,46.2325361799416
6,6,sex_male,Urbanity_Rural,Size_6,age_36_45,Education_High_School,Lighting_yes,TV_no,Cooking_no,Refrigeration_no,3480.416874567128,-35.15327433769525,473.98148148148147,656.8304352761969
7,7,sex_male,Urbanity_Urban,Size_5,age_46_55,Education_Elementary_School,Lighting_no,TV_yes,Cooking_no,Refrigeration_no,3479.711729920859,60.49947130591834,473.98148148148147,581.9908715048937
8,8,sex_female,Urbanity_Urban,Size_9,age_46_55,Education_Elementary_School,Lighting_yes,TV_yes,Cooking_no,Refrigeration_yes,4884.554471888656,130.2169405942599,473.98148148148147,591.0466631676126
9,9,sex_male,Urbanity_Urban,Size_9,age_46_55,Education_College,Lighting_yes,TV_yes,Cooking_no,Refrigeration_yes,13667.00369944958,173.3250398668852,473.98148148148147,407.2219079873194
10,10,sex_male,Urbanity_Urban,Size_4,age_66_75,Education_College,Lighting_yes,TV_no,Cooking_no,Refrigeration_yes,12461.043176589092,131.99895567736962,473.98148148148147,386.8056500863274
11,11,sex_male,Urbanity_Urban,Size_3,age_46_55,Education_Post_Secondary,Lighting_yes,TV_yes,Cooking_no,Refrigeration_yes,6854.56624808283,125.88406426029054,473.98148148148147,355.9527530168229
12,12,sex_male,Urbanity_Rural,Size_3,age_36_45,Education_High_School,Lighting_yes,TV_yes,Cooking_no,Refrigeration_no,2775.974275306092,13.743545506242475,473.98148148148147,804.9844578350383
13,13,sex_male,Urbanity_Urban,Size_4,age_36_45,Education_High_School,Lighting_yes,TV_yes,Cooking_no,Refrigeration_no,4107.204019362743,76.88921443400474,473.98148148148147,1000.81860389135
14,14,sex_male,Urbanity_Rural,Size_4,age_46_55,Education_College,Lighting_yes,TV_yes,Cooking_no,Refrigeration_yes,11072.347488734436,91.44283536930759,473.98148148148147,481.4089744120788
15,15,sex_male,Urbanity_Urban,Size_4,age_46_55,Education_College,Lighting_yes,TV_yes,Cooking_no,Refrigeration_no,12226.713186302915,39.12672811299225,473.98148148148147,443.9356431800599
16,16,sex_male,Urbanity_Rural,Size_2,age_56_65,Education_Elementary_School,Lighting_yes,TV_yes,Cooking_no,Refrigeration_no,1854.6489074242106,42.58959622061671,473.98148148148147,400.07226060991854
17,17,sex_male,Urbanity_Urban,Size_7,age_56_65,Education_Post_Secondary,Lighting_yes,TV_yes,Cooking_no,Refrigeration_no,8078.9079635559465,81.10204150476454,473.98148148148147,484.8476333542066
18,18,sex_male,Urbanity_Rural,Size_9,age_46_55,Education_High_School,Lighting_yes,TV_yes,Cooking_no,Refrigeration_yes,4294.908548912468,108.34003621604086,473.98148148148147,546.0094614725077
19,19,sex_male,Urbanity_Urban,Size_7,age_46_55,Education_High_School,Lighting_yes,TV_yes,Cooking_no,Refrigeration_no,5144.763751810493,61.91958539587905,473.98148148148147,535.3247506172494
20,20,sex_female,Urbanity_Urban,Size_3,age_26_35,Education_High_School,Lighting_yes,TV_yes,Cooking_no,Refrigeration_no,3805.277516833127,87.9484141180254,473.98148148148147,533.6759386692122
21,21,sex_male,Urbanity_Urban,Size_6,age_19_25,Education_Post_Secondary,Lighting_yes,TV_yes,Cooking_no,Refrigeration_yes,7084.500455986806,139.5313058148985,473.98148148148147,337.29209997008587
22,22,sex_male,Urbanity_Rural,Size_7,age_36_45,Education_Post_Graduate,Lighting_yes,TV_yes,Cooking_no,Refrigeration_yes,13423.055905201509,125.93069606771523,473.98148148148147,885.9269797755052
23,23,sex_female,Urbanity_Urban,Size_8,age_56_65,Education_High_School,Lighting_yes,TV_yes,Cooking_no,Refrigeration_no,5452.7581284243015,51.16158929730482,473.98148148148147,648.7754026529176
24,24,sex_male,Urbanity_Urban,Size_3,age_46_55,Education_Elementary_School,Lighting_yes,TV_yes,Cooking_no,Refrigeration_no,2985.492335877897,79.66339362657307,473.98148148148147,370.4566405410585
25,25,sex_female,Urbanity_Urban,Size_4,age_56_65,Education_Elementary_School,Lighting_yes,TV_no,Cooking_no,Refrigeration_no,3660.4042952061372,17.52963399981512,473.98148148148147,557.9097891146406
26,26,sex_female,Urbanity_Rural,Size_4,age_46_55,Education_Elementary_School,Lighting_yes,TV_yes,Cooking_no,Refrigeration_no,2365.6237715239567,47.38060402553725,473.98148148148147,669.8473990466017
27,27,sex_male,Urbanity_Urban,Size_5,age_46_55,Education_High_School,Lighting_yes,TV_no,Cooking_no,Refrigeration_yes,4526.33981746678,133.47834145622215,473.98148148148147,417.115156490029
28,28,sex_male,Urbanity_Urban,Size_3,age_66_75,Education_High_School,Lighting_yes,TV_yes,Cooking_no,Refrigeration_no,4380.1133037337595,23.995363583091873,473.98148148148147,211.72084434499268
30,30,sex_male,Urbanity_Urban,Size_5,age_56_65,Education_College,Lighting_yes,TV_yes,Cooking_no,Refrigeration_no,12584.514907763943,74.61526749801966,473.98148148148147,178.2219013957191
31,31,sex_male,Urbanity_Urban,Size_4,age_26_35,Education_Elementary_School,Lighting_yes,TV_no,Cooking_no,Refrigeration_no,2977.586855469317,54.200829713683994,473.98148148148147,858.4339468916014
32,32,sex_female,Urbanity_Urban,Size_4,age_66_75,Education_Elementary_School,Lighting_yes,TV_yes,Cooking_no,Refrigeration_no,3912.087805497071,62.9469035367814,473.98148148148147,536.7661934689066
33,33,sex_male,Urbanity_Urban,Size_3,age_56_65,Education_High_School,Lighting_yes,TV_yes,Cooking_no,Refrigeration_yes,4127.417202685788,140.2437522523843,473.98148148148147,189.77288928455314
34,34,sex_male,Urbanity_Rural,Size_3,age_56_65,Education_High_School,Lighting_yes,TV_yes,Cooking_no,Refrigeration_no,3069.8501123446117,23.60300175365825,473.98148148148147,236.4735594250316
35,35,sex_male,Urbanity_Rural,Size_6,age_46_55,Education_College,Lighting_yes,TV_yes,Cooking_no,Refrigeration_yes,11599.084929335771,102.67526994397184,473.98148148148147,56.855923858733384
36,36,sex_male,Urbanity_Rural,Size_5,age_46_55,Education_High_School,Lighting_yes,TV_no,Cooking_no,Refrigeration_no,3320.790035922481,72.75508026588463,473.98148148148147,463.8158266305075
37,37,sex_female,Urbanity_Urban,Size_5,age_46_55,Education_College,Lighting_yes,TV_yes,Cooking_no,Refrigeration_no,12596.3477889896,62.27994722488428,473.98148148148147,305.93300297010967
38,38,sex_male,Urbanity_Urban,Size_4,age_46_55,Education_Post_Secondary,Lighting_yes,TV_yes,Cooking_no,Refrigeration_no,7110.8817024416085,36.319200313331116,473.98148148148147,598.487569213613
39,39,sex_male,Urbanity_Urban,Size_4,age_36_45,Education_Post_Secondary,Lighting_yes,TV_yes,Cooking_no,Refrigeration_no,6835.88058570053,59.17325237345445,473.98148148148147,1058.6699771259634
40,40,sex_male,Urbanity_Urban,Size_4,age_26_35,Education_High_School,Lighting_no,TV_yes,Cooking_no,Refrigeration_yes,3897.4871219686506,132.952311390379,473.98148148148147,878.5991403887683
41,41,sex_male,Urbanity_Urban,Size_6,age_56_65,Education_Elementary_School,Lighting_no,TV_no,Cooking_no,Refrigeration_yes,3935.5910825865612,109.91064865467129,473.98148148148147,240.35879353829063
42,42,sex_male,Urbanity_Urban,Size_4,age_66_75,Education_High_School,Lighting_yes,TV_yes,Cooking_no,Refrigeration_yes,4713.145386230755,167.1759027665674,473.98148148148147,445.0283216333233
43,43,sex_male,Urbanity_Rural,Size_5,age_46_55,Education_Elementary_School,Lighting_yes,TV_yes,Cooking_no,Refrigeration_no,2485.058997149785,24.73696861398154,473.98148148148147,493.07953668318316
44,44,sex_male,Urbanity_Urban,Size_5,age_46_55,Education_Elementary_School,Lighting_yes,TV_no,Cooking_no,Refrigeration_no,3600.594253075122,25.93819248860573,473.98148148148147,489.47041724887816
45,45,sex_male,Urbanity_Urban,Size_4,age_36_45,Education_College,Lighting_yes,TV_yes,Cooking_no,Refrigeration_no,12069.67190153314,52.8406125465357,473.98148148148147,904.1180510924104
46,46,sex_female,Urbanity_Urban,Size_5,age_56_65,Education_High_School,Lighting_yes,TV_yes,Cooking_no,Refrigeration_no,4700.150402734225,60.84891825345931,473.98148148148147,294.305065271393
47,47,sex_female,Urbanity_Urban,Size_4,age_46_55,Education_Post_Secondary,Lighting_yes,TV_yes,Cooking_no,Refrigeration_yes,7278.4165297321,138.21340097772298,473.98148148148147,613.2565108361176
48,48,sex_male,Urbanity_Urban,Size_2,age_36_45,Education_College,Lighting_yes,TV_no,Cooking_no,Refrigeration_no,11526.63201060158,49.37316593306598,473.98148148148147,800.5318954820613
49,49,sex_male,Urbanity_Rural,Size_5,age_66_75,Education_Post_Secondary,Lighting_yes,TV_yes,Cooking_no,Refrigeration_no,6540.840939878659,25.976957994598195,473.98148148148147,392.1951137217308
50,50,sex_female,Urbanity_Urban,Size_5,age_66_75,Education_High_School,Lighting_yes,TV_yes,Cooking_no,Refrigeration_no,4998.808468875196,53.20368255852155,473.98148148148147,311.6393508776028
51,51,sex_male,Urbanity_Urban,Size_3,age_66_75,Education_College,Lighting_yes,TV_yes,Cooking_no,Refrigeration_yes,12181.65699914012,142.55626696954974,473.98148148148147,110.4066220918233
52,52,sex_male,Urbanity_Rural,Size_3,age_76_85,Education_High_School,Lighting_yes,TV_yes,Cooking_no,Refrigeration_yes,3342.4673748868654,85.33669117289735,473.98148148148147,55.110792814822226
53,53,sex_male,Urbanity_Rural,Size_4,age_56_65,Education_Elementary_School,Lighting_yes,TV_yes,Cooking_no,Refrigeration_no,2469.120559026377,74.13107054797972,473.98148148148147,542.1362974722114
54,54,sex_male,Urbanity_Rural,Size_4,age_56_65,Education_Elementary_School,Lighting_yes,TV_yes,Cooking_no,Refrigeration_yes,2336.336599326358,125.09404287304359,473.98148148148147,537.5226280179813
55,55,sex_male,Urbanity_Urban,Size_5,age_56_65,Education_High_School,Lighting_yes,TV_yes,Cooking_no,Refrigeration_yes,4860.5834211770725,149.63171241599866,473.98148148148147,270.30878474042896
56,56,sex_male,Urbanity_Urban,Size_4,age_36_45,Education_Post_Secondary,Lighting_yes,TV_yes,Cooking_no,Refrigeration_yes,6861.332971514103,145.73088361936522,473.98148148148147,1054.0563076717335
57,57,sex_male,Urbanity_Rural,Size_8,age_19_25,Education_College,Lighting_yes,TV_no,Cooking_no,Refrigeration_yes,11516.53641263713,94.07142627160972,473.98148148148147,884.9431925229107
58,58,sex_male,Urbanity_Urban,Size_7,age_36_45,Education_College,Lighting_yes,TV_yes,Cooking_no,Refrigeration_no,12799.02315348032,56.70914828681943,473.98148148148147,898.8066057306603
59,59,sex_male,Urbanity_Urban,Size_4,age_76_85,Education_Elementary_School,Lighting_yes,TV_yes,Cooking_no,Refrigeration_yes,3704.657971947538,155.00901709351064,473.98148148148147,318.68653017575303
60,60,sex_male,Urbanity_Urban,Size_7,age_56_65,Education_Elementary_School,Lighting_yes,TV_yes,Cooking_no,Refrigeration_yes,4161.1795393005605,138.302051659945,473.98148148148147,490.1241819699826
61,61,sex_male,Urbanity_Rural,Size_5,age_46_55,Education_Elementary_School,Lighting_yes,TV_no,Cooking_no,Refrigeration_yes,2556.724674741437,57.9956220959152,473.98148148148147,526.9437484808969
62,62,sex_male,Urbanity_Rural,Size_5,age_56_65,Education_Post_Graduate,Lighting_yes,TV_yes,Cooking_no,Refrigeration_no,13144.931931471336,42.07985444006521,473.98148148148147,169.95594489479396
63,63,sex_male,Urbanity_Urban,Size_5,age_26_35,Education_College,Lighting_yes,TV_yes,Cooking_no,Refrigeration_yes,12119.742909672976,165.46327163398632,473.98148148148147,493.5150007951845
64,64,sex_male,Urbanity_Urban,Size_3,age_46_55,Education_High_School,Lighting_yes,TV_yes,Cooking_no,Refrigeration_no,4046.6487668676946,36.89700225346285,473.98148148148147,302.71504923643914
65,65,sex_male,Urbanity_Rural,Size_4,age_46_55,Education_High_School,Lighting_yes,TV_yes,Cooking_no,Refrigeration_yes,3050.197631970968,135.73115933348006,473.98148148148147,578.1095272110184
66,66,sex_male,Urbanity_Rural,Size_6,age_66_75,Education_High_School,Lighting_yes,TV_yes,Cooking_no,Refrigeration_yes,4053.055509502704,80.49435810366994,473.98148148148147,62.56227176622658
67,67,sex_male,Urbanity_Rural,Size_8,age_26_35,Education_Post_Graduate,Lighting_yes,TV_no,Cooking_no,Refrigeration_no,13420.877707319563,4.195318841048035,473.98148148148147,882.8109323819574
68,68,sex_male,Urbanity_Urban,Size_5,age_66_75,Education_High_School,Lighting_yes,TV_yes,Cooking_no,Refrigeration_no,4741.991186660629,31.93276390541554,473.98148148148147,292.2567398008685
69,69,sex_female,Urbanity_Urban,Size_7,age_56_65,Education_Post_Secondary,Lighting_yes,TV_yes,Cooking_no,Refrigeration_yes,8240.179153925777,95.64523522223914,473.98148148148147,499.6165749767111
70,70,sex_female,Urbanity_Urban,Size_3,age_46_55,Education_Post_Secondary,Lighting_yes,TV_yes,Cooking_no,Refrigeration_no,6992.448590057336,79.10117029879963,473.98148148148147,379.949033547787
71,71,sex_male,Urbanity_Urban,Size_3,age_46_55,Education_High_School,Lighting_yes,TV_yes,Cooking_no,Refrigeration_no,4067.326534418988,45.7214821529514,473.98148148148147,302.71504923643914
72,72,sex_female,Urbanity_Rural,Size_5,age_26_35,Education_High_School,Lighting_yes,TV_yes,Cooking_no,Refrigeration_no,3169.5775663004256,21.99125209963855,473.98148148148147,656.2988348113369
73,73,sex_female,Urbanity_Rural,Size_5,age_46_55,Education_College,Lighting_yes,TV_yes,Cooking_no,Refrigeration_no,11510.600594533484,60.89690122885269,473.98148148148147,348.0200036563583
74,74,sex_female,Urbanity_Urban,Size_6,age_19_25,Education_Elementary_School,Lighting_yes,TV_yes,Cooking_no,Refrigeration_yes,3416.183710530345,107.99339713521091,473.98148148148147,366.56492911682585
75,75,sex_female,Urbanity_Rural,Size_7,age_36_45,Education_Post_Secondary,Lighting_yes,TV_no,Cooking_no,Refrigeration_no,6799.2911486784315,13.840177754237555,473.98148148148147,1153.3060247791402
76,76,sex_female,Urbanity_Urban,Size_2,age_36_45,Education_College,Lighting_yes,TV_yes,Cooking_no,Refrigeration_no,11597.998790330503,82.25125688335453,473.98148148148147,781.436625306852
77,77,sex_male,Urbanity_Urban,Size_5,age_46_55,Education_Elementary_School,Lighting_yes,TV_no,Cooking_no,Refrigeration_yes,3512.402086112234,173.7889428957426,473.98148148148147,484.85674779464836
78,78,sex_male,Urbanity_Urban,Size_5,age_76_85,Education_High_School,Lighting_yes,TV_yes,Cooking_no,Refrigeration_yes,4951.328458088931,147.39799769039575,473.98148148148147,93.55968758444936
79,79,sex_female,Urbanity_Urban,Size_3,age_36_45,Education_Elementary_School,Lighting_yes,TV_yes,Cooking_no,Refrigeration_no,3102.047628786963,76.25787228881988,473.98148148148147,850.0216595301433
80,80,sex_male,Urbanity_Urban,Size_3,age_56_65,Education_High_School,Lighting_yes,TV_yes,Cooking_no,Refrigeration_yes,4037.8660218297027,125.33759387536502,473.98148148148147,189.77288928455314
81,81,sex_male,Urbanity_Urban,Size_3,age_76_85,Education_Elementary_School,Lighting_no,TV_no,Cooking_no,Refrigeration_yes,3430.469624701864,112.6533967167872,473.98148148148147,250.24160019309596
82,82,sex_male,Urbanity_Urban,Size_4,age_46_55,Education_Post_Secondary,Lighting_yes,TV_yes,Cooking_no,Refrigeration_no,6999.98297672827,40.31734250869466,473.98148148148147,598.487569213613
83,83,sex_male,Urbanity_Rural,Size_4,age_46_55,Education_College,Lighting_yes,TV_no,Cooking_no,Refrigeration_no,10982.851036484912,31.17583028561553,473.98148148148147,524.5005251182523
84,84,sex_female,Urbanity_Urban,Size_7,age_66_75,Education_Post_Secondary,Lighting_yes,TV_yes,Cooking_no,Refrigeration_no,8384.456440129896,65.14096826826426,473.98148148148147,521.5645300371507
85,85,sex_male,Urbanity_Urban,Size_5,age_56_65,Education_Post_Secondary,Lighting_yes,TV_yes,Cooking_no,Refrigeration_yes,7565.791191037992,160.4232503351306,473.98148148148147,328.1601579750425
86,86,sex_male,Urbanity_Urban,Size_6,age_56_65,Education_Post_Secondary,Lighting_yes,TV_yes,Cooking_no,Refrigeration_no,7711.331652385653,83.67915425128429,473.98148148148147,65.60602816261134
87,87,sex_male,Urbanity_Urban,Size_2,age_46_55,Education_Post_Graduate,Lighting_yes,TV_yes,Cooking_no,Refrigeration_yes,13353.596409776716,183.5692481012587,473.98148148148147,246.9049796763635
88,88,sex_male,Urbanity_Urban,Size_2,age_46_55,Education_High_School,Lighting_yes,TV_yes,Cooking_no,Refrigeration_yes,3818.5173413777375,103.21178419482234,473.98148148148147,393.9584896624771
89,89,sex_female,Urbanity_Urban,Size_1,age_46_55,Education_Post_Secondary,Lighting_yes,TV_yes,Cooking_no,Refrigeration_no,6333.4372560772745,47.573387564251355,473.98148148148147,194.33436462769177
90,90,sex_female,Urbanity_Rural,Size_1,age_46_55,Education_High_School,Lighting_yes,TV_yes,Cooking_no,Refrigeration_yes,2510.211021861697,76.97047683254775,473.98148148148147,173.9563226250972
91,91,sex_female,Urbanity_Rural,Size_4,age_66_75,Education_High_School,Lighting_yes,TV_no,Cooking_no,Refrigeration_yes,3662.931274982793,42.594484699396936,473.98148148148147,544.9758146482501
92,92,sex_male,Urbanity_Urban,Size_2,age_36_45,Education_Post_Secondary,Lighting_yes,TV_yes,Cooking_no,Refrigeration_no,6442.259149418473,72.65355001607742,473.98148148148147,916.6059402636708
93,93,sex_female,Urbanity_Urban,Size_1,age_56_65,Education_High_School,Lighting_yes,TV_no,Cooking_no,Refrigeration_yes,3922.2256541063252,107.81594998296002,473.98148148148147,62.01871269313597
94,94,sex_male,Urbanity_Urban,Size_1,age_56_65,Education_High_School,Lighting_yes,TV_no,Cooking_no,Refrigeration_yes,3717.610391797721,101.20428008056321,473.98148148148147,42.63610161640168
95,95,sex_female,Urbanity_Urban,Size_1,age_56_65,Education_High_School,Lighting_yes,TV_no,Cooking_no,Refrigeration_no,3788.1701261340613,49.32241132735254,473.98148148148147,66.63238214736572
96,96,sex_male,Urbanity_Urban,Size_5,age_76_85,Education_High_School,Lighting_yes,TV_yes,Cooking_no,Refrigeration_no,5051.353795401195,85.85950415201177,473.98148148148147,98.17335703867913
97,97,sex_male,Urbanity_Urban,Size_9,age_56_65,Education_Elementary_School,Lighting_yes,TV_yes,Cooking_no,Refrigeration_no,4887.4828701844235,54.0864427673155,473.98148148148147,467.9492310474518
98,98,sex_male,Urbanity_Urban,Size_9,age_56_65,Education_High_School,Lighting_yes,TV_yes,Cooking_no,Refrigeration_no,5718.771412365247,71.77223824925343,473.98148148148147,400.2076397428325
99,99,sex_male,Urbanity_Urban,Size_9,age_76_85,Education_College,Lighting_yes,TV_yes,Cooking_no,Refrigeration_yes,14009.378586120149,159.5876598832865,473.98148148148147,122.14432033368335
100,100,sex_female,Urbanity_Urban,Size_6,age_36_45,Education_Post_Secondary,Lighting_yes,TV_yes,Cooking_no,Refrigeration_no,7530.436443883298,69.48558844985418,473.98148148148147,653.4995376493523
101,101,sex_male,Urbanity_Urban,Size_6,age_26_35,Education_College,Lighting_yes,TV_no,Cooking_no,Refrigeration_yes,12442.436761936897,105.15497705373278,473.98148148148147,264.8250827804673
102,102,sex_female,Urbanity_Urban,Size_4,age_46_55,Education_Elementary_School,Lighting_yes,TV_yes,Cooking_no,Refrigeration_no,3409.5901669910872,52.882810262408285,473.98148148148147,627.7603983603533
103,103,sex_male,Urbanity_Urban,Size_6,age_66_75,Education_Elementary_School,Lighting_yes,TV_yes,Cooking_no,Refrigeration_yes,4342.9255423058585,89.30954090490481,473.98148148148147,88.21686238459725
104,104,sex_male,Urbanity_Urban,Size_5,age_56_65,Education_Elementary_School,Lighting_yes,TV_yes,Cooking_no,Refrigeration_no,3727.5554615332067,73.69326927611326,473.98148148148147,342.664045499278
105,105,sex_male,Urbanity_Urban,Size_5,age_56_65,Education_Elementary_School,Lighting_yes,TV_yes,Cooking_no,Refrigeration_no,3866.536013176668,43.740897634632596,473.98148148148147,342.664045499278
106,106,sex_female,Urbanity_Urban,Size_3,age_46_55,Education_High_School,Lighting_yes,TV_yes,Cooking_no,Refrigeration_no,4160.266931708238,76.8604315434402,473.98148148148147,322.0976603131734
107,107,sex_male,Urbanity_Urban,Size_2,age_26_35,Education_Elementary_School,Lighting_yes,TV_yes,Cooking_no,Refrigeration_yes,2316.365103398497,146.56398675986748,473.98148148148147,673.2783593231352
109,109,sex_female,Urbanity_Urban,Size_1,age_36_45,Education_Elementary_School,Lighting_yes,TV_no,Cooking_no,Refrigeration_yes,2576.902040460388,87.75731045310896,473.98148148148147,698.271202407762
111,111,sex_male,Urbanity_Urban,Size_2,age_36_45,Education_College,Lighting_yes,TV_yes,Cooking_no,Refrigeration_yes,11492.428874882124,150.8944117464254,473.98148148148147,757.4403447758881
112,112,sex_male,Urbanity_Rural,Size_2,age_56_65,Education_College,Lighting_yes,TV_yes,Cooking_no,Refrigeration_no,10618.243316534086,8.58887540419415,473.98148148148147,235.6301165063596
113,113,sex_male,Urbanity_Urban,Size_7,age_56_65,Education_Elementary_School,Lighting_yes,TV_yes,Cooking_no,Refrigeration_no,4368.981857921554,58.0185769356857,473.98148148148147,494.73785142421235
114,114,sex_male,Urbanity_Rural,Size_7,age_46_55,Education_College,Lighting_yes,TV_yes,Cooking_no,Refrigeration_no,11762.070170281053,66.17914036770611,473.98148148148147,480.71119850455847
115,115,sex_male,Urbanity_Urban,Size_1,age_56_65,Education_Elementary_School,Lighting_yes,TV_yes,Cooking_no,Refrigeration_no,2693.9748500978712,75.609978766296,473.98148148148147,76.51348112330697
116,116,sex_male,Urbanity_Urban,Size_5,age_46_55,Education_Elementary_School,Lighting_yes,TV_yes,Cooking_no,Refrigeration_yes,3639.4675312907375,123.68774617603763,473.98148148148147,446.37886654270477
117,117,sex_male,Urbanity_Rural,Size_4,age_36_45,Education_Elementary_School,Lighting_yes,TV_yes,Cooking_no,Refrigeration_yes,1999.7854628397947,97.94743107671889,473.98148148148147,1106.0335264279884
118,118,sex_male,Urbanity_Urban,Size_3,age_56_65,Education_Elementary_School,Lighting_yes,TV_yes,Cooking_no,Refrigeration_no,3252.030313598803,86.25192873698145,473.98148148148147,262.12815004340223
119,119,sex_male,Urbanity_Urban,Size_9,age_56_65,Education_High_School,Lighting_yes,TV_yes,Cooking_no,Refrigeration_no,5781.483586355822,48.58256668302662,473.98148148148147,400.2076397428325
120,120,sex_male,Urbanity_Urban,Size_6,age_36_45,Education_College,Lighting_yes,TV_yes,Cooking_no,Refrigeration_yes,12583.401090649662,78.36852611578169,473.98148148148147,474.95133108483515
121,121,sex_male,Urbanity_Rural,Size_3,age_46_55,Education_High_School,Lighting_yes,TV_no,Cooking_no,Refrigeration_yes,2771.104827855368,80.7404969975325,473.98148148148147,378.66626172040185
122,122,sex_female,Urbanity_Rural,Size_8,age_56_65,Education_Post_Secondary,Lighting_yes,TV_no,Cooking_no,Refrigeration_no,7207.83360484725,20.988543577467567,473.98148148148147,787.1916578257236
123,123,sex_male,Urbanity_Urban,Size_8,age_56_65,Education_High_School,Lighting_yes,TV_yes,Cooking_no,Refrigeration_yes,5482.490098428454,117.55261146969984,473.98148148148147,624.7791221219535
124,124,sex_male,Urbanity_Urban,Size_6,age_56_65,Education_High_School,Lighting_yes,TV_yes,Cooking_no,Refrigeration_yes,5042.865525676953,131.41768490418224,473.98148148148147,3.1409854737681
125,125,sex_male,Urbanity_Urban,Size_7,age_46_55,Education_High_School,Lighting_yes,TV_yes,Cooking_no,Refrigeration_yes,4978.874831762043,156.21174491350055,473.98148148148147,530.7110811630197
126,126,sex_male,Urbanity_Urban,Size_2,age_66_75,Education_Elementary_School,Lighting_yes,TV_no,Cooking_no,Refrigeration_yes,3206.2004385505657,106.58482892733777,473.98148148148147,409.18375732759364
127,127,sex_female,Urbanity_Rural,Size_3,age_46_55,Education_Post_Secondary,Lighting_yes,TV_yes,Cooking_no,Refrigeration_yes,5898.08939062241,126.43375933248959,473.98148148148147,417.422364779806
128,128,sex_male,Urbanity_Urban,Size_2,age_36_45,Education_Elementary_School,Lighting_yes,TV_no,Cooking_no,Refrigeration_no,2631.777875613703,46.432097087240784,473.98148148148147,964.9740395856204
129,129,sex_male,Urbanity_Urban,Size_3,age_66_75,Education_Elementary_School,Lighting_yes,TV_no,Cooking_no,Refrigeration_yes,3417.0029114827307,96.4585151135584,473.98148148148147,313.326647447326
130,130,sex_male,Urbanity_Urban,Size_5,age_36_45,Education_High_School,Lighting_yes,TV_yes,Cooking_no,Refrigeration_yes,4324.614301707932,95.24923313597016,473.98148148148147,838.8196831504358
131,131,sex_male,Urbanity_Urban,Size_5,age_66_75,Education_College,Lighting_yes,TV_yes,Cooking_no,Refrigeration_no,12793.78427441437,110.06304276575476,473.98148148148147,195.5561870019289
132,132,sex_male,Urbanity_Urban,Size_6,age_56_65,Education_Elementary_School,Lighting_yes,TV_yes,Cooking_no,Refrigeration_yes,3975.686714437285,131.1056181808937,473.98148148148147,70.88257677838737
133,133,sex_male,Urbanity_Urban,Size_2,age_56_65,Education_College,Lighting_yes,TV_no,Cooking_no,Refrigeration_no,11932.093237370414,55.63231544154746,473.98148148148147,232.02099707205463
134,134,sex_male,Urbanity_Urban,Size_3,age_26_35,Education_High_School,Lighting_yes,TV_yes,Cooking_no,Refrigeration_no,3556.675105337633,55.36636392061453,473.98148148148147,514.293327592478
135,135,sex_male,Urbanity_Urban,Size_2,age_36_45,Education_High_School,Lighting_yes,TV_yes,Cooking_no,Refrigeration_no,3513.6403235234,63.2238868319285,473.98148148148147,858.7545670290573
136,136,sex_female,Urbanity_Rural,Size_10,age_76_85,Education_Elementary_School,Lighting_yes,TV_yes,Cooking_no,Refrigeration_yes,4685.176430667422,119.38542126477527,473.98148148148147,406.14916210274606
137,137,sex_male,Urbanity_Urban,Size_10,age_36_45,Education_Elementary_School,Lighting_yes,TV_no,Cooking_no,Refrigeration_no,4685.021692306539,53.95394842981902,473.98148148148147,1133.031096611923
138,138,sex_female,Urbanity_Urban,Size_9,age_46_55,Education_College,Lighting_yes,TV_no,Cooking_no,Refrigeration_no,13584.962409051364,18.509028885558948,473.98148148148147,469.6960697702272
139,139,sex_male,Urbanity_Urban,Size_7,age_36_45,Education_Post_Secondary,Lighting_yes,TV_yes,Cooking_no,Refrigeration_yes,7748.536851085637,132.55016814909865,473.98148148148147,1048.7448623099838
140,140,sex_male,Urbanity_Rural,Size_4,age_46_55,Education_Elementary_School,Lighting_yes,TV_yes,Cooking_no,Refrigeration_yes,2262.581371331245,91.6178343933433,473.98148148148147,645.8511185156377
141,141,sex_male,Urbanity_Urban,Size_6,age_56_65,Education_High_School,Lighting_no,TV_yes,Cooking_no,Refrigeration_yes,4966.964916276661,132.64393288808353,473.98148148148147,134.1393209817276
142,142,sex_male,Urbanity_Rural,Size_3,age_36_45,Education_College,Lighting_yes,TV_no,Cooking_no,Refrigeration_no,10608.06816105952,26.755454540852355,473.98148148148147,746.7617862880423
143,143,sex_male,Urbanity_Urban,Size_5,age_56_65,Education_College,Lighting_yes,TV_no,Cooking_no,Refrigeration_no,12680.000952308821,73.50309031478572,473.98148148148147,216.6997826476629
144,144,sex_female,Urbanity_Urban,Size_3,age_56_65,Education_Elementary_School,Lighting_yes,TV_yes,Cooking_no,Refrigeration_no,3397.8622801744764,44.263339711829516,473.98148148148147,281.51076112013646
145,145,sex_male,Urbanity_Urban,Size_5,age_46_55,Education_Elementary_School,Lighting_yes,TV_no,Cooking_no,Refrigeration_no,3508.771617367578,26.87247087074375,473.98148148148147,489.47041724887816
146,146,sex_male,Urbanity_Urban,Size_4,age_56_65,Education_High_School,Lighting_no,TV_yes,Cooking_no,Refrigeration_no,4502.651620104105,67.57360822689155,473.98148148148147,563.3060409893028
147,147,sex_female,Urbanity_Rural,Size_3,age_66_75,Education_Post_Secondary,Lighting_yes,TV_yes,Cooking_no,Refrigeration_no,6233.501434051983,45.5310821222038,473.98148148148147,331.04182934258927
148,148,sex_male,Urbanity_Urban,Size_3,age_36_45,Education_College,Lighting_yes,TV_yes,Cooking_no,Refrigeration_no,11767.171306096248,89.79026812597748,473.98148148148147,666.19690434985
149,149,sex_female,Urbanity_Rural,Size_4,age_26_35,Education_Post_Secondary,Lighting_yes,TV_yes,Cooking_no,Refrigeration_no,5702.577751122717,20.87916284031607,473.98148148148147,871.535459332635
150,150,sex_male,Urbanity_Urban,Size_2,age_26_35,Education_Elementary_School,Lighting_yes,TV_yes,Cooking_no,Refrigeration_no,2463.6877180569377,70.95254973066939,473.98148148148147,677.8920287773649
151,151,sex_male,Urbanity_Rural,Size_3,age_56_65,Education_Elementary_School,Lighting_yes,TV_yes,Cooking_no,Refrigeration_yes,2080.1186229304762,99.96728085771092,473.98148148148147,299.6014812754212
152,152,sex_male,Urbanity_Urban,Size_6,age_36_45,Education_Post_Secondary,Lighting_yes,TV_yes,Cooking_no,Refrigeration_no,7416.9568466591345,62.366813464285705,473.98148148148147,634.1169265726181
153,153,sex_male,Urbanity_Urban,Size_6,age_56_65,Education_Elementary_School,Lighting_yes,TV_yes,Cooking_no,Refrigeration_no,3964.3801957057135,52.39068382035969,473.98148148148147,75.49624623261714
154,154,sex_male,Urbanity_Rural,Size_5,age_46_55,Education_Post_Secondary,Lighting_yes,TV_no,Cooking_no,Refrigeration_no,6250.375682912283,42.29300800292248,473.98148148148147,521.667199865121
155,155,sex_male,Urbanity_Rural,Size_4,age_46_55,Education_Post_Secondary,Lighting_yes,TV_no,Cooking_no,Refrigeration_yes,5986.208760480298,113.46724929621857,473.98148148148147,674.4387816975758
156,156,sex_male,Urbanity_Urban,Size_10,age_66_75,Education_High_School,Lighting_yes,TV_yes,Cooking_no,Refrigeration_no,6025.966526236469,83.32713826171617,473.98148148148147,475.635011251563
157,157,sex_male,Urbanity_Urban,Size_6,age_46_55,Education_High_School,Lighting_yes,TV_yes,Cooking_no,Refrigeration_no,4759.430211856843,79.40202441472434,473.98148148148147,116.08314542565417
158,158,sex_male,Urbanity_Urban,Size_4,age_26_35,Education_High_School,Lighting_yes,TV_yes,Cooking_no,Refrigeration_no,3886.789903122422,101.43428384149723,473.98148148148147,752.2144743350384
159,159,sex_male,Urbanity_Rural,Size_3,age_56_65,Education_Elementary_School,Lighting_yes,TV_yes,Cooking_no,Refrigeration_no,2163.3512828321013,46.70798010126009,473.98148148148147,304.21515072965093
160,160,sex_male,Urbanity_Urban,Size_3,age_56_65,Education_High_School,Lighting_yes,TV_yes,Cooking_no,Refrigeration_no,4182.48636439747,64.49859535177436,473.98148148148147,194.3865587387829
161,161,sex_male,Urbanity_Urban,Size_4,age_56_65,Education_Elementary_School,Lighting_yes,TV_yes,Cooking_no,Refrigeration_no,3351.6664207248305,87.70554814214495,473.98148148148147,500.0492967859625
162,162,sex_male,Urbanity_Urban,Size_5,age_66_75,Education_Elementary_School,Lighting_yes,TV_yes,Cooking_no,Refrigeration_yes,3896.4614302233254,150.77152575679884,473.98148148148147,355.3846616512581
163,163,sex_male,Urbanity_Urban,Size_4,age_66_75,Education_Elementary_School,Lighting_yes,TV_no,Cooking_no,Refrigeration_no,3664.619802069949,32.02107347717259,473.98148148148147,555.8614636441163
164,164,sex_male,Urbanity_Urban,Size_6,age_56_65,Education_Elementary_School,Lighting_yes,TV_yes,Cooking_no,Refrigeration_yes,3919.858384004567,128.4402131393702,473.98148148148147,70.88257677838737
165,165,sex_female,Urbanity_Urban,Size_3,age_56_65,Education_High_School,Lighting_yes,TV_yes,Cooking_no,Refrigeration_yes,4310.353229464776,125.94738516348244,473.98148148148147,209.1555003612874
166,166,sex_male,Urbanity_Urban,Size_3,age_56_65,Education_Elementary_School,Lighting_no,TV_yes,Cooking_no,Refrigeration_no,3171.671302379435,58.16136787524472,473.98148148148147,393.12648555136167
167,167,sex_male,Urbanity_Urban,Size_3,age_46_55,Education_Post_Secondary,Lighting_yes,TV_yes,Cooking_no,Refrigeration_no,6829.009417833642,41.41587837702501,473.98148148148147,360.56642247105276
168,168,sex_male,Urbanity_Urban,Size_2,age_36_45,Education_College,Lighting_yes,TV_yes,Cooking_no,Refrigeration_no,11456.500123155789,57.94912118647261,473.98148148148147,762.0540142301178
169,169,sex_female,Urbanity_Urban,Size_2,age_26_35,Education_Elementary_School,Lighting_yes,TV_yes,Cooking_no,Refrigeration_yes,2613.181063374965,136.90811645154415,473.98148148148147,692.6609703998697
170,170,sex_male,Urbanity_Rural,Size_5,age_66_75,Education_High_School,Lighting_yes,TV_yes,Cooking_no,Refrigeration_no,3696.8856326998466,44.47712517160703,473.98148148148147,334.34374048711726
171,171,sex_female,Urbanity_Urban,Size_5,age_56_65,Education_Elementary_School,Lighting_yes,TV_yes,Cooking_no,Refrigeration_yes,3830.80902251909,122.9415032996838,473.98148148148147,357.43298712178256
172,172,sex_male,Urbanity_Urban,Size_5,age_66_75,Education_Elementary_School,Lighting_yes,TV_no,Cooking_no,Refrigeration_yes,3968.092142171712,177.37761502342514,473.98148148148147,393.8625429032018
173,173,sex_male,Urbanity_Urban,Size_5,age_36_45,Education_High_School,Lighting_yes,TV_yes,Cooking_no,Refrigeration_yes,4381.569186726688,140.74298119664095,473.98148148148147,838.8196831504358
174,174,sex_male,Urbanity_Urban,Size_6,age_66_75,Education_Elementary_School,Lighting_yes,TV_yes,Cooking_no,Refrigeration_yes,4153.707210043001,107.10924339663237,473.98148148148147,88.21686238459725
175,175,sex_male,Urbanity_Rural,Size_6,age_66_75,Education_College,Lighting_yes,TV_no,Cooking_no,Refrigeration_no,11893.983166464097,17.611846721295386,473.98148148148147,8.953269673460463
176,176,sex_male,Urbanity_Urban,Size_7,age_46_55,Education_College,Lighting_yes,TV_no,Cooking_no,Refrigeration_no,12914.35371361946,45.48106954967904,473.98148148148147,477.1020790702535
177,177,sex_male,Urbanity_Rural,Size_5,age_56_65,Education_Elementary_School,Lighting_yes,TV_no,Cooking_no,Refrigeration_no,2542.325435141779,-9.644681111511986,473.98148148148147,423.2289274374705
178,178,sex_female,Urbanity_Urban,Size_4,age_46_55,Education_High_School,Lighting_yes,TV_yes,Cooking_no,Refrigeration_no,4311.9975477312655,45.713655079056394,473.98148148148147,560.0188070557339
179,179,sex_male,Urbanity_Urban,Size_4,age_46_55,Education_High_School,Lighting_yes,TV_yes,Cooking_no,Refrigeration_no,4255.735745851659,46.360008103962926,473.98148148148147,540.6361959789995
180,180,sex_male,Urbanity_Rural,Size_7,age_56_65,Education_College,Lighting_yes,TV_no,Cooking_no,Refrigeration_no,12144.208710717545,13.373280028887331,473.98148148148147,410.8605892588459
181,181,sex_male,Urbanity_Rural,Size_7,age_76_85,Education_High_School,Lighting_yes,TV_yes,Cooking_no,Refrigeration_no,4305.453435839071,33.26876806345732,473.98148148148147,292.33416364986215
182,182,sex_male,Urbanity_Urban,Size_4,age_36_45,Education_College,Lighting_yes,TV_yes,Cooking_no,Refrigeration_no,11958.012052569338,103.88230132915264,473.98148148148147,904.1180510924104
183,183,sex_male,Urbanity_Urban,Size_3,age_56_65,Education_Post_Secondary,Lighting_yes,TV_yes,Cooking_no,Refrigeration_no,6819.446441718957,69.43530369585133,473.98148148148147,252.23793197339643
184,184,sex_male,Urbanity_Rural,Size_5,age_36_45,Education_Elementary_School,Lighting_yes,TV_yes,Cooking_no,Refrigeration_no,2158.3849003174632,44.69529339766567,473.98148148148147,953.2619445955336
186,186,sex_male,Urbanity_Urban,Size_6,age_56_65,Education_Elementary_School,Lighting_yes,TV_yes,Cooking_no,Refrigeration_no,3955.369197416067,88.14003312297213,473.98148148148147,75.49624623261714
187,187,sex_male,Urbanity_Urban,Size_7,age_76_85,Education_High_School,Lighting_yes,TV_yes,Cooking_no,Refrigeration_no,5579.814444961958,55.95748824855141,473.98148148148147,250.2471629636134
188,188,sex_female,Urbanity_Urban,Size_4,age_56_65,Education_High_School,Lighting_yes,TV_yes,Cooking_no,Refrigeration_no,4489.395115172863,24.883037836931372,473.98148148148147,451.6903165580776
189,189,sex_male,Urbanity_Rural,Size_6,age_46_55,Education_Elementary_School,Lighting_yes,TV_yes,Cooking_no,Refrigeration_yes,2644.5881692156354,75.16245897854745,473.98148148148147,221.29806796229244
190,190,sex_male,Urbanity_Rural,Size_8,age_46_55,Education_High_School,Lighting_no,TV_no,Cooking_no,Refrigeration_no,4154.063391239232,11.419898390692891,473.98148148148147,949.2844995199916
191,191,sex_female,Urbanity_Urban,Size_8,age_36_45,Education_High_School,Lighting_yes,TV_yes,Cooking_no,Refrigeration_no,5356.936342804547,80.4159117200187,473.98148148148147,1217.2863010629244
192,192,sex_female,Urbanity_Urban,Size_9,age_56_65,Education_High_School,Lighting_yes,TV_yes,Cooking_no,Refrigeration_yes,5965.151337421678,146.0935392216492,473.98148148148147,414.976581365337
193,193,sex_male,Urbanity_Rural,Size_4,age_66_75,Education_Post_Secondary,Lighting_yes,TV_yes,Cooking_no,Refrigeration_yes,6238.4838886910975,91.18264254545092,473.98148148148147,544.9666955541854
194,194,sex_male,Urbanity_Rural,Size_1,age_56_65,Education_College,Lighting_no,TV_yes,Cooking_no,Refrigeration_no,10398.5943301162,46.62832116140874,473.98148148148147,85.15667321395622
195,195,sex_male,Urbanity_Urban,Size_4,age_46_55,Education_High_School,Lighting_yes,TV_yes,Cooking_no,Refrigeration_yes,4314.231150128936,106.45443502151196,473.98148148148147,536.0225265247698
196,196,sex_male,Urbanity_Urban,Size_4,age_26_35,Education_Post_Secondary,Lighting_yes,TV_yes,Cooking_no,Refrigeration_no,6809.9219591638575,46.42445791222786,473.98148148148147,810.065847569652
197,197,sex_male,Urbanity_Urban,Size_5,age_56_65,Education_Post_Secondary,Lighting_yes,TV_yes,Cooking_no,Refrigeration_yes,7639.461673491553,158.252533440198,473.98148148148147,328.1601579750425
198,198,sex_male,Urbanity_Urban,Size_7,age_56_65,Education_Elementary_School,Lighting_yes,TV_yes,Cooking_no,Refrigeration_no,4303.330264761374,41.80437510333411,473.98148148148147,494.73785142421235
199,199,sex_male,Urbanity_Urban,Size_7,age_36_45,Education_College,Lighting_no,TV_yes,Cooking_no,Refrigeration_no,12814.156016181943,80.41113312984194,473.98148148148147,1029.8049412386197
200,200,sex_male,Urbanity_Urban,Size_5,age_36_45,Education_High_School,Lighting_yes,TV_yes,Cooking_no,Refrigeration_no,4284.868224484038,54.53829218639623,473.98148148148147,843.4333526046656
201,201,sex_male,Urbanity_Urban,Size_5,age_46_55,Education_College,Lighting_yes,TV_no,Cooking_no,Refrigeration_no,12520.038618341032,40.09047393760225,473.98148148148147,325.02827314531913
202,202,sex_male,Urbanity_Urban,Size_6,age_36_45,Education_High_School,Lighting_yes,TV_yes,Cooking_no,Refrigeration_no,4572.147498943165,61.64585708354175,473.98148148148147,576.2655533380046
203,203,sex_male,Urbanity_Urban,Size_2,age_36_45,Education_Elementary_School,Lighting_yes,TV_no,Cooking_no,Refrigeration_no,2505.257042211125,37.58964309716148,473.98148148148147,964.9740395856204
204,204,sex_male,Urbanity_Urban,Size_1,age_26_35,Education_College,Lighting_yes,TV_yes,Cooking_no,Refrigeration_no,11102.456215261345,74.7320418066699,473.98148148148147,231.97810587344318
205,205,sex_male,Urbanity_Urban,Size_1,age_56_65,Education_High_School,Lighting_yes,TV_yes,Cooking_no,Refrigeration_no,3605.876990862195,79.22003969475547,473.98148148148147,8.771889818687733
206,206,sex_male,Urbanity_Urban,Size_1,age_36_45,Education_College,Lighting_yes,TV_no,Cooking_no,Refrigeration_yes,11216.826385754599,104.90431524336422,473.98148148148147,514.4464472274688
207,207,sex_male,Urbanity_Urban,Size_5,age_36_45,Education_Post_Secondary,Lighting_yes,TV_yes,Cooking_no,Refrigeration_yes,7205.307460839117,130.63346206466576,473.98148148148147,896.6710563850493
208,208,sex_male,Urbanity_Urban,Size_4,age_56_65,Education_High_School,Lighting_yes,TV_no,Cooking_no,Refrigeration_yes,4501.4518598163595,100.10339001673671,473.98148148148147,466.17191727905725
209,209,sex_male,Urbanity_Rural,Size_3,age_66_75,Education_Post_Secondary,Lighting_yes,TV_yes,Cooking_no,Refrigeration_no,6001.091380131279,59.92191762124686,473.98148148148147,311.65921826585486
210,210,sex_male,Urbanity_Urban,Size_6,age_46_55,Education_Post_Secondary,Lighting_yes,TV_no,Cooking_no,Refrigeration_yes,7662.505658637671,123.40355106514606,473.98148148148147,207.7987304579816
211,211,sex_male,Urbanity_Rural,Size_5,age_26_35,Education_High_School,Lighting_yes,TV_yes,Cooking_no,Refrigeration_no,3076.8060221134833,29.98136142487239,473.98148148148147,636.9162237346027
212,212,sex_male,Urbanity_Urban,Size_3,age_36_45,Education_College,Lighting_yes,TV_yes,Cooking_no,Refrigeration_no,11827.669876375583,71.82472249454774,473.98148148148147,666.19690434985
213,213,sex_female,Urbanity_Rural,Size_5,age_46_55,Education_Elementary_School,Lighting_yes,TV_yes,Cooking_no,Refrigeration_no,2575.3238766479863,64.03288331519575,473.98148148148147,512.4621477599173
214,214,sex_male,Urbanity_Urban,Size_6,age_36_45,Education_Post_Secondary,Lighting_yes,TV_no,Cooking_no,Refrigeration_no,7481.262013564911,29.52435820042623,473.98148148148147,672.5948078245617
215,215,sex_female,Urbanity_Urban,Size_9,age_76_85,Education_High_School,Lighting_yes,TV_yes,Cooking_no,Refrigeration_no,6265.468528750342,62.188361132981356,473.98148148148147,242.84115366358702
216,216,sex_male,Urbanity_Urban,Size_5,age_56_65,Education_Elementary_School,Lighting_yes,TV_yes,Cooking_no,Refrigeration_no,3746.261069438543,64.95895232579782,473.98148148148147,342.664045499278
217,217,sex_male,Urbanity_Urban,Size_4,age_56_65,Education_Elementary_School,Lighting_yes,TV_yes,Cooking_no,Refrigeration_yes,3462.2649107777916,107.09373697647,473.98148148148147,495.4356273317328
218,218,sex_male,Urbanity_Rural,Size_6,age_46_55,Education_Elementary_School,Lighting_yes,TV_no,Cooking_no,Refrigeration_no,2726.025708870416,-31.010516495141047,473.98148148148147,264.3896186684659
219,219,sex_female,Urbanity_Rural,Size_3,age_26_35,Education_Post_Secondary,Lighting_yes,TV_yes,Cooking_no,Refrigeration_no,5521.434821113544,72.32917430722405,473.98148148148147,633.6143125900745
220,220,sex_male,Urbanity_Urban,Size_5,age_26_35,Education_College,Lighting_yes,TV_yes,Cooking_no,Refrigeration_yes,12105.628242388091,153.21459212820733,473.98148148148147,493.5150007951845
221,221,sex_male,Urbanity_Urban,Size_3,age_76_85,Education_Elementary_School,Lighting_yes,TV_yes,Cooking_no,Refrigeration_yes,3488.381810718202,115.48489673946527,473.98148148148147,80.76538343319278
222,222,sex_male,Urbanity_Urban,Size_8,age_56_65,Education_Post_Secondary,Lighting_yes,TV_no,Cooking_no,Refrigeration_no,8413.214281894241,60.28866990125787,473.98148148148147,725.7220460627408
223,223,sex_male,Urbanity_Urban,Size_4,age_46_55,Education_College,Lighting_yes,TV_no,Cooking_no,Refrigeration_yes,12232.408767183579,148.46728098474253,473.98148148148147,477.7998549777738
224,224,sex_male,Urbanity_Rural,Size_4,age_46_55,Education_High_School,Lighting_yes,TV_yes,Cooking_no,Refrigeration_no,3097.2785735523216,42.582512172799895,473.98148148148147,582.7231966652482
225,225,sex_female,Urbanity_Urban,Size_6,age_46_55,Education_Elementary_School,Lighting_yes,TV_yes,Cooking_no,Refrigeration_no,3934.1566001558913,58.85694929109722,473.98148148148147,203.20734780700766
226,226,sex_male,Urbanity_Urban,Size_3,age_66_75,Education_Post_Secondary,Lighting_yes,TV_yes,Cooking_no,Refrigeration_yes,7207.489879741117,157.41745770981916,473.98148148148147,264.95854812537647
227,227,sex_male,Urbanity_Urban,Size_5,age_26_35,Education_Elementary_School,Lighting_yes,TV_no,Cooking_no,Refrigeration_no,3067.0827272741085,30.02633905187292,473.98148148148147,701.048695604917
228,228,sex_male,Urbanity_Urban,Size_1,age_36_45,Education_Elementary_School,Lighting_yes,TV_no,Cooking_no,Refrigeration_no,2407.211866816025,11.526415452489445,473.98148148148147,683.5022607852575
230,230,sex_male,Urbanity_Rural,Size_4,age_36_45,Education_High_School,Lighting_yes,TV_yes,Cooking_no,Refrigeration_no,2925.402519022617,9.844850494545561,473.98148148148147,1042.9056045775985
231,231,sex_male,Urbanity_Urban,Size_3,age_66_75,Education_Elementary_School,Lighting_yes,TV_yes,Cooking_no,Refrigeration_yes,3223.035936505492,149.64893382210326,473.98148148148147,274.8487661953822
232,232,sex_male,Urbanity_Rural,Size_3,age_36_45,Education_College,Lighting_no,TV_yes,Cooking_no,Refrigeration_no,10612.566822050378,40.84561118145748,473.98148148148147,839.282240544058
233,233,sex_male,Urbanity_Urban,Size_5,age_56_65,Education_Elementary_School,Lighting_yes,TV_yes,Cooking_no,Refrigeration_yes,3702.874640297408,139.7308065333578,473.98148148148147,338.05037604504827
234,234,sex_male,Urbanity_Urban,Size_6,age_36_45,Education_College,Lighting_yes,TV_yes,Cooking_no,Refrigeration_yes,12645.193551831882,138.77480510716111,473.98148148148147,474.95133108483515
235,235,sex_male,Urbanity_Urban,Size_3,age_46_55,Education_Elementary_School,Lighting_yes,TV_yes,Cooking_yes,Refrigeration_no,3017.5515232823027,99.53399093222131,473.98148148148147,236.93052119977997
236,236,sex_male,Urbanity_Rural,Size_3,age_46_55,Education_Elementary_School,Lighting_yes,TV_yes,Cooking_no,Refrigeration_no,1998.795408374914,26.8250385680647,473.98148148148147,412.5436412273072
237,237,sex_male,Urbanity_Urban,Size_5,age_36_45,Education_High_School,Lighting_yes,TV_yes,Cooking_no,Refrigeration_yes,4350.540691530169,117.64846162465084,473.98148148148147,838.8196831504358
238,238,sex_male,Urbanity_Urban,Size_9,age_56_65,Education_College,Lighting_yes,TV_no,Cooking_no,Refrigeration_no,13605.132006265281,53.58116875708373,473.98148148148147,341.9849681958365
239,239,sex_male,Urbanity_Urban,Size_2,age_66_75,Education_College,Lighting_yes,TV_yes,Cooking_no,Refrigeration_no,11949.88493816203,75.98890534794333,473.98148148148147,210.87740142632072
240,240,sex_female,Urbanity_Urban,Size_5,age_36_45,Education_Elementary_School,Lighting_yes,TV_yes,Cooking_no,Refrigeration_no,3656.0730434713237,59.68337742197663,473.98148148148147,930.5575549860193
241,241,sex_male,Urbanity_Urban,Size_7,age_46_55,Education_Post_Secondary,Lighting_yes,TV_yes,Cooking_no,Refrigeration_no,7766.800525865503,30.170340641111466,473.98148148148147,593.1761238518628
242,242,sex_male,Urbanity_Urban,Size_7,age_56_65,Education_Elementary_School,Lighting_yes,TV_yes,Cooking_no,Refrigeration_no,4104.167987407229,77.6478097742784,473.98148148148147,494.73785142421235
243,243,sex_male,Urbanity_Rural,Size_9,age_46_55,Education_High_School,Lighting_yes,TV_no,Cooking_no,Refrigeration_no,4457.944612532893,8.117950688729731,473.98148148148147,589.1010121786812
244,244,sex_male,Urbanity_Urban,Size_6,age_46_55,Education_Post_Secondary,Lighting_yes,TV_yes,Cooking_no,Refrigeration_no,7752.735460661498,56.09157933544191,473.98148148148147,173.93451866026763
245,245,sex_male,Urbanity_Rural,Size_5,age_56_65,Education_High_School,Lighting_yes,TV_yes,Cooking_no,Refrigeration_no,3581.6796961927867,43.39672017973752,473.98148148148147,317.00945488090736
246,246,sex_male,Urbanity_Urban,Size_2,age_66_75,Education_Post_Graduate,Lighting_yes,TV_yes,Cooking_no,Refrigeration_no,13673.154842534488,80.05187447338336,473.98148148148147,160.52444423914685
247,247,sex_male,Urbanity_Urban,Size_3,age_56_65,Education_College,Lighting_yes,TV_yes,Cooking_no,Refrigeration_no,12106.334170452812,106.85590464003677,473.98148148148147,97.68600593984327
248,248,sex_male,Urbanity_Urban,Size_1,age_26_35,Education_Elementary_School,Lighting_yes,TV_yes,Cooking_no,Refrigeration_no,2041.0965227939369,77.95997336055632,473.98148148148147,396.4202499770022
249,249,sex_male,Urbanity_Urban,Size_6,age_56_65,Education_Post_Secondary,Lighting_yes,TV_no,Cooking_no,Refrigeration_yes,7705.236107987621,127.40472979332978,473.98148148148147,99.47023996032532
250,250,sex_male,Urbanity_Urban,Size_6,age_46_55,Education_Elementary_School,Lighting_yes,TV_yes,Cooking_no,Refrigeration_yes,3809.196063867842,114.31825163492071,473.98148148148147,179.2110672760437
252,252,sex_female,Urbanity_Urban,Size_6,age_56_65,Education_Post_Secondary,Lighting_yes,TV_yes,Cooking_no,Refrigeration_yes,7936.832259799316,137.00867351007537,473.98148148148147,80.37496978511591
253,253,sex_male,Urbanity_Urban,Size_1,age_36_45,Education_Post_Graduate,Lighting_yes,TV_no,Cooking_no,Refrigeration_yes,12889.5280413003,103.39005750790058,473.98148148148147,464.09349004029485
254,254,sex_female,Urbanity_Urban,Size_4,age_56_65,Education_Post_Secondary,Lighting_yes,TV_yes,Cooking_no,Refrigeration_yes,7415.9341228494995,158.47245933869218,473.98148148148147,504.9280203384614
255,255,sex_male,Urbanity_Rural,Size_5,age_36_45,Education_High_School,Lighting_yes,TV_yes,Cooking_no,Refrigeration_yes,3243.1092407898877,62.936522954155706,473.98148148148147,880.9066838366846
256,256,sex_male,Urbanity_Rural,Size_1,age_56_65,Education_High_School,Lighting_yes,TV_yes,Cooking_no,Refrigeration_yes,2477.927572921012,106.82162570955244,473.98148148148147,46.245221050706675
257,257,sex_male,Urbanity_Urban,Size_3,age_56_65,Education_High_School,Lighting_yes,TV_yes,Cooking_no,Refrigeration_no,4194.215487706254,57.6373724701086,473.98148148148147,194.3865587387829
258,258,sex_female,Urbanity_Urban,Size_7,age_56_65,Education_High_School,Lighting_no,TV_yes,Cooking_no,Refrigeration_yes,5248.599675946669,139.84267781393459,473.98148148148147,572.7635372500572
259,259,sex_male,Urbanity_Urban,Size_4,age_46_55,Education_High_School,Lighting_yes,TV_yes,Cooking_no,Refrigeration_yes,4215.456117755407,122.98423850752435,473.98148148148147,536.0225265247698
260,260,sex_male,Urbanity_Rural,Size_6,age_66_75,Education_Elementary_School,Lighting_yes,TV_yes,Cooking_no,Refrigeration_no,2958.850478434911,17.759801894896214,473.98148148148147,134.9175325250757
261,261,sex_female,Urbanity_Rural,Size_8,age_46_55,Education_College,Lighting_yes,TV_yes,Cooking_no,Refrigeration_yes,12178.043603326772,105.90579277863807,473.98148148148147,697.8766715836531
262,262,sex_male,Urbanity_Urban,Size_4,age_66_75,Education_High_School,Lighting_yes,TV_yes,Cooking_no,Refrigeration_yes,4639.683798290357,135.05817789218457,473.98148148148147,445.0283216333233
263,263,sex_male,Urbanity_Urban,Size_4,age_46_55,Education_High_School,Lighting_yes,TV_yes,Cooking_no,Refrigeration_yes,4240.894472944747,125.54046649381372,473.98148148148147,536.0225265247698
264,264,sex_male,Urbanity_Rural,Size_4,age_46_55,Education_Post_Secondary,Lighting_yes,TV_yes,Cooking_no,Refrigeration_no,5849.093538929284,25.0549082506148,473.98148148148147,640.5745698998618
265,265,sex_male,Urbanity_Rural,Size_2,age_46_55,Education_Elementary_School,Lighting_yes,TV_no,Cooking_no,Refrigeration_no,1525.5100770059516,18.315592420867112,473.98148148148147,546.8786323595186
266,266,sex_male,Urbanity_Urban,Size_2,age_46_55,Education_High_School,Lighting_yes,TV_yes,Cooking_no,Refrigeration_no,3594.4503535036097,96.8224912477492,473.98148148148147,398.57215911670687
267,267,sex_male,Urbanity_Urban,Size_2,age_36_45,Education_High_School,Lighting_yes,TV_yes,Cooking_no,Refrigeration_no,3542.9639768321904,70.50345279362855,473.98148148148147,858.7545670290573
268,268,sex_male,Urbanity_Urban,Size_7,age_26_35,Education_Post_Graduate,Lighting_yes,TV_yes,Cooking_no,Refrigeration_no,14418.270097839246,101.20285701466592,473.98148148148147,599.8495189871747
269,269,sex_male,Urbanity_Rural,Size_10,age_46_55,Education_Post_Secondary,Lighting_yes,TV_no,Cooking_no,Refrigeration_no,7531.302567841109,16.67271841297323,473.98148148148147,705.0454713158156
270,270,sex_male,Urbanity_Urban,Size_6,age_46_55,Education_College,Lighting_yes,TV_yes,Cooking_no,Refrigeration_no,12734.292275194046,66.5628523714976,473.98148148148147,19.382592626714448
271,271,sex_male,Urbanity_Rural,Size_6,age_56_65,Education_Post_Secondary,Lighting_yes,TV_yes,Cooking_no,Refrigeration_no,6764.260713727514,62.372418431102716,473.98148148148147,107.69302884886005
272,272,sex_female,Urbanity_Urban,Size_6,age_66_75,Education_Post_Secondary,Lighting_yes,TV_yes,Cooking_no,Refrigeration_no,8255.275920960736,73.44499821493073,473.98148148148147,102.32292484555543
273,273,sex_male,Urbanity_Urban,Size_5,age_26_35,Education_Post_Graduate,Lighting_yes,TV_yes,Cooking_no,Refrigeration_no,13829.774675294912,79.05682744869956,473.98148148148147,447.77571306224036
274,274,sex_male,Urbanity_Urban,Size_4,age_46_55,Education_High_School,Lighting_no,TV_no,Cooking_no,Refrigeration_no,4162.6152684044455,42.70936127597607,473.98148148148147,710.1124127389029
275,275,sex_male,Urbanity_Urban,Size_4,age_26_35,Education_Elementary_School,Lighting_yes,TV_yes,Cooking_no,Refrigeration_yes,2985.3764095481956,129.40326052115532,473.98148148148147,815.342396185428
276,276,sex_male,Urbanity_Rural,Size_3,age_36_45,Education_Elementary_School,Lighting_yes,TV_yes,Cooking_no,Refrigeration_no,1788.7878293238875,29.393756308243642,473.98148148148147,872.7260491396578
277,277,sex_female,Urbanity_Urban,Size_3,age_46_55,Education_High_School,Lighting_yes,TV_no,Cooking_no,Refrigeration_yes,4141.899568372901,140.07961039141205,473.98148148148147,355.96187211088744
278,278,sex_male,Urbanity_Rural,Size_5,age_56_65,Education_Post_Graduate,Lighting_yes,TV_yes,Cooking_no,Refrigeration_yes,13137.728996478523,89.43193829431293,473.98148148148147,165.34227544056418
279,279,sex_female,Urbanity_Urban,Size_6,age_36_45,Education_Post_Secondary,Lighting_yes,TV_yes,Cooking_no,Refrigeration_no,7531.891865713125,56.55625966489004,473.98148148148147,653.4995376493523
280,280,sex_male,Urbanity_Urban,Size_4,age_36_45,Education_High_School,Lighting_yes,TV_yes,Cooking_no,Refrigeration_yes,4084.9013426056263,127.72206562810264,473.98148148148147,996.2049344371202
281,281,sex_male,Urbanity_Urban,Size_4,age_76_85,Education_High_School,Lighting_no,TV_no,Cooking_no,Refrigeration_no,4743.780622308357,42.76855105391257,473.98148148148147,425.0348250852668
282,282,sex_male,Urbanity_Urban,Size_3,age_66_75,Education_Post_Secondary,Lighting_yes,TV_yes,Cooking_no,Refrigeration_yes,7087.296421079412,110.17198575779959,473.98148148148147,264.95854812537647
283,283,sex_male,Urbanity_Urban,Size_3,age_56_65,Education_College,Lighting_no,TV_yes,Cooking_no,Refrigeration_no,12025.465948501365,76.07659340230745,473.98148148148147,228.68434144780272
284,284,sex_male,Urbanity_Rural,Size_7,age_46_55,Education_Post_Secondary,Lighting_yes,TV_yes,Cooking_no,Refrigeration_yes,6767.665367368677,65.40399293962986,473.98148148148147,630.6494550838818
285,285,sex_female,Urbanity_Rural,Size_3,age_46_55,Education_Post_Secondary,Lighting_yes,TV_yes,Cooking_no,Refrigeration_no,5821.332995924238,47.352542954006545,473.98148148148147,422.0360342340357
286,286,sex_male,Urbanity_Urban,Size_7,age_46_55,Education_Elementary_School,Lighting_yes,TV_yes,Cooking_no,Refrigeration_yes,4073.654604237897,131.39284104408924,473.98148148148147,598.4526724676391
287,287,sex_female,Urbanity_Rural,Size_2,age_26_35,Education_College,Lighting_yes,TV_no,Cooking_no,Refrigeration_no,10248.264220238309,7.3020060501596165,473.98148148148147,613.3973776887327
288,288,sex_male,Urbanity_Urban,Size_5,age_46_55,Education_Post_Secondary,Lighting_yes,TV_yes,Cooking_no,Refrigeration_no,7214.518517472564,60.972054336687314,473.98148148148147,441.10231792692866
289,289,sex_female,Urbanity_Urban,Size_10,age_56_65,Education_College,Lighting_yes,TV_yes,Cooking_no,Refrigeration_yes,14101.489197124056,160.93289258256638,473.98148148148147,376.3691144689181
290,290,sex_male,Urbanity_Urban,Size_10,age_36_45,Education_Post_Secondary,Lighting_yes,TV_no,Cooking_no,Refrigeration_no,8468.546593366405,91.17233797146328,473.98148148148147,1123.1408785419173
291,291,sex_male,Urbanity_Urban,Size_9,age_66_75,Education_Elementary_School,Lighting_yes,TV_yes,Cooking_no,Refrigeration_no,4972.277861350255,21.208623732634198,473.98148148148147,485.28351665366165
292,292,sex_male,Urbanity_Rural,Size_7,age_76_85,Education_Elementary_School,Lighting_yes,TV_no,Cooking_no,Refrigeration_no,3496.369826383015,-1.8451670614552558,473.98148148148147,398.5536362064249
293,293,sex_male,Urbanity_Urban,Size_5,age_76_85,Education_Post_Secondary,Lighting_yes,TV_yes,Cooking_no,Refrigeration_yes,7819.315957911816,152.7229626963875,473.98148148148147,151.41106081906284
294,294,sex_male,Urbanity_Rural,Size_5,age_66_75,Education_Post_Secondary,Lighting_yes,TV_yes,Cooking_no,Refrigeration_no,6712.355777237709,48.600481045774,473.98148148148147,392.1951137217308
295,295,sex_male,Urbanity_Urban,Size_5,age_56_65,Education_Elementary_School,Lighting_yes,TV_yes,Cooking_no,Refrigeration_no,3823.705747064519,92.16048808933891,473.98148148148147,342.664045499278
296,296,sex_female,Urbanity_Rural,Size_5,age_46_55,Education_Post_Graduate,Lighting_yes,TV_yes,Cooking_no,Refrigeration_yes,13242.45709036535,120.41946991906164,473.98148148148147,293.05337701495466
297,297,sex_female,Urbanity_Urban,Size_8,age_26_35,Education_High_School,Lighting_yes,TV_yes,Cooking_no,Refrigeration_no,5214.433903780596,60.29411662287861,473.98148148148147,968.6821715066127
298,298,sex_male,Urbanity_Urban,Size_8,age_56_65,Education_College,Lighting_yes,TV_no,Cooking_no,Refrigeration_yes,13322.45255119823,151.16296779133611,473.98148148148147,566.5564505749577
299,299,sex_male,Urbanity_Urban,Size_5,age_36_45,Education_Elementary_School,Lighting_yes,TV_no,Cooking_yes,Refrigeration_no,3360.648828720532,64.55931608338223,473.98148148148147,816.12670581995
300,300,sex_female,Urbanity_Urban,Size_5,age_66_75,Education_Elementary_School,Lighting_yes,TV_yes,Cooking_no,Refrigeration_yes,3884.9033151031294,152.247807204403,473.98148148148147,374.7672727279924
301,301,sex_male,Urbanity_Urban,Size_5,age_56_65,Education_Elementary_School,Lighting_yes,TV_yes,Cooking_no,Refrigeration_yes,3817.1751626979353,126.21034568299679,473.98148148148147,338.05037604504827
302,302,sex_male,Urbanity_Rural,Size_5,age_46_55,Education_Post_Secondary,Lighting_yes,TV_yes,Cooking_no,Refrigeration_no,6229.7516455976465,5.032413540881245,473.98148148148147,483.18931861317736
303,303,sex_male,Urbanity_Rural,Size_3,age_56_65,Education_College,Lighting_yes,TV_no,Cooking_no,Refrigeration_yes,10940.814068299898,63.04795243094409,473.98148148148147,173.63721842380596
304,304,sex_male,Urbanity_Rural,Size_3,age_46_55,Education_Elementary_School,Lighting_yes,TV_yes,Cooking_no,Refrigeration_no,1785.2890076989554,49.104795683518546,473.98148148148147,412.5436412273072
305,305,sex_female,Urbanity_Urban,Size_4,age_56_65,Education_Post_Secondary,Lighting_yes,TV_yes,Cooking_no,Refrigeration_no,7363.654756859038,81.42598421630142,473.98148148148147,509.5416897926911
306,306,sex_male,Urbanity_Rural,Size_4,age_56_65,Education_Post_Secondary,Lighting_yes,TV_yes,Cooking_no,Refrigeration_yes,6222.756540205531,128.9058529103194,473.98148148148147,527.6324099479757
307,307,sex_male,Urbanity_Urban,Size_3,age_56_65,Education_Elementary_School,Lighting_yes,TV_yes,Cooking_no,Refrigeration_no,3196.879193961638,61.73144738925045,473.98148148148147,262.12815004340223
308,308,sex_male,Urbanity_Urban,Size_5,age_66_75,Education_Post_Secondary,Lighting_yes,TV_yes,Cooking_no,Refrigeration_no,7718.182834208077,45.9199630201028,473.98148148148147,350.108113035482
309,309,sex_male,Urbanity_Urban,Size_6,age_36_45,Education_Post_Secondary,Lighting_yes,TV_yes,Cooking_no,Refrigeration_no,7405.866099453491,86.96611443362879,473.98148148148147,634.1169265726181
310,310,sex_male,Urbanity_Rural,Size_6,age_26_35,Education_Post_Secondary,Lighting_yes,TV_no,Cooking_no,Refrigeration_yes,6015.613675789188,122.32608760859327,473.98148148148147,461.46400950026907
311,311,sex_female,Urbanity_Urban,Size_5,age_66_75,Education_Elementary_School,Lighting_yes,TV_yes,Cooking_no,Refrigeration_yes,4038.7278649668856,150.6153284379586,473.98148148148147,374.7672727279924
312,312,sex_male,Urbanity_Urban,Size_6,age_56_65,Education_High_School,Lighting_yes,TV_no,Cooking_no,Refrigeration_yes,4906.857675835397,107.91922923149357,473.98148148148147,41.618866725711825
313,313,sex_male,Urbanity_Urban,Size_7,age_56_65,Education_College,Lighting_yes,TV_yes,Cooking_no,Refrigeration_no,13003.461738835776,102.07101198081078,473.98148148148147,330.29570732065343
314,314,sex_male,Urbanity_Urban,Size_5,age_56_65,Education_Elementary_School,Lighting_yes,TV_yes,Cooking_no,Refrigeration_no,3779.150384181048,63.167058129674025,473.98148148148147,342.664045499278
315,315,sex_male,Urbanity_Urban,Size_1,age_36_45,Education_Elementary_School,Lighting_yes,TV_yes,Cooking_yes,Refrigeration_no,2239.6317218433946,98.01288915623002,473.98148148148147,511.4982601920352
316,316,sex_male,Urbanity_Urban,Size_3,age_26_35,Education_Elementary_School,Lighting_yes,TV_yes,Cooking_no,Refrigeration_no,2563.152463349798,63.2772418663679,473.98148148148147,582.0349188970974
317,317,sex_male,Urbanity_Rural,Size_5,age_66_75,Education_Elementary_School,Lighting_yes,TV_yes,Cooking_no,Refrigeration_yes,2879.30237797732,113.13168926735165,473.98148148148147,397.4716623375068
318,318,sex_male,Urbanity_Rural,Size_5,age_66_75,Education_High_School,Lighting_yes,TV_yes,Cooking_no,Refrigeration_yes,3731.5752651834255,121.46329186374626,473.98148148148147,329.7300710328874
319,319,sex_male,Urbanity_Urban,Size_2,age_46_55,Education_Elementary_School,Lighting_yes,TV_yes,Cooking_no,Refrigeration_no,2792.0187047361683,91.29104835089446,473.98148148148147,466.31375042132623
320,320,sex_male,Urbanity_Rural,Size_4,age_46_55,Education_College,Lighting_yes,TV_yes,Cooking_no,Refrigeration_yes,11061.454050352922,90.32043395894415,473.98148148148147,481.4089744120788
321,321,sex_male,Urbanity_Rural,Size_4,age_46_55,Education_College,Lighting_yes,TV_yes,Cooking_no,Refrigeration_no,11012.778734032645,21.49510016516685,473.98148148148147,486.0226438663086
322,322,sex_female,Urbanity_Rural,Size_6,age_66_75,Education_Elementary_School,Lighting_yes,TV_yes,Cooking_yes,Refrigeration_no,3200.585068354781,38.056642525786636,473.98148148148147,20.77402426053143
323,323,sex_male,Urbanity_Urban,Size_6,age_56_65,Education_Post_Secondary,Lighting_yes,TV_no,Cooking_no,Refrigeration_yes,7759.457715864715,119.57825303698485,473.98148148148147,99.47023996032532
324,324,sex_male,Urbanity_Urban,Size_6,age_46_55,Education_High_School,Lighting_yes,TV_yes,Cooking_no,Refrigeration_yes,4799.453211365507,123.40998524668795,473.98148148148147,111.4694759714244
325,325,sex_female,Urbanity_Urban,Size_6,age_46_55,Education_Post_Secondary,Lighting_yes,TV_yes,Cooking_no,Refrigeration_yes,7568.276872952201,170.79323559036646,473.98148148148147,188.70346028277214
326,326,sex_male,Urbanity_Urban,Size_2,age_36_45,Education_College,Lighting_yes,TV_yes,Cooking_no,Refrigeration_yes,11490.897890717519,148.67714690966181,473.98148148148147,757.4403447758881
327,327,sex_male,Urbanity_Urban,Size_6,age_36_45,Education_College,Lighting_yes,TV_yes,Cooking_no,Refrigeration_yes,12443.690239670594,197.3629357383542,473.98148148148147,474.95133108483515
328,328,sex_female,Urbanity_Urban,Size_6,age_56_65,Education_Elementary_School,Lighting_yes,TV_yes,Cooking_no,Refrigeration_yes,4170.352785347655,118.99141377966072,473.98148148148147,90.26518785512171
329,329,sex_male,Urbanity_Urban,Size_10,age_46_55,Education_High_School,Lighting_yes,TV_no,Cooking_no,Refrigeration_no,5752.3380827513965,62.34333935364853,473.98148148148147,605.1070973949533
330,330,sex_male,Urbanity_Urban,Size_5,age_86_100,Education_High_School,Lighting_yes,TV_yes,Cooking_no,Refrigeration_yes,5144.1322823242635,135.90214898946272,473.98148148148147,1887.633231344244
331,331,sex_male,Urbanity_Urban,Size_3,age_26_35,Education_Elementary_School,Lighting_yes,TV_yes,Cooking_no,Refrigeration_yes,2714.0803815479085,127.32781835684729,473.98148148148147,577.4212494428675
332,332,sex_male,Urbanity_Urban,Size_2,age_26_35,Education_Post_Graduate,Lighting_yes,TV_yes,Cooking_no,Refrigeration_no,13077.392607063503,92.51109704177419,473.98148148148147,463.0969274866322
333,333,sex_female,Urbanity_Urban,Size_2,age_66_75,Education_Post_Secondary,Lighting_yes,TV_no,Cooking_no,Refrigeration_no,7042.906198244733,50.61014986082846,473.98148148148147,423.289819788552
334,334,sex_female,Urbanity_Urban,Size_8,age_36_45,Education_High_School,Lighting_yes,TV_yes,Cooking_no,Refrigeration_yes,5280.648053819797,124.28929130743497,473.98148148148147,1212.6726316086947
335,335,sex_male,Urbanity_Urban,Size_6,age_66_75,Education_High_School,Lighting_yes,TV_yes,Cooking_no,Refrigeration_yes,5027.697426305907,176.47857401185982,473.98148148148147,20.47527107997788
336,336,sex_male,Urbanity_Urban,Size_7,age_46_55,Education_High_School,Lighting_no,TV_no,Cooking_no,Refrigeration_no,4834.741373369553,43.36819085838928,473.98148148148147,704.8009673771526
337,337,sex_male,Urbanity_Urban,Size_7,age_56_65,Education_Post_Secondary,Lighting_yes,TV_no,Cooking_no,Refrigeration_yes,8035.255589450301,156.6026935325259,473.98148148148147,518.7118451519207
338,338,sex_female,Urbanity_Urban,Size_9,age_56_65,Education_High_School,Lighting_yes,TV_yes,Cooking_no,Refrigeration_yes,5892.932892546066,127.90447929840816,473.98148148148147,414.976581365337
339,339,sex_male,Urbanity_Rural,Size_6,age_56_65,Education_Post_Secondary,Lighting_yes,TV_no,Cooking_no,Refrigeration_yes,6786.102478570347,61.022828446250976,473.98148148148147,141.55724064657403
340,340,sex_male,Urbanity_Urban,Size_6,age_56_65,Education_High_School,Lighting_yes,TV_yes,Cooking_no,Refrigeration_no,4937.219926832454,51.84622095003231,473.98148148148147,7.754654927997869
341,341,sex_male,Urbanity_Urban,Size_8,age_46_55,Education_Elementary_School,Lighting_yes,TV_yes,Cooking_no,Refrigeration_yes,4315.2902825510055,157.85066421493138,473.98148148148147,800.8492039242293
342,342,sex_male,Urbanity_Urban,Size_7,age_46_55,Education_Elementary_School,Lighting_yes,TV_yes,Cooking_no,Refrigeration_no,3977.226327776692,93.61870832662431,473.98148148148147,603.0663419218688
343,343,sex_male,Urbanity_Urban,Size_6,age_66_75,Education_Elementary_School,Lighting_yes,TV_yes,Cooking_no,Refrigeration_no,4164.278684475151,67.17778474313994,473.98148148148147,92.830531838827
344,344,sex_female,Urbanity_Urban,Size_6,age_46_55,Education_College,Lighting_no,TV_yes,Cooking_no,Refrigeration_no,12818.914830174575,84.26127629439607,473.98148148148147,169.76353921140827
345,345,sex_male,Urbanity_Rural,Size_3,age_36_45,Education_Post_Secondary,Lighting_yes,TV_yes,Cooking_no,Refrigeration_no,5468.670005267809,42.333988315997146,473.98148148148147,862.8358310696518
346,346,sex_male,Urbanity_Urban,Size_7,age_56_65,Education_Post_Secondary,Lighting_yes,TV_yes,Cooking_no,Refrigeration_no,8093.021608389434,52.97043823823242,473.98148148148147,484.8476333542066
347,347,sex_male,Urbanity_Urban,Size_7,age_46_55,Education_College,Lighting_no,TV_yes,Cooking_no,Refrigeration_no,12946.01913139605,73.17232909616611,473.98148148148147,569.6225333262693
348,348,sex_male,Urbanity_Urban,Size_5,age_46_55,Education_Elementary_School,Lighting_yes,TV_yes,Cooking_no,Refrigeration_yes,3591.5274093020867,128.45053842005888,473.98148148148147,446.37886654270477
349,349,sex_male,Urbanity_Rural,Size_5,age_36_45,Education_High_School,Lighting_yes,TV_yes,Cooking_no,Refrigeration_no,3184.407974293272,65.47472515249851,473.98148148148147,885.5203532909143
350,350,sex_female,Urbanity_Rural,Size_5,age_19_25,Education_Elementary_School,Lighting_yes,TV_yes,Cooking_no,Refrigeration_yes,1978.2047253758212,84.16628886838795,473.98148148148147,675.8197290697357
351,351,sex_male,Urbanity_Rural,Size_4,age_56_65,Education_College,Lighting_yes,TV_yes,Cooking_no,Refrigeration_yes,11170.283409102469,111.43782426899723,473.98148148148147,373.0804839144226
352,352,sex_male,Urbanity_Urban,Size_4,age_36_45,Education_College,Lighting_no,TV_yes,Cooking_yes,Refrigeration_no,12030.04399284666,106.2575549028381,473.98148148148147,901.5902672590913
353,353,sex_male,Urbanity_Rural,Size_2,age_46_55,Education_Post_Secondary,Lighting_yes,TV_yes,Cooking_no,Refrigeration_yes,5506.06566410879,85.56589935340486,473.98148148148147,493.8968635833392
354,354,sex_male,Urbanity_Urban,Size_2,age_26_35,Education_High_School,Lighting_yes,TV_yes,Cooking_no,Refrigeration_no,3423.4413024970986,87.32919415995009,473.98148148148147,610.1504374727457
356,356,sex_male,Urbanity_Urban,Size_2,age_46_55,Education_Post_Secondary,Lighting_yes,TV_yes,Cooking_no,Refrigeration_yes,6475.129117317088,149.3499600324355,473.98148148148147,451.8098628970905
357,357,sex_male,Urbanity_Urban,Size_1,age_46_55,Education_Elementary_School,Lighting_yes,TV_yes,Cooking_no,Refrigeration_yes,2604.283814292662,133.5606029862429,473.98148148148147,180.22830216673358
358,358,sex_female,Urbanity_Urban,Size_3,age_46_55,Education_Elementary_School,Lighting_yes,TV_yes,Cooking_no,Refrigeration_yes,3239.86039748143,115.77051322707615,473.98148148148147,385.22558216356316
359,359,sex_male,Urbanity_Urban,Size_3,age_66_75,Education_Elementary_School,Lighting_yes,TV_yes,Cooking_no,Refrigeration_yes,3385.771204619961,153.07864618622602,473.98148148148147,274.8487661953822
360,360,sex_male,Urbanity_Urban,Size_1,age_66_75,Education_Elementary_School,Lighting_yes,TV_yes,Cooking_no,Refrigeration_no,2881.127763167179,77.46878324336843,473.98148148148147,93.84776672951686
361,361,sex_female,Urbanity_Rural,Size_1,age_66_75,Education_High_School,Lighting_yes,TV_yes,Cooking_no,Refrigeration_yes,2766.715524808429,106.15908088676822,473.98148148148147,82.96211773365077
362,362,sex_male,Urbanity_Urban,Size_6,age_36_45,Education_High_School,Lighting_yes,TV_yes,Cooking_no,Refrigeration_no,4478.127879297704,98.95341888665173,473.98148148148147,576.2655533380046
363,363,sex_male,Urbanity_Urban,Size_5,age_46_55,Education_Elementary_School,Lighting_yes,TV_no,Cooking_no,Refrigeration_no,3587.67093646358,65.10844553798496,473.98148148148147,489.47041724887816
364,364,sex_male,Urbanity_Urban,Size_2,age_36_45,Education_Elementary_School,Lighting_yes,TV_yes,Cooking_no,Refrigeration_no,2559.882170568327,60.32345693649199,473.98148148148147,926.4961583336766
365,365,sex_male,Urbanity_Rural,Size_3,age_46_55,Education_High_School,Lighting_yes,TV_yes,Cooking_no,Refrigeration_yes,2743.770681093338,117.4818221968838,473.98148148148147,340.18838046845815
366,366,sex_male,Urbanity_Urban,Size_5,age_36_45,Education_Elementary_School,Lighting_yes,TV_yes,Cooking_no,Refrigeration_yes,3264.333542635446,186.81861546393355,473.98148148148147,906.5612744550549
367,367,sex_male,Urbanity_Urban,Size_3,age_56_65,Education_Elementary_School,Lighting_yes,TV_yes,Cooking_no,Refrigeration_no,3311.193077498644,44.547678560357554,473.98148148148147,262.12815004340223
368,368,sex_male,Urbanity_Urban,Size_3,age_66_75,Education_Post_Graduate,Lighting_yes,TV_yes,Cooking_no,Refrigeration_no,14037.237334183088,52.039526388937205,473.98148148148147,64.66733435887916
369,369,sex_female,Urbanity_Urban,Size_5,age_56_65,Education_College,Lighting_yes,TV_yes,Cooking_no,Refrigeration_no,12802.595479949863,60.40537986004675,473.98148148148147,197.6045124724534
370,370,sex_male,Urbanity_Urban,Size_5,age_36_45,Education_Post_Secondary,Lighting_no,TV_yes,Cooking_no,Refrigeration_yes,7164.859179423728,135.59644928040356,473.98148148148147,1027.6693918930087
371,371,sex_male,Urbanity_Rural,Size_5,age_46_55,Education_High_School,Lighting_yes,TV_yes,Cooking_no,Refrigeration_yes,3381.9865447063353,90.81951952961687,473.98148148148147,420.72427592433405
372,372,sex_male,Urbanity_Urban,Size_6,age_66_75,Education_High_School,Lighting_yes,TV_yes,Cooking_no,Refrigeration_no,5090.010869272951,58.31417161254746,473.98148148148147,25.08894053420764
373,373,sex_male,Urbanity_Rural,Size_8,age_46_55,Education_Elementary_School,Lighting_yes,TV_no,Cooking_no,Refrigeration_no,3358.4160462849463,0.8743028734644422,473.98148148148147,886.0277553166513
374,374,sex_male,Urbanity_Rural,Size_3,age_56_65,Education_Elementary_School,Lighting_yes,TV_yes,Cooking_no,Refrigeration_yes,2029.6001650100518,94.99534102868469,473.98148148148147,299.6014812754212
375,375,sex_male,Urbanity_Urban,Size_3,age_36_45,Education_High_School,Lighting_yes,TV_yes,Cooking_no,Refrigeration_no,3741.849917649247,80.69716408028354,473.98148148148147,762.8974571487897
376,376,sex_male,Urbanity_Urban,Size_5,age_56_65,Education_High_School,Lighting_yes,TV_no,Cooking_no,Refrigeration_no,4664.561249528886,54.29744634924738,473.98148148148147,313.4003354466025
377,377,sex_male,Urbanity_Urban,Size_5,age_46_55,Education_High_School,Lighting_yes,TV_yes,Cooking_no,Refrigeration_no,4510.0089398071195,73.3773090471422,473.98148148148147,383.25094469231516
378,378,sex_female,Urbanity_Rural,Size_5,age_76_85,Education_High_School,Lighting_yes,TV_yes,Cooking_no,Refrigeration_yes,4023.0484277857813,85.18611076979438,473.98148148148147,155.0292993474323
379,379,sex_female,Urbanity_Urban,Size_6,age_46_55,Education_College,Lighting_yes,TV_yes,Cooking_no,Refrigeration_no,12875.043595120671,51.21400588494339,473.98148148148147,38.76520370344878
380,380,sex_male,Urbanity_Urban,Size_3,age_56_65,Education_High_School,Lighting_yes,TV_no,Cooking_no,Refrigeration_no,4105.467659441247,13.669094850096196,473.98148148148147,232.86443999072662
381,381,sex_male,Urbanity_Rural,Size_3,age_56_65,Education_College,Lighting_yes,TV_yes,Cooking_no,Refrigeration_no,10840.17857120001,69.16307277166113,473.98148148148147,139.77300662609198
382,382,sex_male,Urbanity_Urban,Size_2,age_66_75,Education_College,Lighting_no,TV_no,Cooking_no,Refrigeration_yes,11864.291607831577,124.21757650127223,473.98148148148147,375.73994873199416
383,383,sex_male,Urbanity_Urban,Size_2,age_26_35,Education_College,Lighting_yes,TV_no,Cooking_no,Refrigeration_no,11355.57911016196,38.960935135939685,473.98148148148147,551.9277659257499
384,384,sex_male,Urbanity_Urban,Size_2,age_46_55,Education_High_School,Lighting_yes,TV_no,Cooking_no,Refrigeration_yes,3717.7007597739253,118.77094747472307,473.98148148148147,432.4363709144209
385,385,sex_male,Urbanity_Urban,Size_6,age_46_55,Education_High_School,Lighting_yes,TV_no,Cooking_no,Refrigeration_yes,4858.335118240649,74.57739672270101,473.98148148148147,149.94735722336816
386,386,sex_female,Urbanity_Rural,Size_7,age_46_55,Education_Elementary_School,Lighting_yes,TV_yes,Cooking_no,Refrigeration_yes,3154.323996255954,143.73259340732906,473.98148148148147,659.9222842306219
387,387,sex_male,Urbanity_Urban,Size_6,age_46_55,Education_Elementary_School,Lighting_no,TV_yes,Cooking_no,Refrigeration_yes,3842.249336921809,131.0399800056012,473.98148148148147,310.2094027840032
388,388,sex_male,Urbanity_Urban,Size_1,age_46_55,Education_High_School,Lighting_yes,TV_yes,Cooking_no,Refrigeration_yes,3498.0181902587715,145.02042593654488,473.98148148148147,112.48671086211424
389,389,sex_female,Urbanity_Urban,Size_5,age_46_55,Education_Elementary_School,Lighting_yes,TV_yes,Cooking_no,Refrigeration_yes,3758.49013705961,121.61840142484249,473.98148148148147,465.7614776194388
390,390,sex_male,Urbanity_Rural,Size_5,age_56_65,Education_Post_Secondary,Lighting_no,TV_yes,Cooking_no,Refrigeration_no,6386.367368847051,36.66862687347783,473.98148148148147,505.8591636234805
391,391,sex_male,Urbanity_Urban,Size_7,age_36_45,Education_Post_Graduate,Lighting_yes,TV_yes,Cooking_no,Refrigeration_no,14438.307799113498,76.49532388854816,473.98148148148147,848.4536485434862
392,392,sex_female,Urbanity_Urban,Size_9,age_66_75,Education_High_School,Lighting_yes,TV_no,Cooking_no,Refrigeration_yes,6114.170617747074,89.86912409974211,473.98148148148147,470.7887482234906
393,393,sex_male,Urbanity_Urban,Size_4,age_56_65,Education_High_School,Lighting_yes,TV_no,Cooking_no,Refrigeration_yes,4469.7243964845065,96.31583860590362,473.98148148148147,466.17191727905725
394,394,sex_male,Urbanity_Urban,Size_5,age_56_65,Education_Elementary_School,Lighting_yes,TV_yes,Cooking_no,Refrigeration_no,3723.393608137405,64.34847426026116,473.98148148148147,342.664045499278
395,395,sex_male,Urbanity_Rural,Size_5,age_56_65,Education_Post_Secondary,Lighting_yes,TV_yes,Cooking_no,Refrigeration_no,6317.902292969949,16.09157108750189,473.98148148148147,374.86082811552103
396,396,sex_female,Urbanity_Urban,Size_7,age_56_65,Education_Elementary_School,Lighting_yes,TV_no,Cooking_no,Refrigeration_no,4405.079921798864,12.884826523486428,473.98148148148147,552.5983437528904
397,397,sex_male,Urbanity_Urban,Size_7,age_46_55,Education_Elementary_School,Lighting_yes,TV_yes,Cooking_no,Refrigeration_yes,4053.9862513487774,174.75121337673977,473.98148148148147,598.4526724676391
398,398,sex_male,Urbanity_Urban,Size_7,age_66_75,Education_High_School,Lighting_yes,TV_yes,Cooking_no,Refrigeration_yes,5380.594612171739,123.36461944158137,473.98148148148147,439.7168762715731
399,399,sex_male,Urbanity_Urban,Size_2,age_46_55,Education_Elementary_School,Lighting_yes,TV_no,Cooking_no,Refrigeration_yes,2776.5611616279607,132.4416210180424,473.98148148148147,500.1779622190401
400,400,sex_male,Urbanity_Urban,Size_2,age_56_65,Education_College,Lighting_yes,TV_no,Cooking_no,Refrigeration_no,11744.990705152073,75.9464743013598,473.98148148148147,232.02099707205463
401,401,sex_male,Urbanity_Rural,Size_3,age_56_65,Education_Elementary_School,Lighting_yes,TV_no,Cooking_no,Refrigeration_no,2175.6956753617897,28.020189847640854,473.98148148148147,342.69303198159463
402,402,sex_male,Urbanity_Urban,Size_3,age_46_55,Education_High_School,Lighting_no,TV_yes,Cooking_no,Refrigeration_no,3851.054381907693,62.74714561157705,473.98148148148147,433.7133847443988
403,403,sex_male,Urbanity_Urban,Size_3,age_66_75,Education_High_School,Lighting_yes,TV_no,Cooking_no,Refrigeration_yes,4264.296185536538,178.40700190902538,473.98148148148147,245.58505614270663
404,404,sex_male,Urbanity_Urban,Size_3,age_36_45,Education_College,Lighting_yes,TV_yes,Cooking_no,Refrigeration_no,11673.853456001822,33.75165401120155,473.98148148148147,666.19690434985
405,405,sex_male,Urbanity_Urban,Size_3,age_26_35,Education_Elementary_School,Lighting_yes,TV_yes,Cooking_no,Refrigeration_no,2740.3183311186262,56.421091013260146,473.98148148148147,582.0349188970974
406,406,sex_male,Urbanity_Rural,Size_8,age_36_45,Education_College,Lighting_yes,TV_no,Cooking_no,Refrigeration_no,11926.74350387984,-5.7780803836714245,473.98148148148147,1181.7680191254428
407,407,sex_male,Urbanity_Rural,Size_3,age_26_35,Education_Post_Secondary,Lighting_yes,TV_yes,Cooking_no,Refrigeration_no,5384.423578064044,17.006292627501754,473.98148148148147,614.2317015133402
408,408,sex_male,Urbanity_Urban,Size_5,age_36_45,Education_Elementary_School,Lighting_yes,TV_yes,Cooking_no,Refrigeration_yes,3397.0080476060807,112.68747031196443,473.98148148148147,906.5612744550549
409,409,sex_male,Urbanity_Urban,Size_6,age_36_45,Education_Post_Secondary,Lighting_yes,TV_yes,Cooking_no,Refrigeration_no,7443.338069615452,47.25811413597994,473.98148148148147,634.1169265726181
410,410,sex_male,Urbanity_Urban,Size_7,age_36_45,Education_High_School,Lighting_yes,TV_yes,Cooking_no,Refrigeration_no,4903.287947741755,84.32184894931831,473.98148148148147,995.5071585295996
411,411,sex_male,Urbanity_Urban,Size_7,age_36_45,Education_High_School,Lighting_yes,TV_yes,Cooking_no,Refrigeration_no,4757.565363838281,63.13810546862282,473.98148148148147,995.5071585295996
412,412,sex_female,Urbanity_Urban,Size_6,age_66_75,Education_High_School,Lighting_yes,TV_yes,Cooking_no,Refrigeration_no,5340.299387970906,59.612255024223785,473.98148148148147,44.47155161094197
413,413,sex_male,Urbanity_Urban,Size_5,age_46_55,Education_College,Lighting_yes,TV_yes,Cooking_no,Refrigeration_no,12474.514843056397,93.98151086031568,473.98148148148147,286.5503918933754
414,414,sex_female,Urbanity_Urban,Size_4,age_76_85,Education_Post_Secondary,Lighting_yes,TV_yes,Cooking_no,Refrigeration_no,7718.2238471500905,77.75774543291003,473.98148148148147,332.79259263671133
415,415,sex_male,Urbanity_Urban,Size_6,age_36_45,Education_Elementary_School,Lighting_yes,TV_yes,Cooking_no,Refrigeration_yes,3686.747547628557,136.39460880976546,473.98148148148147,639.3934751883941
416,416,sex_male,Urbanity_Urban,Size_6,age_46_55,Education_Elementary_School,Lighting_yes,TV_yes,Cooking_no,Refrigeration_no,3823.166925099967,64.51068633506631,473.98148148148147,183.82473673027343
417,417,sex_female,Urbanity_Urban,Size_3,age_26_35,Education_College,Lighting_yes,TV_yes,Cooking_no,Refrigeration_no,11740.336302954143,69.40852210692705,473.98148148148147,436.97538587027276
418,418,sex_female,Urbanity_Urban,Size_3,age_26_35,Education_Elementary_School,Lighting_yes,TV_yes,Cooking_yes,Refrigeration_no,2887.211127011748,106.38692149160326,473.98148148148147,467.8914106325531
419,419,sex_male,Urbanity_Urban,Size_3,age_46_55,Education_High_School,Lighting_yes,TV_yes,Cooking_yes,Refrigeration_no,4082.9633093332313,112.19336148795135,473.98148148148147,169.1889298951606
420,420,sex_male,Urbanity_Urban,Size_2,age_56_65,Education_Post_Graduate,Lighting_yes,TV_no,Cooking_no,Refrigeration_no,13572.838365206868,18.371983580144253,473.98148148148147,181.66803988488076
421,421,sex_female,Urbanity_Urban,Size_3,age_46_55,Education_High_School,Lighting_yes,TV_no,Cooking_no,Refrigeration_no,4098.426808600496,67.51970940864804,473.98148148148147,360.5755415651172
422,422,sex_male,Urbanity_Urban,Size_3,age_76_85,Education_High_School,Lighting_yes,TV_yes,Cooking_no,Refrigeration_no,4567.594971758523,111.787966083353,473.98148148148147,17.63746158280329
423,423,sex_male,Urbanity_Urban,Size_4,age_56_65,Education_College,Lighting_yes,TV_yes,Cooking_no,Refrigeration_yes,12349.21075414256,187.41736445821013,473.98148148148147,330.99348322817383
424,424,sex_male,Urbanity_Urban,Size_2,age_19_25,Education_High_School,Lighting_yes,TV_yes,Cooking_no,Refrigeration_yes,3246.4189283149635,110.03886858294905,473.98148148148147,561.9297404265252
425,425,sex_female,Urbanity_Rural,Size_8,age_66_75,Education_Elementary_School,Lighting_yes,TV_yes,Cooking_no,Refrigeration_yes,3812.467941266761,90.66628233656414,473.98148148148147,771.3246107957657
426,426,sex_male,Urbanity_Urban,Size_8,age_46_55,Education_Post_Secondary,Lighting_yes,TV_yes,Cooking_no,Refrigeration_yes,8135.646100389252,120.38960783404028,473.98148148148147,790.9589858542233
427,427,sex_female,Urbanity_Urban,Size_7,age_56_65,Education_Elementary_School,Lighting_yes,TV_yes,Cooking_no,Refrigeration_yes,4455.876005862591,127.01756347876534,473.98148148148147,509.50679304671684
428,428,sex_male,Urbanity_Rural,Size_7,age_46_55,Education_Elementary_School,Lighting_no,TV_no,Cooking_no,Refrigeration_no,2881.3478671817293,9.055477385190688,473.98148148148147,814.6295593680206
429,429,sex_female,Urbanity_Urban,Size_4,age_66_75,Education_College,Lighting_yes,TV_yes,Cooking_no,Refrigeration_no,12574.538798599297,67.30311979484416,473.98148148148147,372.32404936534766
430,430,sex_male,Urbanity_Urban,Size_4,age_46_55,Education_College,Lighting_no,TV_no,Cooking_no,Refrigeration_no,12131.520463880503,58.61707940752442,473.98148148148147,613.4118599399633
431,431,sex_female,Urbanity_Rural,Size_5,age_36_45,Education_Elementary_School,Lighting_yes,TV_yes,Cooking_no,Refrigeration_no,2358.098577239764,34.59093512767544,473.98148148148147,972.6445556722678
432,432,sex_male,Urbanity_Rural,Size_5,age_46_55,Education_College,Lighting_yes,TV_yes,Cooking_no,Refrigeration_no,11100.116004715195,22.345582991968122,473.98148148148147,328.63739257962413
433,433,sex_male,Urbanity_Urban,Size_5,age_66_75,Education_Post_Secondary,Lighting_yes,TV_yes,Cooking_no,Refrigeration_no,7731.951232360051,52.06933469355043,473.98148148148147,350.108113035482
434,434,sex_male,Urbanity_Rural,Size_4,age_46_55,Education_College,Lighting_yes,TV_yes,Cooking_no,Refrigeration_yes,11092.72478577922,101.41745719560171,473.98148148148147,481.4089744120788
435,435,sex_female,Urbanity_Urban,Size_5,age_56_65,Education_Post_Secondary,Lighting_yes,TV_yes,Cooking_no,Refrigeration_no,7586.126982475028,53.71571726067046,473.98148148148147,352.15643850600657
436,436,sex_female,Urbanity_Urban,Size_2,age_76_85,Education_High_School,Lighting_yes,TV_no,Cooking_no,Refrigeration_no,4484.5389772125955,63.24298669340613,473.98148148148147,171.35506379174888
437,437,sex_male,Urbanity_Urban,Size_4,age_36_45,Education_College,Lighting_yes,TV_yes,Cooking_no,Refrigeration_no,11912.498940017329,67.37038740077921,473.98148148148147,904.1180510924104
438,438,sex_female,Urbanity_Urban,Size_4,age_56_65,Education_Post_Secondary,Lighting_yes,TV_no,Cooking_no,Refrigeration_no,7547.109257586304,36.48633717029606,473.98148148148147,548.0195710446347
439,439,sex_male,Urbanity_Urban,Size_4,age_66_75,Education_Elementary_School,Lighting_yes,TV_yes,Cooking_no,Refrigeration_no,3551.661215808668,101.58777988771193,473.98148148148147,517.3835823921725
440,440,sex_male,Urbanity_Urban,Size_4,age_56_65,Education_College,Lighting_yes,TV_yes,Cooking_no,Refrigeration_yes,12423.344721547117,139.14319109606794,473.98148148148147,330.99348322817383
441,441,sex_male,Urbanity_Urban,Size_4,age_46_55,Education_High_School,Lighting_yes,TV_yes,Cooking_no,Refrigeration_no,4310.63048295539,38.61038713991389,473.98148148148147,540.6361959789995
442,442,sex_male,Urbanity_Urban,Size_4,age_46_55,Education_High_School,Lighting_yes,TV_no,Cooking_no,Refrigeration_no,4213.902799627729,21.783966100804356,473.98148148148147,579.1140772309432
443,443,sex_male,Urbanity_Urban,Size_4,age_36_45,Education_Post_Graduate,Lighting_yes,TV_yes,Cooking_no,Refrigeration_no,13706.417574987934,50.31159494874375,473.98148148148147,853.7650939052363
444,444,sex_male,Urbanity_Urban,Size_4,age_56_65,Education_Elementary_School,Lighting_yes,TV_yes,Cooking_no,Refrigeration_no,3498.902024411128,21.66452531503624,473.98148148148147,500.0492967859625
445,445,sex_male,Urbanity_Urban,Size_4,age_19_25,Education_College,Lighting_yes,TV_yes,Cooking_no,Refrigeration_no,11643.456189583638,92.40753415962546,473.98148148148147,611.906893944108
446,446,sex_male,Urbanity_Urban,Size_2,age_46_55,Education_College,Lighting_yes,TV_yes,Cooking_no,Refrigeration_yes,11654.5341283976,102.9064045797744,473.98148148148147,297.2579368635374
447,447,sex_female,Urbanity_Urban,Size_2,age_36_45,Education_High_School,Lighting_yes,TV_no,Cooking_no,Refrigeration_yes,3640.496163937165,127.8228510544516,473.98148148148147,912.0013899035056
448,448,sex_male,Urbanity_Urban,Size_2,age_46_55,Education_Elementary_School,Lighting_no,TV_yes,Cooking_no,Refrigeration_no,2705.7957345040386,55.45444965519996,473.98148148148147,597.3120859292858
449,449,sex_male,Urbanity_Urban,Size_2,age_66_75,Education_Elementary_School,Lighting_yes,TV_yes,Cooking_no,Refrigeration_yes,3291.278715674417,142.25608851397254,473.98148148148147,370.70587607564994
450,450,sex_male,Urbanity_Urban,Size_5,age_36_45,Education_Elementary_School,Lighting_yes,TV_no,Cooking_no,Refrigeration_yes,3269.7517491585804,126.69419897281915,473.98148148148147,945.0391557069987
451,451,sex_female,Urbanity_Rural,Size_5,age_56_65,Education_Elementary_School,Lighting_yes,TV_no,Cooking_no,Refrigeration_yes,2752.826922749383,94.70654546099225,473.98148148148147,437.99786905997496
452,452,sex_male,Urbanity_Rural,Size_5,age_56_65,Education_College,Lighting_yes,TV_yes,Cooking_no,Refrigeration_no,11629.490202158797,52.45360951191696,473.98148148148147,220.3089020819678
453,453,sex_male,Urbanity_Rural,Size_2,age_66_75,Education_High_School,Lighting_yes,TV_yes,Cooking_no,Refrigeration_yes,2871.742566937517,134.03311003482378,473.98148148148147,345.0512854572793
454,454,sex_male,Urbanity_Urban,Size_3,age_46_55,Education_Elementary_School,Lighting_no,TV_no,Cooking_no,Refrigeration_no,3000.299003861935,39.505164247566064,473.98148148148147,539.9328573009618
455,455,sex_male,Urbanity_Urban,Size_8,age_36_45,Education_Elementary_School,Lighting_yes,TV_yes,Cooking_no,Refrigeration_no,4241.370626784215,99.1487484089113,473.98148148148147,1265.6452812908094
456,456,sex_female,Urbanity_Urban,Size_7,age_56_65,Education_High_School,Lighting_yes,TV_yes,Cooking_no,Refrigeration_yes,5394.230309858316,140.4827918507974,473.98148148148147,441.76520174209764
457,457,sex_male,Urbanity_Rural,Size_7,age_56_65,Education_High_School,Lighting_yes,TV_yes,Cooking_no,Refrigeration_no,4080.6691110254296,45.79907025754797,473.98148148148147,469.08326080584175
458,458,sex_male,Urbanity_Rural,Size_7,age_36_45,Education_Post_Graduate,Lighting_yes,TV_yes,Cooking_no,Refrigeration_yes,13376.50252148382,125.80027955325085,473.98148148148147,885.9269797755052
459,459,sex_female,Urbanity_Rural,Size_7,age_56_65,Education_Elementary_School,Lighting_yes,TV_yes,Cooking_no,Refrigeration_no,3237.7236410702008,39.02902237580607,473.98148148148147,556.2074631871952
460,460,sex_male,Urbanity_Urban,Size_5,age_46_55,Education_College,Lighting_yes,TV_yes,Cooking_no,Refrigeration_no,12431.158701028271,39.76948475538728,473.98148148148147,286.5503918933754
461,461,sex_male,Urbanity_Urban,Size_4,age_26_35,Education_Elementary_School,Lighting_no,TV_yes,Cooking_no,Refrigeration_yes,2951.889928656521,140.45691546975962,473.98148148148147,946.3407316933876
462,462,sex_male,Urbanity_Urban,Size_5,age_46_55,Education_Post_Graduate,Lighting_yes,TV_no,Cooking_no,Refrigeration_no,14136.923724641985,49.99145049884051,473.98148148148147,274.6753159581452
463,463,sex_male,Urbanity_Rural,Size_6,age_36_45,Education_Post_Secondary,Lighting_yes,TV_no,Cooking_no,Refrigeration_yes,6350.471092171718,65.23008533156738,473.98148148148147,710.0681390565808
464,464,sex_male,Urbanity_Rural,Size_6,age_56_65,Education_Elementary_School,Lighting_yes,TV_no,Cooking_no,Refrigeration_no,2945.119279562028,48.745461767289285,473.98148148148147,156.06112817080958
465,465,sex_male,Urbanity_Rural,Size_6,age_26_35,Education_High_School,Lighting_yes,TV_no,Cooking_no,Refrigeration_no,3288.63589838419,21.454808963341826,473.98148148148147,408.22630571988543
466,466,sex_male,Urbanity_Rural,Size_5,age_46_55,Education_Elementary_School,Lighting_yes,TV_yes,Cooking_no,Refrigeration_no,2489.594399742147,79.14323161596667,473.98148148148147,493.07953668318316
467,467,sex_male,Urbanity_Rural,Size_5,age_56_65,Education_Elementary_School,Lighting_yes,TV_yes,Cooking_no,Refrigeration_no,2573.333868775424,19.19517155414554,473.98148148148147,384.75104618552683
468,468,sex_male,Urbanity_Rural,Size_8,age_66_75,Education_Post_Graduate,Lighting_yes,TV_yes,Cooking_no,Refrigeration_no,14295.184479431891,29.14152943851382,473.98148148148147,541.7605678825281
469,469,sex_female,Urbanity_Urban,Size_8,age_36_45,Education_High_School,Lighting_yes,TV_yes,Cooking_no,Refrigeration_no,5250.462830121295,72.86606316734466,473.98148148148147,1217.2863010629244
470,470,sex_male,Urbanity_Urban,Size_3,age_46_55,Education_High_School,Lighting_no,TV_yes,Cooking_no,Refrigeration_no,3919.8221236834192,66.30166958512363,473.98148148148147,433.7133847443988
471,471,sex_male,Urbanity_Urban,Size_3,age_46_55,Education_Post_Secondary,Lighting_yes,TV_no,Cooking_no,Refrigeration_yes,6793.352611629023,153.3374869952937,473.98148148148147,394.4306342687667
472,472,sex_male,Urbanity_Rural,Size_3,age_46_55,Education_Post_Graduate,Lighting_yes,TV_yes,Cooking_no,Refrigeration_no,12520.524392620551,54.59505038897682,473.98148148148147,197.74853993657436
473,473,sex_male,Urbanity_Rural,Size_3,age_56_65,Education_Post_Secondary,Lighting_yes,TV_yes,Cooking_no,Refrigeration_yes,5797.65488323959,101.8871539312011,473.98148148148147,289.7112632054153
474,474,sex_male,Urbanity_Rural,Size_9,age_46_55,Education_Elementary_School,Lighting_yes,TV_no,Cooking_no,Refrigeration_yes,3589.3579174941033,83.46985355934844,473.98148148148147,652.2289340290707
475,475,sex_male,Urbanity_Urban,Size_9,age_56_65,Education_Elementary_School,Lighting_yes,TV_yes,Cooking_no,Refrigeration_yes,4759.613810610448,140.33736156980024,473.98148148148147,463.335561593222
476,476,sex_male,Urbanity_Rural,Size_4,age_66_75,Education_Elementary_School,Lighting_yes,TV_yes,Cooking_no,Refrigeration_yes,2528.677335536603,98.347205913664,473.98148148148147,554.8569136241913
477,477,sex_male,Urbanity_Urban,Size_2,age_19_25,Education_High_School,Lighting_yes,TV_yes,Cooking_no,Refrigeration_no,3248.352565121405,94.49939189926695,473.98148148148147,566.5434098807548
478,478,sex_male,Urbanity_Urban,Size_7,age_26_35,Education_Post_Secondary,Lighting_no,TV_yes,Cooking_no,Refrigeration_no,7608.328942524458,69.54129999378156,473.98148148148147,935.7527377158614
479,479,sex_male,Urbanity_Urban,Size_7,age_76_85,Education_College,Lighting_yes,TV_yes,Cooking_no,Refrigeration_yes,13575.73802360808,163.07616585652443,473.98148148148147,148.932940710444
480,480,sex_male,Urbanity_Urban,Size_6,age_36_45,Education_High_School,Lighting_yes,TV_yes,Cooking_no,Refrigeration_no,4626.938354175732,85.46651082021269,473.98148148148147,576.2655533380046
481,481,sex_female,Urbanity_Urban,Size_10,age_66_75,Education_High_School,Lighting_yes,TV_yes,Cooking_no,Refrigeration_yes,6355.505313888882,107.35638289488882,473.98148148148147,490.40395287406767
482,482,sex_male,Urbanity_Urban,Size_10,age_46_55,Education_High_School,Lighting_yes,TV_no,Cooking_no,Refrigeration_no,5921.1041992842775,17.23534590159398,473.98148148148147,605.1070973949533
483,483,sex_male,Urbanity_Urban,Size_6,age_56_65,Education_College,Lighting_no,TV_yes,Cooking_no,Refrigeration_no,12961.479510530307,77.4193813916923,473.98148148148147,42.052437637017654
484,484,sex_male,Urbanity_Urban,Size_6,age_26_35,Education_Post_Secondary,Lighting_yes,TV_yes,Cooking_no,Refrigeration_no,7195.335395241114,90.36143488466185,473.98148148148147,385.51279701630654
485,485,sex_female,Urbanity_Rural,Size_10,age_66_75,Education_High_School,Lighting_yes,TV_yes,Cooking_no,Refrigeration_no,5265.306716984829,37.520489948831646,473.98148148148147,537.1046230145462
