,index,i_Sex,i_Urbanity,i_FamilySize,i_Age,i_Education,e_Lighting,e_TV,e_Cooking,e_Refrigeration,Income,Electricity,w,wf
0,0,sex_female,Urbanity_Urban,Size_8,age_19_25,Education_Elementary_School,Lighting_yes,TV_yes,Cooking_no,Refrigeration_no,3965.307663199685,73.08191601839368,503.993839835729,2386.365005299306
1,1,sex_male,Urbanity_Urban,Size_7,age_76_85,Education_College,Lighting_yes,TV_yes,Cooking_no,Refrigeration_no,13573.991457442242,77.64112941760808,503.993839835729,326.2544777633873
2,2,sex_male,Urbanity_Urban,Size_2,age_36_45,Education_College,Lighting_yes,TV_yes,Cooking_no,Refrigeration_no,11491.601310781509,82.9401733355279,503.993839835729,1050.927931793983
3,3,sex_male,Urbanity_Rural,Size_2,age_56_65,Education_High_School,Lighting_yes,TV_yes,Cooking_no,Refrigeration_yes,2710.718311016289,102.45695536758815,503.993839835729,552.9393000568572
4,4,sex_male,Urbanity_Rural,Size_2,age_56_65,Education_Elementary_School,Lighting_yes,TV_yes,Cooking_no,Refrigeration_no,1966.728920654363,13.52654764909134,503.993839835729,492.81459355876615
5,5,sex_male,Urbanity_Urban,Size_3,age_26_35,Education_Elementary_School,Lighting_yes,TV_yes,Cooking_no,Refrigeration_yes,2683.665534662393,169.60437067573497,503.993839835729,714.8107320851692
6,6,sex_male,Urbanity_Urban,Size_5,age_56_65,Education_High_School,Lighting_yes,TV_yes,Cooking_no,Refrigeration_no,4846.940861434383,77.70467768304798,503.993839835729,164.0043545481856
7,7,sex_male,Urbanity_Urban,Size_4,age_56_65,Education_College,Lighting_yes,TV_yes,Cooking_no,Refrigeration_no,12371.869912714828,81.54392554516109,503.993839835729,419.19642932758893
8,8,sex_male,Urbanity_Urban,Size_2,age_36_45,Education_Elementary_School,Lighting_yes,TV_yes,Cooking_no,Refrigeration_no,2562.098433733335,82.65748979880321,503.993839835729,871.8807177119037
9,9,sex_male,Urbanity_Urban,Size_2,age_56_65,Education_High_School,Lighting_yes,TV_yes,Cooking_no,Refrigeration_no,3938.0193671085663,39.579816007634776,503.993839835729,413.50405527211416
10,10,sex_male,Urbanity_Urban,Size_4,age_46_55,Education_Post_Graduate,Lighting_yes,TV_yes,Cooking_no,Refrigeration_yes,13929.310268658242,116.50782526765026,503.993839835729,459.8094091791523
11,11,sex_female,Urbanity_Urban,Size_4,age_36_45,Education_Post_Secondary,Lighting_yes,TV_yes,Cooking_no,Refrigeration_yes,7087.877411331044,166.9796925002552,503.993839835729,906.5337626862587
12,12,sex_female,Urbanity_Rural,Size_3,age_36_45,Education_College,Lighting_yes,TV_yes,Cooking_no,Refrigeration_no,10784.841813880024,15.853011481315427,503.993839835729,1172.7115313184352
13,13,sex_male,Urbanity_Urban,Size_3,age_66_75,Education_High_School,Lighting_yes,TV_yes,Cooking_no,Refrigeration_yes,4317.272459934693,185.75289736956697,503.993839835729,407.4565301065496
14,14,sex_male,Urbanity_Rural,Size_4,age_56_65,Education_Post_Secondary,Lighting_yes,TV_yes,Cooking_no,Refrigeration_no,6192.140795788804,93.93723529119751,503.993839835729,512.6277238607511
15,15,sex_male,Urbanity_Rural,Size_2,age_46_55,Education_Post_Graduate,Lighting_yes,TV_yes,Cooking_no,Refrigeration_no,12282.388923256189,30.866917207930985,503.993839835729,710.7044257620503
16,16,sex_female,Urbanity_Urban,Size_9,age_46_55,Education_High_School,Lighting_yes,TV_yes,Cooking_no,Refrigeration_yes,5716.140035078682,145.4192848248625,503.993839835729,325.5992408013631
17,17,sex_male,Urbanity_Urban,Size_10,age_46_55,Education_College,Lighting_yes,TV_yes,Cooking_no,Refrigeration_yes,13820.033099445847,147.8390620442844,503.993839835729,844.7219424136177
18,18,sex_male,Urbanity_Urban,Size_8,age_36_45,Education_Elementary_School,Lighting_yes,TV_yes,Cooking_no,Refrigeration_no,4218.599684487051,20.55351837914049,503.993839835729,497.050786493897
19,19,sex_female,Urbanity_Urban,Size_8,age_56_65,Education_High_School,Lighting_yes,TV_yes,Cooking_yes,Refrigeration_no,5785.144749951667,109.66429788822121,503.993839835729,34.1794862512469
20,20,sex_male,Urbanity_Rural,Size_6,age_56_65,Education_High_School,Lighting_yes,TV_yes,Cooking_no,Refrigeration_no,3846.4612080797388,21.00196673994,503.993839835729,42.005040237028325
21,21,sex_male,Urbanity_Rural,Size_3,age_66_75,Education_College,Lighting_yes,TV_yes,Cooking_no,Refrigeration_no,11190.113332647004,37.300937499624865,503.993839835729,664.0439207449223
22,22,sex_male,Urbanity_Urban,Size_5,age_46_55,Education_High_School,Lighting_yes,TV_yes,Cooking_no,Refrigeration_no,4554.405003103086,45.27153531210626,503.993839835729,398.643748250988
23,23,sex_male,Urbanity_Rural,Size_2,age_36_45,Education_Elementary_School,Lighting_yes,TV_yes,Cooking_no,Refrigeration_yes,1437.1882171258803,122.37660124020806,503.993839835729,1011.3159624966468
24,24,sex_male,Urbanity_Urban,Size_2,age_26_35,Education_Elementary_School,Lighting_yes,TV_yes,Cooking_no,Refrigeration_yes,2470.09725308601,179.7539370891084,503.993839835729,743.7615685571125
25,25,sex_male,Urbanity_Urban,Size_1,age_36_45,Education_Elementary_School,Lighting_yes,TV_yes,Cooking_no,Refrigeration_yes,2329.735692119405,113.49989352790541,503.993839835729,409.206676605532
26,26,sex_female,Urbanity_Urban,Size_2,age_56_65,Education_Elementary_School,Lighting_no,TV_yes,Cooking_no,Refrigeration_yes,2966.3772365086156,135.19476302499027,503.993839835729,926.564132162577
27,27,sex_male,Urbanity_Urban,Size_3,age_46_55,Education_High_School,Lighting_yes,TV_yes,Cooking_no,Refrigeration_no,3960.851644472219,92.00858972732028,503.993839835729,619.1926125029732
28,28,sex_male,Urbanity_Urban,Size_3,age_46_55,Education_Elementary_School,Lighting_yes,TV_yes,Cooking_no,Refrigeration_yes,2929.483462817203,163.46395524813732,503.993839835729,562.6086294655993
29,29,sex_male,Urbanity_Urban,Size_4,age_46_55,Education_Elementary_School,Lighting_yes,TV_yes,Cooking_no,Refrigeration_yes,3217.33670117896,157.49820658478203,503.993839835729,476.5589706786707
30,30,sex_male,Urbanity_Urban,Size_2,age_66_75,Education_Post_Secondary,Lighting_yes,TV_yes,Cooking_no,Refrigeration_no,6859.6121258558005,41.817394297716405,503.993839835729,511.0962856412587
31,31,sex_male,Urbanity_Urban,Size_6,age_46_55,Education_Elementary_School,Lighting_yes,TV_yes,Cooking_no,Refrigeration_no,3847.2850831246724,54.18037752080291,503.993839835729,80.6252061177138
32,32,sex_female,Urbanity_Rural,Size_6,age_36_45,Education_Elementary_School,Lighting_yes,TV_yes,Cooking_no,Refrigeration_no,2668.2964374727553,12.885867836051895,503.993839835729,513.4512556188291
33,33,sex_female,Urbanity_Urban,Size_5,age_46_55,Education_Post_Secondary,Lighting_yes,TV_yes,Cooking_no,Refrigeration_no,7604.349922716195,60.69016003543633,503.993839835729,488.17258198612336
34,34,sex_male,Urbanity_Urban,Size_3,age_46_55,Education_Post_Secondary,Lighting_yes,TV_yes,Cooking_no,Refrigeration_no,6820.645795513259,79.41004477122098,503.993839835729,695.6518932960976
35,35,sex_male,Urbanity_Urban,Size_3,age_46_55,Education_Post_Graduate,Lighting_yes,TV_yes,Cooking_no,Refrigeration_no,13612.863530316909,108.88455071396065,503.993839835729,544.0887062357224
36,36,sex_male,Urbanity_Urban,Size_3,age_66_75,Education_Post_Secondary,Lighting_yes,TV_yes,Cooking_no,Refrigeration_no,7147.34356697857,58.374116706990975,503.993839835729,482.1454491693153
38,38,sex_female,Urbanity_Urban,Size_1,age_36_45,Education_Post_Secondary,Lighting_yes,TV_yes,Cooking_no,Refrigeration_yes,6251.396246047145,112.71689973699856,503.993839835729,557.0898551084002
40,40,sex_male,Urbanity_Urban,Size_1,age_36_45,Education_Elementary_School,Lighting_no,TV_yes,Cooking_no,Refrigeration_yes,2363.045154587209,134.55345539472617,503.993839835729,965.7811835913577
41,41,sex_male,Urbanity_Urban,Size_2,age_36_45,Education_Post_Secondary,Lighting_yes,TV_yes,Cooking_no,Refrigeration_yes,6353.210266376121,134.77532370314898,503.993839835729,1008.4647050031193
42,42,sex_male,Urbanity_Urban,Size_2,age_56_65,Education_Elementary_School,Lighting_yes,TV_yes,Cooking_no,Refrigeration_yes,2882.6983365585315,120.26585163144566,503.993839835729,356.92007223474025
43,43,sex_male,Urbanity_Urban,Size_4,age_76_85,Education_Elementary_School,Lighting_yes,TV_yes,Cooking_no,Refrigeration_yes,3943.849327417776,113.87728596717648,503.993839835729,172.39577701480044
44,44,sex_male,Urbanity_Urban,Size_5,age_36_45,Education_Post_Secondary,Lighting_yes,TV_yes,Cooking_no,Refrigeration_yes,7087.990616207476,135.3647332591275,503.993839835729,758.9650042791906
45,45,sex_male,Urbanity_Urban,Size_5,age_36_45,Education_Elementary_School,Lighting_yes,TV_yes,Cooking_no,Refrigeration_yes,3401.1970716187866,151.40105591146045,503.993839835729,624.1513787183337
46,46,sex_male,Urbanity_Rural,Size_2,age_36_45,Education_High_School,Lighting_yes,TV_yes,Cooking_no,Refrigeration_yes,2450.469719694432,108.38053186639893,503.993839835729,1069.670307264379
47,47,sex_male,Urbanity_Urban,Size_7,age_76_85,Education_Post_Secondary,Lighting_yes,TV_yes,Cooking_no,Refrigeration_no,8332.187600302012,32.70193878193869,503.993839835729,282.0208892421648
48,48,sex_male,Urbanity_Urban,Size_9,age_56_65,Education_Elementary_School,Lighting_yes,TV_yes,Cooking_no,Refrigeration_no,4872.614711666872,44.94560401006503,503.993839835729,17.765587658458667
49,49,sex_female,Urbanity_Rural,Size_9,age_46_55,Education_Elementary_School,Lighting_yes,TV_yes,Cooking_no,Refrigeration_no,3593.7609241676946,22.382214604855672,503.993839835729,403.1394173576566
50,50,sex_male,Urbanity_Urban,Size_10,age_56_65,Education_High_School,Lighting_yes,TV_yes,Cooking_no,Refrigeration_yes,5998.732111927061,133.33796425868948,503.993839835729,489.38967939646864
51,51,sex_female,Urbanity_Urban,Size_9,age_56_65,Education_Post_Secondary,Lighting_yes,TV_yes,Cooking_no,Refrigeration_no,8673.457086874423,89.0096073000621,503.993839835729,165.6487661613265
52,52,sex_male,Urbanity_Urban,Size_10,age_46_55,Education_High_School,Lighting_yes,TV_yes,Cooking_no,Refrigeration_no,5900.273181913821,60.084412060510815,503.993839835729,722.2587113689124
53,53,sex_male,Urbanity_Rural,Size_4,age_46_55,Education_High_School,Lighting_yes,TV_no,Cooking_no,Refrigeration_yes,3242.7167593404934,26.04826244518941,503.993839835729,840.8858894673771
54,54,sex_female,Urbanity_Urban,Size_4,age_56_65,Education_High_School,Lighting_yes,TV_yes,Cooking_no,Refrigeration_no,4496.0550567429245,46.927128394302294,503.993839835729,311.5731129552533
55,55,sex_female,Urbanity_Urban,Size_4,age_46_55,Education_Elementary_School,Lighting_yes,TV_yes,Cooking_no,Refrigeration_no,3481.377176187252,58.3032222341411,503.993839835729,487.8581618903234
56,56,sex_male,Urbanity_Urban,Size_4,age_36_45,Education_Post_Secondary,Lighting_yes,TV_yes,Cooking_no,Refrigeration_yes,6779.571860524727,142.8933250129684,503.993839835729,893.4642097442478
57,57,sex_male,Urbanity_Urban,Size_3,age_66_75,Education_High_School,Lighting_yes,TV_no,Cooking_no,Refrigeration_yes,4397.304506246744,60.988767944562206,503.993839835729,575.7642210731391
58,58,sex_female,Urbanity_Urban,Size_7,age_36_45,Education_Post_Graduate,Lighting_yes,TV_no,Cooking_no,Refrigeration_yes,14619.417379139584,166.56660098616433,503.993839835729,899.8601149893387
59,59,sex_female,Urbanity_Rural,Size_10,age_56_65,Education_Post_Secondary,Lighting_yes,TV_yes,Cooking_no,Refrigeration_yes,7839.465495603925,104.34439717395617,503.993839835729,716.5833961859886
60,60,sex_female,Urbanity_Urban,Size_10,age_46_55,Education_Post_Secondary,Lighting_yes,TV_yes,Cooking_no,Refrigeration_yes,8770.092730046352,167.3675643989998,503.993839835729,813.5579068344065
61,61,sex_male,Urbanity_Urban,Size_7,age_46_55,Education_College,Lighting_yes,TV_no,Cooking_no,Refrigeration_yes,12976.072530107187,108.3198815519193,503.993839835729,800.4957241242054
62,62,sex_male,Urbanity_Urban,Size_7,age_46_55,Education_High_School,Lighting_yes,TV_yes,Cooking_no,Refrigeration_yes,4935.932486174937,148.15852264919263,503.993839835729,511.4951638432692
63,63,sex_male,Urbanity_Urban,Size_6,age_46_55,Education_Post_Graduate,Lighting_yes,TV_yes,Cooking_no,Refrigeration_no,14465.421539686577,92.53998050623102,503.993839835729,63.875644618195416
64,64,sex_female,Urbanity_Urban,Size_6,age_36_45,Education_College,Lighting_yes,TV_yes,Cooking_no,Refrigeration_yes,12592.545144090283,122.615514306995,503.993839835729,556.6039483768824
65,65,sex_female,Urbanity_Rural,Size_9,age_66_75,Education_Elementary_School,Lighting_yes,TV_yes,Cooking_no,Refrigeration_yes,4062.961123393791,132.4566612438357,503.993839835729,191.40333496123299
66,66,sex_male,Urbanity_Urban,Size_1,age_36_45,Education_Elementary_School,Lighting_yes,TV_yes,Cooking_no,Refrigeration_yes,2371.8749332854595,126.54938155131569,503.993839835729,409.206676605532
67,67,sex_male,Urbanity_Urban,Size_4,age_26_35,Education_Post_Secondary,Lighting_yes,TV_yes,Cooking_no,Refrigeration_no,6672.213615570263,74.80648372049095,503.993839835729,761.8043371287387
68,68,sex_male,Urbanity_Urban,Size_5,age_26_35,Education_Elementary_School,Lighting_yes,TV_yes,Cooking_no,Refrigeration_yes,3132.494805711108,141.72183447447898,503.993839835729,494.26186783318354
69,69,sex_female,Urbanity_Rural,Size_5,age_26_35,Education_Post_Graduate,Lighting_yes,TV_yes,Cooking_no,Refrigeration_no,12834.761928229622,96.2947598304073,503.993839835729,626.4763805997018
70,70,sex_male,Urbanity_Urban,Size_3,age_36_45,Education_College,Lighting_yes,TV_yes,Cooking_no,Refrigeration_yes,11731.4599633429,178.08374661893998,503.993839835729,1023.7474570523984
71,71,sex_male,Urbanity_Urban,Size_5,age_56_65,Education_Elementary_School,Lighting_yes,TV_yes,Cooking_no,Refrigeration_yes,3636.4160638723906,142.26534593039918,503.993839835729,107.42037151081169
72,72,sex_male,Urbanity_Urban,Size_7,age_56_65,Education_Elementary_School,Lighting_no,TV_yes,Cooking_no,Refrigeration_yes,4388.194129824664,137.15621446893783,503.993839835729,775.0759323585602
73,73,sex_female,Urbanity_Rural,Size_6,age_46_55,Education_High_School,Lighting_yes,TV_yes,Cooking_no,Refrigeration_yes,3695.92143978424,89.34853572656303,503.993839835729,291.4843486122004
74,74,sex_male,Urbanity_Urban,Size_4,age_56_65,Education_Post_Secondary,Lighting_no,TV_yes,Cooking_no,Refrigeration_yes,7204.735089656679,141.83171207725397,503.993839835729,933.3077095225508
76,76,sex_male,Urbanity_Urban,Size_5,age_56_65,Education_Post_Secondary,Lighting_yes,TV_yes,Cooking_no,Refrigeration_no,7492.274850404977,86.13476631310888,503.993839835729,240.46363534130944
77,77,sex_female,Urbanity_Urban,Size_8,age_46_55,Education_Elementary_School,Lighting_yes,TV_yes,Cooking_no,Refrigeration_yes,4408.181657827921,115.21534541569531,503.993839835729,229.79908766154685
78,78,sex_male,Urbanity_Urban,Size_6,age_36_45,Education_College,Lighting_yes,TV_yes,Cooking_no,Refrigeration_no,12538.563731444077,60.89609424750947,503.993839835729,541.7640337045127
79,79,sex_male,Urbanity_Rural,Size_6,age_56_65,Education_High_School,Lighting_yes,TV_yes,Cooking_no,Refrigeration_yes,3747.6576645607593,103.813236251807,503.993839835729,43.77540196738682
80,80,sex_male,Urbanity_Urban,Size_3,age_36_45,Education_High_School,Lighting_yes,TV_yes,Cooking_no,Refrigeration_yes,3753.532267647548,144.3830767533246,503.993839835729,903.0545877380516
81,81,sex_male,Urbanity_Urban,Size_4,age_46_55,Education_College,Lighting_yes,TV_yes,Cooking_no,Refrigeration_yes,12098.096482719397,166.66796245747142,503.993839835729,655.6061847607499
83,83,sex_male,Urbanity_Urban,Size_3,age_36_45,Education_High_School,Lighting_yes,TV_yes,Cooking_no,Refrigeration_yes,3795.698483244165,121.4131425658271,503.993839835729,903.0545877380516
84,84,sex_male,Urbanity_Urban,Size_5,age_36_45,Education_Elementary_School,Lighting_yes,TV_yes,Cooking_no,Refrigeration_yes,3287.7161358807125,98.22618335550273,503.993839835729,624.1513787183337
85,85,sex_male,Urbanity_Urban,Size_9,age_76_85,Education_High_School,Lighting_yes,TV_yes,Cooking_no,Refrigeration_yes,6078.818593590645,139.12953995056398,503.993839835729,8.366494195481758
86,86,sex_male,Urbanity_Urban,Size_9,age_36_45,Education_Post_Secondary,Lighting_yes,TV_yes,Cooking_no,Refrigeration_yes,8340.422708497917,142.03103629894142,503.993839835729,671.0805821571963
87,87,sex_male,Urbanity_Urban,Size_6,age_46_55,Education_High_School,Lighting_yes,TV_yes,Cooking_no,Refrigeration_yes,4817.495430048411,147.06262649916815,503.993839835729,140.7499126158047
88,88,sex_male,Urbanity_Urban,Size_5,age_66_75,Education_Post_Secondary,Lighting_yes,TV_yes,Cooking_no,Refrigeration_no,7629.6020128298915,60.81059916227539,503.993839835729,261.59658491732966
89,89,sex_male,Urbanity_Urban,Size_3,age_46_55,Education_Post_Secondary,Lighting_yes,TV_yes,Cooking_no,Refrigeration_no,6704.803975431537,98.58733636462256,503.993839835729,695.6518932960976
90,90,sex_male,Urbanity_Urban,Size_4,age_66_75,Education_College,Lighting_yes,TV_yes,Cooking_no,Refrigeration_no,12611.22065609124,86.15102695716607,503.993839835729,440.3293789036092
92,92,sex_female,Urbanity_Urban,Size_7,age_56_65,Education_College,Lighting_yes,TV_yes,Cooking_no,Refrigeration_no,13129.971384438426,112.5927779797822,503.993839835729,408.8478306664663
93,93,sex_male,Urbanity_Urban,Size_7,age_36_45,Education_Elementary_School,Lighting_yes,TV_yes,Cooking_no,Refrigeration_no,3870.069755849644,39.94940026780775,503.993839835729,733.462070849898
94,94,sex_male,Urbanity_Urban,Size_7,age_56_65,Education_Elementary_School,Lighting_yes,TV_no,Cooking_no,Refrigeration_yes,4223.108490178149,100.30079941264641,503.993839835729,386.80911633932396
95,95,sex_male,Urbanity_Urban,Size_2,age_56_65,Education_Elementary_School,Lighting_yes,TV_yes,Cooking_no,Refrigeration_yes,2969.513132545177,114.90199596695308,503.993839835729,356.92007223474025
96,96,sex_male,Urbanity_Urban,Size_5,age_36_45,Education_Elementary_School,Lighting_yes,TV_yes,Cooking_no,Refrigeration_no,3332.299897404132,38.76721788076767,503.993839835729,622.3810169879748
98,98,sex_male,Urbanity_Urban,Size_1,age_56_65,Education_Post_Secondary,Lighting_yes,TV_yes,Cooking_no,Refrigeration_yes,6403.616569540393,156.76743889513568,503.993839835729,27.289294958866616
99,99,sex_male,Urbanity_Urban,Size_3,age_46_55,Education_Post_Secondary,Lighting_yes,TV_yes,Cooking_no,Refrigeration_no,6853.157078644581,76.38617497690508,503.993839835729,695.6518932960976
100,100,sex_male,Urbanity_Urban,Size_3,age_36_45,Education_Elementary_School,Lighting_yes,TV_yes,Cooking_no,Refrigeration_yes,2833.151881707152,136.85559336458573,503.993839835729,844.7002429703191
101,101,sex_male,Urbanity_Rural,Size_7,age_56_65,Education_Elementary_School,Lighting_yes,TV_yes,Cooking_no,Refrigeration_no,2975.345076534152,-7.0362466731678746,503.993839835729,354.3959466967604
102,102,sex_male,Urbanity_Urban,Size_8,age_36_45,Education_Elementary_School,Lighting_yes,TV_yes,Cooking_no,Refrigeration_no,4182.463377180868,34.086535730651924,503.993839835729,497.050786493897
103,103,sex_male,Urbanity_Urban,Size_7,age_36_45,Education_High_School,Lighting_yes,TV_no,Cooking_no,Refrigeration_yes,4688.416818865777,133.52515105037872,503.993839835729,961.8944683145784
104,104,sex_male,Urbanity_Urban,Size_4,age_36_45,Education_Post_Secondary,Lighting_yes,TV_yes,Cooking_no,Refrigeration_yes,6845.527533549025,140.8088142425631,503.993839835729,893.4642097442478
105,105,sex_male,Urbanity_Urban,Size_4,age_36_45,Education_Elementary_School,Lighting_yes,TV_yes,Cooking_no,Refrigeration_no,3076.606621076843,75.01115168334852,503.993839835729,756.8802224530319
106,106,sex_male,Urbanity_Urban,Size_5,age_26_35,Education_High_School,Lighting_yes,TV_yes,Cooking_no,Refrigeration_no,4157.245701234667,55.67723698277341,503.993839835729,550.8458508705575
107,107,sex_female,Urbanity_Urban,Size_5,age_56_65,Education_High_School,Lighting_yes,TV_yes,Cooking_no,Refrigeration_no,4803.77030589567,62.121624231604784,503.993839835729,177.0739074901963
108,108,sex_male,Urbanity_Urban,Size_5,age_46_55,Education_High_School,Lighting_yes,TV_yes,Cooking_no,Refrigeration_yes,4509.653311584677,158.33700658654394,503.993839835729,400.414109981346
109,109,sex_male,Urbanity_Urban,Size_5,age_46_55,Education_College,Lighting_yes,TV_yes,Cooking_no,Refrigeration_yes,12479.48774087295,145.78693931535943,503.993839835729,521.1069792956932
110,110,sex_male,Urbanity_Urban,Size_5,age_46_55,Education_Post_Secondary,Lighting_yes,TV_yes,Cooking_no,Refrigeration_yes,7356.04483374379,164.2575840274046,503.993839835729,476.8733907744708
111,111,sex_male,Urbanity_Urban,Size_8,age_36_45,Education_High_School,Lighting_yes,TV_yes,Cooking_no,Refrigeration_yes,5074.323981733329,125.05362825410002,503.993839835729,557.1754929919879
112,112,sex_female,Urbanity_Urban,Size_7,age_46_55,Education_High_School,Lighting_yes,TV_yes,Cooking_no,Refrigeration_no,5196.771141612226,83.82737223900305,503.993839835729,522.7943550549219
113,113,sex_male,Urbanity_Rural,Size_2,age_66_75,Education_High_School,Lighting_yes,TV_yes,Cooking_no,Refrigeration_no,3084.736773831129,28.726986137614674,503.993839835729,572.301887902519
114,114,sex_male,Urbanity_Rural,Size_2,age_46_55,Education_Elementary_School,Lighting_yes,TV_yes,Cooking_no,Refrigeration_yes,1568.7743064218018,149.31473631594378,503.993839835729,729.2243489919272
115,115,sex_male,Urbanity_Urban,Size_3,age_46_55,Education_Elementary_School,Lighting_yes,TV_yes,Cooking_no,Refrigeration_yes,2971.3392880739466,109.41636854530834,503.993839835729,562.6086294655993
116,116,sex_male,Urbanity_Urban,Size_4,age_66_75,Education_High_School,Lighting_yes,TV_yes,Cooking_no,Refrigeration_yes,4565.503208683262,128.3050763450308,503.993839835729,321.406871319621
117,117,sex_male,Urbanity_Urban,Size_4,age_36_45,Education_Post_Secondary,Lighting_yes,TV_yes,Cooking_no,Refrigeration_yes,6882.065858598337,173.1405670541926,503.993839835729,893.4642097442478
118,118,sex_female,Urbanity_Urban,Size_3,age_56_65,Education_Elementary_School,Lighting_yes,TV_yes,Cooking_no,Refrigeration_yes,3425.270488859862,142.64306396878808,503.993839835729,341.03878870480804
119,119,sex_male,Urbanity_Urban,Size_4,age_46_55,Education_College,Lighting_yes,TV_yes,Cooking_no,Refrigeration_no,12072.790048108996,100.33124526583836,503.993839835729,653.8358230303915
120,120,sex_male,Urbanity_Urban,Size_4,age_36_45,Education_Elementary_School,Lighting_yes,TV_yes,Cooking_no,Refrigeration_no,3038.318793175733,60.5542728238792,503.993839835729,756.8802224530319
121,121,sex_male,Urbanity_Urban,Size_4,age_26_35,Education_High_School,Lighting_yes,TV_yes,Cooking_no,Refrigeration_no,3848.1586361685054,121.85609788942624,503.993839835729,685.345056335614
122,122,sex_male,Urbanity_Urban,Size_4,age_56_65,Education_Elementary_School,Lighting_yes,TV_yes,Cooking_no,Refrigeration_yes,3674.845078373159,112.79276458027412,503.993839835729,241.9195769758683
123,123,sex_female,Urbanity_Urban,Size_2,age_26_35,Education_High_School,Lighting_yes,TV_yes,Cooking_no,Refrigeration_yes,3504.795370553441,148.82322428322848,503.993839835729,815.1854662668558
124,124,sex_female,Urbanity_Urban,Size_2,age_36_45,Education_Elementary_School,Lighting_yes,TV_no,Cooking_no,Refrigeration_no,2869.8860574336495,53.69980101800079,503.993839835729,1053.2579616205044
125,125,sex_female,Urbanity_Urban,Size_2,age_56_65,Education_Post_Secondary,Lighting_yes,TV_yes,Cooking_no,Refrigeration_yes,6784.0016052892115,136.45019606768716,503.993839835729,504.80325073760804
126,126,sex_male,Urbanity_Urban,Size_4,age_36_45,Education_High_School,Lighting_yes,TV_yes,Cooking_no,Refrigeration_yes,4013.3059219758657,149.55197885045197,503.993839835729,817.0049289511229
127,127,sex_male,Urbanity_Urban,Size_7,age_36_45,Education_College,Lighting_yes,TV_yes,Cooking_no,Refrigeration_no,12754.147163746164,88.61424843329306,503.993839835729,912.5092849319773
128,128,sex_male,Urbanity_Urban,Size_5,age_36_45,Education_Elementary_School,Lighting_yes,TV_yes,Cooking_no,Refrigeration_yes,3386.42248156782,135.30092607983687,503.993839835729,624.1513787183337
129,129,sex_male,Urbanity_Urban,Size_4,age_46_55,Education_Elementary_School,Lighting_yes,TV_yes,Cooking_no,Refrigeration_yes,3245.4962501797886,110.20794863907112,503.993839835729,476.5589706786707
130,130,sex_male,Urbanity_Urban,Size_5,age_56_65,Education_Post_Secondary,Lighting_yes,TV_yes,Cooking_no,Refrigeration_yes,7506.846800889833,165.94838624910827,503.993839835729,242.2339970716684
131,131,sex_male,Urbanity_Urban,Size_2,age_46_55,Education_College,Lighting_yes,TV_yes,Cooking_no,Refrigeration_yes,11517.765336294651,134.22462516816321,503.993839835729,770.6066800196215
132,132,sex_female,Urbanity_Urban,Size_1,age_36_45,Education_Elementary_School,Lighting_yes,TV_yes,Cooking_no,Refrigeration_yes,2468.643242906156,132.81324788603322,503.993839835729,422.2762295475432
133,133,sex_male,Urbanity_Rural,Size_1,age_56_65,Education_High_School,Lighting_yes,TV_yes,Cooking_no,Refrigeration_yes,2493.946418631773,111.03402722044235,503.993839835729,88.4948972201268
134,134,sex_male,Urbanity_Urban,Size_1,age_56_65,Education_College,Lighting_yes,TV_yes,Cooking_no,Refrigeration_yes,11478.302972161235,138.5722693937395,503.993839835729,71.52288348008909
135,135,sex_male,Urbanity_Rural,Size_4,age_56_65,Education_Elementary_School,Lighting_yes,TV_yes,Cooking_no,Refrigeration_yes,2359.9528440646754,164.95943059743314,503.993839835729,379.58446003025284
136,136,sex_female,Urbanity_Urban,Size_5,age_66_75,Education_College,Lighting_no,TV_yes,Cooking_no,Refrigeration_no,12884.521759977537,81.69012734043253,503.993839835729,875.4742333663893
137,137,sex_male,Urbanity_Urban,Size_8,age_26_35,Education_High_School,Lighting_yes,TV_yes,Cooking_no,Refrigeration_yes,5004.433616069131,128.39290248174282,503.993839835729,427.2859821068376
138,138,sex_male,Urbanity_Urban,Size_7,age_46_55,Education_Elementary_School,Lighting_yes,TV_yes,Cooking_no,Refrigeration_yes,4061.445054913677,164.59468464557116,503.993839835729,453.1408190755368
139,139,sex_male,Urbanity_Urban,Size_5,age_46_55,Education_High_School,Lighting_yes,TV_yes,Cooking_no,Refrigeration_yes,4639.265315657903,147.55326662157387,503.993839835729,400.414109981346
140,140,sex_male,Urbanity_Urban,Size_5,age_76_85,Education_High_School,Lighting_no,TV_yes,Cooking_no,Refrigeration_no,5112.930850905326,63.925530502886346,503.993839835729,651.0550615729436
141,141,sex_male,Urbanity_Urban,Size_6,age_66_75,Education_College,Lighting_yes,TV_yes,Cooking_no,Refrigeration_no,12993.942296776962,89.51202638649586,503.993839835729,46.16597607301087
142,142,sex_male,Urbanity_Urban,Size_2,age_46_55,Education_Elementary_School,Lighting_no,TV_yes,Cooking_no,Refrigeration_no,2712.8553721191365,63.30300643949418,503.993839835729,1146.3636111930098
143,143,sex_male,Urbanity_Urban,Size_4,age_36_45,Education_Elementary_School,Lighting_yes,TV_yes,Cooking_no,Refrigeration_no,3212.4090880628264,78.09367210448117,503.993839835729,756.8802224530319
144,144,sex_male,Urbanity_Urban,Size_4,age_46_55,Education_Elementary_School,Lighting_yes,TV_yes,Cooking_no,Refrigeration_no,3363.2061869600743,106.64136242847313,503.993839835729,474.78860894831223
145,145,sex_male,Urbanity_Urban,Size_2,age_36_45,Education_Elementary_School,Lighting_yes,TV_yes,Cooking_no,Refrigeration_no,2659.798967253116,111.72826903327021,503.993839835729,871.8807177119037
146,146,sex_male,Urbanity_Urban,Size_7,age_76_85,Education_Elementary_School,Lighting_yes,TV_yes,Cooking_no,Refrigeration_yes,4695.422076950201,95.50243924555271,503.993839835729,148.9776254116666
147,147,sex_male,Urbanity_Rural,Size_6,age_66_75,Education_High_School,Lighting_yes,TV_yes,Cooking_no,Refrigeration_no,4035.7504716091053,33.997479674027325,503.993839835729,63.137989813048584
148,148,sex_male,Urbanity_Rural,Size_5,age_66_75,Education_Elementary_School,Lighting_yes,TV_yes,Cooking_no,Refrigeration_no,3006.3749011891673,7.495561166831576,503.993839835729,264.44784241085745
149,149,sex_male,Urbanity_Urban,Size_2,age_26_35,Education_High_School,Lighting_yes,TV_yes,Cooking_no,Refrigeration_yes,3244.443537069008,156.80713920189473,503.993839835729,802.1159133248443
150,150,sex_female,Urbanity_Urban,Size_7,age_76_85,Education_Elementary_School,Lighting_yes,TV_yes,Cooking_no,Refrigeration_no,4793.198273319337,39.60298782144672,503.993839835729,160.27681662331918
151,151,sex_male,Urbanity_Urban,Size_4,age_36_45,Education_Post_Graduate,Lighting_yes,TV_yes,Cooking_no,Refrigeration_no,13877.736359685689,41.10452947643605,503.993839835729,740.1306609535136
152,152,sex_male,Urbanity_Urban,Size_3,age_66_75,Education_High_School,Lighting_yes,TV_yes,Cooking_no,Refrigeration_yes,4337.80612539041,107.88861927277814,503.993839835729,407.4565301065496
153,153,sex_female,Urbanity_Urban,Size_1,age_46_55,Education_Post_Secondary,Lighting_yes,TV_yes,Cooking_no,Refrigeration_yes,6438.596244658957,149.83623272586354,503.993839835729,274.99824160368007
154,154,sex_male,Urbanity_Urban,Size_1,age_46_55,Education_Elementary_School,Lighting_yes,TV_yes,Cooking_no,Refrigeration_yes,2461.7504537706545,158.4527024481483,503.993839835729,127.11506310081226
155,155,sex_female,Urbanity_Urban,Size_3,age_36_45,Education_High_School,Lighting_yes,TV_yes,Cooking_no,Refrigeration_yes,3872.0308644120473,152.92237703475163,503.993839835729,916.1241406800624
156,156,sex_female,Urbanity_Rural,Size_5,age_66_75,Education_Elementary_School,Lighting_yes,TV_yes,Cooking_no,Refrigeration_no,2920.0440061103914,44.003750522372506,503.993839835729,277.517395352869
157,157,sex_male,Urbanity_Urban,Size_5,age_46_55,Education_College,Lighting_yes,TV_yes,Cooking_no,Refrigeration_yes,12495.770594804197,130.1790297133811,503.993839835729,521.1069792956932
158,158,sex_male,Urbanity_Urban,Size_4,age_56_65,Education_Post_Secondary,Lighting_yes,TV_yes,Cooking_no,Refrigeration_yes,7241.471603996408,107.50639173847804,503.993839835729,376.73320253672506
159,159,sex_male,Urbanity_Urban,Size_3,age_56_65,Education_College,Lighting_yes,TV_yes,Cooking_no,Refrigeration_yes,12066.180010088408,147.70231992052553,503.993839835729,507.0164498448761
160,160,sex_male,Urbanity_Urban,Size_2,age_56_65,Education_Elementary_School,Lighting_yes,TV_yes,Cooking_no,Refrigeration_no,2913.446797440517,85.22231050468926,503.993839835729,355.1497105043817
161,161,sex_male,Urbanity_Urban,Size_5,age_46_55,Education_High_School,Lighting_yes,TV_yes,Cooking_no,Refrigeration_yes,4498.960873228611,140.91759348176038,503.993839835729,400.414109981346
162,162,sex_male,Urbanity_Urban,Size_5,age_56_65,Education_Post_Secondary,Lighting_yes,TV_yes,Cooking_no,Refrigeration_no,7480.2014503110595,64.43699987285521,503.993839835729,240.46363534130944
163,163,sex_male,Urbanity_Urban,Size_5,age_66_75,Education_High_School,Lighting_yes,TV_yes,Cooking_no,Refrigeration_yes,4759.961879322396,130.09248477775773,503.993839835729,186.907665854564
164,164,sex_male,Urbanity_Urban,Size_5,age_46_55,Education_High_School,Lighting_yes,TV_yes,Cooking_no,Refrigeration_yes,4583.310865251194,168.70738131426197,503.993839835729,400.414109981346
165,165,sex_male,Urbanity_Urban,Size_7,age_66_75,Education_Elementary_School,Lighting_yes,TV_yes,Cooking_no,Refrigeration_yes,4494.5569875225565,156.91230960053642,503.993839835729,239.6343749487547
166,166,sex_female,Urbanity_Urban,Size_7,age_76_85,Education_Elementary_School,Lighting_yes,TV_yes,Cooking_no,Refrigeration_yes,4839.387262528196,129.8797701413968,503.993839835729,162.04717835367768
167,167,sex_male,Urbanity_Urban,Size_7,age_66_75,Education_Elementary_School,Lighting_yes,TV_no,Cooking_no,Refrigeration_yes,4529.967110463729,109.72002339344502,503.993839835729,407.9420659153442
168,168,sex_male,Urbanity_Urban,Size_8,age_46_55,Education_High_School,Lighting_yes,TV_yes,Cooking_no,Refrigeration_no,5348.9764445045785,99.67583601145344,503.993839835729,273.3135177569097
169,169,sex_male,Urbanity_Urban,Size_5,age_46_55,Education_Elementary_School,Lighting_yes,TV_yes,Cooking_no,Refrigeration_yes,3748.5036445837873,120.7564173400952,503.993839835729,342.05976521361407
170,170,sex_male,Urbanity_Urban,Size_5,age_66_75,Education_Elementary_School,Lighting_yes,TV_yes,Cooking_no,Refrigeration_no,3791.00410397388,81.89471057933778,503.993839835729,126.78295935647294
171,171,sex_female,Urbanity_Urban,Size_5,age_46_55,Education_Post_Secondary,Lighting_yes,TV_yes,Cooking_no,Refrigeration_no,7404.420627364492,75.77674502628395,503.993839835729,488.17258198612336
172,172,sex_female,Urbanity_Rural,Size_5,age_66_75,Education_High_School,Lighting_yes,TV_yes,Cooking_no,Refrigeration_no,3942.4283536023895,35.26514584761333,503.993839835729,335.87174012060103
173,173,sex_male,Urbanity_Urban,Size_5,age_56_65,Education_Post_Graduate,Lighting_yes,TV_yes,Cooking_no,Refrigeration_no,14516.329584330728,106.01739944949979,503.993839835729,88.90044828093481
174,174,sex_male,Urbanity_Urban,Size_7,age_26_35,Education_Elementary_School,Lighting_yes,TV_yes,Cooking_no,Refrigeration_yes,3708.09528725746,173.05115293059117,503.993839835729,605.3429216951067
175,175,sex_male,Urbanity_Urban,Size_4,age_66_75,Education_Post_Graduate,Lighting_yes,TV_yes,Cooking_no,Refrigeration_no,14261.32240714934,69.2759069419988,503.993839835729,244.5326033220117
176,176,sex_male,Urbanity_Urban,Size_5,age_66_75,Education_Elementary_School,Lighting_yes,TV_yes,Cooking_no,Refrigeration_yes,3921.1211266906407,140.1981067860384,503.993839835729,128.55332108683191
177,177,sex_female,Urbanity_Rural,Size_7,age_56_65,Education_High_School,Lighting_yes,TV_no,Cooking_no,Refrigeration_yes,4119.041438693126,88.55514964387388,503.993839835729,595.8978971034519
178,178,sex_female,Urbanity_Urban,Size_5,age_56_65,Education_Post_Secondary,Lighting_yes,TV_yes,Cooking_no,Refrigeration_yes,7531.518369023801,133.6566060899668,503.993839835729,255.30355001367906
179,179,sex_male,Urbanity_Urban,Size_5,age_56_65,Education_Elementary_School,Lighting_yes,TV_yes,Cooking_no,Refrigeration_yes,3768.302218566661,105.32641713869499,503.993839835729,107.42037151081169
180,180,sex_male,Urbanity_Rural,Size_5,age_46_55,Education_Post_Secondary,Lighting_yes,TV_yes,Cooking_no,Refrigeration_yes,6246.6630334677575,105.56980398326807,503.993839835729,614.5382738288553
181,181,sex_male,Urbanity_Urban,Size_3,age_56_65,Education_High_School,Lighting_yes,TV_yes,Cooking_no,Refrigeration_yes,4183.064273196525,146.86520363842138,503.993839835729,386.3235805305294
182,182,sex_male,Urbanity_Urban,Size_4,age_46_55,Education_Elementary_School,Lighting_yes,TV_yes,Cooking_yes,Refrigeration_no,3247.4627845187697,95.70625434370666,503.993839835729,457.2244182034407
183,183,sex_male,Urbanity_Urban,Size_5,age_46_55,Education_Elementary_School,Lighting_yes,TV_yes,Cooking_no,Refrigeration_no,3523.9978572261302,60.492348990820744,503.993839835729,340.2894034832551
184,184,sex_male,Urbanity_Urban,Size_9,age_46_55,Education_Post_Secondary,Lighting_yes,TV_yes,Cooking_no,Refrigeration_yes,8359.973143520143,157.8622685558168,503.993839835729,388.9889686524762
185,185,sex_female,Urbanity_Urban,Size_9,age_56_65,Education_Post_Secondary,Lighting_yes,TV_yes,Cooking_no,Refrigeration_yes,8715.841505948298,132.2547443633785,503.993839835729,167.419127891685
186,186,sex_male,Urbanity_Urban,Size_8,age_46_55,Education_Post_Secondary,Lighting_yes,TV_yes,Cooking_no,Refrigeration_no,8177.0999875711705,56.014487416462046,503.993839835729,349.77279855003394
187,187,sex_male,Urbanity_Urban,Size_7,age_36_45,Education_High_School,Lighting_yes,TV_yes,Cooking_no,Refrigeration_no,4836.4847878013625,124.79001463954106,503.993839835729,791.8164156176305
188,188,sex_female,Urbanity_Rural,Size_4,age_66_75,Education_Elementary_School,Lighting_yes,TV_yes,Cooking_no,Refrigeration_yes,2572.3902165811883,125.34751356623396,503.993839835729,413.78696254828424
189,189,sex_male,Urbanity_Rural,Size_6,age_56_65,Education_College,Lighting_yes,TV_yes,Cooking_no,Refrigeration_no,11722.246275239388,66.50796412267496,503.993839835729,162.6979095513751
191,191,sex_male,Urbanity_Rural,Size_5,age_36_45,Education_College,Lighting_yes,TV_yes,Cooking_no,Refrigeration_yes,11173.892263935393,46.49677465753162,503.993839835729,940.8634758547977
192,192,sex_male,Urbanity_Urban,Size_3,age_46_55,Education_Post_Graduate,Lighting_yes,TV_yes,Cooking_no,Refrigeration_no,13668.890729200206,52.58267476040554,503.993839835729,544.0887062357224
193,193,sex_male,Urbanity_Urban,Size_1,age_46_55,Education_Elementary_School,Lighting_yes,TV_yes,Cooking_no,Refrigeration_yes,2436.9543201234965,122.87850497869228,503.993839835729,127.11506310081226
194,194,sex_male,Urbanity_Urban,Size_2,age_56_65,Education_Elementary_School,Lighting_yes,TV_yes,Cooking_no,Refrigeration_no,2979.176128516277,72.68964529902019,503.993839835729,355.1497105043817
195,195,sex_male,Urbanity_Urban,Size_4,age_46_55,Education_Elementary_School,Lighting_yes,TV_yes,Cooking_no,Refrigeration_yes,3315.006839300312,126.85657348493059,503.993839835729,476.5589706786707
196,196,sex_male,Urbanity_Urban,Size_4,age_56_65,Education_Post_Secondary,Lighting_yes,TV_no,Cooking_no,Refrigeration_yes,7354.7446046097875,125.91265798759363,503.993839835729,545.0408935033145
197,197,sex_male,Urbanity_Rural,Size_7,age_56_65,Education_High_School,Lighting_yes,TV_yes,Cooking_no,Refrigeration_no,4184.264570904998,45.363557728801744,503.993839835729,412.7502914644929
198,198,sex_male,Urbanity_Urban,Size_7,age_56_65,Education_Elementary_School,Lighting_yes,TV_yes,Cooking_no,Refrigeration_yes,4225.443587577829,139.67142601656352,503.993839835729,218.50142537273445
199,199,sex_male,Urbanity_Urban,Size_2,age_46_55,Education_College,Lighting_yes,TV_yes,Cooking_no,Refrigeration_yes,11720.291872877102,98.37144921005086,503.993839835729,770.6066800196215
200,200,sex_male,Urbanity_Urban,Size_6,age_46_55,Education_Elementary_School,Lighting_yes,TV_yes,Cooking_no,Refrigeration_yes,3826.9472373552826,151.4500627089669,503.993839835729,82.3955678480723
201,201,sex_male,Urbanity_Urban,Size_7,age_46_55,Education_College,Lighting_yes,TV_no,Cooking_no,Refrigeration_no,12992.393197185414,68.57100076054111,503.993839835729,798.7253623938469
202,202,sex_male,Urbanity_Rural,Size_7,age_46_55,Education_High_School,Lighting_yes,TV_yes,Cooking_no,Refrigeration_no,3896.122618763336,32.5079818001485,503.993839835729,647.3896851672953
203,203,sex_female,Urbanity_Urban,Size_8,age_66_75,Education_Elementary_School,Lighting_no,TV_yes,Cooking_no,Refrigeration_no,4865.4369529716205,67.14800686199173,503.993839835729,571.0967887902318
204,204,sex_male,Urbanity_Urban,Size_2,age_46_55,Education_College,Lighting_yes,TV_yes,Cooking_no,Refrigeration_no,11541.1003392317,65.32535222102379,503.993839835729,768.8363182892633
205,205,sex_male,Urbanity_Urban,Size_3,age_36_45,Education_High_School,Lighting_yes,TV_yes,Cooking_no,Refrigeration_no,3931.911726945732,40.28176355179971,503.993839835729,901.2842260076931
206,206,sex_male,Urbanity_Urban,Size_3,age_36_45,Education_High_School,Lighting_yes,TV_yes,Cooking_no,Refrigeration_yes,3816.427734712019,161.66022302424804,503.993839835729,903.0545877380516
207,207,sex_male,Urbanity_Urban,Size_6,age_36_45,Education_High_School,Lighting_yes,TV_yes,Cooking_no,Refrigeration_no,4533.741949201672,33.54771367458621,503.993839835729,421.071164390166
208,208,sex_male,Urbanity_Urban,Size_6,age_46_55,Education_Elementary_School,Lighting_yes,TV_yes,Cooking_no,Refrigeration_no,3904.8752208037486,26.733829158877978,503.993839835729,80.6252061177138
209,209,sex_female,Urbanity_Rural,Size_7,age_56_65,Education_High_School,Lighting_yes,TV_yes,Cooking_no,Refrigeration_yes,4108.182798712235,117.1112558672674,503.993839835729,427.5902061368625
210,210,sex_male,Urbanity_Rural,Size_6,age_46_55,Education_Post_Secondary,Lighting_yes,TV_yes,Cooking_no,Refrigeration_no,6473.209620451086,26.53620788988833,503.993839835729,353.10371473295504
211,211,sex_male,Urbanity_Rural,Size_2,age_56_65,Education_High_School,Lighting_yes,TV_yes,Cooking_no,Refrigeration_yes,2727.008737962021,87.3252825422084,503.993839835729,552.9393000568572
212,212,sex_male,Urbanity_Urban,Size_3,age_26_35,Education_Post_Secondary,Lighting_yes,TV_yes,Cooking_no,Refrigeration_yes,6471.246643032479,116.1881961729714,503.993839835729,849.6243576460257
213,213,sex_male,Urbanity_Urban,Size_4,age_56_65,Education_Post_Graduate,Lighting_yes,TV_no,Cooking_no,Refrigeration_yes,13982.847135365624,144.38695148463742,503.993839835729,393.4777064429394
214,214,sex_female,Urbanity_Rural,Size_7,age_56_65,Education_High_School,Lighting_yes,TV_yes,Cooking_no,Refrigeration_no,4233.778680775368,38.75690507139613,503.993839835729,425.81984440650393
215,215,sex_male,Urbanity_Rural,Size_7,age_46_55,Education_Elementary_School,Lighting_yes,TV_yes,Cooking_no,Refrigeration_yes,2903.5330538923768,116.71185000892586,503.993839835729,590.8057021299213
216,216,sex_male,Urbanity_Urban,Size_5,age_56_65,Education_Elementary_School,Lighting_yes,TV_yes,Cooking_no,Refrigeration_yes,3637.823143697121,148.8072878124495,503.993839835729,107.42037151081169
217,217,sex_female,Urbanity_Urban,Size_6,age_46_55,Education_College,Lighting_yes,TV_yes,Cooking_no,Refrigeration_yes,12854.766414521953,150.94440712515728,503.993839835729,274.51233487216257
218,218,sex_male,Urbanity_Rural,Size_4,age_56_65,Education_Post_Secondary,Lighting_yes,TV_yes,Cooking_no,Refrigeration_yes,6134.23447062575,76.26292010101837,503.993839835729,514.3980855911095
219,219,sex_male,Urbanity_Rural,Size_3,age_46_55,Education_Post_Secondary,Lighting_yes,TV_yes,Cooking_no,Refrigeration_no,5715.946997299506,41.592265376882295,503.993839835729,833.3167763504822
220,220,sex_female,Urbanity_Rural,Size_3,age_46_55,Education_Post_Secondary,Lighting_yes,TV_yes,Cooking_no,Refrigeration_yes,5898.575752773904,122.72021298106621,503.993839835729,848.1566910228515
221,221,sex_male,Urbanity_Urban,Size_3,age_46_55,Education_High_School,Lighting_yes,TV_no,Cooking_no,Refrigeration_no,4005.666756159585,89.77596443255544,503.993839835729,787.5003034695627
222,222,sex_male,Urbanity_Urban,Size_8,age_46_55,Education_High_School,Lighting_yes,TV_no,Cooking_no,Refrigeration_yes,5341.047222336161,73.83864886809177,503.993839835729,443.39157045385764
223,223,sex_male,Urbanity_Urban,Size_4,age_36_45,Education_High_School,Lighting_yes,TV_yes,Cooking_no,Refrigeration_yes,4097.955969654284,145.86181760885646,503.993839835729,817.0049289511229
224,224,sex_female,Urbanity_Urban,Size_8,age_36_45,Education_Post_Secondary,Lighting_yes,TV_yes,Cooking_no,Refrigeration_yes,7963.132424986207,158.0559641702655,503.993839835729,646.7043267271238
225,225,sex_female,Urbanity_Urban,Size_9,age_46_55,Education_High_School,Lighting_yes,TV_yes,Cooking_no,Refrigeration_yes,5857.814204600751,161.56018146707137,503.993839835729,325.5992408013631
226,226,sex_male,Urbanity_Urban,Size_9,age_26_35,Education_High_School,Lighting_yes,TV_no,Cooking_no,Refrigeration_yes,5264.983270312381,120.88186329413729,503.993839835729,633.0394814455108
227,227,sex_male,Urbanity_Urban,Size_8,age_26_35,Education_Post_Secondary,Lighting_yes,TV_yes,Cooking_no,Refrigeration_no,7830.731458025507,96.99707451547302,503.993839835729,501.9749011696038
228,228,sex_male,Urbanity_Urban,Size_8,age_26_35,Education_College,Lighting_yes,TV_no,Cooking_no,Refrigeration_no,12710.928679366009,74.54972230183762,503.993839835729,714.5161806574158
229,229,sex_male,Urbanity_Urban,Size_8,age_36_45,Education_College,Lighting_yes,TV_yes,Cooking_no,Refrigeration_no,13149.920030521089,103.50102893856176,503.993839835729,676.0980005759762
230,230,sex_male,Urbanity_Urban,Size_8,age_56_65,Education_Post_Secondary,Lighting_yes,TV_yes,Cooking_no,Refrigeration_yes,8289.417188666423,126.37612803485024,503.993839835729,116.90376657759009
231,231,sex_male,Urbanity_Urban,Size_5,age_46_55,Education_Elementary_School,Lighting_yes,TV_no,Cooking_no,Refrigeration_yes,3560.961518094727,113.43804396403792,503.993839835729,510.3674561802034
232,232,sex_male,Urbanity_Rural,Size_6,age_46_55,Education_Elementary_School,Lighting_yes,TV_yes,Cooking_no,Refrigeration_yes,2701.6455816847856,73.57022821698338,503.993839835729,220.06045090245675
233,233,sex_male,Urbanity_Urban,Size_4,age_46_55,Education_Elementary_School,Lighting_yes,TV_yes,Cooking_no,Refrigeration_no,3224.754767045317,40.10044655990932,503.993839835729,474.78860894831223
234,234,sex_male,Urbanity_Urban,Size_5,age_46_55,Education_Post_Secondary,Lighting_yes,TV_yes,Cooking_no,Refrigeration_no,7343.7899637640685,93.56212030671198,503.993839835729,475.10302904411196
235,235,sex_female,Urbanity_Urban,Size_2,age_56_65,Education_High_School,Lighting_yes,TV_yes,Cooking_no,Refrigeration_yes,4002.6845154918587,112.86955283402071,503.993839835729,428.3439699444838
236,236,sex_male,Urbanity_Rural,Size_4,age_56_65,Education_Elementary_School,Lighting_yes,TV_yes,Cooking_no,Refrigeration_yes,2282.6314218241423,129.83912301263254,503.993839835729,379.58446003025284
237,237,sex_male,Urbanity_Urban,Size_4,age_46_55,Education_College,Lighting_yes,TV_yes,Cooking_no,Refrigeration_yes,12186.976813028685,130.49107520259798,503.993839835729,655.6061847607499
238,238,sex_male,Urbanity_Rural,Size_2,age_46_55,Education_Post_Secondary,Lighting_yes,TV_yes,Cooking_no,Refrigeration_yes,5557.276370454467,112.56723773294136,503.993839835729,864.0379745527838
239,239,sex_male,Urbanity_Urban,Size_4,age_56_65,Education_College,Lighting_yes,TV_yes,Cooking_no,Refrigeration_yes,12481.69149466696,181.58086917308273,503.993839835729,420.9667910579475
240,240,sex_male,Urbanity_Urban,Size_5,age_46_55,Education_Post_Graduate,Lighting_yes,TV_yes,Cooking_no,Refrigeration_no,14162.815641387731,76.16836376272059,503.993839835729,323.5398419837372
242,242,sex_male,Urbanity_Urban,Size_5,age_56_65,Education_High_School,Lighting_yes,TV_no,Cooking_no,Refrigeration_yes,4922.312861484098,155.56476896005734,503.993839835729,334.082407245133
243,243,sex_male,Urbanity_Rural,Size_5,age_26_35,Education_College,Lighting_yes,TV_yes,Cooking_no,Refrigeration_no,10968.523564149682,72.49111170228524,503.993839835729,809.2036032392889
244,244,sex_male,Urbanity_Urban,Size_4,age_46_55,Education_Elementary_School,Lighting_yes,TV_yes,Cooking_no,Refrigeration_no,3234.229079363735,36.383972807868304,503.993839835729,474.78860894831223
245,245,sex_male,Urbanity_Urban,Size_4,age_26_35,Education_Elementary_School,Lighting_yes,TV_yes,Cooking_no,Refrigeration_yes,2995.1533802743293,103.47883741426182,503.993839835729,628.7610732982407
246,246,sex_male,Urbanity_Urban,Size_2,age_56_65,Education_High_School,Lighting_yes,TV_yes,Cooking_no,Refrigeration_yes,3882.673745241101,138.31868625166848,503.993839835729,415.2744170024726
247,247,sex_male,Urbanity_Urban,Size_1,age_66_75,Education_Elementary_School,Lighting_yes,TV_no,Cooking_no,Refrigeration_no,2928.0280981973688,56.421247451398465,503.993839835729,80.14594821026105
250,250,sex_male,Urbanity_Rural,Size_9,age_46_55,Education_College,Lighting_yes,TV_yes,Cooking_no,Refrigeration_no,12367.536385362771,36.24108047258316,503.993839835729,569.1170784977247
251,251,sex_female,Urbanity_Urban,Size_7,age_66_75,Education_Elementary_School,Lighting_yes,TV_yes,Cooking_no,Refrigeration_no,4555.838589284426,50.21065096008672,503.993839835729,250.93356616040728
252,252,sex_female,Urbanity_Urban,Size_8,age_36_45,Education_Elementary_School,Lighting_yes,TV_yes,Cooking_no,Refrigeration_no,4268.556215337669,108.06695340225723,503.993839835729,510.12033943590814
253,253,sex_male,Urbanity_Urban,Size_5,age_46_55,Education_Post_Graduate,Lighting_yes,TV_no,Cooking_no,Refrigeration_no,14242.14795770499,48.50275409988325,503.993839835729,491.8475329503265
254,254,sex_male,Urbanity_Urban,Size_4,age_46_55,Education_Elementary_School,Lighting_yes,TV_yes,Cooking_no,Refrigeration_no,3235.7416286489256,12.655645527896555,503.993839835729,474.78860894831223
255,255,sex_female,Urbanity_Urban,Size_4,age_56_65,Education_Post_Graduate,Lighting_yes,TV_yes,Cooking_no,Refrigeration_yes,14107.280253868244,198.00418396237998,503.993839835729,238.2395684183611
256,256,sex_female,Urbanity_Urban,Size_4,age_36_45,Education_High_School,Lighting_yes,TV_yes,Cooking_no,Refrigeration_yes,4335.743518896079,147.0100894950163,503.993839835729,830.074481893134
257,257,sex_male,Urbanity_Urban,Size_4,age_66_75,Education_High_School,Lighting_yes,TV_yes,Cooking_no,Refrigeration_no,4697.6129236604,78.17600040830898,503.993839835729,319.6365095892625
258,258,sex_male,Urbanity_Urban,Size_3,age_36_45,Education_Post_Secondary,Lighting_yes,TV_yes,Cooking_no,Refrigeration_no,6654.699150689364,73.30566282979255,503.993839835729,977.7435068008176
259,259,sex_male,Urbanity_Urban,Size_4,age_46_55,Education_Elementary_School,Lighting_yes,TV_yes,Cooking_no,Refrigeration_yes,3319.2132834315466,84.25227735182744,503.993839835729,476.5589706786707
260,260,sex_male,Urbanity_Rural,Size_5,age_56_65,Education_Post_Secondary,Lighting_yes,TV_no,Cooking_no,Refrigeration_yes,6339.876518199738,92.04502432255094,503.993839835729,548.2065710926422
261,261,sex_male,Urbanity_Urban,Size_5,age_46_55,Education_Post_Secondary,Lighting_yes,TV_yes,Cooking_no,Refrigeration_yes,7423.116117022506,161.10592762224854,503.993839835729,476.8733907744708
262,262,sex_male,Urbanity_Urban,Size_5,age_46_55,Education_College,Lighting_yes,TV_yes,Cooking_no,Refrigeration_yes,12428.301531790601,127.30383799323354,503.993839835729,521.1069792956932
263,263,sex_male,Urbanity_Rural,Size_5,age_56_65,Education_Post_Graduate,Lighting_yes,TV_yes,Cooking_no,Refrigeration_yes,13239.471448311811,101.7671353080535,503.993839835729,228.3356930656773
264,264,sex_male,Urbanity_Urban,Size_5,age_36_45,Education_Post_Secondary,Lighting_yes,TV_yes,Cooking_no,Refrigeration_yes,7179.272259926271,127.47049560168823,503.993839835729,758.9650042791906
265,265,sex_male,Urbanity_Rural,Size_6,age_66_75,Education_Post_Secondary,Lighting_yes,TV_yes,Cooking_no,Refrigeration_no,6914.120875716668,60.35074059526348,503.993839835729,139.59727060617286
266,266,sex_female,Urbanity_Urban,Size_5,age_56_65,Education_Elementary_School,Lighting_yes,TV_yes,Cooking_no,Refrigeration_no,3813.954249910825,59.14520532682224,503.993839835729,118.71956272246429
267,267,sex_male,Urbanity_Urban,Size_4,age_46_55,Education_High_School,Lighting_yes,TV_yes,Cooking_no,Refrigeration_no,4130.407356369321,75.24808682856266,503.993839835729,533.1429537160446
268,268,sex_male,Urbanity_Urban,Size_4,age_46_55,Education_High_School,Lighting_yes,TV_yes,Cooking_no,Refrigeration_no,4331.946068505483,88.19092389452958,503.993839835729,533.1429537160446
269,269,sex_male,Urbanity_Urban,Size_5,age_56_65,Education_College,Lighting_yes,TV_yes,Cooking_no,Refrigeration_no,12640.434456586103,60.8247520552462,503.993839835729,284.69722386253187
271,271,sex_female,Urbanity_Urban,Size_1,age_56_65,Education_College,Lighting_yes,TV_yes,Cooking_no,Refrigeration_yes,11636.291881802856,162.7258906196631,503.993839835729,84.59243642210019
272,272,sex_male,Urbanity_Rural,Size_1,age_46_55,Education_Elementary_School,Lighting_yes,TV_yes,Cooking_no,Refrigeration_yes,1308.9435522395324,86.32588170970921,503.993839835729,264.77994615519674
273,273,sex_male,Urbanity_Urban,Size_2,age_56_65,Education_Post_Graduate,Lighting_yes,TV_yes,Cooking_no,Refrigeration_yes,13501.60740215541,167.45900906616237,503.993839835729,340.17051073522185
274,274,sex_male,Urbanity_Urban,Size_2,age_46_55,Education_Post_Secondary,Lighting_yes,TV_yes,Cooking_no,Refrigeration_no,6529.098538644987,57.76645168715766,503.993839835729,724.6027297680407
275,275,sex_female,Urbanity_Urban,Size_2,age_36_45,Education_Elementary_School,Lighting_yes,TV_yes,Cooking_no,Refrigeration_yes,2703.306626218785,99.26958546092764,503.993839835729,886.7206323842734
276,276,sex_male,Urbanity_Urban,Size_3,age_66_75,Education_College,Lighting_yes,TV_yes,Cooking_no,Refrigeration_yes,12254.342277122681,137.29271764279838,503.993839835729,528.1493994208963
277,277,sex_male,Urbanity_Urban,Size_2,age_56_65,Education_Elementary_School,Lighting_yes,TV_yes,Cooking_no,Refrigeration_no,2935.850028264103,57.77160346023695,503.993839835729,355.1497105043817
278,278,sex_male,Urbanity_Urban,Size_10,age_46_55,Education_Post_Secondary,Lighting_yes,TV_yes,Cooking_no,Refrigeration_yes,8613.009273993956,143.86534335401657,503.993839835729,800.4883538923954
279,279,sex_male,Urbanity_Urban,Size_5,age_56_65,Education_Elementary_School,Lighting_yes,TV_yes,Cooking_no,Refrigeration_yes,3701.210897862005,119.55183350335705,503.993839835729,107.42037151081169
280,280,sex_male,Urbanity_Urban,Size_5,age_56_65,Education_College,Lighting_yes,TV_yes,Cooking_no,Refrigeration_yes,12739.410277107325,165.61074789664647,503.993839835729,286.4675855928908
281,281,sex_male,Urbanity_Urban,Size_6,age_36_45,Education_College,Lighting_yes,TV_yes,Cooking_no,Refrigeration_no,12511.713962005959,88.30876091124539,503.993839835729,541.7640337045127
282,282,sex_male,Urbanity_Urban,Size_5,age_36_45,Education_High_School,Lighting_yes,TV_yes,Cooking_no,Refrigeration_no,4382.70385567343,69.09284845795648,503.993839835729,680.7353617557078
283,283,sex_male,Urbanity_Rural,Size_7,age_56_65,Education_College,Lighting_yes,TV_yes,Cooking_no,Refrigeration_no,11993.218607875464,43.41792910077499,503.993839835729,533.4431607788397
284,284,sex_female,Urbanity_Urban,Size_2,age_46_55,Education_Elementary_School,Lighting_yes,TV_yes,Cooking_no,Refrigeration_no,2858.5803448334354,59.660021998727544,503.993839835729,602.8586571491952
285,285,sex_male,Urbanity_Urban,Size_2,age_56_65,Education_Post_Secondary,Lighting_yes,TV_yes,Cooking_no,Refrigeration_no,6764.280923303985,50.50703731797842,503.993839835729,489.96333606523837
286,286,sex_male,Urbanity_Rural,Size_4,age_46_55,Education_Post_Graduate,Lighting_yes,TV_no,Cooking_no,Refrigeration_no,12892.292699671532,12.038368565357027,503.993839835729,764.0116214697678
287,287,sex_female,Urbanity_Urban,Size_8,age_26_35,Education_College,Lighting_yes,TV_yes,Cooking_no,Refrigeration_yes,13005.48407630191,168.7562229326777,503.993839835729,561.0484043631959
288,288,sex_male,Urbanity_Urban,Size_9,age_56_65,Education_College,Lighting_yes,TV_yes,Cooking_no,Refrigeration_yes,13637.344038969983,155.20603575818382,503.993839835729,198.5831634708963
289,289,sex_male,Urbanity_Urban,Size_5,age_36_45,Education_College,Lighting_yes,TV_yes,Cooking_no,Refrigeration_yes,12312.44134246959,159.2889420868107,503.993839835729,803.1985928004129
290,290,sex_female,Urbanity_Urban,Size_5,age_26_35,Education_College,Lighting_yes,TV_yes,Cooking_no,Refrigeration_yes,12284.557040472764,153.78756865333426,503.993839835729,686.3786348572743
291,291,sex_female,Urbanity_Urban,Size_2,age_36_45,Education_High_School,Lighting_yes,TV_yes,Cooking_no,Refrigeration_yes,3675.055297503957,109.09341877158779,503.993839835729,945.0749771520061
292,292,sex_female,Urbanity_Urban,Size_2,age_76_85,Education_Elementary_School,Lighting_yes,TV_yes,Cooking_no,Refrigeration_yes,3390.2731126481312,148.34736476455637,503.993839835729,300.46582521568354
293,293,sex_male,Urbanity_Urban,Size_2,age_46_55,Education_Post_Graduate,Lighting_yes,TV_yes,Cooking_no,Refrigeration_yes,13454.047883799622,121.40483141409929,503.993839835729,574.8099044380242
294,294,sex_male,Urbanity_Urban,Size_4,age_36_45,Education_Elementary_School,Lighting_yes,TV_yes,Cooking_no,Refrigeration_no,3122.888267798707,67.84274349259994,503.993839835729,756.8802224530319
295,295,sex_male,Urbanity_Urban,Size_3,age_66_75,Education_College,Lighting_yes,TV_yes,Cooking_no,Refrigeration_no,12278.599630049717,77.56728092069109,503.993839835729,526.3790376905379
296,296,sex_female,Urbanity_Urban,Size_2,age_46_55,Education_Elementary_School,Lighting_yes,TV_yes,Cooking_no,Refrigeration_yes,3032.848755548011,140.65686014600152,503.993839835729,604.6290188795538
297,297,sex_male,Urbanity_Urban,Size_4,age_56_65,Education_High_School,Lighting_yes,TV_yes,Cooking_no,Refrigeration_no,4474.006256432296,50.29757226782115,503.993839835729,298.50356001324224
298,298,sex_male,Urbanity_Urban,Size_6,age_46_55,Education_High_School,Lighting_yes,TV_yes,Cooking_no,Refrigeration_yes,4800.43990375195,136.07299591522968,503.993839835729,140.7499126158047
299,299,sex_male,Urbanity_Urban,Size_3,age_66_75,Education_Post_Secondary,Lighting_yes,TV_yes,Cooking_no,Refrigeration_yes,7189.753486574481,154.30229503986902,503.993839835729,483.91581089967394
300,300,sex_male,Urbanity_Urban,Size_3,age_36_45,Education_Post_Secondary,Lighting_yes,TV_yes,Cooking_no,Refrigeration_yes,6523.995064437135,155.41606903031123,503.993839835729,979.5138685311763
301,301,sex_male,Urbanity_Urban,Size_6,age_66_75,Education_High_School,Lighting_no,TV_yes,Cooking_no,Refrigeration_no,5066.458003343202,67.09370561541145,503.993839835729,482.0476137444898
302,302,sex_male,Urbanity_Urban,Size_5,age_66_75,Education_Post_Secondary,Lighting_yes,TV_yes,Cooking_no,Refrigeration_no,7763.13946744544,106.83179633333948,503.993839835729,261.59658491732966
303,303,sex_female,Urbanity_Urban,Size_3,age_56_65,Education_Elementary_School,Lighting_yes,TV_yes,Cooking_no,Refrigeration_no,3475.288771428273,102.96223554386852,503.993839835729,339.2684269744496
304,304,sex_male,Urbanity_Rural,Size_3,age_36_45,Education_Elementary_School,Lighting_yes,TV_yes,Cooking_no,Refrigeration_no,1627.5108155980074,31.37816561882705,503.993839835729,980.5947642943449
305,305,sex_female,Urbanity_Urban,Size_6,age_36_45,Education_High_School,Lighting_yes,TV_yes,Cooking_no,Refrigeration_no,4689.613681064389,63.91037417389165,503.993839835729,434.14071733217713
307,307,sex_male,Urbanity_Urban,Size_3,age_46_55,Education_High_School,Lighting_yes,TV_yes,Cooking_no,Refrigeration_yes,4030.6258312382497,122.8027255460222,503.993839835729,620.9629742333318
308,308,sex_male,Urbanity_Urban,Size_4,age_36_45,Education_Elementary_School,Lighting_yes,TV_yes,Cooking_no,Refrigeration_yes,3117.087427472015,129.0926925200605,503.993839835729,758.6505841833905
309,309,sex_male,Urbanity_Urban,Size_7,age_76_85,Education_College,Lighting_yes,TV_yes,Cooking_no,Refrigeration_no,13464.228043631441,132.58877019160613,503.993839835729,326.2544777633873
310,310,sex_male,Urbanity_Urban,Size_4,age_56_65,Education_College,Lighting_yes,TV_yes,Cooking_no,Refrigeration_no,12434.212283837722,87.3843733275277,503.993839835729,419.19642932758893
311,311,sex_male,Urbanity_Rural,Size_3,age_46_55,Education_High_School,Lighting_yes,TV_yes,Cooking_no,Refrigeration_yes,2852.311063165918,100.80089404730025,503.993839835729,758.6278572877162
312,312,sex_male,Urbanity_Urban,Size_5,age_46_55,Education_High_School,Lighting_yes,TV_yes,Cooking_no,Refrigeration_yes,4510.724451305348,129.73079090223072,503.993839835729,400.414109981346
313,313,sex_male,Urbanity_Urban,Size_1,age_46_55,Education_Elementary_School,Lighting_yes,TV_yes,Cooking_no,Refrigeration_yes,2435.387074474364,149.89725381247885,503.993839835729,127.11506310081226
314,314,sex_male,Urbanity_Urban,Size_3,age_36_45,Education_College,Lighting_yes,TV_yes,Cooking_no,Refrigeration_yes,11673.292602156209,177.44790396049615,503.993839835729,1023.7474570523984
315,315,sex_male,Urbanity_Rural,Size_3,age_26_35,Education_Elementary_School,Lighting_yes,TV_yes,Cooking_no,Refrigeration_yes,1494.74700301633,175.93826234781662,503.993839835729,852.4756151395537
317,317,sex_male,Urbanity_Rural,Size_5,age_66_75,Education_College,Lighting_yes,TV_yes,Cooking_yes,Refrigeration_no,11657.51008248567,87.02342898712887,503.993839835729,425.9308657480656
318,318,sex_female,Urbanity_Urban,Size_5,age_36_45,Education_Elementary_School,Lighting_yes,TV_yes,Cooking_no,Refrigeration_yes,3517.6164725276008,147.47992281491034,503.993839835729,637.2209316603445
319,319,sex_male,Urbanity_Urban,Size_4,age_76_85,Education_Elementary_School,Lighting_yes,TV_yes,Cooking_no,Refrigeration_yes,3942.748295614503,130.11758887047628,503.993839835729,172.39577701480044
320,320,sex_female,Urbanity_Rural,Size_1,age_36_45,Education_College,Lighting_yes,TV_yes,Cooking_no,Refrigeration_no,10140.25850977473,44.61264855723792,503.993839835729,737.2179649536482
321,321,sex_female,Urbanity_Rural,Size_3,age_46_55,Education_High_School,Lighting_yes,TV_yes,Cooking_no,Refrigeration_no,3084.531720118617,14.50402841673015,503.993839835729,769.9270484993689
322,322,sex_male,Urbanity_Rural,Size_3,age_66_75,Education_High_School,Lighting_yes,TV_yes,Cooking_no,Refrigeration_no,3289.6502966991616,48.66853764846418,503.993839835729,543.3510514305757
323,323,sex_male,Urbanity_Urban,Size_3,age_46_55,Education_Post_Graduate,Lighting_yes,TV_yes,Cooking_no,Refrigeration_yes,13752.076333773808,143.83227144651536,503.993839835729,545.8590679660808
324,324,sex_male,Urbanity_Urban,Size_4,age_36_45,Education_College,Lighting_yes,TV_yes,Cooking_no,Refrigeration_yes,11922.317546822158,193.1551510358676,503.993839835729,937.6977982654697
325,325,sex_male,Urbanity_Urban,Size_4,age_36_45,Education_College,Lighting_yes,TV_yes,Cooking_no,Refrigeration_yes,11989.931220858125,181.571419942236,503.993839835729,937.6977982654697
326,326,sex_male,Urbanity_Urban,Size_3,age_36_45,Education_Elementary_School,Lighting_yes,TV_yes,Cooking_no,Refrigeration_no,2819.4876623257514,27.066966231845456,503.993839835729,842.9298812399604
327,327,sex_male,Urbanity_Urban,Size_3,age_26_35,Education_Elementary_School,Lighting_yes,TV_yes,Cooking_no,Refrigeration_yes,2648.711427726504,88.3187651955559,503.993839835729,714.8107320851692
328,328,sex_female,Urbanity_Urban,Size_1,age_66_75,Education_College,Lighting_yes,TV_yes,Cooking_no,Refrigeration_yes,11887.965473959017,172.8009400128229,503.993839835729,105.72538599812044
329,329,sex_male,Urbanity_Urban,Size_1,age_46_55,Education_Post_Secondary,Lighting_yes,TV_no,Cooking_no,Refrigeration_yes,6362.20574772838,123.58412807434912,503.993839835729,430.23637962825836
330,330,sex_male,Urbanity_Urban,Size_6,age_46_55,Education_Post_Secondary,Lighting_yes,TV_yes,Cooking_no,Refrigeration_no,7635.05848772772,74.41534871297506,503.993839835729,215.4388316785705
331,331,sex_female,Urbanity_Urban,Size_6,age_66_75,Education_Post_Secondary,Lighting_yes,TV_yes,Cooking_no,Refrigeration_yes,7937.625388121099,188.60009305107042,503.993839835729,16.772302224158004
332,332,sex_male,Urbanity_Urban,Size_6,age_26_35,Education_College,Lighting_yes,TV_no,Cooking_no,Refrigeration_yes,12405.132794789854,88.92516371095063,503.993839835729,581.9525755163106
333,333,sex_male,Urbanity_Urban,Size_6,age_46_55,Education_Post_Secondary,Lighting_yes,TV_yes,Cooking_no,Refrigeration_no,7688.673608010793,92.9876454651232,503.993839835729,215.4388316785705
334,334,sex_male,Urbanity_Urban,Size_6,age_46_55,Education_College,Lighting_yes,TV_yes,Cooking_no,Refrigeration_yes,12576.856702532292,187.7033858272484,503.993839835729,261.44278193015145
335,335,sex_male,Urbanity_Urban,Size_8,age_46_55,Education_College,Lighting_yes,TV_yes,Cooking_no,Refrigeration_yes,13154.602597667648,138.441609665793,503.993839835729,395.776748801615
337,337,sex_male,Urbanity_Urban,Size_6,age_36_45,Education_College,Lighting_yes,TV_yes,Cooking_no,Refrigeration_yes,12507.06304717832,183.5587397868197,503.993839835729,543.5343954348713
338,338,sex_female,Urbanity_Urban,Size_6,age_46_55,Education_Elementary_School,Lighting_yes,TV_yes,Cooking_no,Refrigeration_no,4079.914780188432,88.188663713434,503.993839835729,93.6947590597249
339,339,sex_female,Urbanity_Urban,Size_6,age_66_75,Education_Post_Secondary,Lighting_yes,TV_yes,Cooking_no,Refrigeration_no,7962.825074797429,81.9770587340862,503.993839835729,15.001940493799513
340,340,sex_male,Urbanity_Urban,Size_6,age_46_55,Education_High_School,Lighting_yes,TV_yes,Cooking_no,Refrigeration_no,4739.026669309461,93.13786888363843,503.993839835729,138.9795508854462
341,341,sex_male,Urbanity_Urban,Size_6,age_36_45,Education_Post_Secondary,Lighting_yes,TV_yes,Cooking_no,Refrigeration_yes,7448.590942371175,134.81154496443136,503.993839835729,499.30080691364924
343,343,sex_male,Urbanity_Urban,Size_6,age_66_75,Education_Post_Secondary,Lighting_yes,TV_yes,Cooking_no,Refrigeration_yes,7910.556044070088,103.19912087182254,503.993839835729,3.7027492821468915
344,344,sex_male,Urbanity_Urban,Size_4,age_56_65,Education_Elementary_School,Lighting_yes,TV_yes,Cooking_no,Refrigeration_no,3565.767757873003,79.26093507239237,503.993839835729,240.14921524550982
345,345,sex_male,Urbanity_Urban,Size_3,age_56_65,Education_Elementary_School,Lighting_yes,TV_yes,Cooking_no,Refrigeration_no,3208.6770077830847,46.26390386234952,503.993839835729,326.19887403243837
346,346,sex_male,Urbanity_Urban,Size_3,age_66_75,Education_Elementary_School,Lighting_yes,TV_yes,Cooking_no,Refrigeration_yes,3477.663857207895,110.55672422241454,503.993839835729,349.1021853388172
347,347,sex_male,Urbanity_Urban,Size_3,age_46_55,Education_Elementary_School,Lighting_yes,TV_yes,Cooking_no,Refrigeration_yes,3104.7432137461187,101.25871686417094,503.993839835729,562.6086294655993
348,348,sex_male,Urbanity_Urban,Size_2,age_66_75,Education_Post_Secondary,Lighting_yes,TV_yes,Cooking_no,Refrigeration_no,6849.311524956413,49.26189997560449,503.993839835729,511.0962856412587
349,349,sex_male,Urbanity_Urban,Size_4,age_76_85,Education_Post_Secondary,Lighting_yes,TV_yes,Cooking_no,Refrigeration_no,7626.171214518921,39.90800043989422,503.993839835729,305.4390408452988
350,350,sex_female,Urbanity_Urban,Size_5,age_46_55,Education_High_School,Lighting_yes,TV_yes,Cooking_no,Refrigeration_yes,4687.586090133687,143.3879056442709,503.993839835729,413.4836629233576
351,351,sex_male,Urbanity_Urban,Size_5,age_66_75,Education_Elementary_School,Lighting_yes,TV_yes,Cooking_no,Refrigeration_no,3951.917610169479,47.513352938471975,503.993839835729,126.78295935647294
352,352,sex_male,Urbanity_Urban,Size_4,age_36_45,Education_Elementary_School,Lighting_yes,TV_yes,Cooking_no,Refrigeration_yes,3203.219969728995,154.30125036861168,503.993839835729,758.6505841833905
353,353,sex_male,Urbanity_Rural,Size_7,age_66_75,Education_Elementary_School,Lighting_yes,TV_yes,Cooking_no,Refrigeration_yes,3374.9896326246026,61.14702552438094,503.993839835729,377.2992580031392
354,354,sex_female,Urbanity_Urban,Size_7,age_56_65,Education_Post_Secondary,Lighting_yes,TV_yes,Cooking_no,Refrigeration_no,8173.130681340774,83.2932240842385,503.993839835729,364.61424214524385
355,355,sex_male,Urbanity_Urban,Size_6,age_26_35,Education_High_School,Lighting_yes,TV_yes,Cooking_no,Refrigeration_yes,4409.9194002703025,128.7115557114649,503.993839835729,292.95201523537406
356,356,sex_male,Urbanity_Urban,Size_6,age_26_35,Education_Elementary_School,Lighting_yes,TV_yes,Cooking_no,Refrigeration_yes,3410.246670447258,127.5822188117436,503.993839835729,234.59767046764213
357,357,sex_male,Urbanity_Urban,Size_5,age_66_75,Education_High_School,Lighting_yes,TV_yes,Cooking_no,Refrigeration_yes,4734.38660440989,129.76838525930935,503.993839835729,186.907665854564
358,358,sex_male,Urbanity_Rural,Size_3,age_56_65,Education_College,Lighting_yes,TV_yes,Cooking_no,Refrigeration_no,10981.202326419409,49.702825009133605,503.993839835729,642.9109711689023
359,359,sex_male,Urbanity_Urban,Size_3,age_26_35,Education_Post_Graduate,Lighting_yes,TV_yes,Cooking_no,Refrigeration_no,13347.855125873515,96.72784740447266,503.993839835729,696.2908088552917
360,360,sex_male,Urbanity_Urban,Size_5,age_46_55,Education_College,Lighting_yes,TV_yes,Cooking_no,Refrigeration_no,12303.990255016404,83.89572501646465,503.993839835729,519.3366175653342
361,361,sex_male,Urbanity_Rural,Size_7,age_46_55,Education_College,Lighting_yes,TV_yes,Cooking_no,Refrigeration_no,11833.51950985481,26.938040155464314,503.993839835729,768.082554481642
362,362,sex_male,Urbanity_Urban,Size_1,age_46_55,Education_Post_Secondary,Lighting_yes,TV_yes,Cooking_no,Refrigeration_no,6341.93929683356,67.76659341185815,503.993839835729,260.15832693131046
363,363,sex_male,Urbanity_Urban,Size_6,age_46_55,Education_Post_Secondary,Lighting_yes,TV_yes,Cooking_no,Refrigeration_no,7473.409589982086,79.43565647575228,503.993839835729,215.4388316785705
364,364,sex_female,Urbanity_Urban,Size_8,age_56_65,Education_High_School,Lighting_yes,TV_yes,Cooking_no,Refrigeration_no,5679.408983751872,93.47059142440256,503.993839835729,51.743676996118424
365,365,sex_female,Urbanity_Urban,Size_7,age_66_75,Education_College,Lighting_yes,TV_yes,Cooking_no,Refrigeration_yes,13358.708188317307,146.93274676460913,503.993839835729,431.751141972845
366,366,sex_male,Urbanity_Urban,Size_8,age_36_45,Education_High_School,Lighting_yes,TV_yes,Cooking_no,Refrigeration_yes,5196.453912981083,163.09174351424326,503.993839835729,557.1754929919879
367,367,sex_female,Urbanity_Urban,Size_7,age_46_55,Education_College,Lighting_yes,TV_yes,Cooking_no,Refrigeration_yes,13029.421087996936,138.33037504803164,503.993839835729,645.2575860996271
368,368,sex_female,Urbanity_Rural,Size_9,age_66_75,Education_Elementary_School,Lighting_yes,TV_yes,Cooking_no,Refrigeration_yes,4117.922644084267,140.09827338101576,503.993839835729,191.40333496123299
369,369,sex_female,Urbanity_Urban,Size_5,age_66_75,Education_Post_Secondary,Lighting_yes,TV_yes,Cooking_yes,Refrigeration_no,7701.454266037594,101.90623306914871,503.993839835729,257.1019471144693
370,370,sex_male,Urbanity_Urban,Size_5,age_46_55,Education_Post_Secondary,Lighting_yes,TV_no,Cooking_no,Refrigeration_no,7366.410323394282,71.32015035037787,503.993839835729,643.4107200107012
371,371,sex_male,Urbanity_Urban,Size_5,age_46_55,Education_High_School,Lighting_yes,TV_yes,Cooking_no,Refrigeration_no,4479.730879103208,89.189372324225,503.993839835729,398.643748250988
373,373,sex_female,Urbanity_Urban,Size_6,age_46_55,Education_Post_Secondary,Lighting_yes,TV_yes,Cooking_no,Refrigeration_yes,7820.465142214058,159.490287656508,503.993839835729,230.27874635094014
374,374,sex_male,Urbanity_Urban,Size_8,age_56_65,Education_Post_Secondary,Lighting_yes,TV_yes,Cooking_no,Refrigeration_yes,8222.600803145522,139.1545400857423,503.993839835729,116.90376657759009
375,375,sex_male,Urbanity_Urban,Size_9,age_56_65,Education_Post_Secondary,Lighting_yes,TV_yes,Cooking_no,Refrigeration_no,8595.46400507693,94.35426094842218,503.993839835729,152.57921321931542
376,376,sex_male,Urbanity_Urban,Size_9,age_36_45,Education_Elementary_School,Lighting_yes,TV_yes,Cooking_no,Refrigeration_yes,4420.58572553294,94.69496875843544,503.993839835729,536.2669565963392
377,377,sex_male,Urbanity_Urban,Size_5,age_46_55,Education_Post_Secondary,Lighting_yes,TV_no,Cooking_no,Refrigeration_no,7214.515330076618,46.38582353914176,503.993839835729,643.4107200107012
378,378,sex_male,Urbanity_Urban,Size_5,age_36_45,Education_Elementary_School,Lighting_yes,TV_yes,Cooking_no,Refrigeration_yes,3359.1769491066643,143.3140802221249,503.993839835729,624.1513787183337
379,379,sex_male,Urbanity_Urban,Size_6,age_76_85,Education_College,Lighting_yes,TV_no,Cooking_no,Refrigeration_yes,13237.28589144644,120.35587334142252,503.993839835729,125.5872792328707
380,380,sex_male,Urbanity_Urban,Size_5,age_46_55,Education_Elementary_School,Lighting_yes,TV_yes,Cooking_no,Refrigeration_yes,3470.3543448323876,142.15537196099234,503.993839835729,342.05976521361407
381,381,sex_male,Urbanity_Rural,Size_5,age_26_35,Education_Post_Secondary,Lighting_yes,TV_no,Cooking_no,Refrigeration_no,5810.57132909842,32.505829544558,503.993839835729,933.2777056846561
382,382,sex_female,Urbanity_Urban,Size_2,age_46_55,Education_Elementary_School,Lighting_yes,TV_yes,Cooking_no,Refrigeration_yes,2974.0650692224353,136.13941953928878,503.993839835729,604.6290188795538
383,383,sex_male,Urbanity_Urban,Size_1,age_46_55,Education_Elementary_School,Lighting_yes,TV_no,Cooking_no,Refrigeration_yes,2581.9717016653985,114.68979896838566,503.993839835729,295.4227540674017
384,384,sex_male,Urbanity_Urban,Size_1,age_36_45,Education_Post_Secondary,Lighting_yes,TV_yes,Cooking_no,Refrigeration_yes,6155.147009461687,149.79748647782574,503.993839835729,544.0203021663891
386,386,sex_male,Urbanity_Urban,Size_4,age_46_55,Education_Elementary_School,Lighting_yes,TV_yes,Cooking_no,Refrigeration_no,3355.0951346163647,39.4611393717736,503.993839835729,474.78860894831223
387,387,sex_male,Urbanity_Urban,Size_2,age_36_45,Education_Elementary_School,Lighting_yes,TV_yes,Cooking_no,Refrigeration_no,2609.7784346828507,83.85284545194546,503.993839835729,871.8807177119037
388,388,sex_male,Urbanity_Urban,Size_2,age_56_65,Education_High_School,Lighting_yes,TV_yes,Cooking_no,Refrigeration_yes,3863.7110560726833,172.47316455620324,503.993839835729,415.2744170024726
389,389,sex_male,Urbanity_Rural,Size_2,age_56_65,Education_Post_Secondary,Lighting_yes,TV_yes,Cooking_yes,Refrigeration_no,5658.044537470872,76.99219213051478,503.993839835729,610.0640283747514
391,391,sex_male,Urbanity_Rural,Size_4,age_66_75,Education_Post_Secondary,Lighting_yes,TV_yes,Cooking_no,Refrigeration_yes,6267.13229138283,131.83509923041612,503.993839835729,535.5310351671299
392,392,sex_male,Urbanity_Urban,Size_4,age_19_25,Education_High_School,Lighting_yes,TV_yes,Cooking_no,Refrigeration_no,3698.765220746136,54.59976760671874,503.993839835729,2691.479233084163
393,393,sex_male,Urbanity_Urban,Size_4,age_56_65,Education_High_School,Lighting_yes,TV_yes,Cooking_no,Refrigeration_yes,4467.537751919649,148.46383103978985,503.993839835729,300.2739217436008
394,394,sex_male,Urbanity_Urban,Size_5,age_46_55,Education_Elementary_School,Lighting_yes,TV_yes,Cooking_no,Refrigeration_yes,3627.4212639026673,145.34341039945699,503.993839835729,342.05976521361407
395,395,sex_male,Urbanity_Urban,Size_2,age_56_65,Education_High_School,Lighting_yes,TV_yes,Cooking_no,Refrigeration_yes,4009.950555207317,117.61086842162531,503.993839835729,415.2744170024726
396,396,sex_female,Urbanity_Urban,Size_5,age_56_65,Education_College,Lighting_yes,TV_yes,Cooking_no,Refrigeration_yes,12772.125195120125,142.0774996551131,503.993839835729,299.5371385349015
397,397,sex_male,Urbanity_Urban,Size_2,age_36_45,Education_Elementary_School,Lighting_yes,TV_yes,Cooking_no,Refrigeration_no,2628.208158403223,101.77911802888524,503.993839835729,871.8807177119037
398,398,sex_male,Urbanity_Urban,Size_2,age_46_55,Education_Elementary_School,Lighting_yes,TV_yes,Cooking_no,Refrigeration_no,2674.903495915152,47.70373064164796,503.993839835729,589.7891042071841
399,399,sex_male,Urbanity_Rural,Size_2,age_26_35,Education_High_School,Lighting_yes,TV_yes,Cooking_no,Refrigeration_no,2305.507598456047,24.748922553910628,503.993839835729,938.0104346488704
400,400,sex_male,Urbanity_Rural,Size_2,age_46_55,Education_High_School,Lighting_yes,TV_yes,Cooking_no,Refrigeration_no,2622.6962519677318,23.424090959741953,503.993839835729,785.8083320293008
401,401,sex_male,Urbanity_Urban,Size_2,age_46_55,Education_College,Lighting_yes,TV_yes,Cooking_no,Refrigeration_yes,11560.22255372856,181.22806948242612,503.993839835729,770.6066800196215
402,402,sex_male,Urbanity_Urban,Size_5,age_56_65,Education_Elementary_School,Lighting_no,TV_yes,Cooking_no,Refrigeration_yes,3609.341393116789,137.73496995121602,503.993839835729,663.9948784966374
403,403,sex_male,Urbanity_Urban,Size_4,age_46_55,Education_College,Lighting_yes,TV_yes,Cooking_no,Refrigeration_yes,12101.974915459228,142.7278778874043,503.993839835729,655.6061847607499
404,404,sex_male,Urbanity_Urban,Size_4,age_66_75,Education_High_School,Lighting_yes,TV_yes,Cooking_no,Refrigeration_yes,4602.529313763253,126.94173862779562,503.993839835729,321.406871319621
405,405,sex_female,Urbanity_Urban,Size_4,age_26_35,Education_High_School,Lighting_yes,TV_yes,Cooking_no,Refrigeration_no,3975.584772602562,60.74655092808528,503.993839835729,698.4146092776251
406,406,sex_male,Urbanity_Urban,Size_3,age_46_55,Education_Elementary_School,Lighting_no,TV_yes,Cooking_no,Refrigeration_no,3059.320912854198,62.08710836950651,503.993839835729,1117.4127747210666
407,407,sex_male,Urbanity_Urban,Size_3,age_46_55,Education_Post_Secondary,Lighting_yes,TV_yes,Cooking_no,Refrigeration_yes,6769.190583918326,141.54781994860852,503.993839835729,697.422255026456
408,408,sex_female,Urbanity_Urban,Size_3,age_56_65,Education_Elementary_School,Lighting_no,TV_yes,Cooking_no,Refrigeration_yes,3427.103262958355,128.83350889543541,503.993839835729,897.6132956906337
410,410,sex_male,Urbanity_Urban,Size_1,age_36_45,Education_Post_Secondary,Lighting_yes,TV_yes,Cooking_no,Refrigeration_yes,6239.947856459041,165.37066050737582,503.993839835729,544.0203021663891
411,411,sex_male,Urbanity_Urban,Size_3,age_56_65,Education_Elementary_School,Lighting_yes,TV_no,Cooking_no,Refrigeration_yes,3163.582497664772,139.80544493099742,503.993839835729,496.2769267293863
412,412,sex_female,Urbanity_Urban,Size_2,age_26_35,Education_High_School,Lighting_yes,TV_yes,Cooking_no,Refrigeration_no,3518.73673967875,52.022593122968026,503.993839835729,813.4151045364972
413,413,sex_male,Urbanity_Urban,Size_2,age_26_35,Education_High_School,Lighting_yes,TV_yes,Cooking_no,Refrigeration_yes,3376.041982038158,147.66472317435506,503.993839835729,802.1159133248443
414,414,sex_male,Urbanity_Urban,Size_3,age_36_45,Education_Post_Secondary,Lighting_yes,TV_yes,Cooking_no,Refrigeration_no,6533.806012491314,61.09595255615984,503.993839835729,977.7435068008176
415,415,sex_male,Urbanity_Urban,Size_3,age_36_45,Education_Elementary_School,Lighting_yes,TV_no,Cooking_no,Refrigeration_yes,2786.5672641251067,131.14605427381278,503.993839835729,1013.0079339369086
416,416,sex_male,Urbanity_Urban,Size_1,age_46_55,Education_High_School,Lighting_yes,TV_yes,Cooking_no,Refrigeration_yes,3479.397659983581,136.48750452591284,503.993839835729,185.4694078685447
417,417,sex_male,Urbanity_Urban,Size_7,age_46_55,Education_Post_Secondary,Lighting_yes,TV_yes,Cooking_yes,Refrigeration_yes,7821.9680897655335,221.765160709001,503.993839835729,570.390253891522
418,418,sex_male,Urbanity_Urban,Size_3,age_26_35,Education_Post_Secondary,Lighting_no,TV_yes,Cooking_no,Refrigeration_yes,6351.193169180599,137.25795865409174,503.993839835729,1406.1988646318514
419,419,sex_male,Urbanity_Urban,Size_5,age_46_55,Education_College,Lighting_yes,TV_yes,Cooking_no,Refrigeration_no,12365.976839103889,97.73107323843745,503.993839835729,519.3366175653342
420,420,sex_male,Urbanity_Urban,Size_5,age_56_65,Education_College,Lighting_yes,TV_no,Cooking_no,Refrigeration_yes,12678.034977086787,87.88088270011922,503.993839835729,454.7752765594803
421,421,sex_male,Urbanity_Rural,Size_5,age_56_65,Education_High_School,Lighting_yes,TV_yes,Cooking_no,Refrigeration_no,3744.326029501678,-3.9892429196899455,503.993839835729,301.6692376025701
422,422,sex_male,Urbanity_Rural,Size_5,age_56_65,Education_High_School,Lighting_yes,TV_yes,Cooking_no,Refrigeration_yes,3584.6274541112025,63.80548274441646,503.993839835729,303.43959933292814
423,423,sex_male,Urbanity_Urban,Size_8,age_36_45,Education_Post_Secondary,Lighting_yes,TV_yes,Cooking_no,Refrigeration_yes,7965.466117963805,164.10424975380292,503.993839835729,633.6347737851128
424,424,sex_male,Urbanity_Urban,Size_8,age_46_55,Education_High_School,Lighting_yes,TV_yes,Cooking_no,Refrigeration_yes,5311.9245059219675,156.34961811188816,503.993839835729,275.0838794872682
425,425,sex_male,Urbanity_Urban,Size_7,age_56_65,Education_College,Lighting_yes,TV_yes,Cooking_no,Refrigeration_no,13028.39878739579,59.70218643401002,503.993839835729,395.7782777244551
426,426,sex_male,Urbanity_Urban,Size_7,age_36_45,Education_Elementary_School,Lighting_yes,TV_yes,Cooking_no,Refrigeration_no,3821.4557184955934,62.04979409416342,503.993839835729,733.462070849898
427,427,sex_male,Urbanity_Urban,Size_7,age_36_45,Education_College,Lighting_yes,TV_yes,Cooking_no,Refrigeration_yes,12747.621428918645,114.76675479471486,503.993839835729,914.2796466623358
428,428,sex_male,Urbanity_Urban,Size_3,age_36_45,Education_Post_Secondary,Lighting_yes,TV_yes,Cooking_no,Refrigeration_no,6655.022980457937,50.47513360166243,503.993839835729,977.7435068008176
429,429,sex_male,Urbanity_Urban,Size_3,age_66_75,Education_Elementary_School,Lighting_yes,TV_yes,Cooking_no,Refrigeration_no,3280.62934551178,54.548171892642486,503.993839835729,347.33182360845876
430,430,sex_male,Urbanity_Urban,Size_3,age_26_35,Education_High_School,Lighting_yes,TV_yes,Cooking_no,Refrigeration_yes,3584.0957060645037,157.27388684639382,503.993839835729,773.1650768529013
431,431,sex_female,Urbanity_Urban,Size_3,age_36_45,Education_College,Lighting_yes,TV_yes,Cooking_no,Refrigeration_no,11951.085274389612,78.24373032215512,503.993839835729,1035.0466482640506
432,432,sex_female,Urbanity_Urban,Size_4,age_46_55,Education_High_School,Lighting_yes,TV_yes,Cooking_no,Refrigeration_no,4302.046351239905,56.90819520749821,503.993839835729,546.2125066580558
433,433,sex_male,Urbanity_Urban,Size_8,age_26_35,Education_Post_Secondary,Lighting_yes,TV_yes,Cooking_no,Refrigeration_no,7756.684361243499,110.8154751709824,503.993839835729,501.9749011696038
434,434,sex_male,Urbanity_Urban,Size_3,age_76_85,Education_Elementary_School,Lighting_yes,TV_no,Cooking_no,Refrigeration_yes,3546.476970216292,67.32732101284591,503.993839835729,426.7531267683185
435,435,sex_male,Urbanity_Urban,Size_5,age_76_85,Education_Post_Secondary,Lighting_yes,TV_yes,Cooking_no,Refrigeration_yes,7877.875013013738,98.43963223049572,503.993839835729,172.71019711060055
436,436,sex_male,Urbanity_Urban,Size_5,age_56_65,Education_Elementary_School,Lighting_yes,TV_yes,Cooking_no,Refrigeration_yes,3772.839278579865,98.77029043999771,503.993839835729,107.42037151081169
438,438,sex_male,Urbanity_Urban,Size_6,age_46_55,Education_High_School,Lighting_yes,TV_yes,Cooking_no,Refrigeration_yes,4893.861449661007,135.3722353708798,503.993839835729,140.7499126158047
439,439,sex_female,Urbanity_Urban,Size_6,age_19_25,Education_High_School,Lighting_yes,TV_yes,Cooking_no,Refrigeration_yes,4530.546297163726,111.68644093187484,503.993839835729,2312.1557449259344
440,440,sex_female,Urbanity_Urban,Size_5,age_36_45,Education_College,Lighting_yes,TV_yes,Cooking_yes,Refrigeration_yes,12385.16142103644,184.3286153600684,503.993839835729,798.7039549975526
441,441,sex_male,Urbanity_Urban,Size_5,age_56_65,Education_College,Lighting_yes,TV_yes,Cooking_no,Refrigeration_yes,12585.560457744123,150.52933989998837,503.993839835729,286.4675855928908
442,442,sex_female,Urbanity_Urban,Size_4,age_56_65,Education_Post_Secondary,Lighting_yes,TV_yes,Cooking_no,Refrigeration_yes,7360.155951836253,170.09337211847347,503.993839835729,389.8027554787362
443,443,sex_male,Urbanity_Rural,Size_5,age_26_35,Education_Elementary_School,Lighting_yes,TV_yes,Cooking_no,Refrigeration_yes,2126.17816885948,115.91583847388935,503.993839835729,631.926750887568
446,446,sex_female,Urbanity_Urban,Size_3,age_46_55,Education_College,Lighting_yes,TV_yes,Cooking_no,Refrigeration_no,12078.389283867731,74.58573824345879,503.993839835729,752.9550347593312
447,447,sex_male,Urbanity_Urban,Size_3,age_56_65,Education_Elementary_School,Lighting_no,TV_yes,Cooking_no,Refrigeration_yes,3261.9447889300536,134.09753679981938,503.993839835729,884.5437427486228
448,448,sex_male,Urbanity_Urban,Size_3,age_56_65,Education_Elementary_School,Lighting_yes,TV_yes,Cooking_yes,Refrigeration_yes,3130.3981480717853,166.3322392249689,503.993839835729,310.40504501792543
449,449,sex_female,Urbanity_Urban,Size_2,age_26_35,Education_Post_Secondary,Lighting_yes,TV_yes,Cooking_no,Refrigeration_no,6339.416322577989,73.10227605829506,503.993839835729,889.8743853296218
450,450,sex_male,Urbanity_Rural,Size_2,age_26_35,Education_College,Lighting_yes,TV_yes,Cooking_no,Refrigeration_no,10255.453538619584,36.31399653082633,503.993839835729,1058.7033039632174
451,451,sex_male,Urbanity_Rural,Size_2,age_36_45,Education_Post_Secondary,Lighting_yes,TV_yes,Cooking_no,Refrigeration_no,5294.379190681695,42.67183501143016,503.993839835729,1144.3592263271455
452,452,sex_male,Urbanity_Urban,Size_2,age_56_65,Education_Elementary_School,Lighting_yes,TV_yes,Cooking_no,Refrigeration_no,2922.278839239765,26.222811644462904,503.993839835729,355.1497105043817
453,453,sex_male,Urbanity_Urban,Size_3,age_56_65,Education_College,Lighting_yes,TV_yes,Cooking_no,Refrigeration_yes,11971.894153205014,150.53872065516174,503.993839835729,507.0164498448761
454,454,sex_male,Urbanity_Urban,Size_3,age_36_45,Education_Post_Graduate,Lighting_yes,TV_yes,Cooking_no,Refrigeration_yes,13431.401063642832,131.3720735654191,503.993839835729,827.9506814708006
455,455,sex_male,Urbanity_Rural,Size_7,age_46_55,Education_High_School,Lighting_yes,TV_yes,Cooking_no,Refrigeration_no,3811.907942443036,69.29335674867153,503.993839835729,647.3896851672953
456,456,sex_male,Urbanity_Urban,Size_4,age_36_45,Education_High_School,Lighting_yes,TV_yes,Cooking_no,Refrigeration_yes,4183.225599980501,107.99768292356522,503.993839835729,817.0049289511229
457,457,sex_male,Urbanity_Urban,Size_6,age_36_45,Education_High_School,Lighting_yes,TV_yes,Cooking_no,Refrigeration_no,4604.282510052464,81.4400469399381,503.993839835729,421.071164390166
458,458,sex_male,Urbanity_Urban,Size_6,age_36_45,Education_High_School,Lighting_yes,TV_yes,Cooking_no,Refrigeration_no,4554.91789544433,117.13281820489289,503.993839835729,421.071164390166
459,459,sex_male,Urbanity_Urban,Size_8,age_36_45,Education_High_School,Lighting_yes,TV_yes,Cooking_no,Refrigeration_no,5145.518038727845,88.78950299304842,503.993839835729,555.4051312616293
461,461,sex_female,Urbanity_Urban,Size_8,age_46_55,Education_High_School,Lighting_yes,TV_yes,Cooking_no,Refrigeration_no,5373.183549548023,28.198363502575145,503.993839835729,286.38307069892085
462,462,sex_male,Urbanity_Urban,Size_7,age_36_45,Education_Elementary_School,Lighting_yes,TV_yes,Cooking_no,Refrigeration_yes,4023.18739535155,137.78106530621184,503.993839835729,735.2324325802566
463,463,sex_female,Urbanity_Urban,Size_4,age_36_45,Education_College,Lighting_yes,TV_yes,Cooking_no,Refrigeration_yes,12198.730550868626,140.6195318630113,503.993839835729,950.7673512074808
464,464,sex_male,Urbanity_Urban,Size_4,age_36_45,Education_High_School,Lighting_yes,TV_yes,Cooking_no,Refrigeration_no,4099.068168438462,56.84396677129035,503.993839835729,815.2345672207645
465,465,sex_male,Urbanity_Urban,Size_3,age_46_55,Education_College,Lighting_yes,TV_yes,Cooking_no,Refrigeration_yes,11946.695101802266,145.30929182660083,503.993839835729,741.6558435476785
466,466,sex_male,Urbanity_Urban,Size_4,age_46_55,Education_High_School,Lighting_yes,TV_yes,Cooking_no,Refrigeration_no,4220.570550502545,94.80726501663752,503.993839835729,533.1429537160446
467,467,sex_female,Urbanity_Rural,Size_6,age_36_45,Education_High_School,Lighting_yes,TV_yes,Cooking_no,Refrigeration_no,3729.319579677353,46.531762535294654,503.993839835729,571.8056003865618
468,468,sex_male,Urbanity_Rural,Size_5,age_36_45,Education_Elementary_School,Lighting_yes,TV_yes,Cooking_no,Refrigeration_yes,2306.9334994561605,126.55972373215587,503.993839835729,761.8162617727182
469,469,sex_male,Urbanity_Rural,Size_4,age_36_45,Education_Post_Secondary,Lighting_yes,TV_yes,Cooking_no,Refrigeration_yes,5790.9689058732065,145.17855972544632,503.993839835729,1031.1290927986322
471,471,sex_female,Urbanity_Urban,Size_2,age_26_35,Education_Elementary_School,Lighting_yes,TV_yes,Cooking_no,Refrigeration_no,2527.187848539865,51.097418243492854,503.993839835729,755.0607597687649
472,472,sex_female,Urbanity_Urban,Size_3,age_66_75,Education_Elementary_School,Lighting_yes,TV_yes,Cooking_no,Refrigeration_yes,3590.836372711104,145.36961729062332,503.993839835729,362.1717382808283
473,473,sex_male,Urbanity_Rural,Size_3,age_46_55,Education_High_School,Lighting_no,TV_yes,Cooking_no,Refrigeration_no,2863.212811278677,33.39057223749064,503.993839835729,1313.4320025431834
474,474,sex_male,Urbanity_Urban,Size_3,age_36_45,Education_Post_Secondary,Lighting_yes,TV_yes,Cooking_no,Refrigeration_no,6592.75381998143,45.40666244197985,503.993839835729,977.7435068008176
475,475,sex_female,Urbanity_Urban,Size_7,age_46_55,Education_College,Lighting_yes,TV_yes,Cooking_no,Refrigeration_yes,13146.239404680997,163.95108024525155,503.993839835729,645.2575860996271
476,476,sex_female,Urbanity_Urban,Size_6,age_36_45,Education_Elementary_School,Lighting_yes,TV_yes,Cooking_no,Refrigeration_yes,3695.475731609249,144.18695464507093,503.993839835729,377.55673429480316
477,477,sex_female,Urbanity_Urban,Size_8,age_36_45,Education_Post_Secondary,Lighting_yes,TV_yes,Cooking_no,Refrigeration_no,8122.75175957396,58.80943597413461,503.993839835729,644.9339649967652
479,479,sex_male,Urbanity_Urban,Size_8,age_56_65,Education_College,Lighting_yes,TV_yes,Cooking_no,Refrigeration_yes,13461.283617413803,158.27936150113769,503.993839835729,161.13735509881255
480,480,sex_female,Urbanity_Rural,Size_3,age_66_75,Education_College,Lighting_yes,TV_yes,Cooking_no,Refrigeration_no,11138.011583041967,49.943779641099965,503.993839835729,677.1134736869334
481,481,sex_male,Urbanity_Urban,Size_6,age_36_45,Education_High_School,Lighting_yes,TV_yes,Cooking_no,Refrigeration_no,4570.911911911693,71.35002741504829,503.993839835729,421.071164390166
482,482,sex_male,Urbanity_Urban,Size_5,age_56_65,Education_Post_Secondary,Lighting_no,TV_yes,Cooking_no,Refrigeration_no,7522.91958739168,63.77821858701869,503.993839835729,797.0381423271351
483,483,sex_male,Urbanity_Urban,Size_5,age_56_65,Education_Elementary_School,Lighting_yes,TV_no,Cooking_no,Refrigeration_yes,3709.3052104841827,91.66165276036423,503.993839835729,275.72806247740107
484,484,sex_male,Urbanity_Urban,Size_5,age_46_55,Education_Post_Secondary,Lighting_yes,TV_yes,Cooking_no,Refrigeration_yes,7272.78439529253,171.0867350923774,503.993839835729,476.8733907744708
485,485,sex_male,Urbanity_Rural,Size_5,age_66_75,Education_Post_Secondary,Lighting_yes,TV_yes,Cooking_no,Refrigeration_no,6494.385829654154,-8.338466283880054,503.993839835729,399.2614679717142
486,486,sex_female,Urbanity_Urban,Size_5,age_46_55,Education_High_School,Lighting_yes,TV_yes,Cooking_no,Refrigeration_yes,4649.103467370136,161.2125449506598,503.993839835729,413.4836629233576
