,index,i_Sex,i_Urbanity,i_FamilySize,i_Age,i_Education,e_Lighting,e_TV,e_Cooking,Income,Electricity,w,wf
0,0,sex_female,Urbanity_Urban,Size_6,age_46_55,Education_Elementary_School,Lighting_yes,TV_yes,Cooking_no,3827.5147954025706,116.10751110423969,571.4166666666666,141.0759071417641
1,1,sex_male,Urbanity_Urban,Size_5,age_46_55,Education_Elementary_School,Lighting_yes,TV_yes,Cooking_no,3205.343441540666,129.6082389693196,571.4166666666666,329.37852261822326
2,2,sex_male,Urbanity_Urban,Size_3,age_36_45,Education_High_School,Lighting_yes,TV_yes,Cooking_no,3414.0793053998323,122.76869603890772,571.4166666666666,1511.2852331714766
3,3,sex_female,Urbanity_Urban,Size_3,age_46_55,Education_Elementary_School,Lighting_yes,TV_yes,Cooking_no,2972.814176224417,147.82462049625,571.4166666666666,1273.821555671953
4,4,sex_female,Urbanity_Urban,Size_7,age_46_55,Education_College,Lighting_yes,TV_yes,Cooking_no,12861.283125565371,147.26592681846114,571.4166666666666,546.4287555679479
5,5,sex_male,Urbanity_Urban,Size_6,age_46_55,Education_Post_Secondary,Lighting_yes,TV_yes,Cooking_no,7280.228498181104,175.38474628877051,571.4166666666666,0.0
6,6,sex_male,Urbanity_Urban,Size_4,age_56_65,Education_Elementary_School,Lighting_yes,TV_yes,Cooking_no,3132.467846355668,161.24742190449194,571.4166666666666,74.23649122138416
7,7,sex_male,Urbanity_Urban,Size_6,age_46_55,Education_Post_Secondary,Lighting_yes,TV_yes,Cooking_no,7435.929599705804,128.9848787491813,571.4166666666666,0.0
8,8,sex_male,Urbanity_Urban,Size_6,age_26_35,Education_Post_Secondary,Lighting_yes,TV_yes,Cooking_no,7029.119070090729,158.23932530408638,571.4166666666666,0.0
9,9,sex_male,Urbanity_Urban,Size_5,age_56_65,Education_Elementary_School,Lighting_yes,TV_yes,Cooking_no,3431.611259404074,136.5592097827008,571.4166666666666,77.62069484731036
10,10,sex_male,Urbanity_Urban,Size_5,age_56_65,Education_Post_Secondary,Lighting_yes,TV_yes,Cooking_no,7239.675566430457,140.7077292393603,571.4166666666666,0.0
11,11,sex_male,Urbanity_Urban,Size_3,age_46_55,Education_Elementary_School,Lighting_yes,TV_yes,Cooking_no,2568.2391243971397,141.79752672349952,571.4166666666666,1225.964382680913
12,12,sex_male,Urbanity_Urban,Size_5,age_46_55,Education_High_School,Lighting_yes,TV_yes,Cooking_no,4381.321275578028,185.48611866165908,571.4166666666666,270.92245261767494
13,13,sex_male,Urbanity_Urban,Size_5,age_46_55,Education_College,Lighting_yes,TV_yes,Cooking_no,12248.695014988603,115.8108888449386,571.4166666666666,359.27644819950194
14,14,sex_male,Urbanity_Urban,Size_2,age_26_35,Education_Post_Secondary,Lighting_yes,TV_yes,Cooking_no,5921.641774507383,133.3165817836345,571.4166666666666,1708.2368687968099
15,15,sex_female,Urbanity_Urban,Size_4,age_36_45,Education_Post_Secondary,Lighting_yes,TV_yes,Cooking_no,6655.72009186066,126.66595310093628,571.4166666666666,579.9565266796966
16,16,sex_male,Urbanity_Urban,Size_5,age_26_35,Education_Elementary_School,Lighting_yes,TV_yes,Cooking_no,2974.788958253532,133.30059232539534,571.4166666666666,331.6042668476241
17,17,sex_male,Urbanity_Urban,Size_5,age_46_55,Education_College,Lighting_yes,TV_yes,Cooking_no,12208.46984981362,142.83422973321032,571.4166666666666,359.27644819950194
18,18,sex_male,Urbanity_Urban,Size_5,age_56_65,Education_College,Lighting_yes,TV_yes,Cooking_no,12310.547859574905,119.57046497243958,571.4166666666666,107.51862042858903
19,19,sex_male,Urbanity_Urban,Size_6,age_56_65,Education_College,Lighting_yes,TV_yes,Cooking_no,12539.291596997096,139.70047383629569,571.4166666666666,0.0
20,20,sex_female,Urbanity_Urban,Size_3,age_66_75,Education_Elementary_School,Lighting_yes,TV_yes,Cooking_no,3241.9933299137565,128.93349713175542,571.4166666666666,952.7977622385899
21,21,sex_male,Urbanity_Urban,Size_4,age_26_35,Education_High_School,Lighting_yes,TV_yes,Cooking_no,3589.50535503659,113.39928511606051,571.4166666666666,269.7639932211496
22,22,sex_male,Urbanity_Urban,Size_6,age_36_45,Education_Post_Secondary,Lighting_yes,TV_yes,Cooking_no,7128.43083897503,141.14781537285734,571.4166666666666,299.3237688470843
23,23,sex_female,Urbanity_Urban,Size_5,age_26_35,Education_College,Lighting_yes,TV_yes,Cooking_no,12020.963312418357,125.46584693676745,571.4166666666666,409.35936541994266
24,24,sex_male,Urbanity_Urban,Size_5,age_46_55,Education_Post_Graduate,Lighting_yes,TV_yes,Cooking_yes,13980.968963442618,191.26125382063202,571.4166666666666,169.263427514239
25,25,sex_male,Urbanity_Urban,Size_5,age_26_35,Education_High_School,Lighting_yes,TV_yes,Cooking_no,3918.1436657306767,176.75773186578618,571.4166666666666,273.1481968470757
26,26,sex_male,Urbanity_Urban,Size_5,age_56_65,Education_College,Lighting_yes,TV_yes,Cooking_no,12344.121481256734,140.7277799861849,571.4166666666666,107.51862042858903
27,27,sex_male,Urbanity_Urban,Size_3,age_46_55,Education_Elementary_School,Lighting_yes,TV_yes,Cooking_no,2834.4053515630803,160.28855775420524,571.4166666666666,1225.964382680913
28,28,sex_female,Urbanity_Urban,Size_3,age_76_85,Education_High_School,Lighting_yes,TV_yes,Cooking_no,4481.960658821959,115.09614346695074,571.4166666666666,459.08539685238804
29,29,sex_male,Urbanity_Urban,Size_3,age_76_85,Education_Post_Secondary,Lighting_yes,TV_yes,Cooking_no,7042.110492150171,120.884980054184,571.4166666666666,332.01240806714424
30,30,sex_male,Urbanity_Urban,Size_5,age_26_35,Education_Elementary_School,Lighting_yes,TV_yes,Cooking_no,2988.9669268397693,141.23628032450324,571.4166666666666,331.6042668476241
31,31,sex_male,Urbanity_Urban,Size_5,age_46_55,Education_High_School,Lighting_yes,TV_yes,Cooking_no,4269.067114597384,153.28452486277658,571.4166666666666,270.92245261767494
32,32,sex_male,Urbanity_Urban,Size_3,age_46_55,Education_Elementary_School,Lighting_yes,TV_yes,Cooking_no,2774.173092347881,151.0090667044523,571.4166666666666,1225.964382680913
33,33,sex_male,Urbanity_Urban,Size_6,age_36_45,Education_High_School,Lighting_yes,TV_yes,Cooking_no,4352.5388039426425,119.78380236110188,571.4166666666666,378.53958464128823
34,34,sex_male,Urbanity_Urban,Size_6,age_46_55,Education_College,Lighting_yes,TV_yes,Cooking_no,12422.19888015858,147.55441891878988,571.4166666666666,123.11665973200337
35,35,sex_male,Urbanity_Urban,Size_3,age_26_35,Education_Post_Secondary,Lighting_yes,TV_yes,Cooking_yes,6294.516217294674,198.20638562977638,571.4166666666666,1041.0564829232228
36,36,sex_male,Urbanity_Urban,Size_5,age_46_55,Education_Post_Secondary,Lighting_yes,TV_yes,Cooking_no,7046.358479645316,149.37015609282278,571.4166666666666,191.70663682347106
37,37,sex_male,Urbanity_Urban,Size_8,age_46_55,Education_Post_Secondary,Lighting_no,TV_yes,Cooking_no,7812.183830863695,137.01907901751673,571.4166666666666,218.22799007398666
38,38,sex_female,Urbanity_Urban,Size_10,age_36_45,Education_College,Lighting_yes,TV_yes,Cooking_no,13429.9250608638,118.40276705710484,571.4166666666666,2620.71397463753
39,39,sex_male,Urbanity_Urban,Size_10,age_36_45,Education_Post_Secondary,Lighting_yes,TV_yes,Cooking_yes,8118.4982406757,186.35115999672988,571.4166666666666,2355.825232078121
40,40,sex_male,Urbanity_Urban,Size_8,age_46_55,Education_College,Lighting_yes,TV_yes,Cooking_no,13049.080691886009,179.77870595882678,571.4166666666666,511.45361206007817
41,41,sex_male,Urbanity_Urban,Size_4,age_56_65,Education_High_School,Lighting_yes,TV_yes,Cooking_no,4213.371808771823,114.89800136278069,571.4166666666666,15.780421220835835
42,42,sex_male,Urbanity_Urban,Size_4,age_66_75,Education_Elementary_School,Lighting_yes,TV_yes,Cooking_no,3394.538563309245,117.43697110662457,571.4166666666666,4.970525558933855
43,43,sex_male,Urbanity_Urban,Size_7,age_36_45,Education_Post_Secondary,Lighting_yes,TV_yes,Cooking_no,7418.406443409899,143.97031144103718,571.4166666666666,674.7786916919889
44,44,sex_male,Urbanity_Urban,Size_4,age_36_45,Education_Post_Secondary,Lighting_yes,TV_yes,Cooking_no,6678.5639019234695,144.92468671730958,571.4166666666666,532.0993536886567
45,45,sex_male,Urbanity_Urban,Size_3,age_46_55,Education_Elementary_School,Lighting_yes,TV_yes,Cooking_no,2788.6908448672843,138.29669856732568,571.4166666666666,1225.964382680913
46,46,sex_female,Urbanity_Urban,Size_2,age_46_55,Education_Elementary_School,Lighting_yes,TV_yes,Cooking_no,2685.1393670795205,154.64981011663954,571.4166666666666,1891.5401833532012
47,47,sex_female,Urbanity_Urban,Size_4,age_66_75,Education_Elementary_School,Lighting_no,TV_yes,Cooking_no,3522.713922066638,134.8388674805221,571.4166666666666,0.0
48,48,sex_male,Urbanity_Urban,Size_4,age_46_55,Education_Post_Graduate,Lighting_yes,TV_yes,Cooking_no,13560.50212044535,167.59377718264872,571.4166666666666,215.34098208065123
49,49,sex_female,Urbanity_Urban,Size_7,age_46_55,Education_Post_Secondary,Lighting_yes,TV_yes,Cooking_no,7651.933141230945,133.47189217363464,571.4166666666666,378.8589441919169
50,50,sex_male,Urbanity_Urban,Size_8,age_46_55,Education_Post_Secondary,Lighting_yes,TV_yes,Cooking_no,7793.234462609373,132.99760667983836,571.4166666666666,343.88380068404723
51,51,sex_male,Urbanity_Urban,Size_5,age_46_55,Education_Post_Secondary,Lighting_yes,TV_yes,Cooking_no,7066.5247498183835,164.2473156517259,571.4166666666666,191.70663682347106
52,52,sex_male,Urbanity_Urban,Size_4,age_56_65,Education_Elementary_School,Lighting_yes,TV_yes,Cooking_no,3137.712921675649,151.07836626817942,571.4166666666666,74.23649122138416
53,53,sex_male,Urbanity_Urban,Size_3,age_56_65,Education_High_School,Lighting_yes,TV_yes,Cooking_no,3922.4051011139372,147.32174580092718,571.4166666666666,915.750484909452
54,54,sex_male,Urbanity_Urban,Size_5,age_46_55,Education_Elementary_School,Lighting_yes,TV_yes,Cooking_no,3336.9878609289644,119.7745605478216,571.4166666666666,329.37852261822326
55,55,sex_male,Urbanity_Rural,Size_3,age_36_45,Education_High_School,Lighting_yes,TV_yes,Cooking_no,2379.7996253924666,77.7477085245128,571.4166666666666,540.0004074931132
56,56,sex_male,Urbanity_Rural,Size_4,age_36_45,Education_Post_Secondary,Lighting_yes,TV_yes,Cooking_no,5551.206767359343,110.06663764999676,571.4166666666666,0.0
57,57,sex_male,Urbanity_Urban,Size_7,age_36_45,Education_College,Lighting_yes,TV_yes,Cooking_no,12480.47296936433,148.56038176253819,571.4166666666666,842.3485030680197
58,58,sex_male,Urbanity_Urban,Size_7,age_56_65,Education_College,Lighting_yes,TV_yes,Cooking_no,12796.02578973615,162.61866542552428,571.4166666666666,246.813754805995
59,59,sex_male,Urbanity_Urban,Size_5,age_66_75,Education_High_School,Lighting_yes,TV_yes,Cooking_no,4557.582017340061,104.40261071411928,571.4166666666666,0.0
60,60,sex_male,Urbanity_Urban,Size_5,age_46_55,Education_College,Lighting_yes,TV_yes,Cooking_no,12174.573888572517,177.1259528303346,571.4166666666666,359.27644819950194
61,61,sex_female,Urbanity_Urban,Size_5,age_56_65,Education_College,Lighting_yes,TV_yes,Cooking_no,12369.62066943453,141.31701468459576,571.4166666666666,155.37579341962896
62,62,sex_male,Urbanity_Urban,Size_3,age_56_65,Education_College,Lighting_yes,TV_yes,Cooking_no,11786.287155382995,140.5263800423999,571.4166666666666,1004.1044804912789
63,63,sex_male,Urbanity_Urban,Size_7,age_76_85,Education_Post_Graduate,Lighting_yes,TV_yes,Cooking_no,14931.05105240745,139.4273687632422,571.4166666666666,0.0
64,64,sex_male,Urbanity_Urban,Size_7,age_56_65,Education_College,Lighting_yes,TV_yes,Cooking_no,12821.84934237055,121.08502447070974,571.4166666666666,246.813754805995
65,65,sex_female,Urbanity_Urban,Size_4,age_66_75,Education_Elementary_School,Lighting_yes,TV_yes,Cooking_no,3572.9815359984673,179.9792590561396,571.4166666666666,52.82769854997378
66,66,sex_male,Urbanity_Urban,Size_6,age_66_75,Education_Elementary_School,Lighting_yes,TV_yes,Cooking_no,3930.945761084236,181.7069016216504,571.4166666666666,0.0
67,67,sex_male,Urbanity_Urban,Size_5,age_46_55,Education_Post_Graduate,Lighting_yes,TV_yes,Cooking_no,13962.67013555452,150.24312547563784,571.4166666666666,218.72518570657795
68,68,sex_male,Urbanity_Urban,Size_3,age_46_55,Education_College,Lighting_yes,TV_yes,Cooking_no,11646.4210180607,193.5257507960903,571.4166666666666,1255.8623082621918
69,69,sex_female,Urbanity_Urban,Size_3,age_36_45,Education_High_School,Lighting_yes,TV_yes,Cooking_no,3584.322480312819,146.9464353316693,571.4166666666666,1559.1424061625164
70,70,sex_male,Urbanity_Urban,Size_2,age_56_65,Education_Post_Secondary,Lighting_yes,TV_yes,Cooking_no,6367.674458076647,132.7624538844916,571.4166666666666,1454.2532967964964
71,71,sex_male,Urbanity_Urban,Size_2,age_46_55,Education_High_School,Lighting_yes,TV_yes,Cooking_no,3422.1751626592277,165.47676060983738,571.4166666666666,1785.2269403616128
72,72,sex_male,Urbanity_Urban,Size_2,age_46_55,Education_Post_Secondary,Lighting_yes,TV_yes,Cooking_no,6221.541268175522,104.65541707106782,571.4166666666666,1706.0111245674093
73,73,sex_male,Urbanity_Urban,Size_6,age_56_65,Education_Elementary_School,Lighting_yes,TV_yes,Cooking_no,3829.873918536318,103.24292980227608,571.4166666666666,0.0
74,74,sex_male,Urbanity_Urban,Size_4,age_66_75,Education_Post_Secondary,Lighting_yes,TV_yes,Cooking_no,7126.420066784743,130.06793804548496,571.4166666666666,0.0
75,75,sex_female,Urbanity_Urban,Size_4,age_66_75,Education_High_School,Lighting_yes,TV_yes,Cooking_no,4310.847943197993,127.36082220950216,571.4166666666666,0.0
76,76,sex_male,Urbanity_Urban,Size_4,age_66_75,Education_Elementary_School,Lighting_yes,TV_yes,Cooking_no,3360.806918421576,123.09476013958016,571.4166666666666,4.970525558933855
77,77,sex_female,Urbanity_Urban,Size_3,age_46_55,Education_College,Lighting_yes,TV_yes,Cooking_no,11799.007789856692,132.24533702946863,571.4166666666666,1303.7194812532318
78,78,sex_female,Urbanity_Urban,Size_4,age_36_45,Education_Elementary_School,Lighting_yes,TV_yes,Cooking_no,2955.0850614829997,164.57423690742132,571.4166666666666,717.6284124744489
79,79,sex_male,Urbanity_Urban,Size_5,age_56_65,Education_Post_Secondary,Lighting_yes,TV_yes,Cooking_no,7171.9363309633545,153.0141657691741,571.4166666666666,0.0
80,80,sex_male,Urbanity_Urban,Size_5,age_56_65,Education_Post_Secondary,Lighting_yes,TV_yes,Cooking_no,7144.354487470724,131.00130410813765,571.4166666666666,0.0
81,81,sex_male,Urbanity_Urban,Size_7,age_66_75,Education_Elementary_School,Lighting_yes,TV_yes,Cooking_no,4134.831579749485,99.90937571934823,571.4166666666666,147.64986356226598
82,82,sex_female,Urbanity_Urban,Size_4,age_56_65,Education_Post_Secondary,Lighting_yes,TV_yes,Cooking_no,7226.18052999424,138.91313201056505,571.4166666666666,0.0
83,83,sex_male,Urbanity_Urban,Size_5,age_46_55,Education_Elementary_School,Lighting_yes,TV_yes,Cooking_no,3251.630049325545,148.18055630005946,571.4166666666666,329.37852261822326
84,84,sex_female,Urbanity_Urban,Size_5,age_36_45,Education_Elementary_School,Lighting_yes,TV_yes,Cooking_no,3157.1442197185197,140.40625057893868,571.4166666666666,721.012616100375
85,85,sex_male,Urbanity_Urban,Size_5,age_46_55,Education_Post_Secondary,Lighting_yes,TV_yes,Cooking_no,7133.141623597031,155.45915333839602,571.4166666666666,191.70663682347106
86,86,sex_male,Urbanity_Urban,Size_8,age_46_55,Education_High_School,Lighting_yes,TV_yes,Cooking_no,4990.250787602025,110.05550629834713,571.4166666666666,423.09961647825116
87,87,sex_male,Urbanity_Urban,Size_6,age_56_65,Education_Post_Graduate,Lighting_yes,TV_yes,Cooking_no,14415.145372157109,127.18229243481206,571.4166666666666,0.0
88,88,sex_male,Urbanity_Urban,Size_7,age_56_65,Education_College,Lighting_yes,TV_yes,Cooking_no,12834.348478095008,116.32299489007,571.4166666666666,246.813754805995
89,89,sex_male,Urbanity_Urban,Size_6,age_46_55,Education_Post_Secondary,Lighting_yes,TV_yes,Cooking_no,7345.6207153437,151.37213365488398,571.4166666666666,0.0
90,90,sex_male,Urbanity_Urban,Size_4,age_46_55,Education_High_School,Lighting_yes,TV_yes,Cooking_no,3956.445274087499,165.0546449183997,571.4166666666666,267.5382489917492
91,91,sex_male,Urbanity_Urban,Size_4,age_46_55,Education_Post_Secondary,Lighting_yes,TV_yes,Cooking_no,6786.569680662958,132.65367863430694,571.4166666666666,188.32243319754537
92,92,sex_female,Urbanity_Urban,Size_4,age_36_45,Education_High_School,Lighting_yes,TV_yes,Cooking_no,3939.1092190397353,113.88879478518291,571.4166666666666,659.1723424739006
93,93,sex_male,Urbanity_Urban,Size_4,age_26_35,Education_College,Lighting_yes,TV_yes,Cooking_no,11616.866337053483,196.45885071568887,571.4166666666666,358.1179888029765
94,94,sex_male,Urbanity_Urban,Size_3,age_66_75,Education_High_School,Lighting_yes,TV_yes,Cooking_no,4028.305256782046,126.14038892368437,571.4166666666666,846.4845192470016
95,95,sex_female,Urbanity_Urban,Size_4,age_36_45,Education_Post_Graduate,Lighting_yes,TV_yes,Cooking_no,13629.791883411863,164.2768383402717,571.4166666666666,606.975075562803
96,96,sex_male,Urbanity_Urban,Size_4,age_36_45,Education_Elementary_School,Lighting_yes,TV_yes,Cooking_no,2904.9088332823226,130.44682288360337,571.4166666666666,669.771239483409
97,97,sex_male,Urbanity_Urban,Size_4,age_46_55,Education_College,Lighting_yes,TV_yes,Cooking_no,11899.359768849528,162.97172981031378,571.4166666666666,355.89224457357625
98,98,sex_male,Urbanity_Urban,Size_2,age_36_45,Education_College,Lighting_yes,TV_yes,Cooking_no,11110.284535862815,134.04543397490386,571.4166666666666,2217.3578564345516
99,99,sex_male,Urbanity_Urban,Size_2,age_36_45,Education_High_School,Lighting_yes,TV_yes,Cooking_no,3284.6853032279673,149.9998543958429,571.4166666666666,2129.0038608527248
100,100,sex_male,Urbanity_Urban,Size_3,age_66_75,Education_Post_Secondary,Lighting_yes,TV_yes,Cooking_no,6924.396118064777,137.84996130096016,571.4166666666666,767.2687034527978
101,101,sex_male,Urbanity_Urban,Size_3,age_56_65,Education_College,Lighting_yes,TV_yes,Cooking_no,11749.72492979229,147.2136138700094,571.4166666666666,1004.1044804912789
102,102,sex_male,Urbanity_Urban,Size_3,age_56_65,Education_Post_Secondary,Lighting_yes,TV_yes,Cooking_no,6722.210514082776,130.32020233094414,571.4166666666666,836.534669115248
103,103,sex_male,Urbanity_Urban,Size_3,age_46_55,Education_Elementary_School,Lighting_yes,TV_yes,Cooking_no,2648.745300376955,136.82433225210966,571.4166666666666,1225.964382680913
104,104,sex_male,Urbanity_Urban,Size_3,age_46_55,Education_Elementary_School,Lighting_yes,TV_yes,Cooking_no,2690.3536164193656,137.90395012037192,571.4166666666666,1225.964382680913
105,105,sex_male,Urbanity_Urban,Size_3,age_36_45,Education_Elementary_School,Lighting_yes,TV_yes,Cooking_yes,2578.025796560288,185.02705048003185,571.4166666666666,1520.2795449796865
106,106,sex_male,Urbanity_Urban,Size_4,age_66_75,Education_Elementary_School,Lighting_yes,TV_yes,Cooking_no,3300.317943340518,109.06996268157052,571.4166666666666,4.970525558933855
107,107,sex_male,Urbanity_Urban,Size_4,age_66_75,Education_College,Lighting_yes,TV_yes,Cooking_no,12255.899815027356,130.40724770008845,571.4166666666666,34.86845114021252
108,108,sex_male,Urbanity_Urban,Size_4,age_56_65,Education_Elementary_School,Lighting_yes,TV_yes,Cooking_no,3295.0031843811457,123.20671045341305,571.4166666666666,74.23649122138416
109,109,sex_male,Urbanity_Urban,Size_4,age_76_85,Education_College,Lighting_yes,TV_yes,Cooking_no,12353.315843056504,168.07810476204045,571.4166666666666,0.0
110,110,sex_male,Urbanity_Urban,Size_3,age_66_75,Education_High_School,Lighting_yes,TV_yes,Cooking_no,3980.5677725253945,172.71564782614402,571.4166666666666,846.4845192470016
111,111,sex_male,Urbanity_Urban,Size_5,age_36_45,Education_High_School,Lighting_yes,TV_yes,Cooking_no,4088.14835568451,144.61621754536478,571.4166666666666,614.6993731087873
112,112,sex_male,Urbanity_Urban,Size_6,age_46_55,Education_College,Lighting_yes,TV_yes,Cooking_no,12420.0435099861,138.86423430698838,571.4166666666666,123.11665973200337
113,113,sex_male,Urbanity_Urban,Size_6,age_56_65,Education_Post_Secondary,Lighting_yes,TV_yes,Cooking_no,7641.319990659108,152.365441012205,571.4166666666666,0.0
114,114,sex_male,Urbanity_Urban,Size_2,age_56_65,Education_Post_Secondary,Lighting_yes,TV_yes,Cooking_no,6625.839161364732,165.2177151108759,571.4166666666666,1454.2532967964964
115,115,sex_male,Urbanity_Urban,Size_2,age_46_55,Education_College,Lighting_yes,TV_yes,Cooking_no,11325.660942568356,176.51609138423322,571.4166666666666,1873.5809359434402
116,116,sex_male,Urbanity_Urban,Size_2,age_46_55,Education_Post_Secondary,Lighting_yes,TV_yes,Cooking_no,6278.2978120883545,165.23740709887687,571.4166666666666,1706.0111245674093
117,117,sex_male,Urbanity_Urban,Size_5,age_56_65,Education_High_School,Lighting_yes,TV_yes,Cooking_no,4341.317839129553,118.24039964937404,571.4166666666666,19.16462484676204
118,118,sex_male,Urbanity_Urban,Size_5,age_56_65,Education_High_School,Lighting_yes,TV_yes,Cooking_no,4375.876031944348,145.27179137400998,571.4166666666666,19.16462484676204
119,119,sex_male,Urbanity_Urban,Size_3,age_26_35,Education_Elementary_School,Lighting_yes,TV_yes,Cooking_no,2532.8287592701986,130.32135407231362,571.4166666666666,1228.190126910314
120,120,sex_female,Urbanity_Urban,Size_4,age_36_45,Education_High_School,Lighting_yes,TV_yes,Cooking_no,3965.868291020201,118.50662084634298,571.4166666666666,659.1723424739006
121,121,sex_male,Urbanity_Urban,Size_4,age_66_75,Education_High_School,Lighting_yes,TV_yes,Cooking_no,4370.605559312937,176.88946086391456,571.4166666666666,0.0
122,122,sex_male,Urbanity_Urban,Size_2,age_46_55,Education_Post_Secondary,Lighting_yes,TV_yes,Cooking_no,6256.5603499306735,168.10080053887899,571.4166666666666,1706.0111245674093
123,123,sex_male,Urbanity_Urban,Size_2,age_56_65,Education_Elementary_School,Lighting_yes,TV_yes,Cooking_no,2760.6104997258044,125.71355586163124,571.4166666666666,1591.9251825912486
124,124,sex_male,Urbanity_Urban,Size_2,age_66_75,Education_Post_Secondary,Lighting_yes,TV_yes,Cooking_no,6540.861477035315,168.67965024294017,571.4166666666666,1384.987331134046
125,125,sex_female,Urbanity_Urban,Size_5,age_36_45,Education_High_School,Lighting_yes,TV_yes,Cooking_no,4276.648583366954,150.475510517988,571.4166666666666,662.5565460998266
126,126,sex_male,Urbanity_Urban,Size_4,age_56_65,Education_Post_Secondary,Lighting_yes,TV_yes,Cooking_yes,6891.949497943042,195.83688793405207,571.4166666666666,0.0
127,127,sex_male,Urbanity_Urban,Size_4,age_56_65,Education_College,Lighting_yes,TV_yes,Cooking_no,11980.976456539056,167.1185421170406,571.4166666666666,104.13441680266283
128,128,sex_male,Urbanity_Urban,Size_4,age_56_65,Education_High_School,Lighting_yes,TV_yes,Cooking_no,4116.279879674639,176.1670609966,571.4166666666666,15.780421220835835
129,129,sex_female,Urbanity_Urban,Size_5,age_36_45,Education_Post_Graduate,Lighting_yes,TV_yes,Cooking_no,13940.4682441344,131.94871001617713,571.4166666666666,610.3592791887297
130,130,sex_male,Urbanity_Urban,Size_4,age_46_55,Education_Post_Secondary,Lighting_yes,TV_yes,Cooking_no,6727.439871186037,142.16553611688553,571.4166666666666,188.32243319754537
131,131,sex_male,Urbanity_Urban,Size_5,age_56_65,Education_Post_Secondary,Lighting_yes,TV_yes,Cooking_no,7408.357653914854,109.69595594801935,571.4166666666666,0.0
132,132,sex_male,Urbanity_Urban,Size_2,age_56_65,Education_High_School,Lighting_no,TV_yes,Cooking_no,3685.9938384405436,132.97911809808463,571.4166666666666,1407.8133019806396
133,133,sex_male,Urbanity_Urban,Size_2,age_56_65,Education_Post_Secondary,Lighting_yes,TV_yes,Cooking_no,6528.987072718001,112.30036985713112,571.4166666666666,1454.2532967964964
134,134,sex_male,Urbanity_Urban,Size_4,age_46_55,Education_Post_Secondary,Lighting_yes,TV_yes,Cooking_no,6925.171178429174,169.12038983319445,571.4166666666666,188.32243319754537
135,135,sex_male,Urbanity_Urban,Size_3,age_36_45,Education_Post_Secondary,Lighting_yes,TV_yes,Cooking_no,6279.357497643595,137.61403318354823,571.4166666666666,1432.0694173772729
136,136,sex_female,Urbanity_Urban,Size_6,age_46_55,Education_Elementary_School,Lighting_yes,TV_yes,Cooking_no,3675.6024807619615,137.83667384592292,571.4166666666666,141.0759071417641
137,137,sex_male,Urbanity_Urban,Size_6,age_46_55,Education_College,Lighting_yes,TV_yes,Cooking_no,12410.033488869296,154.4793778968575,571.4166666666666,123.11665973200337
138,138,sex_male,Urbanity_Urban,Size_4,age_46_55,Education_Post_Secondary,Lighting_yes,TV_yes,Cooking_no,6742.682699241285,135.44680399862037,571.4166666666666,188.32243319754537
139,139,sex_male,Urbanity_Urban,Size_4,age_36_45,Education_Elementary_School,Lighting_yes,TV_yes,Cooking_no,2828.302226823378,121.85570142758631,571.4166666666666,669.771239483409
140,140,sex_male,Urbanity_Urban,Size_6,age_46_55,Education_Post_Secondary,Lighting_yes,TV_yes,Cooking_no,7358.454520767283,123.85748400937234,571.4166666666666,0.0
141,141,sex_female,Urbanity_Urban,Size_5,age_56_65,Education_Elementary_School,Lighting_yes,TV_yes,Cooking_no,3646.1111526647355,139.37867058614216,571.4166666666666,125.47786783835028
142,142,sex_female,Urbanity_Urban,Size_5,age_46_55,Education_College,Lighting_yes,TV_yes,Cooking_no,12273.69567730162,161.6906777271861,571.4166666666666,407.1336211905418
143,143,sex_male,Urbanity_Urban,Size_4,age_26_35,Education_Elementary_School,Lighting_yes,TV_yes,Cooking_no,2724.5151831102075,145.2434622974691,571.4166666666666,328.22006322169784
144,144,sex_male,Urbanity_Urban,Size_3,age_26_35,Education_Post_Secondary,Lighting_yes,TV_yes,Cooking_no,6145.086978390144,130.81082005463813,571.4166666666666,1090.5182411155618
145,145,sex_male,Urbanity_Urban,Size_10,age_36_45,Education_College,Lighting_yes,TV_yes,Cooking_no,13397.032616552846,157.8164400448499,571.4166666666666,2572.8568016464906
146,146,sex_male,Urbanity_Urban,Size_10,age_66_75,Education_Elementary_School,Lighting_yes,TV_yes,Cooking_no,5068.883314967437,119.21581973526204,571.4166666666666,1878.158162140737
147,147,sex_male,Urbanity_Urban,Size_10,age_76_85,Education_High_School,Lighting_yes,TV_yes,Cooking_no,6162.564571767097,112.53909820967962,571.4166666666666,1384.4457967545347
148,148,sex_male,Urbanity_Urban,Size_7,age_46_55,Education_College,Lighting_yes,TV_yes,Cooking_yes,12670.072925686238,204.55112963555803,571.4166666666666,449.10982438456944
149,149,sex_male,Urbanity_Urban,Size_7,age_56_65,Education_Post_Secondary,Lighting_yes,TV_yes,Cooking_no,7951.572387044081,140.89778529907676,571.4166666666666,79.2439434299641
150,150,sex_male,Urbanity_Urban,Size_6,age_66_75,Education_College,Lighting_yes,TV_yes,Cooking_no,12798.113437373215,157.95432075761653,571.4166666666666,0.0
151,151,sex_male,Urbanity_Urban,Size_6,age_56_65,Education_Elementary_School,Lighting_yes,TV_yes,Cooking_no,3682.9543729424126,142.21392769509296,571.4166666666666,0.0
152,152,sex_male,Urbanity_Urban,Size_6,age_56_65,Education_High_School,Lighting_yes,TV_yes,Cooking_no,4689.40854066819,185.298417040554,571.4166666666666,0.0
153,153,sex_male,Urbanity_Urban,Size_5,age_46_55,Education_Post_Secondary,Lighting_yes,TV_yes,Cooking_no,7062.295591343217,138.53087353254963,571.4166666666666,191.70663682347106
154,154,sex_male,Urbanity_Urban,Size_2,age_46_55,Education_High_School,Lighting_yes,TV_yes,Cooking_no,3449.210379432824,151.52615327078027,571.4166666666666,1785.2269403616128
155,155,sex_male,Urbanity_Urban,Size_3,age_26_35,Education_College,Lighting_yes,TV_yes,Cooking_no,11200.830666760496,154.43504170863042,571.4166666666666,1258.0880524915926
156,156,sex_female,Urbanity_Urban,Size_6,age_36_45,Education_Post_Secondary,Lighting_yes,TV_yes,Cooking_no,7413.143946010138,142.78030841358688,571.4166666666666,347.1809418381242
157,157,sex_female,Urbanity_Urban,Size_6,age_46_55,Education_Post_Graduate,Lighting_yes,TV_yes,Cooking_no,14203.72451785603,128.37534438169308,571.4166666666666,30.422570230118783
158,158,sex_male,Urbanity_Urban,Size_3,age_66_75,Education_Post_Secondary,Lighting_yes,TV_yes,Cooking_no,6866.7646380483775,134.38122626364608,571.4166666666666,767.2687034527978
159,159,sex_male,Urbanity_Urban,Size_4,age_36_45,Education_College,Lighting_yes,TV_yes,Cooking_no,11781.801207876417,216.1457335658474,571.4166666666666,699.6691650646876
160,160,sex_male,Urbanity_Urban,Size_5,age_36_45,Education_Post_Secondary,Lighting_yes,TV_yes,Cooking_no,6842.153414514821,49.7012531484832,571.4166666666666,535.4835573145833
161,161,sex_female,Urbanity_Urban,Size_6,age_56_65,Education_Post_Secondary,Lighting_yes,TV_yes,Cooking_no,7621.775060547248,159.45408780203334,571.4166666666666,0.0
162,162,sex_male,Urbanity_Urban,Size_6,age_36_45,Education_Post_Secondary,Lighting_yes,TV_yes,Cooking_no,7104.170009927932,124.60773534336668,571.4166666666666,299.3237688470843
163,163,sex_female,Urbanity_Urban,Size_3,age_26_35,Education_Post_Secondary,Lighting_yes,TV_yes,Cooking_no,6465.763974649563,123.69577548989572,571.4166666666666,1138.3754141066015
164,164,sex_female,Urbanity_Urban,Size_6,age_46_55,Education_Elementary_School,Lighting_yes,TV_yes,Cooking_no,3728.674809627855,169.87101595674915,571.4166666666666,141.0759071417641
165,165,sex_male,Urbanity_Urban,Size_6,age_46_55,Education_Post_Graduate,Lighting_yes,TV_yes,Cooking_no,14246.239364669102,187.91427578584893,571.4166666666666,0.0
166,166,sex_male,Urbanity_Urban,Size_6,age_36_45,Education_College,Lighting_yes,TV_yes,Cooking_no,12196.194413455583,172.05539242760068,571.4166666666666,466.8935802231152
167,167,sex_male,Urbanity_Urban,Size_5,age_46_55,Education_Post_Secondary,Lighting_yes,TV_yes,Cooking_no,7156.39307240985,130.3288929148087,571.4166666666666,191.70663682347106
168,168,sex_male,Urbanity_Urban,Size_6,age_46_55,Education_Elementary_School,Lighting_yes,TV_yes,Cooking_no,3630.969280737431,130.0348334543007,571.4166666666666,93.21873415072469
169,169,sex_male,Urbanity_Urban,Size_4,age_56_65,Education_Post_Secondary,Lighting_yes,TV_yes,Cooking_no,6836.041922130039,167.6481075149039,571.4166666666666,0.0
170,170,sex_male,Urbanity_Urban,Size_4,age_46_55,Education_Post_Secondary,Lighting_yes,TV_yes,Cooking_no,6738.526272332227,136.1658773953036,571.4166666666666,188.32243319754537
171,171,sex_female,Urbanity_Urban,Size_3,age_46_55,Education_Elementary_School,Lighting_yes,TV_yes,Cooking_no,2948.279061086028,107.74917825844496,571.4166666666666,1273.821555671953
172,172,sex_female,Urbanity_Urban,Size_3,age_36_45,Education_Elementary_School,Lighting_yes,TV_yes,Cooking_no,2772.3001895758694,139.99469661602828,571.4166666666666,1617.598476163065
173,173,sex_male,Urbanity_Urban,Size_8,age_26_35,Education_College,Lighting_yes,TV_yes,Cooking_no,12677.081007995965,136.51604142006292,571.4166666666666,513.6793562894785
174,174,sex_male,Urbanity_Urban,Size_8,age_26_35,Education_College,Lighting_yes,TV_yes,Cooking_no,12501.333463553874,163.30854453888668,571.4166666666666,513.6793562894785
175,175,sex_male,Urbanity_Urban,Size_8,age_56_65,Education_Post_Graduate,Lighting_yes,TV_yes,Cooking_no,15007.261448190213,196.7901596158054,571.4166666666666,119.14452179624021
176,176,sex_male,Urbanity_Urban,Size_3,age_56_65,Education_Elementary_School,Lighting_yes,TV_yes,Cooking_no,2965.446685172994,150.7962263867111,571.4166666666666,974.2065549100002
177,177,sex_female,Urbanity_Urban,Size_4,age_26_35,Education_Elementary_School,Lighting_yes,TV_yes,Cooking_no,2851.301776140591,171.7324969308996,571.4166666666666,376.0772362127373
178,178,sex_male,Urbanity_Urban,Size_7,age_76_85,Education_Post_Graduate,Lighting_yes,TV_yes,Cooking_no,14961.36781244171,152.15034926927257,571.4166666666666,0.0
179,179,sex_male,Urbanity_Urban,Size_5,age_36_45,Education_Post_Secondary,Lighting_yes,TV_yes,Cooking_no,6932.882874489712,139.68218579933568,571.4166666666666,535.4835573145833
180,180,sex_female,Urbanity_Urban,Size_4,age_36_45,Education_Elementary_School,Lighting_yes,TV_yes,Cooking_no,2991.5154359852186,102.27712497772184,571.4166666666666,717.6284124744489
181,181,sex_male,Urbanity_Urban,Size_4,age_56_65,Education_Post_Secondary,Lighting_yes,TV_yes,Cooking_no,6968.793281829447,159.30516152007638,571.4166666666666,0.0
182,182,sex_male,Urbanity_Urban,Size_6,age_36_45,Education_College,Lighting_yes,TV_yes,Cooking_no,12333.281151924199,156.91676533498128,571.4166666666666,466.8935802231152
183,183,sex_male,Urbanity_Urban,Size_7,age_46_55,Education_Post_Secondary,Lighting_yes,TV_yes,Cooking_no,7632.029602087819,150.14351920745025,571.4166666666666,331.0017712008775
184,184,sex_female,Urbanity_Urban,Size_6,age_46_55,Education_Post_Secondary,Lighting_yes,TV_yes,Cooking_no,7670.126906523966,109.67565676591005,571.4166666666666,3.4040213470119016
185,185,sex_male,Urbanity_Urban,Size_6,age_66_75,Education_Elementary_School,Lighting_yes,TV_yes,Cooking_no,3955.571798631747,140.0751206095843,571.4166666666666,0.0
186,186,sex_female,Urbanity_Urban,Size_4,age_56_65,Education_Post_Secondary,Lighting_yes,TV_yes,Cooking_no,7170.249343249568,171.0412805733319,571.4166666666666,0.0
187,187,sex_male,Urbanity_Urban,Size_5,age_36_45,Education_College,Lighting_yes,TV_yes,Cooking_no,11964.883895377756,117.09723820522876,571.4166666666666,703.0533686906142
188,188,sex_male,Urbanity_Urban,Size_6,age_36_45,Education_Post_Secondary,Lighting_yes,TV_yes,Cooking_no,7124.417318076625,119.77946965704615,571.4166666666666,299.3237688470843
189,189,sex_male,Urbanity_Urban,Size_6,age_56_65,Education_College,Lighting_yes,TV_yes,Cooking_no,12623.985879347607,151.31484750403234,571.4166666666666,0.0
190,190,sex_male,Urbanity_Urban,Size_6,age_56_65,Education_Elementary_School,Lighting_yes,TV_yes,Cooking_no,3727.440025817074,150.88233255461,571.4166666666666,0.0
191,191,sex_male,Urbanity_Urban,Size_5,age_46_55,Education_College,Lighting_yes,TV_yes,Cooking_no,12180.04361082876,137.28879970806324,571.4166666666666,359.27644819950194
192,192,sex_male,Urbanity_Urban,Size_5,age_36_45,Education_Elementary_School,Lighting_yes,TV_yes,Cooking_no,3126.42143209808,116.90756540179248,571.4166666666666,673.1554431093356
193,193,sex_male,Urbanity_Urban,Size_5,age_56_65,Education_College,Lighting_yes,TV_yes,Cooking_no,12322.676935323645,219.7388969801601,571.4166666666666,107.51862042858903
194,194,sex_female,Urbanity_Urban,Size_3,age_66_75,Education_College,Lighting_yes,TV_yes,Cooking_no,12005.856251776911,149.59607002207673,571.4166666666666,982.6956878198686
195,195,sex_male,Urbanity_Urban,Size_5,age_66_75,Education_Elementary_School,Lighting_yes,TV_yes,Cooking_no,3511.4891118008313,180.9331693727699,571.4166666666666,8.35472918486006
196,196,sex_female,Urbanity_Urban,Size_5,age_56_65,Education_High_School,Lighting_yes,TV_yes,Cooking_no,4521.676041274121,134.3893641292415,571.4166666666666,67.02179783780197
197,197,sex_male,Urbanity_Urban,Size_3,age_36_45,Education_Post_Secondary,Lighting_yes,TV_yes,Cooking_no,6460.6644961789,144.0465679915117,571.4166666666666,1432.0694173772729
198,198,sex_female,Urbanity_Urban,Size_6,age_46_55,Education_Elementary_School,Lighting_yes,TV_yes,Cooking_no,3626.5069950729053,129.7317053642644,571.4166666666666,141.0759071417641
199,199,sex_male,Urbanity_Urban,Size_4,age_36_45,Education_Post_Secondary,Lighting_yes,TV_yes,Cooking_no,6699.998321463676,123.60216679779558,571.4166666666666,532.0993536886567
200,200,sex_male,Urbanity_Urban,Size_5,age_46_55,Education_College,Lighting_yes,TV_yes,Cooking_no,12080.268008676174,174.98095433991472,571.4166666666666,359.27644819950194
201,201,sex_male,Urbanity_Urban,Size_5,age_66_75,Education_College,Lighting_yes,TV_yes,Cooking_no,12573.652912579488,139.88636651962105,571.4166666666666,38.25265476613873
202,202,sex_male,Urbanity_Urban,Size_5,age_46_55,Education_High_School,Lighting_yes,TV_yes,Cooking_no,4234.048062009249,151.93350871459552,571.4166666666666,270.92245261767494
203,203,sex_male,Urbanity_Urban,Size_3,age_56_65,Education_Post_Secondary,Lighting_yes,TV_yes,Cooking_no,6698.835854922569,149.41325409025782,571.4166666666666,836.534669115248
204,204,sex_male,Urbanity_Urban,Size_4,age_46_55,Education_High_School,Lighting_yes,TV_yes,Cooking_no,3985.9672117579908,166.94852004311898,571.4166666666666,267.5382489917492
205,205,sex_female,Urbanity_Urban,Size_7,age_36_45,Education_College,Lighting_yes,TV_yes,Cooking_no,12690.885557308413,147.7661666203976,571.4166666666666,890.2056760590597
206,206,sex_male,Urbanity_Urban,Size_4,age_56_65,Education_Elementary_School,Lighting_yes,TV_yes,Cooking_no,3170.8940956803503,122.59671680707793,571.4166666666666,74.23649122138416
207,207,sex_male,Urbanity_Urban,Size_6,age_36_45,Education_Post_Secondary,Lighting_yes,TV_yes,Cooking_no,7198.142879135539,105.79286881041756,571.4166666666666,299.3237688470843
208,208,sex_male,Urbanity_Urban,Size_3,age_46_55,Education_College,Lighting_yes,TV_yes,Cooking_no,11751.5020153604,154.9787726994969,571.4166666666666,1255.8623082621918
209,209,sex_male,Urbanity_Urban,Size_5,age_46_55,Education_Elementary_School,Lighting_yes,TV_yes,Cooking_no,3285.217176188012,131.44354830928714,571.4166666666666,329.37852261822326
210,210,sex_female,Urbanity_Urban,Size_3,age_46_55,Education_Post_Secondary,Lighting_yes,TV_yes,Cooking_no,6715.616678109658,177.893640863058,571.4166666666666,1136.149669877201
211,211,sex_male,Urbanity_Urban,Size_4,age_66_75,Education_Post_Secondary,Lighting_yes,TV_yes,Cooking_no,7165.957496049105,149.74590012103232,571.4166666666666,0.0
212,212,sex_female,Urbanity_Urban,Size_4,age_56_65,Education_College,Lighting_yes,TV_yes,Cooking_no,12189.345944929599,183.0065801360872,571.4166666666666,151.99158979370276
213,213,sex_female,Urbanity_Urban,Size_5,age_56_65,Education_Post_Secondary,Lighting_yes,TV_yes,Cooking_no,7354.308088991946,112.28949636834949,571.4166666666666,0.0
214,214,sex_female,Urbanity_Urban,Size_4,age_56_65,Education_College,Lighting_yes,TV_yes,Cooking_no,12282.04359618762,189.52469261392318,571.4166666666666,151.99158979370276
215,215,sex_male,Urbanity_Urban,Size_4,age_46_55,Education_Post_Secondary,Lighting_yes,TV_yes,Cooking_no,6736.63863060536,146.9005995640374,571.4166666666666,188.32243319754537
216,216,sex_male,Urbanity_Urban,Size_4,age_56_65,Education_College,Lighting_yes,TV_yes,Cooking_no,12117.29889588804,153.6629548667719,571.4166666666666,104.13441680266283
217,217,sex_male,Urbanity_Urban,Size_5,age_46_55,Education_Post_Graduate,Lighting_yes,TV_yes,Cooking_no,13976.638014435592,147.73290979244612,571.4166666666666,218.72518570657795
218,218,sex_male,Urbanity_Urban,Size_5,age_66_75,Education_Elementary_School,Lighting_yes,TV_yes,Cooking_no,3659.873614701136,139.9008561318294,571.4166666666666,8.35472918486006
219,219,sex_female,Urbanity_Urban,Size_5,age_26_35,Education_College,Lighting_yes,TV_yes,Cooking_no,12055.726584150483,145.69295257904733,571.4166666666666,409.35936541994266
220,220,sex_female,Urbanity_Urban,Size_4,age_36_45,Education_Elementary_School,Lighting_yes,TV_yes,Cooking_no,3082.1636505212145,100.2554829680485,571.4166666666666,717.6284124744489
221,221,sex_male,Urbanity_Urban,Size_4,age_56_65,Education_Post_Secondary,Lighting_yes,TV_yes,Cooking_no,6981.012349750577,89.62485623732798,571.4166666666666,0.0
222,222,sex_female,Urbanity_Urban,Size_6,age_56_65,Education_Post_Secondary,Lighting_yes,TV_yes,Cooking_no,7667.39991151846,162.8845397144123,571.4166666666666,0.0
223,223,sex_male,Urbanity_Urban,Size_3,age_36_45,Education_Elementary_School,Lighting_yes,TV_yes,Cooking_no,2590.8388144661103,163.78016771134045,571.4166666666666,1569.741303172025
224,224,sex_male,Urbanity_Urban,Size_3,age_46_55,Education_College,Lighting_yes,TV_yes,Cooking_no,11565.698938077305,147.19967199647832,571.4166666666666,1255.8623082621918
225,225,sex_male,Urbanity_Urban,Size_3,age_46_55,Education_Post_Secondary,Lighting_yes,TV_yes,Cooking_yes,6600.688666951927,198.42097970076,571.4166666666666,1038.8307386938225
226,226,sex_male,Urbanity_Urban,Size_4,age_36_45,Education_College,Lighting_yes,TV_yes,Cooking_no,11621.03419189826,131.70407168576654,571.4166666666666,699.6691650646876
227,227,sex_male,Urbanity_Urban,Size_9,age_46_55,Education_Post_Secondary,Lighting_yes,TV_yes,Cooking_no,8075.799109212747,128.1292680758063,571.4166666666666,293.15055917127967
228,228,sex_male,Urbanity_Urban,Size_9,age_56_65,Education_Elementary_School,Lighting_yes,TV_yes,Cooking_no,4573.751945120031,129.4853315250399,571.4166666666666,179.06461719511896
229,229,sex_male,Urbanity_Urban,Size_9,age_46_55,Education_College,Lighting_yes,TV_yes,Cooking_no,13082.478695453536,178.2877634839819,571.4166666666666,460.72037054731055
230,230,sex_male,Urbanity_Urban,Size_9,age_56_65,Education_Post_Secondary,Lighting_yes,TV_yes,Cooking_no,8225.357272698771,166.58887746132731,571.4166666666666,41.39273140036676
231,231,sex_male,Urbanity_Urban,Size_6,age_36_45,Education_Elementary_School,Lighting_yes,TV_yes,Cooking_no,3351.66536564328,132.98753911942921,571.4166666666666,436.9956546418365
232,232,sex_male,Urbanity_Urban,Size_4,age_36_45,Education_High_School,Lighting_yes,TV_yes,Cooking_no,3871.735535419477,155.49842761794054,571.4166666666666,611.3151694828606
233,233,sex_male,Urbanity_Urban,Size_4,age_56_65,Education_Post_Secondary,Lighting_yes,TV_yes,Cooking_no,6923.396498584179,123.51941445089425,571.4166666666666,0.0
234,234,sex_male,Urbanity_Urban,Size_4,age_46_55,Education_Post_Secondary,Lighting_yes,TV_yes,Cooking_no,6930.540210592253,118.49496490962672,571.4166666666666,188.32243319754537
235,235,sex_male,Urbanity_Urban,Size_6,age_46_55,Education_Elementary_School,Lighting_yes,TV_yes,Cooking_no,3490.1212988195866,99.04826130907566,571.4166666666666,93.21873415072469
236,236,sex_female,Urbanity_Urban,Size_6,age_46_55,Education_High_School,Lighting_yes,TV_yes,Cooking_no,4700.795986216229,132.32281815189185,571.4166666666666,82.61983714121578
237,237,sex_male,Urbanity_Urban,Size_4,age_76_85,Education_Post_Secondary,Lighting_yes,TV_yes,Cooking_no,7496.182744145331,138.1282144617277,571.4166666666666,0.0
238,238,sex_male,Urbanity_Urban,Size_2,age_36_45,Education_Post_Secondary,Lighting_yes,TV_yes,Cooking_no,6139.378558903545,128.43703148975922,571.4166666666666,2049.788045058521
239,239,sex_male,Urbanity_Urban,Size_4,age_46_55,Education_Elementary_School,Lighting_yes,TV_yes,Cooking_no,2984.875330096754,146.79176200337386,571.4166666666666,325.9943189922976
240,240,sex_female,Urbanity_Urban,Size_4,age_46_55,Education_College,Lighting_yes,TV_yes,Cooking_no,11996.030256316631,105.48036569994352,571.4166666666666,403.74941756461567
241,241,sex_male,Urbanity_Urban,Size_2,age_56_65,Education_Post_Secondary,Lighting_yes,TV_yes,Cooking_no,6409.318520412406,105.69713746666456,571.4166666666666,1454.2532967964964
242,242,sex_male,Urbanity_Urban,Size_2,age_46_55,Education_Elementary_School,Lighting_yes,TV_yes,Cooking_no,2544.26539815274,95.71190253143965,571.4166666666666,1843.6830103621614
243,243,sex_male,Urbanity_Urban,Size_7,age_56_65,Education_Post_Secondary,Lighting_yes,TV_yes,Cooking_yes,7801.591847016497,198.315642340818,571.4166666666666,29.782185237625136
244,244,sex_male,Urbanity_Urban,Size_5,age_56_65,Education_Post_Secondary,Lighting_yes,TV_yes,Cooking_no,7193.634600116687,133.2739622034785,571.4166666666666,0.0
245,245,sex_male,Urbanity_Urban,Size_6,age_46_55,Education_Post_Secondary,Lighting_yes,TV_yes,Cooking_no,7183.2836671967725,146.6713988583926,571.4166666666666,0.0
246,246,sex_male,Urbanity_Urban,Size_2,age_36_45,Education_High_School,Lighting_yes,TV_yes,Cooking_no,3302.6739078942883,142.0656280291135,571.4166666666666,2129.0038608527248
247,247,sex_female,Urbanity_Urban,Size_5,age_36_45,Education_High_School,Lighting_yes,TV_yes,Cooking_no,4229.989050141428,161.30228097108855,571.4166666666666,662.5565460998266
248,248,sex_female,Urbanity_Urban,Size_4,age_56_65,Education_Elementary_School,Lighting_yes,TV_yes,Cooking_no,3404.913554004096,124.48550696449894,571.4166666666666,122.09366421242409
249,249,sex_male,Urbanity_Urban,Size_4,age_46_55,Education_Elementary_School,Lighting_yes,TV_yes,Cooking_no,2994.4004932902844,151.02424322342932,571.4166666666666,325.9943189922976
250,250,sex_female,Urbanity_Urban,Size_4,age_46_55,Education_Post_Secondary,Lighting_yes,TV_yes,Cooking_no,6814.3746565360525,147.7197354757296,571.4166666666666,236.17960618858478
251,251,sex_male,Urbanity_Urban,Size_7,age_56_65,Education_Post_Secondary,Lighting_yes,TV_yes,Cooking_no,7794.205453764644,110.47135162399401,571.4166666666666,79.2439434299641
252,252,sex_male,Urbanity_Urban,Size_7,age_66_75,Education_Elementary_School,Lighting_yes,TV_yes,Cooking_no,4046.637117427701,124.967777192379,571.4166666666666,147.64986356226598
253,253,sex_female,Urbanity_Urban,Size_9,age_36_45,Education_Elementary_School,Lighting_yes,TV_yes,Cooking_no,4385.706007530038,133.0714643967423,571.4166666666666,822.4565384481836
254,254,sex_male,Urbanity_Urban,Size_7,age_46_55,Education_Post_Secondary,Lighting_yes,TV_yes,Cooking_no,7426.197193036751,130.2704953729471,571.4166666666666,331.0017712008775
255,255,sex_male,Urbanity_Urban,Size_5,age_26_35,Education_High_School,Lighting_yes,TV_yes,Cooking_no,3922.1369400540143,140.78646998581712,571.4166666666666,273.1481968470757
256,256,sex_male,Urbanity_Urban,Size_8,age_56_65,Education_High_School,Lighting_yes,TV_yes,Cooking_no,5220.822523384842,118.52045499372929,571.4166666666666,171.34178870733822
257,257,sex_male,Urbanity_Rural,Size_5,age_56_65,Education_High_School,Lighting_yes,TV_yes,Cooking_no,3405.7865080234155,110.69842303299156,571.4166666666666,0.0
258,258,sex_male,Urbanity_Urban,Size_5,age_36_45,Education_College,Lighting_yes,TV_yes,Cooking_no,11813.740403118703,138.51807034476215,571.4166666666666,703.0533686906142
259,259,sex_male,Urbanity_Urban,Size_4,age_19_25,Education_High_School,Lighting_yes,TV_yes,Cooking_no,3492.8563907529187,142.17957077799866,571.4166666666666,2456.358337697489
260,260,sex_male,Urbanity_Urban,Size_7,age_56_65,Education_High_School,Lighting_yes,TV_yes,Cooking_no,4847.174308134997,127.79759609129913,571.4166666666666,158.45975922416798
261,261,sex_male,Urbanity_Urban,Size_7,age_26_35,Education_High_School,Lighting_yes,TV_yes,Cooking_no,4428.296224537803,115.99443635981967,571.4166666666666,412.4433312244817
262,262,sex_male,Urbanity_Urban,Size_3,age_36_45,Education_Post_Graduate,Lighting_yes,TV_yes,Cooking_no,13127.995909920266,143.28228986450873,571.4166666666666,1459.0879662603797
263,263,sex_male,Urbanity_Urban,Size_2,age_46_55,Education_High_School,Lighting_yes,TV_yes,Cooking_no,3539.8589013939772,150.67633332752825,571.4166666666666,1785.2269403616128
264,264,sex_female,Urbanity_Urban,Size_4,age_46_55,Education_High_School,Lighting_yes,TV_yes,Cooking_no,4119.970458754005,101.68205041808812,571.4166666666666,315.39542198278866
265,265,sex_male,Urbanity_Urban,Size_5,age_66_75,Education_Post_Secondary,Lighting_yes,TV_yes,Cooking_no,7451.47283307133,114.47629204309813,571.4166666666666,0.0
266,266,sex_female,Urbanity_Urban,Size_6,age_36_45,Education_College,Lighting_yes,TV_yes,Cooking_no,12357.328835171455,154.7089781420785,571.4166666666666,514.7507532141551
267,267,sex_male,Urbanity_Urban,Size_7,age_46_55,Education_High_School,Lighting_yes,TV_yes,Cooking_no,4777.09156709685,140.19949788539543,571.4166666666666,410.2175869950814
268,268,sex_male,Urbanity_Urban,Size_3,age_36_45,Education_College,Lighting_yes,TV_yes,Cooking_no,11425.172770465484,133.71132769031306,571.4166666666666,1599.6392287533035
269,269,sex_male,Urbanity_Urban,Size_3,age_46_55,Education_College,Lighting_yes,TV_yes,Cooking_no,11697.790499443994,164.05457294805768,571.4166666666666,1255.8623082621918
270,270,sex_male,Urbanity_Urban,Size_7,age_46_55,Education_Post_Graduate,Lighting_yes,TV_yes,Cooking_no,14396.970200204114,168.8993488474608,571.4166666666666,358.0203200839834
271,271,sex_male,Urbanity_Urban,Size_3,age_76_85,Education_High_School,Lighting_yes,TV_yes,Cooking_no,4298.1706637718735,121.02496771131449,571.4166666666666,411.2282238613481
272,272,sex_female,Urbanity_Urban,Size_2,age_26_35,Education_Elementary_School,Lighting_yes,TV_yes,Cooking_no,2329.393205302737,108.64169599429235,571.4166666666666,1893.7659275826013
273,273,sex_female,Urbanity_Urban,Size_2,age_66_75,Education_Post_Graduate,Lighting_yes,TV_yes,Cooking_no,13671.998510728994,171.21053449213213,571.4166666666666,1459.863053008192
274,274,sex_female,Urbanity_Urban,Size_2,age_46_55,Education_College,Lighting_yes,TV_yes,Cooking_no,11378.024823180514,131.83785388742763,571.4166666666666,1921.43810893448
275,275,sex_male,Urbanity_Urban,Size_2,age_66_75,Education_High_School,Lighting_yes,TV_yes,Cooking_no,3777.258792504177,127.42556077030756,571.4166666666666,1464.20314692825
276,276,sex_male,Urbanity_Urban,Size_2,age_46_55,Education_College,Lighting_yes,TV_yes,Cooking_no,11374.848817880349,156.92525093147302,571.4166666666666,1873.5809359434402
277,277,sex_female,Urbanity_Urban,Size_6,age_56_65,Education_Elementary_School,Lighting_yes,TV_yes,Cooking_no,3816.820509527897,145.65586453425,571.4166666666666,0.0
278,278,sex_male,Urbanity_Urban,Size_6,age_36_45,Education_Elementary_School,Lighting_yes,TV_yes,Cooking_no,3314.325556682556,169.90576460590015,571.4166666666666,436.9956546418365
279,279,sex_female,Urbanity_Urban,Size_7,age_56_65,Education_Post_Secondary,Lighting_yes,TV_yes,Cooking_no,7905.322136281722,116.49209300432614,571.4166666666666,127.10111642100402
280,280,sex_male,Urbanity_Urban,Size_7,age_36_45,Education_Post_Secondary,Lighting_yes,TV_yes,Cooking_no,7397.132975812057,130.63627312776677,571.4166666666666,674.7786916919889
281,281,sex_male,Urbanity_Urban,Size_2,age_46_55,Education_Post_Secondary,Lighting_yes,TV_yes,Cooking_no,6211.214650761758,167.29787050523512,571.4166666666666,1706.0111245674093
282,282,sex_male,Urbanity_Urban,Size_5,age_46_55,Education_Post_Secondary,Lighting_yes,TV_yes,Cooking_no,7067.799104455216,147.72269978569747,571.4166666666666,191.70663682347106
283,283,sex_male,Urbanity_Urban,Size_3,age_46_55,Education_Post_Secondary,Lighting_yes,TV_yes,Cooking_no,6538.8882889442775,136.58921443166295,571.4166666666666,1088.292496886161
284,284,sex_male,Urbanity_Urban,Size_4,age_36_45,Education_Post_Secondary,Lighting_yes,TV_yes,Cooking_no,6620.331894039242,115.41100380367551,571.4166666666666,532.0993536886567
285,285,sex_female,Urbanity_Urban,Size_4,age_66_75,Education_College,Lighting_yes,TV_yes,Cooking_no,12495.234404288483,143.66989594383531,571.4166666666666,82.72562413125245
286,286,sex_male,Urbanity_Urban,Size_4,age_46_55,Education_Post_Secondary,Lighting_yes,TV_yes,Cooking_no,6792.238647658503,153.49870569486015,571.4166666666666,188.32243319754537
287,287,sex_male,Urbanity_Urban,Size_6,age_46_55,Education_High_School,Lighting_yes,TV_yes,Cooking_no,4569.212829034531,169.77216387450994,571.4166666666666,34.76266415017637
288,288,sex_male,Urbanity_Urban,Size_4,age_46_55,Education_Post_Secondary,Lighting_yes,TV_yes,Cooking_no,6793.176169756291,109.26734692253667,571.4166666666666,188.32243319754537
289,289,sex_male,Urbanity_Urban,Size_8,age_26_35,Education_High_School,Lighting_yes,TV_yes,Cooking_no,4727.369379994282,169.44340803718438,571.4166666666666,425.32536070765144
290,290,sex_male,Urbanity_Urban,Size_6,age_26_35,Education_Post_Secondary,Lighting_yes,TV_yes,Cooking_no,6987.717484520276,180.4942699561639,571.4166666666666,0.0
291,291,sex_male,Urbanity_Urban,Size_4,age_26_35,Education_Elementary_School,Lighting_yes,TV_yes,Cooking_no,2685.824267786133,160.76473444580938,571.4166666666666,328.22006322169784
292,292,sex_male,Urbanity_Urban,Size_3,age_56_65,Education_Post_Secondary,Lighting_yes,TV_yes,Cooking_no,6791.898014898138,132.17103191398922,571.4166666666666,836.534669115248
293,293,sex_male,Urbanity_Urban,Size_4,age_46_55,Education_Post_Secondary,Lighting_yes,TV_yes,Cooking_no,6897.8530187597935,135.18345761549006,571.4166666666666,188.32243319754537
294,294,sex_male,Urbanity_Urban,Size_2,age_46_55,Education_Post_Secondary,Lighting_yes,TV_yes,Cooking_no,6319.1761136607975,127.00903064866516,571.4166666666666,1706.0111245674093
295,295,sex_female,Urbanity_Urban,Size_4,age_36_45,Education_High_School,Lighting_yes,TV_yes,Cooking_no,3871.830527153283,154.0254204257246,571.4166666666666,659.1723424739006
296,296,sex_male,Urbanity_Urban,Size_4,age_26_35,Education_Post_Secondary,Lighting_yes,TV_yes,Cooking_no,6467.257780899555,137.52343041381306,571.4166666666666,190.54817742694567
297,297,sex_male,Urbanity_Urban,Size_5,age_46_55,Education_College,Lighting_yes,TV_yes,Cooking_no,12155.614080957674,135.66995940554236,571.4166666666666,359.27644819950194
298,298,sex_male,Urbanity_Urban,Size_3,age_46_55,Education_Post_Secondary,Lighting_yes,TV_yes,Cooking_no,6560.415926771521,164.97252610612776,571.4166666666666,1088.292496886161
299,299,sex_male,Urbanity_Urban,Size_6,age_36_45,Education_High_School,Lighting_yes,TV_yes,Cooking_no,4364.870163291671,109.32774421743004,571.4166666666666,378.53958464128823
300,300,sex_male,Urbanity_Urban,Size_5,age_26_35,Education_High_School,Lighting_yes,TV_yes,Cooking_no,3978.267998407897,85.31256471489478,571.4166666666666,273.1481968470757
301,301,sex_female,Urbanity_Urban,Size_3,age_46_55,Education_High_School,Lighting_yes,TV_yes,Cooking_yes,3989.006949167209,188.959840145917,571.4166666666666,1165.9037274790664
302,302,sex_male,Urbanity_Urban,Size_6,age_26_35,Education_Post_Secondary,Lighting_yes,TV_yes,Cooking_no,7021.043348607032,178.92132163829308,571.4166666666666,0.0
303,303,sex_male,Urbanity_Urban,Size_6,age_26_35,Education_Post_Secondary,Lighting_yes,TV_yes,Cooking_no,6914.314228740334,103.84634015994641,571.4166666666666,0.0
304,304,sex_female,Urbanity_Urban,Size_5,age_36_45,Education_High_School,Lighting_yes,TV_yes,Cooking_no,4235.747670324337,111.33025578860607,571.4166666666666,662.5565460998266
305,305,sex_male,Urbanity_Urban,Size_4,age_26_35,Education_Post_Secondary,Lighting_yes,TV_yes,Cooking_no,6583.136626604722,107.66579333126144,571.4166666666666,190.54817742694567
306,306,sex_male,Urbanity_Urban,Size_6,age_36_45,Education_Post_Graduate,Lighting_yes,TV_yes,Cooking_no,13851.451088826541,146.21049357761558,571.4166666666666,326.3423177301907
307,307,sex_female,Urbanity_Urban,Size_6,age_56_65,Education_Elementary_School,Lighting_yes,TV_yes,Cooking_no,3714.8539652915724,131.20717547880574,571.4166666666666,0.0
308,308,sex_male,Urbanity_Urban,Size_6,age_46_55,Education_Post_Secondary,Lighting_yes,TV_yes,Cooking_no,7430.062406850012,157.53500921349672,571.4166666666666,0.0
309,309,sex_male,Urbanity_Urban,Size_9,age_56_65,Education_Post_Secondary,Lighting_yes,TV_yes,Cooking_no,8344.116810706546,141.23549740414126,571.4166666666666,41.39273140036676
310,310,sex_male,Urbanity_Urban,Size_4,age_56_65,Education_College,Lighting_yes,TV_yes,Cooking_no,11965.712975421926,155.77268015513616,571.4166666666666,104.13441680266283
311,311,sex_male,Urbanity_Urban,Size_3,age_26_35,Education_College,Lighting_yes,TV_yes,Cooking_no,11386.652384799563,129.39709865022982,571.4166666666666,1258.0880524915926
312,312,sex_male,Urbanity_Urban,Size_5,age_46_55,Education_Elementary_School,Lighting_yes,TV_yes,Cooking_no,3379.6884429683564,130.0957338137887,571.4166666666666,329.37852261822326
313,313,sex_male,Urbanity_Urban,Size_5,age_46_55,Education_Post_Secondary,Lighting_yes,TV_yes,Cooking_no,6994.609398843787,134.35444265578812,571.4166666666666,191.70663682347106
314,314,sex_female,Urbanity_Urban,Size_7,age_46_55,Education_Post_Secondary,Lighting_yes,TV_yes,Cooking_no,7749.283935128287,152.81638988921534,571.4166666666666,378.8589441919169
315,315,sex_female,Urbanity_Urban,Size_4,age_46_55,Education_Elementary_School,Lighting_yes,TV_yes,Cooking_no,3195.1608901465447,185.87271029440484,571.4166666666666,373.8514919833369
316,316,sex_female,Urbanity_Urban,Size_3,age_46_55,Education_College,Lighting_yes,TV_yes,Cooking_no,11753.06998877302,170.5360619224956,571.4166666666666,1303.7194812532318
317,317,sex_female,Urbanity_Urban,Size_4,age_46_55,Education_Elementary_School,Lighting_yes,TV_yes,Cooking_no,3230.0955805946633,165.89832215418468,571.4166666666666,373.8514919833369
318,318,sex_male,Urbanity_Urban,Size_2,age_36_45,Education_College,Lighting_yes,TV_yes,Cooking_no,11162.965419525657,160.9819533968757,571.4166666666666,2217.3578564345516
319,319,sex_male,Urbanity_Urban,Size_3,age_36_45,Education_Post_Secondary,Lighting_yes,TV_yes,Cooking_no,6479.985413098881,145.3647608911862,571.4166666666666,1432.0694173772729
320,320,sex_male,Urbanity_Urban,Size_4,age_36_45,Education_College,Lighting_yes,TV_yes,Cooking_no,11660.777991485596,144.1079058479731,571.4166666666666,699.6691650646876
321,321,sex_female,Urbanity_Urban,Size_4,age_36_45,Education_Post_Secondary,Lighting_yes,TV_yes,Cooking_no,6698.240245947905,119.22602379453602,571.4166666666666,579.9565266796966
322,322,sex_male,Urbanity_Urban,Size_5,age_36_45,Education_Post_Secondary,Lighting_yes,TV_yes,Cooking_no,6989.867986648227,119.72307590027478,571.4166666666666,535.4835573145833
323,323,sex_male,Urbanity_Urban,Size_5,age_46_55,Education_High_School,Lighting_yes,TV_yes,Cooking_no,4253.968367449568,168.44250255547766,571.4166666666666,270.92245261767494
324,324,sex_male,Urbanity_Urban,Size_2,age_46_55,Education_Post_Secondary,Lighting_yes,TV_yes,Cooking_no,6300.45140745602,130.83137996955773,571.4166666666666,1706.0111245674093
325,325,sex_male,Urbanity_Urban,Size_2,age_56_65,Education_High_School,Lighting_yes,TV_yes,Cooking_yes,3566.970744068273,140.38447451552864,571.4166666666666,1484.007354398361
326,326,sex_male,Urbanity_Urban,Size_5,age_56_65,Education_Elementary_School,Lighting_yes,TV_yes,Cooking_no,3524.134237488852,115.7371401876314,571.4166666666666,77.62069484731036
327,327,sex_male,Urbanity_Urban,Size_5,age_36_45,Education_Post_Secondary,Lighting_yes,TV_yes,Cooking_no,6838.639807189245,140.98029346488883,571.4166666666666,535.4835573145833
328,328,sex_male,Urbanity_Urban,Size_5,age_36_45,Education_Post_Secondary,Lighting_yes,TV_yes,Cooking_no,6848.690435866918,158.94711053997028,571.4166666666666,535.4835573145833
329,329,sex_male,Urbanity_Urban,Size_7,age_26_35,Education_High_School,Lighting_yes,TV_yes,Cooking_no,4534.532359325131,172.04151079307002,571.4166666666666,412.4433312244817
330,330,sex_male,Urbanity_Urban,Size_6,age_56_65,Education_Elementary_School,Lighting_yes,TV_yes,Cooking_no,3795.067433688758,141.8693519045754,571.4166666666666,0.0
331,331,sex_male,Urbanity_Urban,Size_3,age_56_65,Education_College,Lighting_yes,TV_yes,Cooking_yes,11833.759723854131,151.01767887485838,571.4166666666666,954.6427222989399
332,332,sex_male,Urbanity_Urban,Size_3,age_46_55,Education_Elementary_School,Lighting_yes,TV_yes,Cooking_no,2816.8528748462336,108.64482448092365,571.4166666666666,1225.964382680913
333,333,sex_male,Urbanity_Urban,Size_4,age_26_35,Education_High_School,Lighting_no,TV_yes,Cooking_yes,3578.0384010201105,163.82387612363172,571.4166666666666,94.64642441875
334,334,sex_male,Urbanity_Urban,Size_4,age_56_65,Education_High_School,Lighting_yes,TV_yes,Cooking_no,4147.951315601412,109.14887485753842,571.4166666666666,15.780421220835835
335,335,sex_male,Urbanity_Urban,Size_3,age_46_55,Education_Post_Graduate,Lighting_yes,TV_yes,Cooking_no,13351.094558156863,151.71230676086114,571.4166666666666,1115.3110457692671
336,336,sex_male,Urbanity_Urban,Size_4,age_36_45,Education_Post_Graduate,Lighting_yes,TV_yes,Cooking_no,13449.70193729517,129.99285281885835,571.4166666666666,559.1179025717636
337,337,sex_male,Urbanity_Urban,Size_5,age_46_55,Education_Elementary_School,Lighting_yes,TV_yes,Cooking_no,3269.7169235377132,160.59101407390378,571.4166666666666,329.37852261822326
338,338,sex_male,Urbanity_Urban,Size_5,age_66_75,Education_High_School,Lighting_yes,TV_yes,Cooking_no,4603.244441610095,131.80918372278813,571.4166666666666,0.0
339,339,sex_male,Urbanity_Urban,Size_7,age_46_55,Education_Elementary_School,Lighting_yes,TV_yes,Cooking_no,3837.446303846929,148.70035425370722,571.4166666666666,468.67365699562976
340,340,sex_male,Urbanity_Urban,Size_4,age_56_65,Education_College,Lighting_yes,TV_yes,Cooking_no,12224.632620272114,142.7746968929876,571.4166666666666,104.13441680266283
341,341,sex_male,Urbanity_Urban,Size_4,age_36_45,Education_College,Lighting_yes,TV_yes,Cooking_no,11725.66079002052,151.31777833160643,571.4166666666666,699.6691650646876
342,342,sex_female,Urbanity_Urban,Size_4,age_46_55,Education_Post_Secondary,Lighting_yes,TV_yes,Cooking_no,7041.394200826448,108.65171700755708,571.4166666666666,236.17960618858478
343,343,sex_male,Urbanity_Urban,Size_7,age_46_55,Education_College,Lighting_yes,TV_yes,Cooking_no,12819.12492938069,127.57841193694293,571.4166666666666,498.5715825769084
344,344,sex_female,Urbanity_Urban,Size_6,age_26_35,Education_College,Lighting_yes,TV_yes,Cooking_no,12258.618606963459,143.21714457929784,571.4166666666666,173.1995769524436
345,345,sex_male,Urbanity_Urban,Size_8,age_26_35,Education_Elementary_School,Lighting_yes,TV_yes,Cooking_no,3760.4967772129207,121.2184832114247,571.4166666666666,483.7814307081997
346,346,sex_male,Urbanity_Urban,Size_8,age_36_45,Education_College,Lighting_yes,TV_yes,Cooking_no,12915.852421797546,124.23646722275222,571.4166666666666,855.23053255119
347,347,sex_male,Urbanity_Urban,Size_6,age_66_75,Education_College,Lighting_yes,TV_yes,Cooking_no,12814.474649791377,154.80216445286138,571.4166666666666,0.0
348,348,sex_male,Urbanity_Urban,Size_3,age_46_55,Education_Post_Secondary,Lighting_yes,TV_yes,Cooking_no,6657.0371746793335,85.08787021439382,571.4166666666666,1088.292496886161
349,349,sex_female,Urbanity_Urban,Size_3,age_36_45,Education_Post_Secondary,Lighting_yes,TV_yes,Cooking_no,6621.440632063686,132.40530817913807,571.4166666666666,1479.9265903683126
350,350,sex_male,Urbanity_Urban,Size_2,age_46_55,Education_Post_Graduate,Lighting_yes,TV_yes,Cooking_no,13116.619071748351,157.86414428901978,571.4166666666666,1733.0296734505157
351,351,sex_male,Urbanity_Urban,Size_5,age_26_35,Education_Post_Secondary,Lighting_yes,TV_yes,Cooking_no,6653.909490318873,139.95952920728698,571.4166666666666,193.93238105287236
352,352,sex_male,Urbanity_Urban,Size_3,age_56_65,Education_College,Lighting_yes,TV_yes,Cooking_no,11721.967189044632,147.38895613471274,571.4166666666666,1004.1044804912789
353,353,sex_male,Urbanity_Urban,Size_4,age_66_75,Education_High_School,Lighting_yes,TV_yes,Cooking_no,4381.66848768985,202.76576238790688,571.4166666666666,0.0
354,354,sex_male,Urbanity_Urban,Size_6,age_66_75,Education_High_School,Lighting_yes,TV_yes,Cooking_no,4806.3819429220475,148.1538590624029,571.4166666666666,0.0
355,355,sex_male,Urbanity_Urban,Size_2,age_36_45,Education_Post_Secondary,Lighting_yes,TV_yes,Cooking_no,6218.8936531960035,156.08189278299304,571.4166666666666,2049.788045058521
356,356,sex_female,Urbanity_Urban,Size_4,age_36_45,Education_Post_Secondary,Lighting_yes,TV_yes,Cooking_no,6827.9710190887145,127.44979885815556,571.4166666666666,579.9565266796966
357,357,sex_female,Urbanity_Urban,Size_3,age_46_55,Education_College,Lighting_yes,TV_yes,Cooking_no,11709.212223234843,157.74428430090913,571.4166666666666,1303.7194812532318
358,358,sex_female,Urbanity_Urban,Size_4,age_36_45,Education_High_School,Lighting_yes,TV_yes,Cooking_no,3984.297378916579,154.0948831370818,571.4166666666666,659.1723424739006
359,359,sex_male,Urbanity_Urban,Size_3,age_26_35,Education_High_School,Lighting_yes,TV_yes,Cooking_no,3350.851554157881,97.70010311700413,571.4166666666666,1169.7340569097657
360,360,sex_male,Urbanity_Urban,Size_4,age_46_55,Education_College,Lighting_yes,TV_yes,Cooking_no,11963.062777356843,118.27572370927179,571.4166666666666,355.89224457357625
361,361,sex_male,Urbanity_Urban,Size_6,age_56_65,Education_Post_Graduate,Lighting_yes,TV_yes,Cooking_no,14359.459109646265,166.1202962589105,571.4166666666666,0.0
362,362,sex_female,Urbanity_Urban,Size_6,age_66_75,Education_Post_Secondary,Lighting_yes,TV_yes,Cooking_no,7826.0745917568265,112.64580137168764,571.4166666666666,0.0
363,363,sex_female,Urbanity_Urban,Size_5,age_66_75,Education_Elementary_School,Lighting_yes,TV_yes,Cooking_no,3935.622313284541,89.65818635125173,571.4166666666666,56.211902175899986
364,364,sex_male,Urbanity_Urban,Size_3,age_46_55,Education_College,Lighting_yes,TV_yes,Cooking_no,11732.59402161116,202.00400405108098,571.4166666666666,1255.8623082621918
365,365,sex_female,Urbanity_Urban,Size_4,age_46_55,Education_Post_Secondary,Lighting_yes,TV_yes,Cooking_yes,6832.896230889483,203.6060426544461,571.4166666666666,186.71784799624632
366,366,sex_male,Urbanity_Urban,Size_3,age_46_55,Education_College,Lighting_yes,TV_yes,Cooking_no,11668.587564450958,115.71712543465557,571.4166666666666,1255.8623082621918
367,367,sex_male,Urbanity_Urban,Size_4,age_36_45,Education_Post_Secondary,Lighting_yes,TV_yes,Cooking_no,6681.9394580447615,98.67631961469922,571.4166666666666,532.0993536886567
368,368,sex_male,Urbanity_Urban,Size_4,age_56_65,Education_Elementary_School,Lighting_yes,TV_yes,Cooking_no,3048.708081214703,99.38749302812373,571.4166666666666,74.23649122138416
369,369,sex_male,Urbanity_Urban,Size_4,age_46_55,Education_College,Lighting_yes,TV_yes,Cooking_no,12003.987893666721,149.5652103751438,571.4166666666666,355.89224457357625
370,370,sex_male,Urbanity_Urban,Size_7,age_56_65,Education_High_School,Lighting_yes,TV_yes,Cooking_no,4931.819961801138,145.9998982570585,571.4166666666666,158.45975922416798
371,371,sex_male,Urbanity_Urban,Size_7,age_46_55,Education_Elementary_School,Lighting_yes,TV_yes,Cooking_yes,3872.783290482694,194.26122440172557,571.4166666666666,419.2118988032908
372,372,sex_female,Urbanity_Urban,Size_4,age_76_85,Education_Post_Secondary,Lighting_yes,TV_yes,Cooking_no,7424.2698275379125,129.0374687779078,571.4166666666666,0.0
373,373,sex_female,Urbanity_Urban,Size_4,age_46_55,Education_High_School,Lighting_yes,TV_yes,Cooking_no,4232.071104812414,141.55845698019903,571.4166666666666,315.39542198278866
374,374,sex_male,Urbanity_Urban,Size_4,age_36_45,Education_High_School,Lighting_yes,TV_yes,Cooking_no,3772.5838181323534,112.69129476105343,571.4166666666666,611.3151694828606
375,375,sex_male,Urbanity_Urban,Size_4,age_46_55,Education_Post_Secondary,Lighting_yes,TV_yes,Cooking_no,6681.64873629094,141.41101465454545,571.4166666666666,188.32243319754537
376,376,sex_male,Urbanity_Urban,Size_8,age_56_65,Education_Post_Secondary,Lighting_yes,TV_yes,Cooking_no,8092.952180031428,162.91115442655178,571.4166666666666,92.12597291313433
377,377,sex_male,Urbanity_Urban,Size_4,age_56_65,Education_Elementary_School,Lighting_yes,TV_yes,Cooking_no,3227.1512451363737,121.084130573951,571.4166666666666,74.23649122138416
378,378,sex_male,Urbanity_Urban,Size_5,age_46_55,Education_Post_Secondary,Lighting_no,TV_yes,Cooking_no,7007.9744529402205,139.36024681033138,571.4166666666666,66.05082621341047
379,379,sex_male,Urbanity_Urban,Size_4,age_26_35,Education_High_School,Lighting_yes,TV_yes,Cooking_no,3599.262890791168,178.59584880208664,571.4166666666666,269.7639932211496
380,380,sex_male,Urbanity_Urban,Size_4,age_26_35,Education_Elementary_School,Lighting_yes,TV_yes,Cooking_no,2734.109201870921,156.42157874932488,571.4166666666666,328.22006322169784
381,381,sex_male,Urbanity_Urban,Size_6,age_46_55,Education_College,Lighting_yes,TV_yes,Cooking_no,12327.243640026629,154.2919856682851,571.4166666666666,123.11665973200337
382,382,sex_male,Urbanity_Urban,Size_5,age_26_35,Education_Post_Graduate,Lighting_yes,TV_yes,Cooking_no,13462.259318680613,152.28023563908118,571.4166666666666,220.95092993597825
383,383,sex_female,Urbanity_Urban,Size_5,age_56_65,Education_Post_Secondary,Lighting_no,TV_yes,Cooking_no,7464.662560991114,141.89986631223212,571.4166666666666,0.0
384,384,sex_male,Urbanity_Urban,Size_5,age_56_65,Education_Post_Secondary,Lighting_yes,TV_yes,Cooking_no,7207.988082201311,141.7848213936325,571.4166666666666,0.0
385,385,sex_male,Urbanity_Urban,Size_4,age_56_65,Education_Elementary_School,Lighting_yes,TV_yes,Cooking_no,3188.9383662554005,143.8095835747646,571.4166666666666,74.23649122138416
386,386,sex_male,Urbanity_Urban,Size_6,age_36_45,Education_Post_Secondary,Lighting_yes,TV_yes,Cooking_no,7185.142325450463,127.22859976911373,571.4166666666666,299.3237688470843
387,387,sex_female,Urbanity_Urban,Size_6,age_46_55,Education_Elementary_School,Lighting_yes,TV_yes,Cooking_no,3824.945244426636,113.34358134349534,571.4166666666666,141.0759071417641
388,388,sex_male,Urbanity_Urban,Size_2,age_26_35,Education_High_School,Lighting_no,TV_yes,Cooking_no,3175.3809360561104,137.83641327055747,571.4166666666666,1661.7968739809533
389,389,sex_female,Urbanity_Urban,Size_3,age_56_65,Education_High_School,Lighting_yes,TV_yes,Cooking_no,4068.22079318501,166.51172712955162,571.4166666666666,963.6076579004919
390,390,sex_male,Urbanity_Urban,Size_3,age_56_65,Education_High_School,Lighting_yes,TV_yes,Cooking_no,3869.263249820421,90.98366720998816,571.4166666666666,915.750484909452
391,391,sex_female,Urbanity_Urban,Size_3,age_46_55,Education_Elementary_School,Lighting_yes,TV_yes,Cooking_no,2988.7675112106563,165.15199072286498,571.4166666666666,1273.821555671953
392,392,sex_female,Urbanity_Urban,Size_5,age_56_65,Education_Elementary_School,Lighting_yes,TV_yes,Cooking_no,3706.8240610289704,145.09910163867858,571.4166666666666,125.47786783835028
393,393,sex_male,Urbanity_Urban,Size_6,age_36_45,Education_College,Lighting_yes,TV_yes,Cooking_no,12317.025973347554,158.46478449174685,571.4166666666666,466.8935802231152
394,394,sex_male,Urbanity_Urban,Size_7,age_46_55,Education_College,Lighting_yes,TV_yes,Cooking_no,12615.681607475275,165.87414599199786,571.4166666666666,498.5715825769084
395,395,sex_female,Urbanity_Urban,Size_7,age_46_55,Education_College,Lighting_yes,TV_yes,Cooking_no,12954.136771892683,161.57617578337056,571.4166666666666,546.4287555679479
396,396,sex_female,Urbanity_Urban,Size_7,age_46_55,Education_Post_Secondary,Lighting_yes,TV_yes,Cooking_no,7798.340080461193,103.73920073649849,571.4166666666666,378.8589441919169
397,397,sex_female,Urbanity_Urban,Size_3,age_26_35,Education_Post_Secondary,Lighting_yes,TV_yes,Cooking_no,6259.6687337563035,142.80539629362968,571.4166666666666,1138.3754141066015
398,398,sex_female,Urbanity_Urban,Size_6,age_36_45,Education_Post_Graduate,Lighting_yes,TV_yes,Cooking_no,14067.79441270074,182.22063406976287,571.4166666666666,374.19949072123063
399,399,sex_female,Urbanity_Urban,Size_5,age_46_55,Education_College,Lighting_yes,TV_yes,Cooking_no,12268.380868721353,132.40142601607596,571.4166666666666,407.1336211905418
400,400,sex_female,Urbanity_Urban,Size_4,age_46_55,Education_High_School,Lighting_no,TV_yes,Cooking_no,4083.205467702666,129.28108364635278,571.4166666666666,189.73961137272806
401,401,sex_male,Urbanity_Urban,Size_7,age_66_75,Education_College,Lighting_yes,TV_yes,Cooking_no,13046.372967144713,161.61924093083206,571.4166666666666,177.54778914354466
402,402,sex_male,Urbanity_Urban,Size_3,age_46_55,Education_High_School,Lighting_yes,TV_yes,Cooking_no,3619.764947324928,98.69242890183985,571.4166666666666,1167.5083126803647
403,403,sex_female,Urbanity_Urban,Size_4,age_46_55,Education_College,Lighting_yes,TV_yes,Cooking_no,12073.82352324057,170.3421694431255,571.4166666666666,403.74941756461567
404,404,sex_male,Urbanity_Urban,Size_5,age_56_65,Education_College,Lighting_yes,TV_yes,Cooking_no,12309.25321168171,145.22475010951715,571.4166666666666,107.51862042858903
405,405,sex_female,Urbanity_Urban,Size_6,age_66_75,Education_Post_Secondary,Lighting_yes,TV_yes,Cooking_no,7781.080550388749,129.46228878630072,571.4166666666666,0.0
406,406,sex_male,Urbanity_Urban,Size_7,age_56_65,Education_Elementary_School,Lighting_yes,TV_yes,Cooking_no,3915.195365395194,104.63670611056921,571.4166666666666,216.9158292247163
407,407,sex_male,Urbanity_Urban,Size_6,age_46_55,Education_Elementary_School,Lighting_yes,TV_yes,Cooking_no,3523.4062747220787,98.44359001467024,571.4166666666666,93.21873415072469
408,408,sex_male,Urbanity_Urban,Size_7,age_36_45,Education_College,Lighting_yes,TV_yes,Cooking_no,12435.039770082129,182.47620085802936,571.4166666666666,842.3485030680197
409,409,sex_male,Urbanity_Urban,Size_5,age_46_55,Education_College,Lighting_yes,TV_yes,Cooking_no,12172.86875351847,159.3322275330697,571.4166666666666,359.27644819950194
410,410,sex_male,Urbanity_Urban,Size_9,age_46_55,Education_Elementary_School,Lighting_yes,TV_yes,Cooking_no,4351.551031513753,141.15396088155896,571.4166666666666,430.8224449660319
411,411,sex_male,Urbanity_Urban,Size_3,age_36_45,Education_Post_Secondary,Lighting_yes,TV_yes,Cooking_no,6290.889323995621,149.3688725229971,571.4166666666666,1432.0694173772729
412,412,sex_male,Urbanity_Urban,Size_4,age_56_65,Education_Post_Secondary,Lighting_yes,TV_yes,Cooking_no,6856.134798585606,156.84139912042434,571.4166666666666,0.0
413,413,sex_male,Urbanity_Urban,Size_4,age_56_65,Education_Post_Secondary,Lighting_yes,TV_yes,Cooking_no,6944.0473603812525,166.70760434167406,571.4166666666666,0.0
414,414,sex_male,Urbanity_Urban,Size_4,age_46_55,Education_Post_Secondary,Lighting_yes,TV_yes,Cooking_no,6814.289837795091,105.45463315844174,571.4166666666666,188.32243319754537
415,415,sex_male,Urbanity_Urban,Size_2,age_46_55,Education_Elementary_School,Lighting_yes,TV_yes,Cooking_no,2490.4841508060376,161.9480691096854,571.4166666666666,1843.6830103621614
416,416,sex_male,Urbanity_Urban,Size_3,age_56_65,Education_Post_Secondary,Lighting_yes,TV_yes,Cooking_no,6798.397936633469,158.56978948908645,571.4166666666666,836.534669115248
417,417,sex_male,Urbanity_Urban,Size_4,age_46_55,Education_Post_Secondary,Lighting_yes,TV_yes,Cooking_no,6685.306439144753,134.37819689995652,571.4166666666666,188.32243319754537
418,418,sex_male,Urbanity_Urban,Size_7,age_46_55,Education_Post_Secondary,Lighting_yes,TV_yes,Cooking_no,7538.84235507116,160.07736291006015,571.4166666666666,331.0017712008775
419,419,sex_female,Urbanity_Urban,Size_3,age_46_55,Education_College,Lighting_yes,TV_yes,Cooking_yes,11661.403229157466,187.2426225360405,571.4166666666666,1254.2577230608929
420,420,sex_male,Urbanity_Urban,Size_5,age_36_45,Education_Elementary_School,Lighting_yes,TV_yes,Cooking_no,3187.0482636024394,173.0542029944456,571.4166666666666,673.1554431093356
421,421,sex_male,Urbanity_Urban,Size_5,age_36_45,Education_Elementary_School,Lighting_yes,TV_no,Cooking_no,3243.8629700199212,97.46737539608084,571.4166666666666,273.99999917035325
422,422,sex_male,Urbanity_Urban,Size_5,age_36_45,Education_Post_Secondary,Lighting_yes,TV_yes,Cooking_no,6992.747723843134,124.00631920715513,571.4166666666666,535.4835573145833
423,423,sex_male,Urbanity_Urban,Size_5,age_46_55,Education_Post_Secondary,Lighting_yes,TV_yes,Cooking_no,6935.304520349987,103.84671751247299,571.4166666666666,191.70663682347106
424,424,sex_female,Urbanity_Urban,Size_6,age_36_45,Education_College,Lighting_yes,TV_yes,Cooking_no,12428.484189356062,157.77293893640544,571.4166666666666,514.7507532141551
425,425,sex_male,Urbanity_Urban,Size_7,age_46_55,Education_Elementary_School,Lighting_yes,TV_yes,Cooking_no,3892.4048140957702,142.36758604665548,571.4166666666666,468.67365699562976
426,426,sex_female,Urbanity_Urban,Size_6,age_46_55,Education_College,Lighting_yes,TV_yes,Cooking_no,12604.658491831031,134.93738957366202,571.4166666666666,170.97383272304276
427,427,sex_male,Urbanity_Urban,Size_5,age_56_65,Education_Elementary_School,Lighting_yes,TV_yes,Cooking_no,3477.5642797261357,155.44025844188178,571.4166666666666,77.62069484731036
428,428,sex_male,Urbanity_Urban,Size_5,age_36_45,Education_Post_Secondary,Lighting_yes,TV_yes,Cooking_no,6950.068881713079,120.98315518148121,571.4166666666666,535.4835573145833
429,429,sex_male,Urbanity_Urban,Size_5,age_46_55,Education_Elementary_School,Lighting_yes,TV_yes,Cooking_no,3318.2419034237755,151.60192872369822,571.4166666666666,329.37852261822326
430,430,sex_male,Urbanity_Urban,Size_2,age_46_55,Education_High_School,Lighting_yes,TV_yes,Cooking_no,3461.20176099277,166.35942021744998,571.4166666666666,1785.2269403616128
431,431,sex_male,Urbanity_Urban,Size_4,age_46_55,Education_High_School,Lighting_yes,TV_yes,Cooking_no,4084.2436566812175,100.07872695615808,571.4166666666666,267.5382489917492
432,432,sex_male,Urbanity_Urban,Size_8,age_36_45,Education_Post_Secondary,Lighting_yes,TV_yes,Cooking_no,7758.71588565106,145.36482526234332,571.4166666666666,687.6607211751591
433,433,sex_male,Urbanity_Urban,Size_8,age_46_55,Education_Post_Secondary,Lighting_yes,TV_yes,Cooking_no,7851.778578189124,144.4499868388669,571.4166666666666,343.88380068404723
434,434,sex_male,Urbanity_Urban,Size_8,age_66_75,Education_High_School,Lighting_yes,TV_yes,Cooking_no,5318.410931517325,147.61426154501763,571.4166666666666,102.07582304488794
435,435,sex_female,Urbanity_Urban,Size_3,age_46_55,Education_College,Lighting_yes,TV_yes,Cooking_no,11818.077758982727,120.93977256391943,571.4166666666666,1303.7194812532318
436,436,sex_male,Urbanity_Urban,Size_3,age_26_35,Education_Post_Secondary,Lighting_yes,TV_yes,Cooking_no,6314.1351416071275,125.68951369482514,571.4166666666666,1090.5182411155618
437,437,sex_female,Urbanity_Urban,Size_2,age_36_45,Education_Elementary_School,Lighting_no,TV_yes,Cooking_no,2429.639680464837,126.66039773517929,571.4166666666666,2109.661293234252
438,438,sex_female,Urbanity_Urban,Size_5,age_26_35,Education_College,Lighting_yes,TV_yes,Cooking_no,12076.249812882854,165.93323998737503,571.4166666666666,409.35936541994266
439,439,sex_female,Urbanity_Urban,Size_4,age_56_65,Education_Elementary_School,Lighting_yes,TV_yes,Cooking_no,3365.8590939226838,131.2788750061024,571.4166666666666,122.09366421242409
440,440,sex_male,Urbanity_Urban,Size_6,age_36_45,Education_High_School,Lighting_yes,TV_yes,Cooking_no,4278.435711573316,99.69657163008031,571.4166666666666,378.53958464128823
441,441,sex_female,Urbanity_Urban,Size_3,age_36_45,Education_Post_Secondary,Lighting_yes,TV_yes,Cooking_yes,6523.695997945647,132.88467838967594,571.4166666666666,1430.4648321759742
442,442,sex_male,Urbanity_Urban,Size_3,age_26_35,Education_Post_Secondary,Lighting_yes,TV_yes,Cooking_no,6246.5936411363855,84.3470828996616,571.4166666666666,1090.5182411155618
443,443,sex_male,Urbanity_Urban,Size_3,age_56_65,Education_College,Lighting_yes,TV_yes,Cooking_no,11870.279743898987,125.89465345164729,571.4166666666666,1004.1044804912789
444,444,sex_male,Urbanity_Urban,Size_3,age_66_75,Education_College,Lighting_yes,TV_yes,Cooking_no,12063.660141991431,172.02711649790427,571.4166666666666,934.8385148288287
445,445,sex_male,Urbanity_Urban,Size_3,age_76_85,Education_High_School,Lighting_yes,TV_yes,Cooking_no,4262.921513496646,150.2946413126091,571.4166666666666,411.2282238613481
446,446,sex_male,Urbanity_Urban,Size_3,age_46_55,Education_High_School,Lighting_yes,TV_yes,Cooking_no,3724.1023173592357,159.55165856411287,571.4166666666666,1167.5083126803647
447,447,sex_female,Urbanity_Urban,Size_3,age_36_45,Education_Post_Graduate,Lighting_yes,TV_yes,Cooking_no,13322.137453113062,118.37306113691692,571.4166666666666,1506.945139251419
448,448,sex_female,Urbanity_Urban,Size_3,age_36_45,Education_College,Lighting_yes,TV_yes,Cooking_no,11652.24808213364,155.05474047058732,571.4166666666666,1647.4964017443438
449,449,sex_male,Urbanity_Urban,Size_2,age_36_45,Education_High_School,Lighting_yes,TV_yes,Cooking_no,3117.5990738081623,165.68666275875412,571.4166666666666,2129.0038608527248
450,450,sex_male,Urbanity_Urban,Size_4,age_36_45,Education_College,Lighting_yes,TV_yes,Cooking_no,11802.968102710005,145.34756990439132,571.4166666666666,699.6691650646876
451,451,sex_male,Urbanity_Urban,Size_6,age_66_75,Education_Elementary_School,Lighting_yes,TV_yes,Cooking_no,3964.97165104222,142.11162095416609,571.4166666666666,0.0
452,452,sex_male,Urbanity_Urban,Size_7,age_36_45,Education_Elementary_School,Lighting_yes,TV_yes,Cooking_no,3647.267832380148,126.33419911955978,571.4166666666666,812.4505774867412
453,453,sex_female,Urbanity_Urban,Size_8,age_36_45,Education_Post_Secondary,Lighting_yes,TV_yes,Cooking_no,7768.781013543002,130.95741463349208,571.4166666666666,735.5178941661991
454,454,sex_male,Urbanity_Urban,Size_8,age_66_75,Education_Post_Secondary,Lighting_yes,TV_yes,Cooking_no,8209.19255050807,145.08458420226268,571.4166666666666,22.86000725068405
455,455,sex_male,Urbanity_Urban,Size_5,age_46_55,Education_Elementary_School,Lighting_yes,TV_yes,Cooking_no,3394.091454467475,125.91775678086191,571.4166666666666,329.37852261822326
456,456,sex_male,Urbanity_Urban,Size_6,age_46_55,Education_High_School,Lighting_yes,TV_yes,Cooking_no,4450.595428642322,126.04565125794365,571.4166666666666,34.76266415017637
457,457,sex_male,Urbanity_Urban,Size_3,age_46_55,Education_Elementary_School,Lighting_yes,TV_yes,Cooking_no,2718.259863062032,123.1092529723969,571.4166666666666,1225.964382680913
458,458,sex_male,Urbanity_Urban,Size_5,age_36_45,Education_College,Lighting_yes,TV_yes,Cooking_no,12020.220726922105,181.1680828920304,571.4166666666666,703.0533686906142
459,459,sex_male,Urbanity_Urban,Size_8,age_56_65,Education_College,Lighting_yes,TV_yes,Cooking_no,13242.090174647712,128.37656339252348,571.4166666666666,259.6957842891652
460,460,sex_male,Urbanity_Urban,Size_8,age_36_45,Education_Elementary_School,Lighting_yes,TV_yes,Cooking_no,4005.3993266933217,138.5584907433235,571.4166666666666,825.3326069699114
461,461,sex_male,Urbanity_Urban,Size_2,age_56_65,Education_Post_Secondary,Lighting_yes,TV_yes,Cooking_no,6454.4099861545665,195.8849795106097,571.4166666666666,1454.2532967964964
462,462,sex_female,Urbanity_Urban,Size_5,age_26_35,Education_High_School,Lighting_yes,TV_yes,Cooking_no,4133.7480398623875,138.24918149941232,571.4166666666666,321.0053698381157
463,463,sex_male,Urbanity_Urban,Size_4,age_46_55,Education_Elementary_School,Lighting_yes,TV_yes,Cooking_no,3145.662766052877,194.97329584499627,571.4166666666666,325.9943189922976
464,464,sex_male,Urbanity_Urban,Size_4,age_26_35,Education_Elementary_School,Lighting_yes,TV_yes,Cooking_no,2627.604059124591,116.12050659231626,571.4166666666666,328.22006322169784
465,465,sex_female,Urbanity_Urban,Size_4,age_56_65,Education_Elementary_School,Lighting_yes,TV_yes,Cooking_no,3398.703741223523,146.1079566199576,571.4166666666666,122.09366421242409
466,466,sex_female,Urbanity_Urban,Size_3,age_19_25,Education_Elementary_School,Lighting_yes,TV_yes,Cooking_no,2256.285352684321,151.11789935971228,571.4166666666666,3462.6416443776925
467,467,sex_male,Urbanity_Urban,Size_4,age_56_65,Education_Post_Secondary,Lighting_yes,TV_yes,Cooking_no,7050.082454430273,149.74216454924553,571.4166666666666,0.0
468,468,sex_female,Urbanity_Urban,Size_4,age_56_65,Education_Elementary_School,Lighting_yes,TV_yes,Cooking_no,3240.5918051032104,163.53753198458404,571.4166666666666,122.09366421242409
469,469,sex_male,Urbanity_Urban,Size_4,age_26_35,Education_Elementary_School,Lighting_yes,TV_yes,Cooking_no,2720.1858657204198,153.00380152707845,571.4166666666666,328.22006322169784
470,470,sex_male,Urbanity_Urban,Size_2,age_66_75,Education_Elementary_School,Lighting_yes,TV_yes,Cooking_no,2854.965445483376,151.5265460659861,571.4166666666666,1522.6592169287983
471,471,sex_male,Urbanity_Urban,Size_3,age_36_45,Education_High_School,Lighting_yes,TV_yes,Cooking_no,3555.312570897953,140.80035229166344,571.4166666666666,1511.2852331714766
472,472,sex_male,Urbanity_Urban,Size_4,age_56_65,Education_High_School,Lighting_yes,TV_yes,Cooking_no,4254.4566551744565,131.80135964234472,571.4166666666666,15.780421220835835
473,473,sex_female,Urbanity_Urban,Size_5,age_56_65,Education_College,Lighting_yes,TV_yes,Cooking_no,12490.607094035904,122.70628899296136,571.4166666666666,155.37579341962896
474,474,sex_male,Urbanity_Urban,Size_7,age_46_55,Education_High_School,Lighting_yes,TV_yes,Cooking_no,4698.639280002358,107.79923863362535,571.4166666666666,410.2175869950814
475,475,sex_male,Urbanity_Urban,Size_3,age_36_45,Education_Post_Graduate,Lighting_yes,TV_yes,Cooking_no,13259.604686426686,144.246563316221,571.4166666666666,1459.0879662603797
476,476,sex_male,Urbanity_Urban,Size_6,age_46_55,Education_Elementary_School,Lighting_yes,TV_yes,Cooking_no,3485.821257403529,126.31390618874822,571.4166666666666,93.21873415072469
477,477,sex_male,Urbanity_Urban,Size_5,age_46_55,Education_College,Lighting_yes,TV_yes,Cooking_no,12107.14885485707,129.3702587739441,571.4166666666666,359.27644819950194
478,478,sex_female,Urbanity_Urban,Size_3,age_46_55,Education_College,Lighting_no,TV_yes,Cooking_no,11756.710156861864,145.39058359237382,571.4166666666666,1178.0636706431712
479,479,sex_male,Urbanity_Urban,Size_3,age_36_45,Education_Post_Graduate,Lighting_yes,TV_yes,Cooking_no,13219.181849653081,119.69278394233866,571.4166666666666,1459.0879662603797
