,index,i_Sex,i_FamilySize,i_Age,i_Education,e_Lighting,e_Cooking,Income,Electricity,w,wf
0,0,sex_male,Size_4,age_46_55,Education_College,Lighting_yes,Cooking_yes,12039.337457774736,215.04234988651402,662.5872340425532,314.28357887629187
1,1,sex_female,Size_4,age_36_45,Education_College,Lighting_yes,Cooking_yes,12251.94674465124,240.08205073737102,662.5872340425532,300.01981812008256
2,2,sex_male,Size_5,age_46_55,Education_Post_Secondary,Lighting_yes,Cooking_yes,7309.189899102114,177.6009523419835,662.5872340425532,517.5948562403873
3,3,sex_male,Size_1,age_46_55,Education_Post_Graduate,Lighting_yes,Cooking_yes,13023.962214239144,161.29162310885962,662.5872340425532,549.1706033129813
4,4,sex_male,Size_6,age_46_55,Education_College,Lighting_yes,Cooking_yes,12654.64409018151,206.78654035260263,662.5872340425532,316.53939182269505
5,5,sex_male,Size_4,age_56_65,Education_High_School,Lighting_yes,Cooking_yes,4416.867493166421,147.34197813642083,662.5872340425532,0.0
6,6,sex_male,Size_3,age_56_65,Education_College,Lighting_yes,Cooking_yes,11920.41209992824,172.93184390780658,662.5872340425532,835.085657262595
7,7,sex_male,Size_1,age_36_45,Education_High_School,Lighting_yes,Cooking_yes,3220.368901786764,152.55276996794433,662.5872340425532,286.58117323554904
8,8,sex_male,Size_1,age_46_55,Education_College,Lighting_yes,Cooking_yes,11254.500350742715,210.09163885094716,662.5872340425532,228.19341997905173
9,9,sex_male,Size_1,age_56_65,Education_Post_Secondary,Lighting_yes,Cooking_yes,6488.0092371194905,201.3198575646277,662.5872340425532,0.0
10,10,sex_male,Size_2,age_46_55,Education_Post_Secondary,Lighting_yes,Cooking_yes,6435.486384613034,117.66999515407284,662.5872340425532,1010.6193675216489
11,11,sex_male,Size_2,age_56_65,Education_College,Lighting_yes,Cooking_yes,11823.889991905959,213.92303386088943,662.5872340425532,67.2870514322731
12,12,sex_male,Size_4,age_46_55,Education_College,Lighting_yes,Cooking_yes,12213.916901854003,225.06257767324684,662.5872340425532,314.28357887629187
13,13,sex_female,Size_3,age_56_65,Education_Post_Secondary,Lighting_yes,Cooking_yes,7083.479262027614,217.99595555630464,662.5872340425532,333.56569843018497
14,14,sex_female,Size_2,age_56_65,Education_Post_Secondary,Lighting_yes,Cooking_yes,6877.704808644842,175.28847136850257,662.5872340425532,0.0
15,15,sex_female,Size_2,age_36_45,Education_College,Lighting_yes,Cooking_yes,11629.766533490005,189.91105343417823,662.5872340425532,1300.2470811639969
16,16,sex_male,Size_2,age_26_35,Education_Post_Graduate,Lighting_yes,Cooking_yes,13020.7614504796,178.4173669210852,662.5872340425532,1582.2604365268428
17,17,sex_male,Size_3,age_56_65,Education_College,Lighting_yes,Cooking_yes,12095.824960289005,159.18571248950383,662.5872340425532,835.085657262595
18,18,sex_female,Size_5,age_56_65,Education_Post_Secondary,Lighting_yes,Cooking_yes,7665.197777565976,158.5223372622885,662.5872340425532,0.0
19,19,sex_female,Size_2,age_56_65,Education_Post_Secondary,Lighting_yes,Cooking_yes,6780.191672349372,159.73880108711703,662.5872340425532,0.0
20,20,sex_female,Size_2,age_26_35,Education_Post_Secondary,Lighting_yes,Cooking_yes,6350.403722597373,178.29970723872592,662.5872340425532,759.7632943605038
21,21,sex_male,Size_3,age_46_55,Education_College,Lighting_yes,Cooking_yes,11832.983744805779,195.7643471228476,662.5872340425532,2082.3094477505283
22,22,sex_male,Size_4,age_56_65,Education_High_School,Lighting_yes,Cooking_yes,4422.844660584256,195.76331407398186,662.5872340425532,0.0
23,23,sex_male,Size_4,age_36_45,Education_Post_Secondary,Lighting_yes,Cooking_yes,6968.482502768141,187.69064433586024,662.5872340425532,193.75682815537706
24,24,sex_male,Size_4,age_26_35,Education_Post_Secondary,Lighting_yes,Cooking_yes,6779.837414472918,186.43698999877085,662.5872340425532,0.0
25,25,sex_male,Size_4,age_36_45,Education_College,Lighting_yes,Cooking_yes,11980.442327713115,169.8761310111883,662.5872340425532,497.6483025539346
26,26,sex_female,Size_5,age_46_55,Education_Post_Secondary,Lighting_yes,Cooking_yes,7423.9962029909775,189.83629388668567,662.5872340425532,319.966371806535
27,27,sex_male,Size_4,age_46_55,Education_Elementary_School,Lighting_yes,Cooking_yes,3359.4697294647267,164.34719852783016,662.5872340425532,344.2496750843253
28,28,sex_female,Size_3,age_46_55,Education_College,Lighting_yes,Cooking_yes,11977.32796183439,204.6347010167963,662.5872340425532,1884.680963316676
29,29,sex_male,Size_2,age_56_65,Education_College,Lighting_yes,Cooking_yes,11818.343024983356,179.36345620185367,662.5872340425532,67.2870514322731
30,30,sex_male,Size_2,age_66_75,Education_Post_Secondary,Lighting_yes,Cooking_yes,6934.129068702373,142.60983442551262,662.5872340425532,142.13848289702764
31,31,sex_male,Size_2,age_36_45,Education_Post_Secondary,Lighting_yes,Cooking_yes,6362.888398512027,166.02471842546984,662.5872340425532,1193.9840911992915
32,32,sex_female,Size_1,age_46_55,Education_Elementary_School,Lighting_yes,Cooking_yes,2714.5763163823317,205.8986559597712,662.5872340425532,60.531031753232924
33,33,sex_female,Size_2,age_26_35,Education_Post_Secondary,Lighting_yes,Cooking_yes,6341.266394130512,179.13214311693523,662.5872340425532,759.7632943605038
34,34,sex_female,Size_4,age_46_55,Education_Post_Secondary,Lighting_yes,Cooking_yes,7204.546575061779,147.5794537485726,662.5872340425532,0.0
35,35,sex_male,Size_4,age_56_65,Education_College,Lighting_yes,Cooking_yes,12346.239081841208,177.2212045214502,662.5872340425532,0.0
36,36,sex_male,Size_4,age_56_65,Education_Post_Secondary,Lighting_yes,Cooking_yes,7236.304604203069,172.6639800120998,662.5872340425532,0.0
37,37,sex_male,Size_4,age_46_55,Education_College,Lighting_yes,Cooking_yes,12114.121184837151,205.3501860719661,662.5872340425532,314.28357887629187
38,38,sex_female,Size_3,age_36_45,Education_Elementary_School,Lighting_yes,Cooking_yes,2952.783234209776,151.00415823413215,662.5872340425532,2098.0117832023516
39,39,sex_male,Size_3,age_36_45,Education_Elementary_School,Lighting_yes,Cooking_yes,2890.204724772444,159.0621186135922,662.5872340425532,2295.6402676362045
40,40,sex_male,Size_3,age_56_65,Education_Post_Secondary,Lighting_yes,Cooking_yes,6989.753693631225,128.77819493759694,662.5872340425532,531.1941828640372
41,41,sex_male,Size_1,age_46_55,Education_College,Lighting_yes,Cooking_yes,11453.730956603918,128.0998782347283,662.5872340425532,228.19341997905173
42,42,sex_male,Size_3,age_46_55,Education_Post_Secondary,Lighting_yes,Cooking_yes,6924.626300066175,183.2167196682191,662.5872340425532,1778.4179733519704
43,43,sex_male,Size_1,age_46_55,Education_College,Lighting_yes,Cooking_yes,11351.183852987251,185.9287205585603,662.5872340425532,228.19341997905173
44,44,sex_male,Size_1,age_46_55,Education_College,Lighting_yes,Cooking_yes,11473.189648804875,185.7172214382874,662.5872340425532,228.19341997905173
45,45,sex_male,Size_2,age_46_55,Education_College,Lighting_yes,Cooking_yes,11643.36942526861,185.69319592106427,662.5872340425532,1314.510841920206
46,46,sex_male,Size_3,age_46_55,Education_College,Lighting_yes,Cooking_yes,11876.832026391266,174.4600990022906,662.5872340425532,2082.3094477505283
47,47,sex_male,Size_3,age_26_35,Education_College,Lighting_yes,Cooking_yes,11542.104445845076,160.78101710560662,662.5872340425532,2029.0818590232354
48,48,sex_male,Size_3,age_46_55,Education_College,Lighting_yes,Cooking_yes,11893.682073363147,184.72457324982,662.5872340425532,2082.3094477505283
49,49,sex_female,Size_4,age_46_55,Education_Post_Graduate,Lighting_yes,Cooking_yes,13921.80235261158,205.5614446573649,662.5872340425532,437.63227777636916
50,50,sex_male,Size_4,age_56_65,Education_College,Lighting_yes,Cooking_yes,12481.688566200168,166.0022481272689,662.5872340425532,0.0
51,51,sex_male,Size_4,age_56_65,Education_Post_Secondary,Lighting_yes,Cooking_yes,7390.928902385284,124.5157356751195,662.5872340425532,0.0
52,52,sex_male,Size_2,age_46_55,Education_Post_Secondary,Lighting_yes,Cooking_yes,6612.924917534256,130.62920964412314,662.5872340425532,1010.6193675216489
53,53,sex_male,Size_4,age_36_45,Education_Post_Secondary,Lighting_yes,Cooking_yes,6880.618992518597,136.65648049106932,662.5872340425532,193.75682815537706
54,54,sex_male,Size_3,age_36_45,Education_Post_Secondary,Lighting_yes,Cooking_yes,6702.289595698741,201.2097074848478,662.5872340425532,1961.7826970296132
55,55,sex_female,Size_5,age_26_35,Education_Post_Secondary,Lighting_yes,Cooking_yes,7137.335469030555,169.46343689167637,662.5872340425532,266.73878307924207
56,56,sex_male,Size_5,age_56_65,Education_Post_Graduate,Lighting_yes,Cooking_yes,14218.320615412591,189.16482256056042,662.5872340425532,0.0
57,57,sex_female,Size_4,age_46_55,Education_Post_Secondary,Lighting_yes,Cooking_yes,7188.643114703888,206.98245763713481,662.5872340425532,0.0
58,58,sex_male,Size_4,age_46_55,Education_High_School,Lighting_yes,Cooking_yes,4291.5569035412955,164.19765858991272,662.5872340425532,189.30660845514657
59,59,sex_male,Size_4,age_36_45,Education_College,Lighting_yes,Cooking_yes,12095.976506095507,186.5967924849093,662.5872340425532,497.6483025539346
60,60,sex_male,Size_4,age_46_55,Education_Post_Secondary,Lighting_yes,Cooking_yes,6963.835175112586,168.40300874315946,662.5872340425532,10.39210447773463
61,61,sex_male,Size_4,age_46_55,Education_High_School,Lighting_yes,Cooking_yes,4259.353358256058,187.23153628889762,662.5872340425532,189.30660845514657
62,62,sex_male,Size_4,age_36_45,Education_Post_Secondary,Lighting_yes,Cooking_yes,6877.016803577645,151.7446684880499,662.5872340425532,193.75682815537706
63,63,sex_male,Size_2,age_36_45,Education_Post_Secondary,Lighting_yes,Cooking_yes,6332.552891168304,155.82658196958823,662.5872340425532,1193.9840911992915
64,64,sex_male,Size_8,age_36_45,Education_Post_Graduate,Lighting_yes,Cooking_yes,14765.491572854778,231.65337845536914,662.5872340425532,1879.2298811486198
65,65,sex_female,Size_4,age_46_55,Education_College,Lighting_yes,Cooking_yes,12208.81383985256,200.6801848075109,662.5872340425532,116.65509444243979
66,66,sex_female,Size_4,age_46_55,Education_College,Lighting_yes,Cooking_yes,12268.426581611533,188.60854722988705,662.5872340425532,116.65509444243979
67,67,sex_male,Size_3,age_46_55,Education_Post_Secondary,Lighting_yes,Cooking_yes,6723.8458027743545,200.6950088644495,662.5872340425532,1778.4179733519704
68,68,sex_male,Size_2,age_36_45,Education_College,Lighting_yes,Cooking_yes,11403.845740951156,158.341924480511,662.5872340425532,1497.8755655978491
69,69,sex_female,Size_3,age_26_35,Education_Post_Secondary,Lighting_yes,Cooking_yes,6697.2064739428415,182.0181765086265,662.5872340425532,1527.5619001908256
70,70,sex_male,Size_6,age_46_55,Education_Post_Secondary,Lighting_yes,Cooking_yes,7529.280517221646,177.55642109618555,662.5872340425532,12.64791742413764
71,71,sex_male,Size_6,age_46_55,Education_Post_Secondary,Lighting_yes,Cooking_yes,7573.9568423927685,193.4873113224611,662.5872340425532,12.64791742413764
72,72,sex_male,Size_6,age_56_65,Education_College,Lighting_yes,Cooking_yes,12720.582843294964,215.7253005824644,662.5872340425532,0.0
73,73,sex_male,Size_4,age_66_75,Education_Post_Secondary,Lighting_yes,Cooking_yes,7366.300309929573,179.65063830074712,662.5872340425532,0.0
74,74,sex_female,Size_4,age_46_55,Education_Elementary_School,Lighting_yes,Cooking_yes,3329.5177740819536,162.78563307158197,662.5872340425532,146.6211906504732
75,75,sex_female,Size_2,age_56_65,Education_Elementary_School,Lighting_yes,Cooking_yes,2929.574012155375,129.7836521854741,662.5872340425532,0.0
76,76,sex_male,Size_2,age_36_45,Education_High_School,Lighting_yes,Cooking_yes,3541.477713282198,166.67115801713175,662.5872340425532,1372.8985951767038
77,77,sex_female,Size_3,age_36_45,Education_High_School,Lighting_yes,Cooking_yes,4093.9410753087823,157.67615129458062,662.5872340425532,1943.068716573173
78,78,sex_female,Size_3,age_46_55,Education_Elementary_School,Lighting_yes,Cooking_yes,3306.151944500372,174.45711301079712,662.5872340425532,1914.6470595247092
79,79,sex_male,Size_3,age_36_45,Education_College,Lighting_yes,Cooking_yes,11664.800410970114,218.1326410730542,662.5872340425532,2265.6741714281707
80,80,sex_male,Size_1,age_36_45,Education_Elementary_School,Lighting_yes,Cooking_yes,2313.041233688588,177.4406224274829,662.5872340425532,441.52423986472786
81,81,sex_male,Size_5,age_46_55,Education_Elementary_School,Lighting_yes,Cooking_yes,3678.685346247366,161.24666455122568,662.5872340425532,851.452426846978
82,82,sex_male,Size_4,age_56_65,Education_College,Lighting_yes,Cooking_yes,12413.828802626886,177.36734120612823,662.5872340425532,0.0
83,83,sex_female,Size_2,age_56_65,Education_College,Lighting_yes,Cooking_yes,11905.41384665995,191.881062408697,662.5872340425532,0.0
84,84,sex_male,Size_4,age_56_65,Education_Elementary_School,Lighting_yes,Cooking_yes,3645.1914639797296,166.3079804329841,662.5872340425532,0.0
85,85,sex_female,Size_3,age_56_65,Education_High_School,Lighting_yes,Cooking_yes,4311.271010778605,175.6075835683795,662.5872340425532,512.4802024075973
86,86,sex_male,Size_2,age_56_65,Education_Elementary_School,Lighting_yes,Cooking_yes,2956.8478075394146,197.3852684873928,662.5872340425532,97.25314764030624
87,87,sex_male,Size_2,age_46_55,Education_Post_Secondary,Lighting_yes,Cooking_yes,6424.663558264617,215.50581368640078,662.5872340425532,1010.6193675216489
88,88,sex_male,Size_2,age_46_55,Education_Post_Secondary,Lighting_yes,Cooking_yes,6555.833145745629,232.7620158919588,662.5872340425532,1010.6193675216489
89,89,sex_male,Size_3,age_46_55,Education_Post_Secondary,Lighting_yes,Cooking_yes,6803.363871493218,120.86998275072679,662.5872340425532,1778.4179733519704
90,90,sex_male,Size_2,age_46_55,Education_High_School,Lighting_yes,Cooking_yes,3762.866658895269,199.00475065040808,662.5872340425532,1189.5338714990608
91,91,sex_male,Size_2,age_36_45,Education_Post_Secondary,Lighting_yes,Cooking_yes,6245.609576022185,141.76729908346826,662.5872340425532,1193.9840911992915
92,92,sex_male,Size_1,age_46_55,Education_Elementary_School,Lighting_yes,Cooking_yes,2566.306272677731,165.69385543176546,662.5872340425532,258.15951618708516
93,93,sex_male,Size_2,age_46_55,Education_Post_Secondary,Lighting_yes,Cooking_yes,6496.182624754036,173.1018157712929,662.5872340425532,1010.6193675216489
94,94,sex_female,Size_2,age_56_65,Education_Elementary_School,Lighting_yes,Cooking_yes,3153.391664985689,167.68227417842698,662.5872340425532,0.0
95,95,sex_male,Size_2,age_36_45,Education_College,Lighting_yes,Cooking_yes,11342.781147668911,225.34734876813272,662.5872340425532,1497.8755655978491
96,96,sex_male,Size_2,age_46_55,Education_High_School,Lighting_yes,Cooking_yes,3802.584894471968,180.3224024376873,662.5872340425532,1189.5338714990608
97,97,sex_male,Size_2,age_46_55,Education_Post_Graduate,Lighting_yes,Cooking_yes,13250.266791651204,206.15704414664623,662.5872340425532,1635.488025254136
98,98,sex_female,Size_4,age_46_55,Education_Post_Secondary,Lighting_yes,Cooking_yes,7185.43689534152,194.301049635227,662.5872340425532,0.0
99,99,sex_male,Size_2,age_46_55,Education_Post_Secondary,Lighting_yes,Cooking_yes,6517.16161654106,137.9827881398976,662.5872340425532,1010.6193675216489
100,100,sex_female,Size_1,age_36_45,Education_College,Lighting_yes,Cooking_yes,11273.489142377826,185.39200998004918,662.5872340425532,213.92965922284225
101,101,sex_female,Size_1,age_46_55,Education_High_School,Lighting_yes,Cooking_yes,3510.019002096873,152.00542890679714,662.5872340425532,0.0
102,102,sex_female,Size_1,age_36_45,Education_College,Lighting_yes,Cooking_yes,11289.283301069707,180.27771764215217,662.5872340425532,213.92965922284225
103,103,sex_female,Size_3,age_26_35,Education_Post_Secondary,Lighting_yes,Cooking_yes,6684.766884297589,181.09499847321118,662.5872340425532,1527.5619001908256
104,104,sex_female,Size_4,age_46_55,Education_Elementary_School,Lighting_yes,Cooking_yes,3406.795004661389,150.1960163946506,662.5872340425532,146.6211906504732
105,105,sex_male,Size_3,age_66_75,Education_Post_Secondary,Lighting_yes,Cooking_yes,7064.811623275182,150.80416129275397,662.5872340425532,909.9370887273494
106,106,sex_male,Size_4,age_46_55,Education_High_School,Lighting_yes,Cooking_yes,4288.963675021805,127.65574991624086,662.5872340425532,189.30660845514657
107,107,sex_female,Size_4,age_46_55,Education_Post_Graduate,Lighting_yes,Cooking_yes,14044.132883113345,196.56460360010743,662.5872340425532,437.63227777636916
108,108,sex_male,Size_7,age_46_55,Education_College,Lighting_yes,Cooking_yes,12954.57286275806,190.80395162839156,662.5872340425532,1093.6414765452078
109,109,sex_male,Size_6,age_36_45,Education_Post_Graduate,Lighting_yes,Cooking_yes,14292.957766953385,217.44503851697255,662.5872340425532,820.8812988342673
110,110,sex_male,Size_2,age_46_55,Education_Elementary_School,Lighting_yes,Cooking_yes,2748.130633245417,174.76005577222938,662.5872340425532,1344.4769381282397
111,111,sex_male,Size_2,age_46_55,Education_Post_Secondary,Lighting_yes,Cooking_yes,6518.6341974686875,166.9449835096498,662.5872340425532,1010.6193675216489
112,112,sex_female,Size_1,age_56_65,Education_Elementary_School,Lighting_yes,Cooking_yes,2864.0542652005456,185.15976320818473,662.5872340425532,0.0
113,113,sex_male,Size_1,age_66_75,Education_Post_Secondary,Lighting_yes,Cooking_yes,6666.543684775128,186.28865706783242,662.5872340425532,0.0
114,114,sex_female,Size_1,age_46_55,Education_Post_Secondary,Lighting_yes,Cooking_yes,6427.639360467875,187.6127305129569,662.5872340425532,0.0
115,115,sex_male,Size_2,age_66_75,Education_College,Lighting_yes,Cooking_yes,11970.998336034043,190.91703980831184,662.5872340425532,446.02995729558506
116,116,sex_female,Size_2,age_36_45,Education_College,Lighting_yes,Cooking_yes,11629.313176289412,174.94521369918067,662.5872340425532,1300.2470811639969
117,117,sex_female,Size_2,age_26_35,Education_Post_Secondary,Lighting_yes,Cooking_yes,6386.514839317388,156.46325855100957,662.5872340425532,759.7632943605038
118,118,sex_female,Size_4,age_56_65,Education_College,Lighting_yes,Cooking_yes,12522.69021625474,175.3952958115718,662.5872340425532,0.0
119,119,sex_male,Size_4,age_46_55,Education_High_School,Lighting_yes,Cooking_yes,4199.8397578050535,132.60555917930105,662.5872340425532,189.30660845514657
120,120,sex_male,Size_3,age_56_65,Education_Post_Graduate,Lighting_yes,Cooking_yes,13772.793985969092,188.02622081195182,662.5872340425532,1156.0628405965244
121,121,sex_male,Size_5,age_46_55,Education_Post_Secondary,Lighting_yes,Cooking_yes,7352.967996218744,171.88423605855752,662.5872340425532,517.5948562403873
122,122,sex_male,Size_2,age_46_55,Education_Post_Secondary,Lighting_yes,Cooking_yes,6417.727034184693,157.96691208699187,662.5872340425532,1010.6193675216489
123,123,sex_female,Size_2,age_36_45,Education_High_School,Lighting_yes,Cooking_yes,3687.3387912112453,150.263284260417,662.5872340425532,1175.2701107428513
124,124,sex_male,Size_3,age_36_45,Education_Post_Secondary,Lighting_yes,Cooking_yes,6524.210817961166,191.77003929017727,662.5872340425532,1961.7826970296132
125,125,sex_male,Size_5,age_46_55,Education_High_School,Lighting_yes,Cooking_yes,4633.030559860061,169.82602921584837,662.5872340425532,696.5093602177991
126,126,sex_male,Size_1,age_26_35,Education_College,Lighting_yes,Cooking_yes,11032.187789861866,185.87594698789556,662.5872340425532,174.9658312517588
127,127,sex_female,Size_4,age_36_45,Education_High_School,Lighting_yes,Cooking_yes,4240.650125301625,173.87094990279525,662.5872340425532,175.0428476989371
128,128,sex_male,Size_4,age_26_35,Education_Elementary_School,Lighting_yes,Cooking_yes,2972.307225943733,148.77745075110565,662.5872340425532,291.02208635703255
129,129,sex_female,Size_2,age_36_45,Education_College,Lighting_yes,Cooking_yes,11517.410420837949,212.41668050300876,662.5872340425532,1300.2470811639969
130,130,sex_female,Size_3,age_36_45,Education_College,Lighting_yes,Cooking_yes,11913.838446718113,172.2430406342929,662.5872340425532,2068.0456869943187
131,131,sex_male,Size_1,age_36_45,Education_Post_Secondary,Lighting_yes,Cooking_yes,6131.276345276869,189.15148343314362,662.5872340425532,107.66666925813679
132,132,sex_male,Size_1,age_46_55,Education_Post_Secondary,Lighting_yes,Cooking_yes,6389.583216647478,165.81313502275708,662.5872340425532,0.0
133,133,sex_female,Size_2,age_66_75,Education_Post_Secondary,Lighting_yes,Cooking_yes,7016.969777471161,171.39558934575717,662.5872340425532,0.0
134,134,sex_male,Size_2,age_66_75,Education_Post_Secondary,Lighting_yes,Cooking_yes,6911.997001259161,169.09357893267756,662.5872340425532,142.13848289702764
135,135,sex_female,Size_3,age_56_65,Education_College,Lighting_yes,Cooking_yes,12268.759287468203,195.6345744165312,662.5872340425532,637.4571728287426
136,136,sex_male,Size_3,age_46_55,Education_Post_Secondary,Lighting_yes,Cooking_yes,6774.247283374229,192.7724586166292,662.5872340425532,1778.4179733519704
137,137,sex_female,Size_3,age_46_55,Education_Elementary_School,Lighting_yes,Cooking_yes,3108.9196905490803,166.58525126304346,662.5872340425532,1914.6470595247092
138,138,sex_male,Size_4,age_46_55,Education_College,Lighting_yes,Cooking_yes,12081.628069795126,166.7137281915419,662.5872340425532,314.28357887629187
139,139,sex_male,Size_5,age_56_65,Education_College,Lighting_yes,Cooking_yes,12591.92481745352,184.34241374525112,662.5872340425532,0.0
140,140,sex_male,Size_6,age_46_55,Education_High_School,Lighting_yes,Cooking_yes,4861.974017018016,184.32508631501904,662.5872340425532,191.56242140154959
141,141,sex_female,Size_3,age_56_65,Education_Post_Graduate,Lighting_yes,Cooking_yes,13913.501235491753,201.92727322780533,662.5872340425532,958.4343561626722
142,142,sex_male,Size_3,age_46_55,Education_College,Lighting_yes,Cooking_yes,11948.915275855445,166.98611206211407,662.5872340425532,2082.3094477505283
143,143,sex_male,Size_4,age_56_65,Education_High_School,Lighting_yes,Cooking_yes,4472.3870238862655,138.81589505547942,662.5872340425532,0.0
144,144,sex_female,Size_3,age_36_45,Education_Post_Secondary,Lighting_yes,Cooking_yes,6835.540656497352,145.9752563517066,662.5872340425532,1764.154212595761
145,145,sex_male,Size_3,age_36_45,Education_High_School,Lighting_yes,Cooking_yes,3663.038090791974,169.6931699890584,662.5872340425532,2140.6972010070253
146,146,sex_male,Size_2,age_56_65,Education_Post_Secondary,Lighting_yes,Cooking_yes,6596.603568894566,158.34412186135472,662.5872340425532,0.0
147,147,sex_female,Size_3,age_56_65,Education_Post_Secondary,Lighting_yes,Cooking_yes,7034.383987863777,147.37658095037528,662.5872340425532,333.56569843018497
148,148,sex_male,Size_2,age_36_45,Education_College,Lighting_yes,Cooking_yes,11364.228471471268,160.74525974581445,662.5872340425532,1497.8755655978491
149,149,sex_male,Size_4,age_36_45,Education_Post_Secondary,Lighting_yes,Cooking_yes,6951.257239322425,153.25227670548045,662.5872340425532,193.75682815537706
150,150,sex_female,Size_4,age_56_65,Education_College,Lighting_yes,Cooking_yes,12385.770518362167,244.3794212109092,662.5872340425532,0.0
151,151,sex_female,Size_2,age_56_65,Education_College,Lighting_yes,Cooking_yes,12050.521621633183,168.98119293995853,662.5872340425532,0.0
152,152,sex_female,Size_4,age_36_45,Education_College,Lighting_yes,Cooking_yes,12111.116445825806,148.85894790877649,662.5872340425532,300.01981812008256
153,153,sex_male,Size_4,age_46_55,Education_Elementary_School,Lighting_yes,Cooking_yes,3257.954895558778,170.81749947232825,662.5872340425532,344.2496750843253
154,154,sex_male,Size_3,age_46_55,Education_High_School,Lighting_yes,Cooking_yes,4114.144469833359,197.5348157069476,662.5872340425532,1957.3324773293825
155,155,sex_male,Size_2,age_46_55,Education_Elementary_School,Lighting_yes,Cooking_yes,2686.346556016254,167.8892973431736,662.5872340425532,1344.4769381282397
156,156,sex_male,Size_4,age_56_65,Education_Post_Secondary,Lighting_yes,Cooking_yes,7242.420625696511,205.16690629340053,662.5872340425532,0.0
157,157,sex_female,Size_3,age_26_35,Education_Post_Secondary,Lighting_yes,Cooking_yes,6661.867111360983,190.792270962574,662.5872340425532,1527.5619001908256
158,158,sex_male,Size_3,age_36_45,Education_Post_Secondary,Lighting_yes,Cooking_yes,6579.796737003362,172.24700794854797,662.5872340425532,1961.7826970296132
159,159,sex_female,Size_2,age_56_65,Education_College,Lighting_yes,Cooking_yes,12081.916650329009,167.48253951163102,662.5872340425532,0.0
160,160,sex_male,Size_3,age_56_65,Education_College,Lighting_yes,Cooking_yes,12067.107152320645,150.28527868133008,662.5872340425532,835.085657262595
161,161,sex_male,Size_3,age_46_55,Education_College,Lighting_yes,Cooking_yes,11979.08308532065,197.2310025011615,662.5872340425532,2082.3094477505283
162,162,sex_male,Size_3,age_46_55,Education_College,Lighting_yes,Cooking_yes,11943.82487688625,149.6474337952709,662.5872340425532,2082.3094477505283
163,163,sex_male,Size_1,age_46_55,Education_Post_Secondary,Lighting_yes,Cooking_yes,6286.96644304079,176.67736203220718,662.5872340425532,0.0
164,164,sex_female,Size_1,age_46_55,Education_Post_Secondary,Lighting_yes,Cooking_yes,6372.197247469122,176.98908367013325,662.5872340425532,0.0
165,165,sex_female,Size_1,age_56_65,Education_Post_Graduate,Lighting_yes,Cooking_yes,13444.846101326324,206.48090387616742,662.5872340425532,0.0
166,166,sex_male,Size_3,age_66_75,Education_Post_Secondary,Lighting_yes,Cooking_yes,7136.560312595375,170.79895613279382,662.5872340425532,909.9370887273494
167,167,sex_female,Size_3,age_66_75,Education_Post_Secondary,Lighting_yes,Cooking_yes,7261.298827733351,191.3282805612759,662.5872340425532,712.3086042934972
168,168,sex_female,Size_1,age_26_35,Education_Post_Secondary,Lighting_yes,Cooking_yes,5983.726100473341,183.7896227132669,662.5872340425532,0.0
169,169,sex_male,Size_3,age_56_65,Education_High_School,Lighting_yes,Cooking_yes,4176.779266882499,173.15805506721387,662.5872340425532,710.1086868414494
170,170,sex_male,Size_3,age_36_45,Education_Post_Secondary,Lighting_yes,Cooking_yes,6600.80647942386,198.96018109938763,662.5872340425532,1961.7826970296132
171,171,sex_male,Size_2,age_56_65,Education_Post_Secondary,Lighting_yes,Cooking_yes,6665.8901252369005,192.17707397660453,662.5872340425532,0.0
172,172,sex_male,Size_2,age_46_55,Education_Post_Secondary,Lighting_yes,Cooking_yes,6572.702262415984,174.95726760918728,662.5872340425532,1010.6193675216489
173,173,sex_male,Size_4,age_46_55,Education_College,Lighting_yes,Cooking_yes,12092.39087255447,191.71699246924422,662.5872340425532,314.28357887629187
174,174,sex_female,Size_2,age_46_55,Education_College,Lighting_yes,Cooking_yes,11742.765012037613,189.87066304205973,662.5872340425532,1116.882357486354
175,175,sex_male,Size_3,age_36_45,Education_Post_Secondary,Lighting_yes,Cooking_yes,6560.221852080961,191.507409061606,662.5872340425532,1961.7826970296132
176,176,sex_female,Size_1,age_36_45,Education_Post_Secondary,Lighting_yes,Cooking_yes,6304.716259077139,207.45379356498162,662.5872340425532,0.0
177,177,sex_female,Size_2,age_46_55,Education_College,Lighting_yes,Cooking_yes,11695.88586499246,153.36857531250885,662.5872340425532,1116.882357486354
178,178,sex_male,Size_2,age_46_55,Education_Elementary_School,Lighting_yes,Cooking_yes,2659.9416052587812,173.22070683594953,662.5872340425532,1344.4769381282397
179,179,sex_male,Size_3,age_46_55,Education_Post_Secondary,Lighting_yes,Cooking_yes,6717.1854856789905,195.4974075484181,662.5872340425532,1778.4179733519704
180,180,sex_male,Size_3,age_36_45,Education_Post_Graduate,Lighting_yes,Cooking_yes,13449.626695703091,217.54146833497845,662.5872340425532,2586.6513547621003
181,181,sex_female,Size_8,age_36_45,Education_Post_Secondary,Lighting_yes,Cooking_yes,8169.0086936720345,188.59156493089702,662.5872340425532,1056.7327389822804
182,182,sex_male,Size_2,age_46_55,Education_High_School,Lighting_yes,Cooking_yes,3824.905385573241,181.59156316457768,662.5872340425532,1189.5338714990608
183,183,sex_female,Size_2,age_36_45,Education_High_School,Lighting_yes,Cooking_yes,3692.514128396687,183.6668250644788,662.5872340425532,1175.2701107428513
184,184,sex_female,Size_3,age_46_55,Education_Elementary_School,Lighting_yes,Cooking_yes,3061.073354633893,184.25538172736347,662.5872340425532,1914.6470595247092
185,185,sex_female,Size_4,age_26_35,Education_Post_Graduate,Lighting_yes,Cooking_yes,13779.10086175897,204.77169128472642,662.5872340425532,384.4046890490763
186,186,sex_male,Size_4,age_46_55,Education_Post_Secondary,Lighting_yes,Cooking_yes,7187.201332066064,215.8836494490054,662.5872340425532,10.39210447773463
187,187,sex_female,Size_4,age_26_35,Education_College,Lighting_yes,Cooking_yes,12015.411428020052,159.7445273690978,662.5872340425532,63.427505715146886
188,188,sex_male,Size_3,age_66_75,Education_Post_Secondary,Lighting_yes,Cooking_yes,7112.43706266852,205.7938163824794,662.5872340425532,909.9370887273494
189,189,sex_female,Size_1,age_46_55,Education_Post_Secondary,Lighting_yes,Cooking_yes,6368.2927298602635,182.19507606034568,662.5872340425532,0.0
190,190,sex_male,Size_1,age_46_55,Education_College,Lighting_yes,Cooking_yes,11382.961554614714,163.8709272641074,662.5872340425532,228.19341997905173
191,191,sex_male,Size_2,age_46_55,Education_Post_Secondary,Lighting_yes,Cooking_yes,6534.048271372127,191.16243551984016,662.5872340425532,1010.6193675216489
192,192,sex_female,Size_4,age_36_45,Education_Post_Secondary,Lighting_yes,Cooking_yes,7100.3491633447275,185.68917250658845,662.5872340425532,0.0
193,193,sex_female,Size_1,age_36_45,Education_College,Lighting_yes,Cooking_yes,11290.708613263683,190.66606653141426,662.5872340425532,213.92965922284225
194,194,sex_female,Size_4,age_26_35,Education_College,Lighting_yes,Cooking_yes,11947.163711795392,153.7525946546385,662.5872340425532,63.427505715146886
195,195,sex_female,Size_4,age_56_65,Education_Post_Secondary,Lighting_yes,Cooking_yes,7459.986865285106,199.2196470387204,662.5872340425532,0.0
196,196,sex_female,Size_4,age_56_65,Education_College,Lighting_yes,Cooking_yes,12436.891319947455,196.7908999973606,662.5872340425532,0.0
197,197,sex_female,Size_5,age_36_45,Education_Elementary_School,Lighting_yes,Cooking_yes,3601.0304691428064,157.7561860084171,662.5872340425532,837.1886660907686
198,198,sex_female,Size_1,age_46_55,Education_College,Lighting_yes,Cooking_yes,11490.4236251638,159.90194722037927,662.5872340425532,30.564935545199496
199,199,sex_female,Size_5,age_56_65,Education_College,Lighting_yes,Cooking_yes,12709.38521852962,245.12118763807752,662.5872340425532,0.0
200,200,sex_female,Size_6,age_36_45,Education_Post_Graduate,Lighting_yes,Cooking_yes,14404.525795307156,137.7441457655406,662.5872340425532,623.252814400415
201,201,sex_female,Size_1,age_36_45,Education_High_School,Lighting_yes,Cooking_yes,3371.9836674161725,140.51578036603436,662.5872340425532,88.9526888016968
202,202,sex_male,Size_2,age_36_45,Education_Post_Graduate,Lighting_yes,Cooking_yes,13190.220311529858,153.74934238010638,662.5872340425532,1818.8527489317787
203,203,sex_male,Size_2,age_56_65,Education_Post_Graduate,Lighting_yes,Cooking_yes,13545.763839008168,174.43938251417381,662.5872340425532,388.26423476620266
204,204,sex_male,Size_2,age_46_55,Education_High_School,Lighting_yes,Cooking_yes,3646.152066733434,155.78457283083975,662.5872340425532,1189.5338714990608
205,205,sex_male,Size_1,age_36_45,Education_College,Lighting_yes,Cooking_yes,11158.043514408468,165.96871554896023,662.5872340425532,411.5581436566945
206,206,sex_male,Size_3,age_46_55,Education_High_School,Lighting_yes,Cooking_yes,3910.8549841443682,193.61786272569447,662.5872340425532,1957.3324773293825
207,207,sex_female,Size_4,age_46_55,Education_Post_Secondary,Lighting_yes,Cooking_yes,7223.8784552846055,177.47142339567552,662.5872340425532,0.0
208,208,sex_female,Size_6,age_36_45,Education_College,Lighting_yes,Cooking_yes,12652.199744956168,173.5207922253931,662.5872340425532,302.2756310664855
209,209,sex_male,Size_3,age_46_55,Education_College,Lighting_yes,Cooking_yes,11849.288872586358,180.6335245703593,662.5872340425532,2082.3094477505283
210,210,sex_male,Size_3,age_36_45,Education_High_School,Lighting_yes,Cooking_yes,3855.5526739485526,171.5475426201494,662.5872340425532,2140.6972010070253
211,211,sex_female,Size_4,age_46_55,Education_Elementary_School,Lighting_yes,Cooking_yes,3403.9381213667234,124.62332100299798,662.5872340425532,146.6211906504732
212,212,sex_male,Size_3,age_56_65,Education_College,Lighting_yes,Cooking_yes,11949.861605311922,185.8372006881796,662.5872340425532,835.085657262595
213,213,sex_female,Size_6,age_36_45,Education_College,Lighting_yes,Cooking_yes,12793.64163988654,200.6437068882929,662.5872340425532,302.2756310664855
214,214,sex_female,Size_4,age_46_55,Education_College,Lighting_yes,Cooking_yes,12340.780959428457,187.89396221822284,662.5872340425532,116.65509444243979
215,215,sex_male,Size_4,age_36_45,Education_Elementary_School,Lighting_yes,Cooking_yes,3136.2164590151006,171.2161188202443,662.5872340425532,527.614398761968
216,216,sex_female,Size_4,age_56_65,Education_Elementary_School,Lighting_yes,Cooking_yes,3693.38824784599,168.21552170648712,662.5872340425532,0.0
217,217,sex_male,Size_2,age_56_65,Education_Elementary_School,Lighting_yes,Cooking_yes,3043.490059041657,169.64761890026864,662.5872340425532,97.25314764030624
218,218,sex_male,Size_1,age_36_45,Education_Post_Secondary,Lighting_yes,Cooking_yes,6089.691332614115,144.49002323336066,662.5872340425532,107.66666925813679
219,219,sex_female,Size_4,age_56_65,Education_Elementary_School,Lighting_yes,Cooking_no,3530.42148383254,160.92052622059802,662.5872340425532,0.0
220,220,sex_female,Size_1,age_36_45,Education_Post_Graduate,Lighting_yes,Cooking_yes,13169.649865369287,157.23317904690438,662.5872340425532,534.9068425567718
221,221,sex_male,Size_4,age_66_75,Education_College,Lighting_yes,Cooking_yes,12535.67267685993,184.78956290967812,662.5872340425532,0.0
222,222,sex_female,Size_4,age_46_55,Education_College,Lighting_yes,Cooking_yes,12282.858080020398,190.54046519777762,662.5872340425532,116.65509444243979
223,223,sex_male,Size_8,age_56_65,Education_College,Lighting_yes,Cooking_yes,13464.059574177041,174.56394984947678,662.5872340425532,127.6641836491141
224,224,sex_male,Size_4,age_36_45,Education_College,Lighting_yes,Cooking_yes,11909.735085936109,183.0788124718464,662.5872340425532,497.6483025539346
225,225,sex_male,Size_4,age_19_25,Education_High_School,Lighting_yes,Cooking_yes,3767.97849837121,180.14274045941974,662.5872340425532,1677.6578568812163
226,226,sex_female,Size_4,age_46_55,Education_High_School,Lighting_yes,Cooking_yes,4394.5848970462075,175.6635776838639,662.5872340425532,0.0
227,227,sex_male,Size_4,age_36_45,Education_College,Lighting_yes,Cooking_yes,11884.610867432939,170.66944130554614,662.5872340425532,497.6483025539346
228,228,sex_male,Size_6,age_36_45,Education_Post_Secondary,Lighting_yes,Cooking_yes,7444.156635949855,179.16703019837703,662.5872340425532,196.0126411017801
229,229,sex_female,Size_7,age_56_65,Education_High_School,Lighting_yes,Cooking_yes,5307.951549019907,179.82775616726258,662.5872340425532,0.0
230,230,sex_male,Size_3,age_36_45,Education_College,Lighting_yes,Cooking_yes,11853.700956445697,212.38103367846904,662.5872340425532,2265.6741714281707
231,231,sex_male,Size_3,age_76_85,Education_Post_Graduate,Lighting_yes,Cooking_yes,14160.939376548413,163.35183123663703,662.5872340425532,731.0036949085908
232,232,sex_male,Size_1,age_56_65,Education_High_School,Lighting_yes,Cooking_yes,3625.6460392124254,197.5108720619464,662.5872340425532,0.0
233,233,sex_male,Size_2,age_46_55,Education_College,Lighting_yes,Cooking_yes,11653.221205062451,217.688149066381,662.5872340425532,1314.510841920206
234,234,sex_male,Size_2,age_46_55,Education_High_School,Lighting_yes,Cooking_yes,3750.919341602342,188.95447144069232,662.5872340425532,1189.5338714990608
235,235,sex_male,Size_2,age_46_55,Education_Elementary_School,Lighting_yes,Cooking_yes,2800.027948289383,187.3014462540443,662.5872340425532,1344.4769381282397
236,236,sex_male,Size_2,age_56_65,Education_Post_Secondary,Lighting_yes,Cooking_yes,6789.852458330948,200.47344321788984,662.5872340425532,0.0
237,237,sex_male,Size_2,age_56_65,Education_College,Lighting_yes,Cooking_yes,11750.888180062442,182.19294709538482,662.5872340425532,67.2870514322731
238,238,sex_female,Size_2,age_56_65,Education_College,Lighting_yes,Cooking_yes,11914.131471313996,198.93079112956818,662.5872340425532,0.0
239,239,sex_male,Size_2,age_66_75,Education_Elementary_School,Lighting_yes,Cooking_yes,3030.8346453437807,151.01314032102837,662.5872340425532,475.9960535036185
240,240,sex_female,Size_2,age_36_45,Education_College,Lighting_yes,Cooking_yes,11588.928901430463,224.81364006294163,662.5872340425532,1300.2470811639969
241,241,sex_female,Size_6,age_46_55,Education_College,Lighting_yes,Cooking_yes,12978.092388450154,190.94541763079238,662.5872340425532,118.9109073888428
242,242,sex_male,Size_1,age_36_45,Education_College,Lighting_yes,Cooking_yes,11118.856535948333,215.32007294500005,662.5872340425532,411.5581436566945
243,243,sex_male,Size_1,age_66_75,Education_Post_Secondary,Lighting_yes,Cooking_yes,6527.262489247904,112.83290903115524,662.5872340425532,0.0
244,244,sex_male,Size_4,age_26_35,Education_Post_Secondary,Lighting_yes,Cooking_yes,6645.512262776872,192.8933222936555,662.5872340425532,0.0
245,245,sex_female,Size_3,age_56_65,Education_High_School,Lighting_yes,Cooking_yes,4367.142383514915,177.50899863044475,662.5872340425532,512.4802024075973
246,246,sex_female,Size_1,age_46_55,Education_College,Lighting_yes,Cooking_yes,11522.580810785552,179.78639774357944,662.5872340425532,30.564935545199496
247,247,sex_male,Size_5,age_46_55,Education_College,Lighting_yes,Cooking_yes,12442.359108494908,202.06828868334273,662.5872340425532,821.4863306389447
248,248,sex_female,Size_3,age_36_45,Education_Post_Secondary,Lighting_yes,Cooking_yes,6789.038125864521,180.0674212617174,662.5872340425532,1764.154212595761
249,249,sex_male,Size_3,age_56_65,Education_Post_Secondary,Lighting_yes,Cooking_yes,7083.67231495927,166.4297998788656,662.5872340425532,531.1941828640372
250,250,sex_male,Size_4,age_36_45,Education_Post_Secondary,Lighting_yes,Cooking_yes,6957.931085907613,172.33996067807067,662.5872340425532,193.75682815537706
251,251,sex_male,Size_3,age_46_55,Education_Post_Secondary,Lighting_yes,Cooking_yes,6855.942194556685,144.8410429271191,662.5872340425532,1778.4179733519704
252,252,sex_male,Size_3,age_46_55,Education_Post_Secondary,Lighting_yes,Cooking_yes,6853.597183257491,154.14735760991582,662.5872340425532,1778.4179733519704
253,253,sex_male,Size_5,age_56_65,Education_Post_Secondary,Lighting_yes,Cooking_yes,7453.459201448388,196.60480004939328,662.5872340425532,0.0
254,254,sex_male,Size_1,age_26_35,Education_Post_Secondary,Lighting_yes,Cooking_yes,6040.780681275655,185.83193473248343,662.5872340425532,0.0
255,255,sex_male,Size_1,age_36_45,Education_Elementary_School,Lighting_yes,Cooking_yes,2306.801146163301,182.20999260399196,662.5872340425532,441.52423986472786
256,256,sex_female,Size_1,age_56_65,Education_Elementary_School,Lighting_yes,Cooking_yes,2889.090063542517,144.28047198850314,662.5872340425532,0.0
257,257,sex_male,Size_3,age_56_65,Education_Post_Secondary,Lighting_yes,Cooking_yes,6984.745760765493,185.99293353096488,662.5872340425532,531.1941828640372
258,258,sex_female,Size_3,age_46_55,Education_Post_Secondary,Lighting_yes,Cooking_yes,7042.618380330224,182.0242378623756,662.5872340425532,1580.7894889181184
259,259,sex_female,Size_4,age_46_55,Education_Elementary_School,Lighting_yes,Cooking_yes,3437.882617117145,197.91301746998693,662.5872340425532,146.6211906504732
260,260,sex_female,Size_2,age_56_65,Education_Post_Secondary,Lighting_yes,Cooking_yes,6776.815010167807,174.41023116758842,662.5872340425532,0.0
261,261,sex_male,Size_1,age_56_65,Education_Elementary_School,Lighting_yes,Cooking_yes,2636.667447925593,163.41907217523678,662.5872340425532,0.0
262,262,sex_male,Size_1,age_56_65,Education_Post_Secondary,Lighting_yes,Cooking_yes,6592.229059560948,152.98953296557954,662.5872340425532,0.0
263,263,sex_male,Size_1,age_46_55,Education_High_School,Lighting_yes,Cooking_yes,3515.550784716786,135.57122552072906,662.5872340425532,103.21644955790627
264,264,sex_male,Size_4,age_36_45,Education_Elementary_School,Lighting_yes,Cooking_yes,3242.123983994181,184.00288484077632,662.5872340425532,527.614398761968
265,265,sex_male,Size_4,age_36_45,Education_Post_Secondary,Lighting_yes,Cooking_yes,6854.710866730695,201.0588844795574,662.5872340425532,193.75682815537706
266,266,sex_female,Size_7,age_36_45,Education_College,Lighting_yes,Cooking_yes,12870.715065501443,159.35263534220542,662.5872340425532,1079.377715788998
267,267,sex_male,Size_6,age_36_45,Education_High_School,Lighting_yes,Cooking_yes,4559.4535376007425,137.60470478319894,662.5872340425532,374.9271450791923
268,268,sex_male,Size_4,age_56_65,Education_Elementary_School,Lighting_yes,Cooking_yes,3368.183861495604,120.79311234667952,662.5872340425532,0.0
269,269,sex_female,Size_7,age_66_75,Education_College,Lighting_yes,Cooking_yes,13413.314538694764,208.0955766078632,662.5872340425532,27.53210748673431
270,270,sex_male,Size_6,age_56_65,Education_College,Lighting_yes,Cooking_yes,12873.126547574824,177.15391275215686,662.5872340425532,0.0
271,271,sex_male,Size_1,age_56_65,Education_College,Lighting_yes,Cooking_yes,11565.078733620345,138.76743056154484,662.5872340425532,0.0
272,272,sex_male,Size_1,age_46_55,Education_Elementary_School,Lighting_yes,Cooking_yes,2444.531986759936,168.2286195005349,662.5872340425532,258.15951618708516
273,273,sex_female,Size_3,age_56_65,Education_College,Lighting_yes,Cooking_yes,12284.919943820043,173.52212894977154,662.5872340425532,637.4571728287426
274,274,sex_male,Size_3,age_36_45,Education_College,Lighting_yes,Cooking_yes,11686.023979931984,226.52354577567363,662.5872340425532,2265.6741714281707
275,275,sex_male,Size_6,age_56_65,Education_Post_Secondary,Lighting_yes,Cooking_yes,7727.5386899476025,218.77686510996514,662.5872340425532,0.0
276,276,sex_male,Size_6,age_46_55,Education_Post_Secondary,Lighting_yes,Cooking_yes,7589.138272300541,206.21887694634552,662.5872340425532,12.64791742413764
277,277,sex_male,Size_3,age_46_55,Education_College,Lighting_yes,Cooking_yes,11898.454898819808,210.73764679191797,662.5872340425532,2082.3094477505283
278,278,sex_male,Size_2,age_46_55,Education_Post_Secondary,Lighting_yes,Cooking_yes,6513.146816939103,159.47678644174962,662.5872340425532,1010.6193675216489
279,279,sex_male,Size_2,age_46_55,Education_College,Lighting_yes,Cooking_yes,11525.721800034846,199.33259795965333,662.5872340425532,1314.510841920206
280,280,sex_male,Size_1,age_56_65,Education_High_School,Lighting_yes,Cooking_yes,3582.8802120268074,169.39408942086436,662.5872340425532,0.0
281,281,sex_female,Size_5,age_36_45,Education_Post_Secondary,Lighting_yes,Cooking_yes,7201.499116491759,169.9103031466685,662.5872340425532,503.3310954841774
282,282,sex_female,Size_4,age_56_65,Education_Post_Graduate,Lighting_yes,Cooking_yes,14224.689959692927,159.08979848018214,662.5872340425532,0.0
283,283,sex_female,Size_6,age_46_55,Education_Elementary_School,Lighting_yes,Cooking_yes,3912.4770004909774,214.59569003644367,662.5872340425532,148.87700359687622
284,284,sex_male,Size_6,age_36_45,Education_Post_Secondary,Lighting_yes,Cooking_yes,7408.179312338541,165.5789155373564,662.5872340425532,196.0126411017801
285,285,sex_male,Size_7,age_26_35,Education_Post_Secondary,Lighting_yes,Cooking_yes,7560.623731268014,168.10435132118357,662.5872340425532,736.5224134193575
286,286,sex_male,Size_7,age_36_45,Education_Post_Secondary,Lighting_yes,Cooking_yes,7720.656021500333,183.33989857558328,662.5872340425532,973.1147258242928
287,287,sex_female,Size_10,age_36_45,Education_Post_Secondary,Lighting_yes,Cooking_yes,8646.10911245884,157.0727544351106,662.5872340425532,0.0
288,288,sex_female,Size_10,age_36_45,Education_College,Lighting_yes,Cooking_yes,13682.351963599856,219.13814919368355,662.5872340425532,29.19377090165739
289,289,sex_female,Size_9,age_56_65,Education_Post_Secondary,Lighting_yes,Cooking_yes,8662.455995463835,171.54080873063918,662.5872340425532,902.9999973663685
290,290,sex_female,Size_10,age_46_55,Education_Post_Graduate,Lighting_yes,Cooking_yes,15645.944610780449,178.99869796766478,662.5872340425532,166.80623055794416
291,291,sex_male,Size_5,age_56_65,Education_Post_Secondary,Lighting_yes,Cooking_yes,7553.107378639191,168.74012743042059,662.5872340425532,0.0
292,292,sex_female,Size_7,age_56_65,Education_Post_Secondary,Lighting_yes,Cooking_yes,8242.314707014504,206.5892070690482,662.5872340425532,0.0
293,293,sex_male,Size_1,age_26_35,Education_Elementary_School,Lighting_yes,Cooking_yes,2099.675018054881,143.1109953234938,662.5872340425532,204.93192745979226
294,294,sex_female,Size_6,age_46_55,Education_Elementary_School,Lighting_yes,Cooking_yes,3994.222301450888,139.99610392387848,662.5872340425532,148.87700359687622
295,295,sex_male,Size_1,age_36_45,Education_College,Lighting_yes,Cooking_yes,11145.530400810076,177.5566342944149,662.5872340425532,411.5581436566945
296,296,sex_male,Size_4,age_26_35,Education_Post_Secondary,Lighting_yes,Cooking_yes,6721.47185793028,206.3979992169239,662.5872340425532,0.0
297,297,sex_male,Size_1,age_36_45,Education_College,Lighting_yes,Cooking_yes,11170.195748087704,170.3456975726753,662.5872340425532,411.5581436566945
298,298,sex_male,Size_1,age_56_65,Education_Post_Graduate,Lighting_yes,Cooking_yes,13210.704185484974,188.56790280119662,662.5872340425532,0.0
299,299,sex_female,Size_1,age_46_55,Education_College,Lighting_yes,Cooking_yes,11595.016686104707,173.04042282893107,662.5872340425532,30.564935545199496
300,300,sex_male,Size_2,age_36_45,Education_Post_Secondary,Lighting_yes,Cooking_yes,6319.079918682182,144.05152121802843,662.5872340425532,1193.9840911992915
301,301,sex_male,Size_6,age_46_55,Education_Post_Secondary,Lighting_yes,Cooking_yes,7677.448291653789,201.85523545469638,662.5872340425532,12.64791742413764
302,302,sex_male,Size_4,age_56_65,Education_College,Lighting_yes,Cooking_yes,12462.470562527937,212.0693308948961,662.5872340425532,0.0
303,303,sex_male,Size_6,age_56_65,Education_High_School,Lighting_yes,Cooking_yes,4884.755304290031,204.26214580626169,662.5872340425532,0.0
304,304,sex_female,Size_3,age_36_45,Education_Post_Secondary,Lighting_yes,Cooking_yes,6849.343684287296,172.58471160287047,662.5872340425532,1764.154212595761
305,305,sex_female,Size_2,age_36_45,Education_Post_Secondary,Lighting_yes,Cooking_yes,6546.820389952173,160.615830812515,662.5872340425532,996.3556067654391
306,306,sex_male,Size_2,age_46_55,Education_Elementary_School,Lighting_yes,Cooking_yes,2832.8772344349127,195.41973074154598,662.5872340425532,1344.4769381282397
307,307,sex_male,Size_2,age_46_55,Education_College,Lighting_yes,Cooking_yes,11633.619294035308,197.2184533067424,662.5872340425532,1314.510841920206
308,308,sex_male,Size_2,age_46_55,Education_College,Lighting_yes,Cooking_yes,11649.273597356834,193.84366928553314,662.5872340425532,1314.510841920206
309,309,sex_male,Size_3,age_36_45,Education_Post_Secondary,Lighting_yes,Cooking_yes,6611.502241331175,181.09454540396985,662.5872340425532,1961.7826970296132
310,310,sex_male,Size_1,age_36_45,Education_High_School,Lighting_yes,Cooking_yes,3247.856985636405,193.53033706773425,662.5872340425532,286.58117323554904
311,311,sex_female,Size_2,age_36_45,Education_Elementary_School,Lighting_yes,Cooking_yes,2769.0445049714313,133.79889490756852,662.5872340425532,1330.2131773720303
312,312,sex_male,Size_4,age_36_45,Education_College,Lighting_yes,Cooking_yes,11978.188256455956,187.37610039178583,662.5872340425532,497.6483025539346
313,313,sex_male,Size_4,age_36_45,Education_College,Lighting_yes,Cooking_yes,11958.727460525552,177.78593481588752,662.5872340425532,497.6483025539346
314,314,sex_female,Size_3,age_46_55,Education_Elementary_School,Lighting_yes,Cooking_yes,3299.0237234126616,164.0723257348088,662.5872340425532,1914.6470595247092
315,315,sex_female,Size_5,age_56_65,Education_Post_Secondary,Lighting_yes,Cooking_yes,7631.7057219665785,177.52965300017482,662.5872340425532,0.0
316,316,sex_male,Size_2,age_36_45,Education_College,Lighting_yes,Cooking_yes,11501.340831718668,169.22692674592574,662.5872340425532,1497.8755655978491
317,317,sex_female,Size_2,age_36_45,Education_Post_Secondary,Lighting_yes,Cooking_yes,6493.994049493585,172.58051976591832,662.5872340425532,996.3556067654391
318,318,sex_female,Size_5,age_36_45,Education_Elementary_School,Lighting_yes,Cooking_yes,3475.6829550656976,159.70111558810459,662.5872340425532,837.1886660907686
319,319,sex_male,Size_1,age_56_65,Education_College,Lighting_yes,Cooking_yes,11401.132686827894,192.99448042942865,662.5872340425532,0.0
320,320,sex_female,Size_4,age_46_55,Education_College,Lighting_yes,Cooking_yes,12173.965376690274,223.62247368184376,662.5872340425532,116.65509444243979
321,321,sex_male,Size_4,age_46_55,Education_College,Lighting_yes,Cooking_yes,12115.929133470958,177.80485334208117,662.5872340425532,314.28357887629187
322,322,sex_male,Size_5,age_46_55,Education_College,Lighting_yes,Cooking_yes,12352.361210119705,149.4431754604559,662.5872340425532,821.4863306389447
323,323,sex_female,Size_6,age_46_55,Education_Post_Secondary,Lighting_yes,Cooking_yes,7590.731282698582,189.62829764091674,662.5872340425532,0.0
324,324,sex_male,Size_2,age_46_55,Education_Post_Secondary,Lighting_yes,Cooking_yes,6670.295574987666,159.28461998889583,662.5872340425532,1010.6193675216489
325,325,sex_female,Size_2,age_56_65,Education_College,Lighting_yes,Cooking_yes,11882.178805118245,165.63181419459914,662.5872340425532,0.0
326,326,sex_female,Size_4,age_46_55,Education_High_School,Lighting_yes,Cooking_yes,4327.263706152093,178.10084910426562,662.5872340425532,0.0
327,327,sex_male,Size_4,age_46_55,Education_Elementary_School,Lighting_yes,Cooking_yes,3393.530446090572,154.85445979374416,662.5872340425532,344.2496750843253
328,328,sex_male,Size_8,age_66_75,Education_Elementary_School,Lighting_yes,Cooking_yes,4680.853436349927,168.13117784724668,662.5872340425532,536.3731857204597
329,329,sex_male,Size_7,age_36_45,Education_College,Lighting_yes,Cooking_yes,12919.730087846609,230.91947523503467,662.5872340425532,1277.0062002228506
330,330,sex_male,Size_7,age_46_55,Education_College,Lighting_yes,Cooking_yes,12909.833389863788,186.51272023482073,662.5872340425532,1093.6414765452078
331,331,sex_male,Size_2,age_46_55,Education_Elementary_School,Lighting_yes,Cooking_yes,2682.7342391175157,191.64419233415862,662.5872340425532,1344.4769381282397
332,332,sex_male,Size_4,age_56_65,Education_College,Lighting_yes,Cooking_yes,12355.309737376218,155.7160549755539,662.5872340425532,0.0
333,333,sex_female,Size_4,age_56_65,Education_Post_Secondary,Lighting_yes,Cooking_yes,7352.753994674158,146.5897528710034,662.5872340425532,0.0
334,334,sex_male,Size_3,age_56_65,Education_Post_Graduate,Lighting_yes,Cooking_yes,13731.591548450244,134.16268301998818,662.5872340425532,1156.0628405965244
335,335,sex_male,Size_3,age_26_35,Education_Post_Secondary,Lighting_yes,Cooking_yes,6469.986194353941,210.75351758013664,662.5872340425532,1725.1903846246778
336,336,sex_male,Size_3,age_26_35,Education_High_School,Lighting_yes,Cooking_yes,3576.789426060919,148.6400315561688,662.5872340425532,1904.1048886020899
337,337,sex_female,Size_1,age_26_35,Education_High_School,Lighting_yes,Cooking_yes,3144.7497987064125,154.00026342817,662.5872340425532,0.0
338,338,sex_female,Size_2,age_19_25,Education_Post_Secondary,Lighting_yes,Cooking_yes,6300.401942405339,154.8910012315061,662.5872340425532,2301.342131513866
339,339,sex_female,Size_2,age_66_75,Education_Elementary_School,Lighting_yes,Cooking_yes,3236.0753687476945,164.7494166787667,662.5872340425532,278.36756906976626
340,340,sex_male,Size_3,age_66_75,Education_College,Lighting_yes,Cooking_yes,12241.144602601576,167.1651285398924,662.5872340425532,1213.8285631259068
341,341,sex_male,Size_3,age_46_55,Education_Post_Secondary,Lighting_yes,Cooking_yes,6854.2302099047865,180.0551034535947,662.5872340425532,1778.4179733519704
342,342,sex_male,Size_3,age_56_65,Education_Post_Secondary,Lighting_yes,Cooking_yes,6959.681086727379,178.28049853464458,662.5872340425532,531.1941828640372
343,343,sex_male,Size_4,age_46_55,Education_Post_Secondary,Lighting_yes,Cooking_yes,7136.028784770187,153.7517852174233,662.5872340425532,10.39210447773463
344,344,sex_female,Size_4,age_46_55,Education_College,Lighting_yes,Cooking_yes,12299.226627380656,200.7960125397116,662.5872340425532,116.65509444243979
345,345,sex_female,Size_2,age_46_55,Education_College,Lighting_yes,Cooking_yes,11833.552482013958,182.7032621986467,662.5872340425532,1116.882357486354
346,346,sex_female,Size_2,age_46_55,Education_Elementary_School,Lighting_yes,Cooking_yes,2888.4036558903526,176.90349633520646,662.5872340425532,1146.8484536943874
347,347,sex_male,Size_4,age_46_55,Education_College,Lighting_yes,Cooking_yes,12266.892768222096,179.45113535391442,662.5872340425532,314.28357887629187
348,348,sex_male,Size_4,age_46_55,Education_Elementary_School,Lighting_yes,Cooking_yes,3292.18314504893,182.24255999475014,662.5872340425532,344.2496750843253
349,349,sex_male,Size_4,age_66_75,Education_Post_Secondary,Lighting_yes,Cooking_yes,7402.887350462609,159.1012251093441,662.5872340425532,0.0
350,350,sex_male,Size_1,age_56_65,Education_High_School,Lighting_yes,Cooking_yes,3678.211069286867,213.78524275800137,662.5872340425532,0.0
351,351,sex_female,Size_1,age_46_55,Education_Post_Secondary,Lighting_yes,Cooking_yes,6399.285758850995,213.18827565762012,662.5872340425532,0.0
352,352,sex_female,Size_4,age_46_55,Education_College,Lighting_yes,Cooking_yes,12259.207734708116,217.61143526657327,662.5872340425532,116.65509444243979
353,353,sex_male,Size_4,age_56_65,Education_Post_Secondary,Lighting_yes,Cooking_yes,7276.851294078157,175.90601738906688,662.5872340425532,0.0
354,354,sex_male,Size_4,age_36_45,Education_Elementary_School,Lighting_yes,Cooking_yes,3134.057469958347,205.82086464627827,662.5872340425532,527.614398761968
355,355,sex_female,Size_1,age_46_55,Education_Elementary_School,Lighting_yes,Cooking_yes,2657.754278626975,190.6661072872473,662.5872340425532,60.531031753232924
356,356,sex_male,Size_3,age_66_75,Education_Post_Secondary,Lighting_yes,Cooking_yes,7115.885933295442,146.46663279684134,662.5872340425532,909.9370887273494
357,357,sex_female,Size_2,age_46_55,Education_Post_Secondary,Lighting_yes,Cooking_yes,6617.971592871365,165.8428329717436,662.5872340425532,812.9908830877968
358,358,sex_male,Size_3,age_56_65,Education_Post_Secondary,Lighting_yes,Cooking_yes,6935.117591505393,215.39980975545703,662.5872340425532,531.1941828640372
359,359,sex_male,Size_3,age_46_55,Education_High_School,Lighting_yes,Cooking_yes,3849.6696626416533,173.03901533601757,662.5872340425532,1957.3324773293825
360,360,sex_male,Size_2,age_46_55,Education_Post_Secondary,Lighting_yes,Cooking_yes,6397.412344509226,182.68504618727283,662.5872340425532,1010.6193675216489
361,361,sex_male,Size_2,age_56_65,Education_Post_Secondary,Lighting_yes,Cooking_yes,6815.58925449937,151.0266284408472,662.5872340425532,0.0
362,362,sex_female,Size_3,age_46_55,Education_Post_Secondary,Lighting_yes,Cooking_yes,7042.802922798107,160.84536353034673,662.5872340425532,1580.7894889181184
363,363,sex_male,Size_4,age_56_65,Education_Post_Secondary,Lighting_yes,Cooking_yes,7270.714698082699,174.0317251024899,662.5872340425532,0.0
364,364,sex_male,Size_3,age_46_55,Education_Post_Secondary,Lighting_yes,Cooking_yes,6803.622392977388,144.27452611198981,662.5872340425532,1778.4179733519704
365,365,sex_male,Size_4,age_46_55,Education_College,Lighting_yes,Cooking_yes,12151.192298634478,143.66477084925464,662.5872340425532,314.28357887629187
366,366,sex_male,Size_4,age_56_65,Education_College,Lighting_yes,Cooking_yes,12428.519796449642,166.85436212602258,662.5872340425532,0.0
367,367,sex_male,Size_1,age_56_65,Education_College,Lighting_yes,Cooking_yes,11458.053826397454,170.93903072946512,662.5872340425532,0.0
368,368,sex_male,Size_1,age_36_45,Education_Post_Secondary,Lighting_yes,Cooking_yes,6152.647659527053,199.6923831914822,662.5872340425532,107.66666925813679
369,369,sex_male,Size_1,age_56_65,Education_Elementary_School,Lighting_yes,Cooking_yes,2650.972498894736,166.8083883392161,662.5872340425532,0.0
370,370,sex_male,Size_2,age_36_45,Education_High_School,Lighting_yes,Cooking_yes,3482.365556359493,172.87327833055843,662.5872340425532,1372.8985951767038
371,371,sex_female,Size_2,age_56_65,Education_Elementary_School,Lighting_yes,Cooking_yes,3103.9199897963704,210.7522595883981,662.5872340425532,0.0
372,372,sex_female,Size_3,age_46_55,Education_Post_Secondary,Lighting_yes,Cooking_yes,6916.195313996469,132.57796754194644,662.5872340425532,1580.7894889181184
373,373,sex_male,Size_3,age_56_65,Education_Post_Secondary,Lighting_yes,Cooking_yes,6981.578471927216,156.9396986168061,662.5872340425532,531.1941828640372
374,374,sex_female,Size_5,age_56_65,Education_High_School,Lighting_yes,Cooking_yes,4973.992352984807,173.60019295724803,662.5872340425532,0.0
375,375,sex_male,Size_2,age_56_65,Education_High_School,Lighting_yes,Cooking_yes,3962.625384238996,164.56175958387928,662.5872340425532,0.0
376,376,sex_female,Size_3,age_36_45,Education_College,Lighting_yes,Cooking_yes,11854.865630228918,185.79577318996368,662.5872340425532,2068.0456869943187
377,377,sex_male,Size_3,age_56_65,Education_College,Lighting_yes,Cooking_yes,12030.980086889482,144.17677288923002,662.5872340425532,835.085657262595
378,378,sex_female,Size_3,age_36_45,Education_College,Lighting_yes,Cooking_yes,11878.342241923147,169.76914723695282,662.5872340425532,2068.0456869943187
379,379,sex_female,Size_4,age_46_55,Education_College,Lighting_yes,Cooking_yes,12154.189925862956,162.22135808848986,662.5872340425532,116.65509444243979
380,380,sex_female,Size_3,age_56_65,Education_College,Lighting_yes,Cooking_yes,12192.252505902012,189.40249041864627,662.5872340425532,637.4571728287426
381,381,sex_male,Size_3,age_56_65,Education_High_School,Lighting_yes,Cooking_yes,4141.711029340738,161.2011452555434,662.5872340425532,710.1086868414494
382,382,sex_male,Size_3,age_46_55,Education_College,Lighting_yes,Cooking_yes,11849.28804795464,192.3016006367773,662.5872340425532,2082.3094477505283
383,383,sex_female,Size_4,age_36_45,Education_Post_Secondary,Lighting_yes,Cooking_yes,7031.558726010405,166.96955962338967,662.5872340425532,0.0
384,384,sex_female,Size_3,age_26_35,Education_Elementary_School,Lighting_yes,Cooking_yes,2778.6818904178594,156.5420957754129,662.5872340425532,1861.4194707974166
385,385,sex_female,Size_1,age_56_65,Education_High_School,Lighting_yes,Cooking_yes,3684.3768966803163,153.72732838935394,662.5872340425532,0.0
386,386,sex_male,Size_1,age_56_65,Education_College,Lighting_yes,Cooking_yes,11492.77487431902,162.35596738136786,662.5872340425532,0.0
387,387,sex_female,Size_4,age_56_65,Education_Post_Secondary,Lighting_yes,Cooking_yes,7374.786627137034,155.1540384691016,662.5872340425532,0.0
388,388,sex_female,Size_2,age_56_65,Education_College,Lighting_yes,Cooking_yes,11980.169460087272,178.9371470346097,662.5872340425532,0.0
389,389,sex_female,Size_6,age_46_55,Education_College,Lighting_yes,Cooking_yes,12920.002493149135,230.4383279099401,662.5872340425532,118.9109073888428
390,390,sex_male,Size_6,age_26_35,Education_College,Lighting_yes,Cooking_yes,12337.839994735037,176.28353169458126,662.5872340425532,263.3118030954021
391,391,sex_male,Size_5,age_26_35,Education_College,Lighting_yes,Cooking_yes,11969.526364506253,166.69260713231597,662.5872340425532,768.2587419116518
392,392,sex_male,Size_5,age_66_75,Education_College,Lighting_yes,Cooking_yes,12628.251295691623,186.0295243180694,662.5872340425532,0.0
393,393,sex_female,Size_2,age_26_35,Education_College,Lighting_yes,Cooking_yes,11436.68301376566,166.73610267860775,662.5872340425532,1063.654768759061
394,394,sex_male,Size_3,age_46_55,Education_Post_Secondary,Lighting_yes,Cooking_yes,6710.149205066797,196.1063366287051,662.5872340425532,1778.4179733519704
395,395,sex_male,Size_5,age_56_65,Education_Post_Secondary,Lighting_yes,Cooking_yes,7461.349646969691,186.2435687666563,662.5872340425532,0.0
396,396,sex_female,Size_3,age_46_55,Education_Post_Secondary,Lighting_yes,Cooking_yes,7062.5958232625535,172.6709560168029,662.5872340425532,1580.7894889181184
397,397,sex_male,Size_2,age_46_55,Education_Post_Secondary,Lighting_yes,Cooking_yes,6439.518349185962,193.83573592475574,662.5872340425532,1010.6193675216489
398,398,sex_male,Size_3,age_46_55,Education_Post_Secondary,Lighting_yes,Cooking_yes,6961.820259554798,160.51528852696654,662.5872340425532,1778.4179733519704
399,399,sex_male,Size_2,age_46_55,Education_College,Lighting_yes,Cooking_yes,11712.322112210228,181.9299678952113,662.5872340425532,1314.510841920206
400,400,sex_male,Size_1,age_56_65,Education_High_School,Lighting_yes,Cooking_yes,3508.5905348984784,159.6751800491147,662.5872340425532,0.0
401,401,sex_female,Size_3,age_56_65,Education_High_School,Lighting_yes,Cooking_yes,4338.0919076986265,179.79023227068774,662.5872340425532,512.4802024075973
402,402,sex_male,Size_2,age_56_65,Education_Post_Secondary,Lighting_yes,Cooking_yes,6723.171327468859,179.1341081215404,662.5872340425532,0.0
403,403,sex_female,Size_3,age_46_55,Education_Post_Secondary,Lighting_yes,Cooking_yes,6979.8726931858555,194.3793656023934,662.5872340425532,1580.7894889181184
404,404,sex_male,Size_3,age_56_65,Education_Elementary_School,Lighting_yes,Cooking_yes,3279.355034136083,196.18607032631957,662.5872340425532,865.051753470628
405,405,sex_female,Size_3,age_66_75,Education_College,Lighting_yes,Cooking_yes,12222.712068703835,219.267108910658,662.5872340425532,1016.2000786920546
406,406,sex_male,Size_3,age_76_85,Education_Post_Graduate,Lighting_yes,Cooking_yes,14246.771987478654,167.0485573580352,662.5872340425532,731.0036949085908
407,407,sex_female,Size_2,age_76_85,Education_College,Lighting_yes,Cooking_yes,12379.212271359009,166.53015019272954,662.5872340425532,0.0
408,408,sex_female,Size_4,age_56_65,Education_Post_Secondary,Lighting_yes,Cooking_yes,7451.231214431524,123.48261338875862,662.5872340425532,0.0
409,409,sex_male,Size_5,age_66_75,Education_Elementary_School,Lighting_yes,Cooking_yes,3979.8153744008946,166.11676701434092,662.5872340425532,0.0
410,410,sex_male,Size_2,age_66_75,Education_Post_Secondary,Lighting_yes,Cooking_yes,6792.315506131957,160.23872897563308,662.5872340425532,142.13848289702764
411,411,sex_female,Size_4,age_46_55,Education_Elementary_School,Lighting_yes,Cooking_yes,3535.0995215873754,161.9339573014851,662.5872340425532,146.6211906504732
412,412,sex_male,Size_2,age_46_55,Education_Post_Secondary,Lighting_yes,Cooking_yes,6509.367679295713,199.17772691367318,662.5872340425532,1010.6193675216489
413,413,sex_female,Size_2,age_26_35,Education_Post_Secondary,Lighting_yes,Cooking_yes,6242.412058716966,174.18530839805837,662.5872340425532,759.7632943605038
414,414,sex_male,Size_2,age_26_35,Education_High_School,Lighting_yes,Cooking_yes,3411.631399853817,184.58981321423312,662.5872340425532,1136.306282771768
415,415,sex_male,Size_3,age_36_45,Education_Elementary_School,Lighting_yes,Cooking_yes,2901.961263296317,156.2093123617241,662.5872340425532,2295.6402676362045
416,416,sex_female,Size_5,age_46_55,Education_College,Lighting_yes,Cooking_yes,12478.416265770315,219.54215751529858,662.5872340425532,623.8578462050924
417,417,sex_female,Size_3,age_66_75,Education_College,Lighting_yes,Cooking_yes,12450.262869579832,189.0358416385017,662.5872340425532,1016.2000786920546
418,418,sex_male,Size_4,age_46_55,Education_College,Lighting_yes,Cooking_yes,12032.261559991233,164.23539962421273,662.5872340425532,314.28357887629187
419,419,sex_male,Size_4,age_56_65,Education_High_School,Lighting_yes,Cooking_yes,4305.754910006403,153.69251088528523,662.5872340425532,0.0
420,420,sex_male,Size_1,age_46_55,Education_College,Lighting_yes,Cooking_yes,11442.263660696508,172.9062305883601,662.5872340425532,228.19341997905173
421,421,sex_male,Size_3,age_36_45,Education_Elementary_School,Lighting_yes,Cooking_yes,2920.0195253025304,189.86159438108837,662.5872340425532,2295.6402676362045
422,422,sex_male,Size_3,age_36_45,Education_College,Lighting_yes,Cooking_yes,11741.436303738345,205.56572002859005,662.5872340425532,2265.6741714281707
423,423,sex_male,Size_1,age_56_65,Education_Post_Graduate,Lighting_yes,Cooking_yes,13362.42228632133,172.28673490875678,662.5872340425532,0.0
424,424,sex_male,Size_4,age_46_55,Education_College,Lighting_yes,Cooking_yes,12132.986765477419,152.81233211371162,662.5872340425532,314.28357887629187
425,425,sex_male,Size_7,age_46_55,Education_College,Lighting_yes,Cooking_yes,12997.57616103681,124.04890857325528,662.5872340425532,1093.6414765452078
426,426,sex_male,Size_7,age_56_65,Education_Post_Secondary,Lighting_yes,Cooking_yes,8053.933020650017,135.6995722230019,662.5872340425532,0.0
427,427,sex_male,Size_3,age_36_45,Education_Elementary_School,Lighting_yes,Cooking_yes,2782.438068604682,120.03678025936756,662.5872340425532,2295.6402676362045
428,428,sex_female,Size_3,age_46_55,Education_College,Lighting_yes,Cooking_yes,12128.19516154696,154.06068592046475,662.5872340425532,1884.680963316676
429,429,sex_male,Size_3,age_56_65,Education_Elementary_School,Lighting_yes,Cooking_yes,3253.606421456235,163.18716848701413,662.5872340425532,865.051753470628
430,430,sex_male,Size_5,age_36_45,Education_Post_Graduate,Lighting_yes,Cooking_yes,13895.722126657796,220.4367666188519,662.5872340425532,1325.828237650517
431,431,sex_male,Size_4,age_36_45,Education_Post_Secondary,Lighting_yes,Cooking_yes,6898.905909638446,187.33565460687907,662.5872340425532,193.75682815537706
432,432,sex_female,Size_2,age_36_45,Education_College,Lighting_yes,Cooking_yes,11649.671408824033,190.11101771934662,662.5872340425532,1300.2470811639969
433,433,sex_male,Size_1,age_46_55,Education_Post_Secondary,Lighting_yes,Cooking_yes,6285.41765857048,195.31137025800342,662.5872340425532,0.0
434,434,sex_female,Size_4,age_56_65,Education_High_School,Lighting_yes,Cooking_yes,4513.700099837229,163.54749844561482,662.5872340425532,0.0
435,435,sex_female,Size_6,age_36_45,Education_Elementary_School,Lighting_yes,Cooking_yes,3793.616253616085,128.1426401164073,662.5872340425532,332.24172727451895
436,436,sex_male,Size_3,age_76_85,Education_Elementary_School,Lighting_yes,Cooking_yes,3667.551157110979,184.84416667228382,662.5872340425532,439.9926077826944
437,437,sex_male,Size_2,age_36_45,Education_College,Lighting_yes,Cooking_yes,11424.234836682639,165.73599764888263,662.5872340425532,1497.8755655978491
438,438,sex_male,Size_3,age_46_55,Education_High_School,Lighting_yes,Cooking_yes,3875.423446709583,173.4796955471301,662.5872340425532,1957.3324773293825
439,439,sex_male,Size_3,age_46_55,Education_College,Lighting_yes,Cooking_yes,11740.789354599905,171.87295225036556,662.5872340425532,2082.3094477505283
440,440,sex_female,Size_3,age_46_55,Education_Post_Secondary,Lighting_yes,Cooking_yes,6869.336099289718,199.00479759327203,662.5872340425532,1580.7894889181184
441,441,sex_male,Size_4,age_46_55,Education_High_School,Lighting_no,Cooking_yes,4118.751516982751,159.28252964997137,662.5872340425532,310.99999909310475
442,442,sex_male,Size_2,age_56_65,Education_College,Lighting_yes,Cooking_yes,11842.48252084319,224.6385848636153,662.5872340425532,67.2870514322731
443,443,sex_male,Size_6,age_46_55,Education_College,Lighting_yes,Cooking_yes,12696.953167088823,199.66097368965026,662.5872340425532,316.53939182269505
444,444,sex_male,Size_6,age_56_65,Education_College,Lighting_yes,Cooking_yes,12930.010644941647,183.99205366988,662.5872340425532,0.0
445,445,sex_female,Size_5,age_46_55,Education_Post_Secondary,Lighting_yes,Cooking_no,7389.549884196453,179.81952584438565,662.5872340425532,311.00000849977255
446,446,sex_male,Size_2,age_46_55,Education_College,Lighting_yes,Cooking_yes,11637.885248432727,222.67474824043447,662.5872340425532,1314.510841920206
447,447,sex_male,Size_5,age_56_65,Education_College,Lighting_yes,Cooking_yes,12654.83767604694,221.675110927222,662.5872340425532,0.0
448,448,sex_female,Size_5,age_46_55,Education_College,Lighting_yes,Cooking_yes,12474.508565553971,164.36007328738248,662.5872340425532,623.8578462050924
449,449,sex_female,Size_5,age_26_35,Education_College,Lighting_yes,Cooking_yes,12182.76599628362,158.3216904529824,662.5872340425532,570.6302574777994
450,450,sex_male,Size_5,age_56_65,Education_College,Lighting_yes,Cooking_yes,12600.686179127117,194.9572212663948,662.5872340425532,0.0
451,451,sex_male,Size_3,age_46_55,Education_College,Lighting_yes,Cooking_yes,11865.596129841262,205.92225255580945,662.5872340425532,2082.3094477505283
452,452,sex_male,Size_3,age_36_45,Education_Post_Secondary,Lighting_yes,Cooking_yes,6689.712277350961,147.17809344435096,662.5872340425532,1961.7826970296132
453,453,sex_female,Size_5,age_36_45,Education_Post_Secondary,Lighting_yes,Cooking_yes,7261.701102418951,159.90130944445855,662.5872340425532,503.3310954841774
454,454,sex_male,Size_5,age_46_55,Education_Post_Secondary,Lighting_yes,Cooking_yes,7228.187039001532,187.0781002947629,662.5872340425532,517.5948562403873
455,455,sex_male,Size_2,age_56_65,Education_Post_Secondary,Lighting_yes,Cooking_yes,6769.1172543351595,189.0034808115953,662.5872340425532,0.0
456,456,sex_male,Size_2,age_46_55,Education_Post_Secondary,Lighting_yes,Cooking_yes,6545.161655332809,193.7816369454146,662.5872340425532,1010.6193675216489
457,457,sex_male,Size_3,age_46_55,Education_High_School,Lighting_yes,Cooking_yes,3979.4543115331708,182.4802179952124,662.5872340425532,1957.3324773293825
458,458,sex_male,Size_1,age_46_55,Education_Post_Graduate,Lighting_yes,Cooking_yes,13080.58123740202,169.93106613415628,662.5872340425532,549.1706033129813
459,459,sex_female,Size_1,age_46_55,Education_Post_Secondary,Lighting_yes,Cooking_yes,6520.481765789151,190.31953081762242,662.5872340425532,0.0
460,460,sex_male,Size_1,age_46_55,Education_High_School,Lighting_yes,Cooking_yes,3410.425317576076,148.63683516266042,662.5872340425532,103.21644955790627
461,461,sex_male,Size_1,age_46_55,Education_Post_Secondary,Lighting_yes,Cooking_yes,6201.280369313584,135.33711987263501,662.5872340425532,0.0
462,462,sex_female,Size_5,age_46_55,Education_College,Lighting_yes,Cooking_yes,12451.37471780752,189.9062744812529,662.5872340425532,623.8578462050924
463,463,sex_male,Size_5,age_56_65,Education_Post_Secondary,Lighting_yes,Cooking_yes,7456.689398597875,164.50599661063092,662.5872340425532,0.0
464,464,sex_male,Size_4,age_26_35,Education_High_School,Lighting_yes,Cooking_yes,3953.8005065984985,178.50780513746818,662.5872340425532,136.07901972785368
465,465,sex_female,Size_5,age_36_45,Education_High_School,Lighting_yes,Cooking_yes,4491.511261511921,165.28193360963664,662.5872340425532,682.2455994615897
466,466,sex_male,Size_4,age_66_75,Education_Post_Secondary,Lighting_yes,Cooking_yes,7367.608844747362,161.9557601625971,662.5872340425532,0.0
467,467,sex_male,Size_7,age_26_35,Education_Post_Secondary,Lighting_yes,Cooking_yes,7474.230099867535,173.7010647959684,662.5872340425532,736.5224134193575
468,468,sex_female,Size_4,age_36_45,Education_College,Lighting_yes,Cooking_yes,12070.841305537595,163.69662003477626,662.5872340425532,300.01981812008256
469,469,sex_male,Size_4,age_56_65,Education_High_School,Lighting_yes,Cooking_yes,4429.709775419532,121.93978594910179,662.5872340425532,0.0
