,index,i_Sex,i_Urbanity,i_FamilySize,i_Age,i_Education,e_Lighting,e_TV,e_Cooking,e_Refrigeration,Income,Electricity,w,wf
0,0,sex_male,Urbanity_Urban,Size_8,age_46_55,Education_Post_Secondary,Lighting_yes,TV_yes,Cooking_no,Refrigeration_yes,7895.376962995057,138.8370405845553,557.7685950413223,290.14900375053486
1,1,sex_male,Urbanity_Urban,Size_9,age_56_65,Education_High_School,Lighting_yes,TV_yes,Cooking_no,Refrigeration_yes,5438.084325658159,122.35839258498576,557.7685950413223,0.0
2,2,sex_female,Urbanity_Urban,Size_2,age_46_55,Education_College,Lighting_yes,TV_yes,Cooking_no,Refrigeration_yes,11505.925396998891,147.7985141791973,557.7685950413223,1460.7739389523613
3,3,sex_male,Urbanity_Urban,Size_3,age_56_65,Education_High_School,Lighting_yes,TV_yes,Cooking_no,Refrigeration_yes,3895.3283521495723,138.0052225555003,557.7685950413223,639.5260833729149
4,4,sex_male,Urbanity_Urban,Size_7,age_56_65,Education_College,Lighting_yes,TV_yes,Cooking_no,Refrigeration_yes,12947.631735091692,133.24118684422638,557.7685950413223,0.0
5,5,sex_female,Urbanity_Urban,Size_7,age_26_35,Education_College,Lighting_yes,TV_yes,Cooking_no,Refrigeration_yes,12472.454883306797,119.22549665275056,557.7685950413223,148.54451043163672
6,6,sex_male,Urbanity_Urban,Size_9,age_56_65,Education_Post_Secondary,Lighting_yes,TV_yes,Cooking_no,Refrigeration_yes,8312.028344367298,117.01557144640732,557.7685950413223,0.0
7,7,sex_male,Urbanity_Urban,Size_9,age_46_55,Education_Post_Secondary,Lighting_yes,TV_yes,Cooking_yes,Refrigeration_yes,8051.229719704183,162.19641120583924,557.7685950413223,0.0
8,8,sex_male,Urbanity_Urban,Size_8,age_46_55,Education_College,Lighting_yes,TV_yes,Cooking_no,Refrigeration_yes,13036.656398985628,153.25536845540668,557.7685950413223,261.06602379794424
9,9,sex_female,Urbanity_Urban,Size_8,age_46_55,Education_Post_Graduate,Lighting_yes,TV_yes,Cooking_no,Refrigeration_yes,14758.908196226668,179.82650156742451,557.7685950413223,643.3884300397485
10,10,sex_male,Urbanity_Urban,Size_2,age_46_55,Education_High_School,Lighting_yes,TV_yes,Cooking_no,Refrigeration_yes,3486.097276403545,153.09269012603013,557.7685950413223,1498.5861076184137
11,11,sex_male,Urbanity_Urban,Size_5,age_56_65,Education_College,Lighting_yes,TV_yes,Cooking_no,Refrigeration_yes,12445.655530217527,155.65058579630912,557.7685950413223,0.0
12,12,sex_male,Urbanity_Urban,Size_4,age_36_45,Education_Elementary_School,Lighting_yes,TV_yes,Cooking_no,Refrigeration_yes,2849.715478686162,130.93173068633922,557.7685950413223,963.3875737358866
13,13,sex_male,Urbanity_Urban,Size_3,age_36_45,Education_High_School,Lighting_yes,TV_yes,Cooking_no,Refrigeration_yes,3584.1646457982147,126.1146111129913,557.7685950413223,1854.6491379081008
14,14,sex_male,Urbanity_Urban,Size_5,age_36_45,Education_High_School,Lighting_yes,TV_yes,Cooking_no,Refrigeration_yes,4080.3221322165296,123.2318934974511,557.7685950413223,731.091448281665
15,15,sex_male,Urbanity_Urban,Size_9,age_66_75,Education_College,Lighting_yes,TV_yes,Cooking_no,Refrigeration_yes,13673.107680448426,139.8085566228768,557.7685950413223,0.0
16,16,sex_female,Urbanity_Urban,Size_6,age_19_25,Education_College,Lighting_yes,TV_yes,Cooking_no,Refrigeration_yes,11957.533725870213,161.39324045683804,557.7685950413223,0.0
17,17,sex_male,Urbanity_Urban,Size_4,age_46_55,Education_College,Lighting_yes,TV_yes,Cooking_no,Refrigeration_yes,11992.458930587232,126.20685551667243,557.7685950413223,501.9086330583287
18,18,sex_male,Urbanity_Urban,Size_2,age_46_55,Education_Post_Secondary,Lighting_yes,TV_yes,Cooking_yes,Refrigeration_yes,6299.207349760198,174.79002493864354,557.7685950413223,1166.155034468599
19,19,sex_female,Urbanity_Urban,Size_2,age_36_45,Education_Post_Secondary,Lighting_yes,TV_yes,Cooking_no,Refrigeration_yes,6156.7363473189625,152.21034880169108,557.7685950413223,1777.2715965645318
20,20,sex_male,Urbanity_Urban,Size_2,age_56_65,Education_Elementary_School,Lighting_yes,TV_yes,Cooking_no,Refrigeration_yes,2658.284478813728,95.80650662484484,557.7685950413223,755.6200156407385
21,21,sex_male,Urbanity_Urban,Size_6,age_56_65,Education_Elementary_School,Lighting_yes,TV_yes,Cooking_no,Refrigeration_yes,3845.177156922948,129.23576578526234,557.7685950413223,0.0
22,22,sex_male,Urbanity_Urban,Size_6,age_46_55,Education_Elementary_School,Lighting_yes,TV_yes,Cooking_no,Refrigeration_yes,3546.778435515245,122.80254191471992,557.7685950413223,381.80890416200907
23,23,sex_male,Urbanity_Urban,Size_3,age_46_55,Education_College,Lighting_yes,TV_yes,Cooking_no,Refrigeration_yes,11730.066713262337,133.13960418177328,557.7685950413223,1577.9124821284747
24,24,sex_male,Urbanity_Urban,Size_7,age_46_55,Education_Post_Secondary,Lighting_yes,TV_yes,Cooking_no,Refrigeration_yes,7552.791634054783,139.87193004124174,557.7685950413223,439.41459136849414
25,25,sex_male,Urbanity_Urban,Size_7,age_76_85,Education_College,Lighting_yes,TV_yes,Cooking_no,Refrigeration_yes,13165.848496072007,149.73886385806563,557.7685950413223,132.56439598102986
26,26,sex_male,Urbanity_Urban,Size_2,age_46_55,Education_College,Lighting_yes,TV_yes,Cooking_yes,Refrigeration_yes,11350.511275706454,178.85606011061634,557.7685950413223,1137.0720545160075
27,27,sex_male,Urbanity_Urban,Size_4,age_36_45,Education_High_School,Lighting_yes,TV_yes,Cooking_no,Refrigeration_yes,3785.0509275907507,149.36891179856562,557.7685950413223,778.6452888379548
28,28,sex_male,Urbanity_Urban,Size_2,age_46_55,Education_High_School,Lighting_yes,TV_yes,Cooking_yes,Refrigeration_yes,3382.518877115529,154.0866945329413,557.7685950413223,1126.394032636055
29,29,sex_female,Urbanity_Urban,Size_3,age_46_55,Education_High_School,Lighting_yes,TV_yes,Cooking_no,Refrigeration_no,3800.9719196499923,34.97580145358955,557.7685950413223,1150.2238494072708
30,30,sex_male,Urbanity_Urban,Size_6,age_46_55,Education_High_School,Lighting_yes,TV_yes,Cooking_no,Refrigeration_yes,4435.665556814694,106.47772753632604,557.7685950413223,197.0666192640774
31,31,sex_male,Urbanity_Urban,Size_4,age_36_45,Education_Elementary_School,Lighting_yes,TV_yes,Cooking_no,Refrigeration_yes,2887.738617741184,173.07266239819103,557.7685950413223,963.3875737358866
32,32,sex_female,Urbanity_Urban,Size_4,age_36_45,Education_Elementary_School,Lighting_yes,TV_yes,Cooking_no,Refrigeration_yes,3045.9090121939053,156.07236459315487,557.7685950413223,914.8973831898816
33,33,sex_female,Urbanity_Urban,Size_4,age_56_65,Education_Elementary_School,Lighting_yes,TV_yes,Cooking_no,Refrigeration_yes,3376.972550464758,166.01424036501572,557.7685950413223,0.0
34,34,sex_male,Urbanity_Urban,Size_5,age_66_75,Education_Elementary_School,Lighting_yes,TV_yes,Cooking_no,Refrigeration_yes,3608.35564102966,140.33906003846636,557.7685950413223,0.0
35,35,sex_male,Urbanity_Urban,Size_4,age_46_55,Education_College,Lighting_yes,TV_yes,Cooking_no,Refrigeration_yes,11893.823413882938,166.84596655249044,557.7685950413223,501.9086330583287
36,36,sex_male,Urbanity_Urban,Size_2,age_26_35,Education_High_School,Lighting_yes,TV_yes,Cooking_no,Refrigeration_yes,3006.414303623524,124.57498010508051,557.7685950413223,1285.2891971801516
37,37,sex_male,Urbanity_Urban,Size_3,age_36_45,Education_Elementary_School,Lighting_yes,TV_yes,Cooking_no,Refrigeration_yes,2607.75902533138,101.10256088443596,557.7685950413223,2039.3914228060328
38,38,sex_male,Urbanity_Urban,Size_3,age_56_65,Education_College,Lighting_yes,TV_yes,Cooking_no,Refrigeration_yes,11816.588472902093,137.42096513739216,557.7685950413223,650.2041052528681
39,39,sex_male,Urbanity_Urban,Size_4,age_56_65,Education_College,Lighting_yes,TV_yes,Cooking_no,Refrigeration_yes,12094.593108012028,131.16185705096072,557.7685950413223,0.0
40,40,sex_female,Urbanity_Urban,Size_6,age_46_55,Education_College,Lighting_yes,TV_yes,Cooking_no,Refrigeration_yes,12629.377821817763,180.7538271957256,557.7685950413223,159.2544505980256
41,41,sex_male,Urbanity_Urban,Size_6,age_26_35,Education_College,Lighting_yes,TV_yes,Cooking_no,Refrigeration_yes,12022.829357243174,142.1075186251468,557.7685950413223,0.0
42,42,sex_female,Urbanity_Urban,Size_3,age_46_55,Education_Elementary_School,Lighting_yes,TV_yes,Cooking_no,Refrigeration_yes,2777.977689740015,129.52736799783318,557.7685950413223,1703.486554600448
43,43,sex_male,Urbanity_Urban,Size_5,age_56_65,Education_Elementary_School,Lighting_yes,TV_yes,Cooking_no,Refrigeration_yes,3454.8210735983025,121.20839018285385,557.7685950413223,0.0
44,44,sex_male,Urbanity_Urban,Size_2,age_46_55,Education_College,Lighting_yes,TV_yes,Cooking_no,Refrigeration_yes,11276.75504052732,152.3554518686777,557.7685950413223,1509.2641294983666
45,45,sex_male,Urbanity_Urban,Size_2,age_66_75,Education_Elementary_School,Lighting_yes,TV_yes,Cooking_no,Refrigeration_no,2968.907335291481,44.154274793598965,557.7685950413223,256.4875555464426
46,46,sex_male,Urbanity_Urban,Size_2,age_66_75,Education_Post_Secondary,Lighting_yes,TV_yes,Cooking_no,Refrigeration_yes,6551.707666173357,99.19645073850646,557.7685950413223,480.0266927763006
47,47,sex_female,Urbanity_Urban,Size_2,age_56_65,Education_College,Lighting_yes,TV_yes,Cooking_no,Refrigeration_yes,11660.130030093664,120.63620007869581,557.7685950413223,533.065562076755
48,48,sex_female,Urbanity_Urban,Size_2,age_46_55,Education_Post_Secondary,Lighting_yes,TV_yes,Cooking_no,Refrigeration_yes,6474.436466363956,151.09620177190908,557.7685950413223,1489.8569189049522
49,49,sex_male,Urbanity_Urban,Size_7,age_36_45,Education_Post_Graduate,Lighting_yes,TV_yes,Cooking_no,Refrigeration_yes,14336.832058465381,164.06740124253915,557.7685950413223,1128.558885863292
50,50,sex_male,Urbanity_Urban,Size_4,age_46_55,Education_High_School,Lighting_yes,TV_yes,Cooking_no,Refrigeration_yes,3958.737050269481,125.61171441367149,557.7685950413223,491.2306111783755
51,51,sex_female,Urbanity_Urban,Size_5,age_46_55,Education_College,Lighting_yes,TV_yes,Cooking_no,Refrigeration_yes,12258.497442181899,122.2048571014558,557.7685950413223,405.86460195603286
52,52,sex_male,Urbanity_Urban,Size_4,age_66_75,Education_Elementary_School,Lighting_yes,TV_yes,Cooking_no,Refrigeration_yes,3488.884103264862,133.81834013767568,557.7685950413223,0.0
53,53,sex_female,Urbanity_Urban,Size_4,age_46_55,Education_Elementary_School,Lighting_no,TV_yes,Cooking_no,Refrigeration_yes,3124.41779014558,134.72349607575077,557.7685950413223,127.61837733815423
54,54,sex_female,Urbanity_Urban,Size_3,age_46_55,Education_Elementary_School,Lighting_yes,TV_yes,Cooking_no,Refrigeration_yes,3005.7578853157374,147.98501673916314,557.7685950413223,1703.486554600448
55,55,sex_male,Urbanity_Urban,Size_5,age_26_35,Education_Post_Secondary,Lighting_yes,TV_yes,Cooking_no,Refrigeration_yes,6653.165079682134,140.49430589127698,557.7685950413223,270.14086201636735
56,56,sex_male,Urbanity_Urban,Size_4,age_56_65,Education_College,Lighting_yes,TV_yes,Cooking_no,Refrigeration_yes,12282.860539863803,128.26776533583546,557.7685950413223,0.0
57,57,sex_male,Urbanity_Urban,Size_4,age_46_55,Education_Post_Secondary,Lighting_no,TV_yes,Cooking_no,Refrigeration_yes,6825.512811066448,140.28249400848958,557.7685950413223,31.127284818771198
58,58,sex_female,Urbanity_Urban,Size_4,age_56_65,Education_College,Lighting_yes,TV_yes,Cooking_no,Refrigeration_yes,12174.76664245037,144.56204797746656,557.7685950413223,0.0
59,59,sex_male,Urbanity_Urban,Size_6,age_36_45,Education_Post_Secondary,Lighting_yes,TV_yes,Cooking_no,Refrigeration_yes,7206.407572009822,118.14603139448856,557.7685950413223,524.2422987562004
60,60,sex_male,Urbanity_Urban,Size_5,age_56_65,Education_Post_Secondary,Lighting_yes,TV_yes,Cooking_no,Refrigeration_yes,7238.989964081863,164.166813657741,557.7685950413223,0.0
61,61,sex_male,Urbanity_Urban,Size_4,age_36_45,Education_College,Lighting_yes,TV_yes,Cooking_no,Refrigeration_yes,11783.778369058753,159.50895287740914,557.7685950413223,789.323310717908
62,62,sex_male,Urbanity_Urban,Size_4,age_56_65,Education_Post_Secondary,Lighting_yes,TV_yes,Cooking_no,Refrigeration_yes,7123.290666710591,135.17166287277374,557.7685950413223,0.0
63,63,sex_male,Urbanity_Urban,Size_2,age_66_75,Education_Post_Secondary,Lighting_yes,TV_yes,Cooking_no,Refrigeration_yes,6627.327081826402,139.19060125367443,557.7685950413223,480.0266927763006
64,64,sex_male,Urbanity_Urban,Size_3,age_56_65,Education_Elementary_School,Lighting_yes,TV_yes,Cooking_yes,Refrigeration_yes,2910.387992922065,189.58703050711625,557.7685950413223,452.0762932884882
65,65,sex_male,Urbanity_Urban,Size_2,age_56_65,Education_Elementary_School,Lighting_yes,TV_yes,Cooking_no,Refrigeration_yes,2607.491851853154,117.76742003676874,557.7685950413223,755.6200156407385
66,66,sex_male,Urbanity_Urban,Size_2,age_66_75,Education_High_School,Lighting_yes,TV_yes,Cooking_no,Refrigeration_yes,3735.5398216083818,133.9335477964349,557.7685950413223,440.26569094375685
67,67,sex_female,Urbanity_Urban,Size_6,age_46_55,Education_High_School,Lighting_yes,TV_yes,Cooking_no,Refrigeration_yes,4638.758056451405,148.69542885299163,557.7685950413223,148.57642871807246
68,68,sex_male,Urbanity_Urban,Size_6,age_46_55,Education_College,Lighting_yes,TV_yes,Cooking_no,Refrigeration_yes,12426.086434333418,130.72171761435837,557.7685950413223,207.7446411440305
69,69,sex_male,Urbanity_Urban,Size_6,age_46_55,Education_Post_Secondary,Lighting_yes,TV_yes,Cooking_no,Refrigeration_yes,7334.414066253951,170.29344259228662,557.7685950413223,236.8276210966211
70,70,sex_male,Urbanity_Urban,Size_5,age_56_65,Education_Post_Secondary,Lighting_yes,TV_yes,Cooking_yes,Refrigeration_yes,7252.290053478626,190.05646151792286,557.7685950413223,0.0
71,71,sex_male,Urbanity_Urban,Size_6,age_56_65,Education_Post_Secondary,Lighting_yes,TV_yes,Cooking_no,Refrigeration_yes,7550.53060335716,135.09981049595243,557.7685950413223,0.0
72,72,sex_male,Urbanity_Urban,Size_9,age_26_35,Education_Post_Secondary,Lighting_yes,TV_yes,Cooking_no,Refrigeration_yes,7678.246930590312,136.98154472408828,557.7685950413223,64.95960302115748
73,73,sex_female,Urbanity_Urban,Size_9,age_76_85,Education_High_School,Lighting_yes,TV_yes,Cooking_no,Refrigeration_yes,5999.679522644567,168.43433615677955,557.7685950413223,0.0
74,74,sex_male,Urbanity_Urban,Size_7,age_46_55,Education_Elementary_School,Lighting_yes,TV_yes,Cooking_no,Refrigeration_yes,3723.9334756022213,122.72010737698393,557.7685950413223,584.3958744338821
75,75,sex_male,Urbanity_Urban,Size_5,age_66_75,Education_College,Lighting_yes,TV_yes,Cooking_no,Refrigeration_yes,12484.930360880637,155.81749128763002,557.7685950413223,0.0
76,76,sex_female,Urbanity_Urban,Size_5,age_56_65,Education_College,Lighting_yes,TV_yes,Cooking_no,Refrigeration_yes,12463.461863137754,166.22961543979005,557.7685950413223,0.0
77,77,sex_male,Urbanity_Urban,Size_4,age_56_65,Education_Post_Secondary,Lighting_yes,TV_yes,Cooking_no,Refrigeration_yes,6998.8901668842345,156.82245755589184,557.7685950413223,0.0
78,78,sex_male,Urbanity_Urban,Size_4,age_36_45,Education_High_School,Lighting_yes,TV_yes,Cooking_no,Refrigeration_yes,3861.837124564267,124.50938737826985,557.7685950413223,778.6452888379548
79,79,sex_female,Urbanity_Urban,Size_5,age_46_55,Education_College,Lighting_yes,TV_yes,Cooking_no,Refrigeration_yes,12277.992456978169,207.12324310827853,557.7685950413223,405.86460195603286
80,80,sex_male,Urbanity_Urban,Size_3,age_66_75,Education_High_School,Lighting_yes,TV_yes,Cooking_no,Refrigeration_yes,3966.9295186651493,172.1847766654419,557.7685950413223,508.9140435738649
81,81,sex_male,Urbanity_Urban,Size_3,age_36_45,Education_College,Lighting_yes,TV_yes,Cooking_no,Refrigeration_yes,11483.626228814643,172.064492954582,557.7685950413223,1865.3271597880544
82,82,sex_male,Urbanity_Urban,Size_2,age_36_45,Education_High_School,Lighting_yes,TV_yes,Cooking_no,Refrigeration_yes,3374.8648162555846,146.27607151350338,557.7685950413223,1786.000785277993
83,83,sex_male,Urbanity_Urban,Size_2,age_26_35,Education_Elementary_School,Lighting_yes,TV_yes,Cooking_no,Refrigeration_yes,2214.2348681605627,121.05452304045927,557.7685950413223,1470.0314820780832
84,84,sex_male,Urbanity_Urban,Size_2,age_36_45,Education_Post_Secondary,Lighting_yes,TV_yes,Cooking_no,Refrigeration_yes,6126.278984979576,145.24463438341996,557.7685950413223,1825.7617871105367
85,85,sex_male,Urbanity_Urban,Size_2,age_26_35,Education_Elementary_School,Lighting_yes,TV_yes,Cooking_no,Refrigeration_yes,2048.731120292724,137.5438020611458,557.7685950413223,1470.0314820780832
86,86,sex_male,Urbanity_Urban,Size_4,age_26_35,Education_Post_Secondary,Lighting_yes,TV_yes,Cooking_no,Refrigeration_yes,6448.441765384946,145.633763619229,557.7685950413223,317.6947025726573
87,87,sex_male,Urbanity_Urban,Size_4,age_19_25,Education_Post_Secondary,Lighting_yes,TV_yes,Cooking_no,Refrigeration_yes,6259.432228107072,164.727389992911,557.7685950413223,238.2124175231893
88,88,sex_male,Urbanity_Urban,Size_3,age_36_45,Education_College,Lighting_yes,TV_yes,Cooking_no,Refrigeration_yes,11459.555517679817,149.24543820162194,557.7685950413223,1865.3271597880544
89,89,sex_male,Urbanity_Urban,Size_5,age_66_75,Education_College,Lighting_yes,TV_yes,Cooking_no,Refrigeration_yes,12447.457745308484,180.58072300530583,557.7685950413223,0.0
90,90,sex_male,Urbanity_Urban,Size_2,age_66_75,Education_Post_Secondary,Lighting_yes,TV_yes,Cooking_no,Refrigeration_yes,6693.6387624875415,160.14517580013444,557.7685950413223,480.0266927763006
91,91,sex_male,Urbanity_Urban,Size_4,age_56_65,Education_College,Lighting_yes,TV_yes,Cooking_no,Refrigeration_yes,12101.82542410848,143.14446163844318,557.7685950413223,0.0
92,92,sex_female,Urbanity_Urban,Size_4,age_56_65,Education_College,Lighting_yes,TV_yes,Cooking_no,Refrigeration_yes,12268.91358497856,161.2879415773905,557.7685950413223,0.0
93,93,sex_female,Urbanity_Urban,Size_5,age_66_75,Education_College,Lighting_yes,TV_yes,Cooking_no,Refrigeration_yes,12662.700928433023,185.43985047513814,557.7685950413223,0.0
94,94,sex_female,Urbanity_Urban,Size_5,age_56_65,Education_Post_Secondary,Lighting_yes,TV_yes,Cooking_no,Refrigeration_yes,7489.730369343145,180.29386402291192,557.7685950413223,0.0
95,95,sex_male,Urbanity_Urban,Size_5,age_26_35,Education_Post_Secondary,Lighting_yes,TV_yes,Cooking_no,Refrigeration_yes,6794.1387016247,155.22558938716287,557.7685950413223,270.14086201636735
96,96,sex_female,Urbanity_Urban,Size_5,age_46_55,Education_Post_Secondary,Lighting_yes,TV_yes,Cooking_no,Refrigeration_yes,7168.926313021266,112.26314542450658,557.7685950413223,434.94758190862444
97,97,sex_male,Urbanity_Urban,Size_5,age_56_65,Education_Post_Secondary,Lighting_yes,TV_yes,Cooking_no,Refrigeration_yes,7191.871248770294,121.1827632682118,557.7685950413223,0.0
98,98,sex_male,Urbanity_Urban,Size_4,age_36_45,Education_Elementary_School,Lighting_yes,TV_yes,Cooking_no,Refrigeration_no,2784.381335196875,67.66335395402771,557.7685950413223,594.8671534406405
99,99,sex_male,Urbanity_Urban,Size_4,age_36_45,Education_Post_Secondary,Lighting_yes,TV_yes,Cooking_no,Refrigeration_yes,6541.918152301256,145.69972253957667,557.7685950413223,818.4062906704986
100,100,sex_male,Urbanity_Urban,Size_4,age_66_75,Education_High_School,Lighting_yes,TV_yes,Cooking_no,Refrigeration_yes,4408.041592508738,124.90868089009642,557.7685950413223,0.0
101,101,sex_female,Urbanity_Urban,Size_7,age_46_55,Education_High_School,Lighting_yes,TV_yes,Cooking_no,Refrigeration_yes,4850.805654384378,120.08950240502816,557.7685950413223,351.1633989899455
102,102,sex_male,Urbanity_Urban,Size_5,age_36_45,Education_Elementary_School,Lighting_yes,TV_yes,Cooking_no,Refrigeration_yes,3191.561831113078,116.74132859597012,557.7685950413223,915.8337331795966
103,103,sex_male,Urbanity_Urban,Size_4,age_66_75,Education_High_School,Lighting_no,TV_yes,Cooking_no,Refrigeration_yes,4316.530167555125,135.3346130267509,557.7685950413223,0.0
104,104,sex_male,Urbanity_Urban,Size_4,age_26_35,Education_Post_Secondary,Lighting_yes,TV_yes,Cooking_no,Refrigeration_yes,6464.511627151271,130.87328413009735,557.7685950413223,317.6947025726573
105,105,sex_male,Urbanity_Urban,Size_4,age_66_75,Education_Post_Secondary,Lighting_yes,TV_yes,Cooking_no,Refrigeration_yes,7038.234643738249,126.74721195952324,557.7685950413223,0.0
106,106,sex_male,Urbanity_Urban,Size_4,age_36_45,Education_College,Lighting_yes,TV_yes,Cooking_no,Refrigeration_yes,11851.739486500985,143.7796788779458,557.7685950413223,789.323310717908
107,107,sex_male,Urbanity_Urban,Size_5,age_46_55,Education_High_School,Lighting_yes,TV_yes,Cooking_no,Refrigeration_yes,4259.59804884944,123.0277380903262,557.7685950413223,443.6767706220856
108,108,sex_male,Urbanity_Urban,Size_5,age_46_55,Education_College,Lighting_yes,TV_yes,Cooking_no,Refrigeration_yes,12140.806533702042,155.87910288949257,557.7685950413223,454.3547925020387
109,109,sex_male,Urbanity_Urban,Size_6,age_46_55,Education_Elementary_School,Lighting_yes,TV_yes,Cooking_no,Refrigeration_yes,3539.4767296564223,147.3204065846877,557.7685950413223,381.80890416200907
110,110,sex_male,Urbanity_Urban,Size_4,age_36_45,Education_College,Lighting_yes,TV_yes,Cooking_no,Refrigeration_yes,11767.085360838626,156.89808762009045,557.7685950413223,789.323310717908
111,111,sex_male,Urbanity_Urban,Size_5,age_66_75,Education_Elementary_School,Lighting_yes,TV_yes,Cooking_no,Refrigeration_yes,3647.248237981799,126.53192297482664,557.7685950413223,0.0
112,112,sex_female,Urbanity_Urban,Size_3,age_56_65,Education_College,Lighting_yes,TV_yes,Cooking_no,Refrigeration_yes,12016.033909099686,185.9251342321593,557.7685950413223,601.7139147068632
113,113,sex_female,Urbanity_Urban,Size_2,age_46_55,Education_High_School,Lighting_yes,TV_yes,Cooking_no,Refrigeration_yes,3463.0818396407926,105.4510778443358,557.7685950413223,1450.0959170724086
114,114,sex_male,Urbanity_Urban,Size_2,age_36_45,Education_Post_Graduate,Lighting_yes,TV_yes,Cooking_yes,Refrigeration_yes,12934.990441649825,178.48952516388454,557.7685950413223,1855.2993289633964
115,115,sex_male,Urbanity_Urban,Size_6,age_56_65,Education_Elementary_School,Lighting_yes,TV_yes,Cooking_no,Refrigeration_yes,3744.423594227459,130.36798108464043,557.7685950413223,0.0
116,116,sex_male,Urbanity_Urban,Size_5,age_36_45,Education_Elementary_School,Lighting_yes,TV_yes,Cooking_no,Refrigeration_yes,3128.96344218157,131.10366495726134,557.7685950413223,915.8337331795966
117,117,sex_male,Urbanity_Urban,Size_3,age_46_55,Education_College,Lighting_yes,TV_yes,Cooking_no,Refrigeration_yes,11720.976389855501,148.43411674559886,557.7685950413223,1577.9124821284747
118,118,sex_male,Urbanity_Urban,Size_2,age_26_35,Education_College,Lighting_yes,TV_yes,Cooking_no,Refrigeration_yes,11067.01087661529,135.73642656420856,557.7685950413223,1295.9672190601048
119,119,sex_male,Urbanity_Urban,Size_4,age_66_75,Education_Elementary_School,Lighting_yes,TV_yes,Cooking_no,Refrigeration_yes,3345.560414882065,142.0137135724251,557.7685950413223,0.0
120,120,sex_male,Urbanity_Urban,Size_6,age_26_35,Education_Elementary_School,Lighting_yes,TV_yes,Cooking_no,Refrigeration_yes,3218.080491592759,122.43112241152843,557.7685950413223,168.5119937237471
121,121,sex_male,Urbanity_Urban,Size_3,age_66_75,Education_College,Lighting_yes,TV_yes,Cooking_no,Refrigeration_yes,12064.028170474863,177.35907221320468,557.7685950413223,519.5920654538181
122,122,sex_male,Urbanity_Urban,Size_5,age_36_45,Education_Post_Secondary,Lighting_yes,TV_yes,Cooking_no,Refrigeration_yes,6967.423635725496,142.86368890263103,557.7685950413223,770.8524501142086
123,123,sex_male,Urbanity_Urban,Size_4,age_56_65,Education_Post_Secondary,Lighting_yes,TV_yes,Cooking_no,Refrigeration_yes,7140.509280993742,138.08708221677125,557.7685950413223,0.0
124,124,sex_male,Urbanity_Urban,Size_4,age_46_55,Education_Post_Secondary,Lighting_yes,TV_yes,Cooking_no,Refrigeration_yes,6831.501984078645,175.75956540893762,557.7685950413223,530.9916130109194
125,125,sex_male,Urbanity_Urban,Size_4,age_36_45,Education_High_School,Lighting_yes,TV_yes,Cooking_no,Refrigeration_yes,3862.3644822432398,122.93753223062059,557.7685950413223,778.6452888379548
126,126,sex_male,Urbanity_Urban,Size_4,age_36_45,Education_High_School,Lighting_yes,TV_yes,Cooking_no,Refrigeration_yes,3853.3603776142713,117.46772285366444,557.7685950413223,778.6452888379548
127,127,sex_female,Urbanity_Rural,Size_4,age_56_65,Education_College,Lighting_yes,TV_yes,Cooking_no,Refrigeration_yes,11072.739659002656,96.92309903136585,557.7685950413223,0.0
128,128,sex_male,Urbanity_Urban,Size_2,age_56_65,Education_College,Lighting_yes,TV_yes,Cooking_no,Refrigeration_yes,11478.749546312714,139.98837639879528,557.7685950413223,581.55575262276
129,129,sex_male,Urbanity_Urban,Size_3,age_46_55,Education_Post_Secondary,Lighting_yes,TV_yes,Cooking_no,Refrigeration_yes,6530.3867156268725,160.92125988712817,557.7685950413223,1606.9954620810654
130,130,sex_male,Urbanity_Urban,Size_3,age_46_55,Education_Post_Secondary,Lighting_yes,TV_yes,Cooking_no,Refrigeration_yes,6458.125120908576,180.79597080136716,557.7685950413223,1606.9954620810654
131,131,sex_male,Urbanity_Rural,Size_2,age_46_55,Education_High_School,Lighting_yes,TV_yes,Cooking_no,Refrigeration_yes,2427.4105380541573,81.76613171946691,557.7685950413223,1165.28558761438
132,132,sex_male,Urbanity_Urban,Size_4,age_66_75,Education_High_School,Lighting_yes,TV_yes,Cooking_no,Refrigeration_yes,4294.043744506756,161.83560377982255,557.7685950413223,0.0
133,133,sex_female,Urbanity_Urban,Size_7,age_19_25,Education_Post_Secondary,Lighting_yes,TV_yes,Cooking_no,Refrigeration_yes,7134.631579166253,151.81177632764474,557.7685950413223,98.14520533475927
134,134,sex_female,Urbanity_Urban,Size_5,age_56_65,Education_High_School,Lighting_yes,TV_yes,Cooking_no,Refrigeration_yes,4597.9954689331125,132.47949915153205,557.7685950413223,0.0
135,135,sex_male,Urbanity_Urban,Size_3,age_36_45,Education_High_School,Lighting_yes,TV_yes,Cooking_no,Refrigeration_yes,3574.0718064661705,135.41176698451207,557.7685950413223,1854.6491379081008
136,136,sex_male,Urbanity_Urban,Size_6,age_66_75,Education_College,Lighting_no,TV_yes,Cooking_no,Refrigeration_yes,12692.222464046405,144.34177964931627,557.7685950413223,0.0
137,137,sex_male,Urbanity_Urban,Size_5,age_36_45,Education_High_School,Lighting_yes,TV_yes,Cooking_no,Refrigeration_yes,3992.657161740003,140.7334313320147,557.7685950413223,731.091448281665
138,138,sex_male,Urbanity_Urban,Size_3,age_36_45,Education_College,Lighting_yes,TV_yes,Cooking_no,Refrigeration_yes,11388.694766786486,144.45714633665028,557.7685950413223,1865.3271597880544
139,139,sex_male,Urbanity_Urban,Size_4,age_56_65,Education_Post_Secondary,Lighting_yes,TV_yes,Cooking_no,Refrigeration_yes,6944.739842056948,162.41269906627275,557.7685950413223,0.0
140,140,sex_male,Urbanity_Urban,Size_5,age_56_65,Education_Elementary_School,Lighting_yes,TV_yes,Cooking_yes,Refrigeration_yes,3470.3683831482954,172.5386116461364,557.7685950413223,0.0
141,141,sex_male,Urbanity_Urban,Size_9,age_46_55,Education_Elementary_School,Lighting_yes,TV_yes,Cooking_no,Refrigeration_yes,4460.486029318242,146.2987052219691,557.7685950413223,423.2377965248074
142,142,sex_male,Urbanity_Urban,Size_8,age_46_55,Education_Elementary_School,Lighting_yes,TV_yes,Cooking_no,Refrigeration_yes,4043.7660573523717,136.26500826291854,557.7685950413223,435.1302868159228
143,143,sex_male,Urbanity_Urban,Size_2,age_46_55,Education_College,Lighting_yes,TV_yes,Cooking_no,Refrigeration_yes,11434.555765688414,160.89574762782834,557.7685950413223,1509.2641294983666
144,144,sex_male,Urbanity_Urban,Size_3,age_56_65,Education_Post_Secondary,Lighting_yes,TV_yes,Cooking_no,Refrigeration_yes,6732.2523538676705,146.82251746263432,557.7685950413223,679.2870852054597
145,145,sex_male,Urbanity_Urban,Size_9,age_66_75,Education_High_School,Lighting_yes,TV_yes,Cooking_no,Refrigeration_yes,5616.342355003264,162.72285951804602,557.7685950413223,0.0
146,146,sex_male,Urbanity_Urban,Size_5,age_36_45,Education_College,Lighting_yes,TV_yes,Cooking_no,Refrigeration_yes,11871.708056368632,120.71528641076515,557.7685950413223,741.7694701616181
147,147,sex_male,Urbanity_Urban,Size_4,age_56_65,Education_High_School,Lighting_yes,TV_yes,Cooking_no,Refrigeration_yes,4103.075377130305,138.63851062030523,557.7685950413223,0.0
148,148,sex_male,Urbanity_Urban,Size_4,age_56_65,Education_Elementary_School,Lighting_yes,TV_yes,Cooking_no,Refrigeration_yes,3163.3670985474982,133.5616345929476,557.7685950413223,0.0
149,149,sex_male,Urbanity_Urban,Size_6,age_56_65,Education_Post_Secondary,Lighting_yes,TV_yes,Cooking_no,Refrigeration_yes,7560.708770688063,138.8258159755393,557.7685950413223,0.0
150,150,sex_male,Urbanity_Urban,Size_4,age_26_35,Education_Post_Secondary,Lighting_yes,TV_yes,Cooking_no,Refrigeration_yes,6551.044222721032,146.2845749155033,557.7685950413223,317.6947025726573
151,151,sex_female,Urbanity_Urban,Size_4,age_66_75,Education_College,Lighting_yes,TV_yes,Cooking_no,Refrigeration_yes,12451.353113739731,131.80473086986456,557.7685950413223,0.0
152,152,sex_male,Urbanity_Urban,Size_4,age_66_75,Education_College,Lighting_yes,TV_yes,Cooking_no,Refrigeration_yes,12279.73327352004,125.60627984062228,557.7685950413223,0.0
153,153,sex_male,Urbanity_Urban,Size_7,age_46_55,Education_Elementary_School,Lighting_yes,TV_yes,Cooking_no,Refrigeration_yes,3867.3113793723683,137.06654031924168,557.7685950413223,584.3958744338821
154,154,sex_male,Urbanity_Urban,Size_7,age_46_55,Education_Post_Secondary,Lighting_yes,TV_yes,Cooking_no,Refrigeration_yes,7610.612955735694,143.21829569339582,557.7685950413223,439.41459136849414
155,155,sex_male,Urbanity_Urban,Size_5,age_46_55,Education_Elementary_School,Lighting_yes,TV_yes,Cooking_no,Refrigeration_yes,3403.3308318616387,151.84755130574297,557.7685950413223,628.4190555200173
156,156,sex_male,Urbanity_Urban,Size_4,age_56_65,Education_Post_Secondary,Lighting_yes,TV_yes,Cooking_no,Refrigeration_yes,7054.6349485682995,172.4554893098811,557.7685950413223,0.0
157,157,sex_male,Urbanity_Urban,Size_3,age_46_55,Education_College,Lighting_yes,TV_yes,Cooking_no,Refrigeration_yes,11723.144742684659,138.68436592691987,557.7685950413223,1577.9124821284747
158,158,sex_male,Urbanity_Urban,Size_5,age_56_65,Education_College,Lighting_yes,TV_yes,Cooking_no,Refrigeration_yes,12241.921076297807,176.61468885226228,557.7685950413223,0.0
159,159,sex_male,Urbanity_Urban,Size_4,age_56_65,Education_College,Lighting_yes,TV_yes,Cooking_no,Refrigeration_yes,12065.393317723738,158.38766240611488,557.7685950413223,0.0
160,160,sex_male,Urbanity_Rural,Size_4,age_66_75,Education_Elementary_School,Lighting_yes,TV_yes,Cooking_no,Refrigeration_yes,2273.2571472596123,111.64511752858664,557.7685950413223,0.0
161,161,sex_male,Urbanity_Urban,Size_7,age_36_45,Education_Elementary_School,Lighting_yes,TV_yes,Cooking_no,Refrigeration_yes,3577.583390799209,106.32569168859683,557.7685950413223,871.8105520934615
162,162,sex_female,Urbanity_Urban,Size_7,age_46_55,Education_Elementary_School,Lighting_yes,TV_yes,Cooking_no,Refrigeration_yes,3914.6355310342933,146.31992975407948,557.7685950413223,535.9056838878772
163,163,sex_female,Urbanity_Urban,Size_4,age_56_65,Education_High_School,Lighting_yes,TV_yes,Cooking_no,Refrigeration_yes,4282.993314713316,146.08675726985948,557.7685950413223,0.0
164,164,sex_male,Urbanity_Urban,Size_6,age_46_55,Education_Elementary_School,Lighting_yes,TV_yes,Cooking_no,Refrigeration_yes,3618.551405887843,139.4054205806953,557.7685950413223,381.80890416200907
165,165,sex_male,Urbanity_Urban,Size_3,age_36_45,Education_College,Lighting_yes,TV_yes,Cooking_no,Refrigeration_yes,11506.258192117619,140.32585666060615,557.7685950413223,1865.3271597880544
166,166,sex_female,Urbanity_Rural,Size_3,age_36_45,Education_College,Lighting_yes,TV_yes,Cooking_no,Refrigeration_yes,10489.335376852549,119.31232670806357,557.7685950413223,1483.536449238015
167,167,sex_male,Urbanity_Urban,Size_6,age_46_55,Education_Post_Secondary,Lighting_yes,TV_yes,Cooking_no,Refrigeration_yes,7361.6548011458935,153.9843094647673,557.7685950413223,236.8276210966211
168,168,sex_male,Urbanity_Urban,Size_3,age_36_45,Education_High_School,Lighting_yes,TV_yes,Cooking_no,Refrigeration_yes,3478.359088195736,149.04624945748037,557.7685950413223,1854.6491379081008
169,169,sex_male,Urbanity_Urban,Size_4,age_66_75,Education_Elementary_School,Lighting_yes,TV_yes,Cooking_no,Refrigeration_yes,3284.7146038440305,146.99017760041573,557.7685950413223,0.0
170,170,sex_male,Urbanity_Urban,Size_4,age_26_35,Education_High_School,Lighting_yes,TV_yes,Cooking_no,Refrigeration_yes,3736.8199390486793,121.83289991778123,557.7685950413223,277.93370074011364
171,171,sex_male,Urbanity_Urban,Size_4,age_26_35,Education_Post_Secondary,Lighting_yes,TV_yes,Cooking_no,Refrigeration_yes,6476.811700360464,115.69035239031278,557.7685950413223,317.6947025726573
172,172,sex_male,Urbanity_Urban,Size_3,age_66_75,Education_Elementary_School,Lighting_yes,TV_yes,Cooking_no,Refrigeration_yes,3122.3067954565668,144.9065394321516,557.7685950413223,693.6563284717967
173,173,sex_male,Urbanity_Rural,Size_4,age_56_65,Education_Post_Secondary,Lighting_yes,TV_yes,Cooking_no,Refrigeration_yes,5768.160195359573,62.837973391401434,557.7685950413223,0.0
174,174,sex_male,Urbanity_Urban,Size_4,age_26_35,Education_College,Lighting_yes,TV_yes,Cooking_no,Refrigeration_yes,11636.046058528038,188.00286487447696,557.7685950413223,288.61172262006676
175,175,sex_male,Urbanity_Urban,Size_7,age_46_55,Education_College,Lighting_yes,TV_yes,Cooking_no,Refrigeration_yes,12881.729056676248,136.55282473230733,557.7685950413223,410.3316114159036
176,176,sex_male,Urbanity_Urban,Size_7,age_56_65,Education_Post_Secondary,Lighting_yes,TV_yes,Cooking_no,Refrigeration_yes,7842.474547304905,152.19528195341223,557.7685950413223,0.0
177,177,sex_male,Urbanity_Urban,Size_6,age_46_55,Education_Post_Secondary,Lighting_yes,TV_yes,Cooking_no,Refrigeration_yes,7399.201919980524,127.41331470825187,557.7685950413223,236.8276210966211
178,178,sex_male,Urbanity_Urban,Size_3,age_36_45,Education_College,Lighting_yes,TV_yes,Cooking_no,Refrigeration_no,11519.000063273252,73.72610383911774,557.7685950413223,1496.8067394928082
179,179,sex_male,Urbanity_Urban,Size_6,age_36_45,Education_Post_Graduate,Lighting_yes,TV_yes,Cooking_no,Refrigeration_no,13985.784325152155,71.55941226345246,557.7685950413223,557.4514952961731
180,180,sex_male,Urbanity_Urban,Size_4,age_56_65,Education_Post_Secondary,Lighting_yes,TV_yes,Cooking_no,Refrigeration_yes,6960.219993708408,133.69458889821948,557.7685950413223,0.0
181,181,sex_female,Urbanity_Urban,Size_7,age_56_65,Education_Post_Secondary,Lighting_yes,TV_yes,Cooking_no,Refrigeration_yes,7986.115220231277,122.74651923232702,557.7685950413223,0.0
182,182,sex_female,Urbanity_Urban,Size_5,age_36_45,Education_Post_Secondary,Lighting_yes,TV_yes,Cooking_no,Refrigeration_yes,7130.756875660607,88.51070213770541,557.7685950413223,722.3622595682037
183,183,sex_male,Urbanity_Urban,Size_4,age_66_75,Education_Post_Secondary,Lighting_yes,TV_yes,Cooking_no,Refrigeration_yes,7155.5108445673095,126.88415747996297,557.7685950413223,0.0
184,184,sex_male,Urbanity_Urban,Size_3,age_36_45,Education_High_School,Lighting_yes,TV_yes,Cooking_no,Refrigeration_yes,3568.1809463467384,88.91711764211178,557.7685950413223,1854.6491379081008
185,185,sex_male,Urbanity_Urban,Size_4,age_26_35,Education_High_School,Lighting_yes,TV_yes,Cooking_no,Refrigeration_no,3662.6602683189612,53.99192678104746,557.7685950413223,0.0
186,186,sex_male,Urbanity_Urban,Size_5,age_56_65,Education_Post_Secondary,Lighting_yes,TV_yes,Cooking_no,Refrigeration_yes,7126.912631073482,162.27936283474162,557.7685950413223,0.0
187,187,sex_male,Urbanity_Urban,Size_3,age_46_55,Education_College,Lighting_yes,TV_yes,Cooking_no,Refrigeration_yes,11643.7666367461,118.49214092642609,557.7685950413223,1577.9124821284747
188,188,sex_male,Urbanity_Urban,Size_4,age_46_55,Education_College,Lighting_yes,TV_yes,Cooking_no,Refrigeration_yes,11806.750094057748,123.87799617875451,557.7685950413223,501.9086330583287
189,189,sex_male,Urbanity_Urban,Size_4,age_36_45,Education_Post_Secondary,Lighting_yes,TV_yes,Cooking_no,Refrigeration_yes,6684.503315496015,138.92798530115684,557.7685950413223,818.4062906704986
190,190,sex_female,Urbanity_Urban,Size_4,age_86_100,Education_Elementary_School,Lighting_yes,TV_yes,Cooking_no,Refrigeration_yes,3936.722434096028,156.5718197551001,557.7685950413223,689.6128721784021
191,191,sex_male,Urbanity_Rural,Size_2,age_66_75,Education_Post_Secondary,Lighting_yes,TV_yes,Cooking_no,Refrigeration_yes,5508.430504576885,122.7755308766386,557.7685950413223,146.72617277226684
192,192,sex_female,Urbanity_Urban,Size_2,age_26_35,Education_Elementary_School,Lighting_yes,TV_yes,Cooking_no,Refrigeration_yes,2291.9100898008687,97.69208801053968,557.7685950413223,1421.541291532078
193,193,sex_male,Urbanity_Urban,Size_3,age_19_25,Education_College,Lighting_yes,TV_yes,Cooking_no,Refrigeration_yes,11151.114058257404,155.3408960292914,557.7685950413223,1285.1332866407445
194,194,sex_male,Urbanity_Urban,Size_3,age_36_45,Education_Post_Secondary,Lighting_yes,TV_yes,Cooking_no,Refrigeration_yes,6422.834901295839,137.67733466926242,557.7685950413223,1894.4101397406446
195,195,sex_female,Urbanity_Urban,Size_5,age_46_55,Education_Elementary_School,Lighting_yes,TV_yes,Cooking_no,Refrigeration_yes,3388.771053154116,149.189230215459,557.7685950413223,579.9288649740123
196,196,sex_male,Urbanity_Urban,Size_5,age_56_65,Education_Post_Secondary,Lighting_yes,TV_yes,Cooking_no,Refrigeration_yes,7317.308646717702,127.09116569443056,557.7685950413223,0.0
197,197,sex_female,Urbanity_Urban,Size_5,age_26_35,Education_Post_Secondary,Lighting_yes,TV_yes,Cooking_no,Refrigeration_yes,6869.356529087652,150.49362601335338,557.7685950413223,221.65067147036248
198,198,sex_female,Urbanity_Urban,Size_5,age_56_65,Education_Post_Graduate,Lighting_yes,TV_yes,Cooking_no,Refrigeration_no,14232.166939612394,68.1815069197942,557.7685950413223,0.0
199,199,sex_female,Urbanity_Urban,Size_3,age_56_65,Education_Post_Secondary,Lighting_yes,TV_yes,Cooking_no,Refrigeration_yes,6700.268706574716,137.86207337211673,557.7685950413223,630.7968946594536
200,200,sex_male,Urbanity_Urban,Size_6,age_56_65,Education_Post_Secondary,Lighting_yes,TV_yes,Cooking_no,Refrigeration_yes,7406.8019595937585,131.8053383112707,557.7685950413223,0.0
201,201,sex_male,Urbanity_Urban,Size_5,age_66_75,Education_Post_Secondary,Lighting_yes,TV_yes,Cooking_no,Refrigeration_yes,7348.764654859303,135.17471605675772,557.7685950413223,0.0
202,202,sex_male,Urbanity_Urban,Size_5,age_46_55,Education_Elementary_School,Lighting_yes,TV_yes,Cooking_no,Refrigeration_yes,3292.871378385324,124.89553719278277,557.7685950413223,628.4190555200173
203,203,sex_male,Urbanity_Urban,Size_6,age_36_45,Education_High_School,Lighting_yes,TV_yes,Cooking_no,Refrigeration_yes,4365.0726653405845,127.61357790040087,557.7685950413223,484.4812969236567
204,204,sex_male,Urbanity_Urban,Size_5,age_56_65,Education_Post_Secondary,Lighting_yes,TV_yes,Cooking_no,Refrigeration_yes,7339.7051194809865,167.86999798966056,557.7685950413223,0.0
205,205,sex_male,Urbanity_Urban,Size_5,age_46_55,Education_High_School,Lighting_yes,TV_yes,Cooking_no,Refrigeration_yes,4273.549422880204,160.00038196028825,557.7685950413223,443.6767706220856
206,206,sex_male,Urbanity_Urban,Size_4,age_46_55,Education_Elementary_School,Lighting_yes,TV_yes,Cooking_no,Refrigeration_yes,2982.491520512173,103.52308912090963,557.7685950413223,675.9728960763072
207,207,sex_female,Urbanity_Urban,Size_4,age_36_45,Education_College,Lighting_yes,TV_yes,Cooking_no,Refrigeration_no,11931.274741917641,47.34145761213284,557.7685950413223,372.31269987665723
208,208,sex_male,Urbanity_Urban,Size_5,age_36_45,Education_College,Lighting_yes,TV_yes,Cooking_no,Refrigeration_yes,11967.422634760691,138.58111897167024,557.7685950413223,741.7694701616181
209,209,sex_female,Urbanity_Urban,Size_7,age_36_45,Education_High_School,Lighting_yes,TV_yes,Cooking_no,Refrigeration_no,4880.159724760574,85.76632202100245,557.7685950413223,270.05765635427895
210,210,sex_male,Urbanity_Urban,Size_7,age_26_35,Education_Post_Graduate,Lighting_yes,TV_yes,Cooking_no,Refrigeration_yes,14210.976968334573,130.17639997938252,557.7685950413223,627.8472977654509
211,211,sex_male,Urbanity_Urban,Size_8,age_36_45,Education_High_School,Lighting_yes,TV_yes,Cooking_no,Refrigeration_yes,4873.415898480432,130.25767099359533,557.7685950413223,537.8026795775705
212,212,sex_male,Urbanity_Urban,Size_4,age_36_45,Education_Post_Secondary,Lighting_yes,TV_yes,Cooking_no,Refrigeration_yes,6668.599986222336,151.3993767569194,557.7685950413223,818.4062906704986
213,213,sex_male,Urbanity_Urban,Size_4,age_56_65,Education_Post_Secondary,Lighting_yes,TV_yes,Cooking_yes,Refrigeration_yes,6889.901401558192,195.893604918203,557.7685950413223,0.0
214,214,sex_male,Urbanity_Urban,Size_4,age_46_55,Education_High_School,Lighting_yes,TV_yes,Cooking_no,Refrigeration_yes,3850.7259683240172,134.14014693242746,557.7685950413223,491.2306111783755
215,215,sex_male,Urbanity_Urban,Size_4,age_36_45,Education_High_School,Lighting_yes,TV_yes,Cooking_no,Refrigeration_yes,3723.442070226725,135.45030487205773,557.7685950413223,778.6452888379548
216,216,sex_male,Urbanity_Urban,Size_5,age_46_55,Education_Elementary_School,Lighting_yes,TV_yes,Cooking_no,Refrigeration_yes,3288.14904992392,157.75665984288298,557.7685950413223,628.4190555200173
217,217,sex_female,Urbanity_Urban,Size_5,age_66_75,Education_College,Lighting_yes,TV_yes,Cooking_no,Refrigeration_yes,12700.845831153245,121.01680055135658,557.7685950413223,0.0
218,218,sex_male,Urbanity_Urban,Size_3,age_56_65,Education_Post_Secondary,Lighting_yes,TV_yes,Cooking_no,Refrigeration_yes,6721.885280696836,168.0690096982141,557.7685950413223,679.2870852054597
219,219,sex_male,Urbanity_Urban,Size_2,age_66_75,Education_Post_Secondary,Lighting_yes,TV_yes,Cooking_no,Refrigeration_yes,6592.023997670701,112.30073393969236,557.7685950413223,480.0266927763006
220,220,sex_male,Urbanity_Urban,Size_2,age_36_45,Education_Post_Graduate,Lighting_yes,TV_yes,Cooking_no,Refrigeration_yes,12821.251897413564,173.3122129257425,557.7685950413223,2227.4914039457553
221,221,sex_male,Urbanity_Urban,Size_5,age_36_45,Education_Elementary_School,Lighting_yes,TV_yes,Cooking_no,Refrigeration_no,3174.177805912533,23.63425179775331,557.7685950413223,547.3133128843508
222,222,sex_male,Urbanity_Urban,Size_4,age_56_65,Education_Elementary_School,Lighting_yes,TV_yes,Cooking_no,Refrigeration_yes,3060.187053883424,130.77791532689616,557.7685950413223,0.0
223,223,sex_male,Urbanity_Urban,Size_6,age_36_45,Education_Elementary_School,Lighting_yes,TV_yes,Cooking_no,Refrigeration_yes,3347.374838279159,129.8682472994536,557.7685950413223,669.2235818215884
224,224,sex_male,Urbanity_Urban,Size_9,age_36_45,Education_High_School,Lighting_yes,TV_yes,Cooking_no,Refrigeration_yes,5163.481535470919,162.30455043716205,557.7685950413223,525.910189286455
225,225,sex_male,Urbanity_Urban,Size_5,age_46_55,Education_Post_Secondary,Lighting_yes,TV_yes,Cooking_no,Refrigeration_yes,7007.21470902305,161.240908635132,557.7685950413223,483.4377724546293
226,226,sex_male,Urbanity_Urban,Size_5,age_46_55,Education_High_School,Lighting_yes,TV_yes,Cooking_no,Refrigeration_yes,4245.14004803448,131.34683381269528,557.7685950413223,443.6767706220856
227,227,sex_male,Urbanity_Urban,Size_6,age_46_55,Education_Post_Secondary,Lighting_yes,TV_yes,Cooking_no,Refrigeration_yes,7341.95017251752,131.3098528703193,557.7685950413223,236.8276210966211
228,228,sex_female,Urbanity_Urban,Size_5,age_46_55,Education_High_School,Lighting_yes,TV_yes,Cooking_no,Refrigeration_yes,4427.3006491284095,172.27766854437772,557.7685950413223,395.18658007608065
229,229,sex_female,Urbanity_Rural,Size_2,age_66_75,Education_College,Lighting_yes,TV_yes,Cooking_no,Refrigeration_yes,10740.188420413848,125.79231617365046,557.7685950413223,69.15300227367135
230,230,sex_male,Urbanity_Urban,Size_4,age_46_55,Education_Post_Graduate,Lighting_yes,TV_yes,Cooking_no,Refrigeration_yes,13628.378275907382,159.61536318505688,557.7685950413223,932.7212298461378
231,231,sex_male,Urbanity_Urban,Size_4,age_56_65,Education_Post_Secondary,Lighting_yes,TV_yes,Cooking_no,Refrigeration_yes,7010.2593383465355,140.66669964926794,557.7685950413223,0.0
232,232,sex_female,Urbanity_Urban,Size_5,age_46_55,Education_Elementary_School,Lighting_yes,TV_yes,Cooking_no,Refrigeration_yes,3313.607658522245,144.05164857808202,557.7685950413223,579.9288649740123
233,233,sex_male,Urbanity_Urban,Size_6,age_36_45,Education_College,Lighting_yes,TV_yes,Cooking_yes,Refrigeration_yes,12261.476363718733,197.5287751023999,557.7685950413223,122.9672438212505
234,234,sex_male,Urbanity_Urban,Size_4,age_46_55,Education_Post_Secondary,Lighting_yes,TV_yes,Cooking_no,Refrigeration_yes,6844.83328146076,154.46027574027315,557.7685950413223,530.9916130109194
235,235,sex_female,Urbanity_Urban,Size_7,age_46_55,Education_High_School,Lighting_yes,TV_yes,Cooking_no,Refrigeration_yes,4915.195713486297,115.9927348769762,557.7685950413223,351.1633989899455
236,236,sex_female,Urbanity_Urban,Size_6,age_36_45,Education_Post_Secondary,Lighting_yes,TV_yes,Cooking_no,Refrigeration_yes,7335.326638734774,145.6469662475969,557.7685950413223,475.7521082101955
237,237,sex_male,Urbanity_Urban,Size_5,age_66_75,Education_High_School,Lighting_yes,TV_yes,Cooking_no,Refrigeration_yes,4703.602864640522,151.6735416048261,557.7685950413223,0.0
238,238,sex_male,Urbanity_Urban,Size_5,age_56_65,Education_College,Lighting_yes,TV_yes,Cooking_no,Refrigeration_yes,12377.047463312214,155.94990209156876,557.7685950413223,0.0
239,239,sex_male,Urbanity_Urban,Size_3,age_56_65,Education_College,Lighting_yes,TV_yes,Cooking_no,Refrigeration_yes,11921.357140907588,193.158243930008,557.7685950413223,650.2041052528681
240,240,sex_female,Urbanity_Urban,Size_7,age_46_55,Education_College,Lighting_yes,TV_yes,Cooking_no,Refrigeration_no,12966.773971841201,90.88767337783872,557.7685950413223,0.0
241,241,sex_female,Urbanity_Urban,Size_7,age_46_55,Education_Elementary_School,Lighting_yes,TV_yes,Cooking_no,Refrigeration_yes,3997.2289580309857,162.66377345442268,557.7685950413223,535.9056838878772
242,242,sex_male,Urbanity_Urban,Size_2,age_26_35,Education_College,Lighting_yes,TV_yes,Cooking_no,Refrigeration_yes,11125.111877359604,141.3907634475025,557.7685950413223,1295.9672190601048
243,243,sex_male,Urbanity_Urban,Size_3,age_56_65,Education_Elementary_School,Lighting_yes,TV_yes,Cooking_no,Refrigeration_yes,2842.9547020552623,157.91027125672002,557.7685950413223,824.2683682708465
244,244,sex_male,Urbanity_Urban,Size_3,age_46_55,Education_Post_Secondary,Lighting_yes,TV_yes,Cooking_no,Refrigeration_yes,6669.635858099225,151.84454254529638,557.7685950413223,1606.9954620810654
245,245,sex_male,Urbanity_Urban,Size_5,age_26_35,Education_Post_Secondary,Lighting_yes,TV_yes,Cooking_no,Refrigeration_yes,6677.760022970229,132.79425389340756,557.7685950413223,270.14086201636735
246,246,sex_female,Urbanity_Urban,Size_9,age_19_25,Education_Elementary_School,Lighting_yes,TV_yes,Cooking_no,Refrigeration_yes,3985.169417445175,108.30347506744124,557.7685950413223,81.96841049107147
247,247,sex_male,Urbanity_Urban,Size_7,age_76_85,Education_Post_Secondary,Lighting_yes,TV_yes,Cooking_no,Refrigeration_yes,8022.438709416557,176.3813133877098,557.7685950413223,161.64737593362042
248,248,sex_female,Urbanity_Urban,Size_7,age_56_65,Education_Elementary_School,Lighting_yes,TV_yes,Cooking_no,Refrigeration_yes,4094.6132940378557,145.2023037966606,557.7685950413223,0.0
249,249,sex_male,Urbanity_Urban,Size_6,age_56_65,Education_College,Lighting_yes,TV_yes,Cooking_no,Refrigeration_yes,12500.916934328125,145.0642789694102,557.7685950413223,0.0
250,250,sex_female,Urbanity_Urban,Size_4,age_26_35,Education_Post_Secondary,Lighting_yes,TV_yes,Cooking_no,Refrigeration_yes,6641.072167548109,133.1675787490172,557.7685950413223,269.2045120266524
251,251,sex_male,Urbanity_Urban,Size_7,age_36_45,Education_Elementary_School,Lighting_yes,TV_yes,Cooking_no,Refrigeration_no,3697.8867076682723,68.61176986134173,557.7685950413223,503.2901317982156
252,252,sex_male,Urbanity_Urban,Size_5,age_66_75,Education_Post_Secondary,Lighting_yes,TV_yes,Cooking_no,Refrigeration_yes,7367.410440642798,149.76253537107686,557.7685950413223,0.0
253,253,sex_male,Urbanity_Urban,Size_5,age_66_75,Education_College,Lighting_yes,TV_yes,Cooking_no,Refrigeration_yes,12453.849991464187,150.15435948914038,557.7685950413223,0.0
254,254,sex_male,Urbanity_Urban,Size_2,age_46_55,Education_Post_Secondary,Lighting_yes,TV_yes,Cooking_no,Refrigeration_yes,6271.322632684463,87.80672732237538,557.7685950413223,1538.3471094509573
255,255,sex_male,Urbanity_Urban,Size_4,age_46_55,Education_Elementary_School,Lighting_yes,TV_yes,Cooking_no,Refrigeration_yes,2943.1006591610358,153.87784947682925,557.7685950413223,675.9728960763072
256,256,sex_male,Urbanity_Urban,Size_6,age_66_75,Education_High_School,Lighting_yes,TV_yes,Cooking_no,Refrigeration_yes,4983.686934093976,131.77661766863596,557.7685950413223,0.0
257,257,sex_male,Urbanity_Urban,Size_6,age_46_55,Education_High_School,Lighting_yes,TV_yes,Cooking_no,Refrigeration_yes,4485.939397102851,117.28416813371807,557.7685950413223,197.0666192640774
258,258,sex_male,Urbanity_Urban,Size_6,age_56_65,Education_Elementary_School,Lighting_yes,TV_yes,Cooking_no,Refrigeration_yes,3710.7305427479987,158.39239354162717,557.7685950413223,0.0
259,259,sex_male,Urbanity_Urban,Size_2,age_56_65,Education_Post_Secondary,Lighting_yes,TV_yes,Cooking_no,Refrigeration_yes,6421.667265411475,144.34353880714463,557.7685950413223,610.6387325753515
260,260,sex_female,Urbanity_Urban,Size_2,age_56_65,Education_High_School,Lighting_yes,TV_yes,Cooking_no,Refrigeration_yes,3668.8995854925256,98.41955354399201,557.7685950413223,522.387540196802
261,261,sex_male,Urbanity_Urban,Size_8,age_26_35,Education_College,Lighting_yes,TV_yes,Cooking_no,Refrigeration_yes,12602.230630007572,175.0765301028509,557.7685950413223,47.7691133596823
262,262,sex_female,Urbanity_Urban,Size_2,age_26_35,Education_Elementary_School,Lighting_no,TV_yes,Cooking_no,Refrigeration_yes,2379.5060573474602,140.2100110005829,557.7685950413223,921.6769633399304
263,263,sex_male,Urbanity_Urban,Size_5,age_46_55,Education_Elementary_School,Lighting_yes,TV_yes,Cooking_no,Refrigeration_yes,3214.0751556257533,93.887833689885,557.7685950413223,628.4190555200173
264,264,sex_male,Urbanity_Urban,Size_6,age_46_55,Education_College,Lighting_yes,TV_yes,Cooking_no,Refrigeration_yes,12346.780806980778,109.50708748511322,557.7685950413223,207.7446411440305
265,265,sex_male,Urbanity_Urban,Size_2,age_46_55,Education_College,Lighting_yes,TV_yes,Cooking_no,Refrigeration_yes,11335.54044095432,156.4894303834341,557.7685950413223,1509.2641294983666
266,266,sex_male,Urbanity_Urban,Size_5,age_46_55,Education_Post_Secondary,Lighting_yes,TV_yes,Cooking_no,Refrigeration_yes,7148.801700275186,137.8420218116127,557.7685950413223,483.4377724546293
267,267,sex_male,Urbanity_Urban,Size_5,age_56_65,Education_High_School,Lighting_yes,TV_yes,Cooking_no,Refrigeration_yes,4439.052934508634,117.8437290948576,557.7685950413223,0.0
268,268,sex_male,Urbanity_Urban,Size_9,age_36_45,Education_College,Lighting_yes,TV_yes,Cooking_no,Refrigeration_yes,13019.003651010478,170.92953429497473,557.7685950413223,536.5882111664081
269,269,sex_male,Urbanity_Urban,Size_7,age_36_45,Education_College,Lighting_yes,TV_yes,Cooking_no,Refrigeration_yes,12380.967696666912,149.1199853441859,557.7685950413223,697.746289075483
270,270,sex_female,Urbanity_Urban,Size_7,age_66_75,Education_Post_Graduate,Lighting_yes,TV_yes,Cooking_no,Refrigeration_yes,14979.036053145017,112.50541099633028,557.7685950413223,0.0
271,271,sex_male,Urbanity_Urban,Size_8,age_46_55,Education_College,Lighting_yes,TV_yes,Cooking_no,Refrigeration_yes,12917.175863094319,176.60815094365432,557.7685950413223,261.06602379794424
272,272,sex_male,Urbanity_Urban,Size_9,age_46_55,Education_Post_Secondary,Lighting_no,TV_yes,Cooking_no,Refrigeration_yes,8071.527804684982,147.18237425936658,557.7685950413223,0.0
273,273,sex_male,Urbanity_Urban,Size_2,age_26_35,Education_Post_Secondary,Lighting_no,TV_yes,Cooking_no,Refrigeration_yes,5966.6107277547,139.942225690972,557.7685950413223,825.1858708205483
274,274,sex_female,Urbanity_Urban,Size_3,age_56_65,Education_Post_Secondary,Lighting_yes,TV_yes,Cooking_no,Refrigeration_yes,6832.309627656122,161.02919801291526,557.7685950413223,630.7968946594536
275,275,sex_male,Urbanity_Rural,Size_3,age_26_35,Education_High_School,Lighting_yes,TV_yes,Cooking_no,Refrigeration_yes,2318.5243632074985,122.27905131876463,557.7685950413223,1020.6370298062259
276,276,sex_male,Urbanity_Rural,Size_8,age_56_65,Education_High_School,Lighting_yes,TV_yes,Cooking_no,Refrigeration_yes,3970.197763993201,68.82129253423203,557.7685950413223,0.0
277,277,sex_male,Urbanity_Urban,Size_6,age_36_45,Education_High_School,Lighting_yes,TV_yes,Cooking_no,Refrigeration_yes,4364.850720607976,154.02348219119918,557.7685950413223,484.4812969236567
278,278,sex_female,Urbanity_Urban,Size_7,age_36_45,Education_Post_Secondary,Lighting_yes,TV_yes,Cooking_no,Refrigeration_yes,7659.592835841136,121.40051318799343,557.7685950413223,678.3390784820685
279,279,sex_male,Urbanity_Urban,Size_2,age_46_55,Education_College,Lighting_yes,TV_yes,Cooking_no,Refrigeration_yes,11325.9168428428,127.82575057329126,557.7685950413223,1509.2641294983666
280,280,sex_male,Urbanity_Urban,Size_2,age_76_85,Education_College,Lighting_yes,TV_yes,Cooking_no,Refrigeration_yes,11847.498354427595,168.29918394528963,557.7685950413223,1231.496914063493
281,281,sex_male,Urbanity_Urban,Size_8,age_36_45,Education_High_School,Lighting_yes,TV_yes,Cooking_no,Refrigeration_yes,4808.518984471508,175.35830374746936,557.7685950413223,537.8026795775705
282,282,sex_male,Urbanity_Urban,Size_8,age_46_55,Education_Post_Graduate,Lighting_yes,TV_yes,Cooking_no,Refrigeration_yes,14779.886211100042,158.44946125358203,557.7685950413223,691.8786205857533
283,283,sex_female,Urbanity_Urban,Size_2,age_66_75,Education_Elementary_School,Lighting_yes,TV_yes,Cooking_no,Refrigeration_yes,3160.0663151567965,109.21140856910746,557.7685950413223,576.5177852956837
284,284,sex_male,Urbanity_Urban,Size_5,age_66_75,Education_High_School,Lighting_yes,TV_yes,Cooking_no,Refrigeration_yes,4639.804484382752,144.49415856753032,557.7685950413223,0.0
285,285,sex_female,Urbanity_Rural,Size_5,age_46_55,Education_Post_Graduate,Lighting_yes,TV_yes,Cooking_no,Refrigeration_yes,12836.498905450366,138.8922607867589,557.7685950413223,503.3766787398092
286,286,sex_male,Urbanity_Rural,Size_2,age_26_35,Education_High_School,Lighting_yes,TV_yes,Cooking_no,Refrigeration_yes,1973.4275870491956,126.6420146715866,557.7685950413223,951.9886771761179
287,287,sex_male,Urbanity_Urban,Size_4,age_26_35,Education_High_School,Lighting_yes,TV_yes,Cooking_no,Refrigeration_yes,3645.168288079605,164.35310882004032,557.7685950413223,277.93370074011364
288,288,sex_male,Urbanity_Urban,Size_4,age_56_65,Education_High_School,Lighting_yes,TV_yes,Cooking_no,Refrigeration_yes,4255.377258863784,137.37187405875736,557.7685950413223,0.0
289,289,sex_female,Urbanity_Urban,Size_4,age_46_55,Education_Elementary_School,Lighting_yes,TV_yes,Cooking_no,Refrigeration_yes,3224.256143688025,148.21119695960746,557.7685950413223,627.4827055303012
290,290,sex_female,Urbanity_Urban,Size_9,age_46_55,Education_Elementary_School,Lighting_yes,TV_yes,Cooking_no,Refrigeration_yes,4431.441894173795,191.3258146922937,557.7685950413223,374.7476059788024
291,291,sex_female,Urbanity_Urban,Size_8,age_56_65,Education_College,Lighting_yes,TV_yes,Cooking_no,Refrigeration_yes,13304.327429752346,145.6352830333568,557.7685950413223,0.0
292,292,sex_male,Urbanity_Urban,Size_3,age_56_65,Education_College,Lighting_yes,TV_yes,Cooking_no,Refrigeration_yes,11804.055880434082,145.43891775032318,557.7685950413223,650.2041052528681
293,293,sex_male,Urbanity_Urban,Size_8,age_36_45,Education_College,Lighting_yes,TV_yes,Cooking_no,Refrigeration_yes,12747.595985502434,164.9191178182295,557.7685950413223,548.4807014575235
294,294,sex_male,Urbanity_Urban,Size_8,age_46_55,Education_Elementary_School,Lighting_yes,TV_yes,Cooking_no,Refrigeration_yes,4010.548793859161,143.88789745989024,557.7685950413223,435.1302868159228
295,295,sex_male,Urbanity_Urban,Size_8,age_36_45,Education_Post_Secondary,Lighting_yes,TV_yes,Cooking_no,Refrigeration_yes,7710.3567955851295,112.48130482602858,557.7685950413223,577.5636814101142
296,296,sex_male,Urbanity_Urban,Size_7,age_26_35,Education_Post_Secondary,Lighting_yes,TV_yes,Cooking_no,Refrigeration_yes,7322.417711803243,85.21797434765121,557.7685950413223,226.11768093023224
297,297,sex_male,Urbanity_Urban,Size_4,age_46_55,Education_High_School,Lighting_yes,TV_yes,Cooking_no,Refrigeration_no,4098.908753798478,84.05874758820241,557.7685950413223,122.71019088312964
298,298,sex_female,Urbanity_Urban,Size_4,age_36_45,Education_Post_Secondary,Lighting_yes,TV_yes,Cooking_no,Refrigeration_no,6721.380078715805,112.17070692916306,557.7685950413223,401.3956798292478
299,299,sex_male,Urbanity_Urban,Size_4,age_76_85,Education_Post_Graduate,Lighting_yes,TV_yes,Cooking_no,Refrigeration_yes,14134.66029891888,169.44701249277466,557.7685950413223,654.954014411264
300,300,sex_female,Urbanity_Urban,Size_4,age_26_35,Education_Post_Secondary,Lighting_yes,TV_yes,Cooking_no,Refrigeration_yes,6653.788663711313,143.64328425372761,557.7685950413223,269.2045120266524
301,301,sex_male,Urbanity_Urban,Size_4,age_26_35,Education_High_School,Lighting_no,TV_yes,Cooking_no,Refrigeration_yes,3683.257722756781,137.55667157188134,557.7685950413223,0.0
302,302,sex_male,Urbanity_Urban,Size_4,age_46_55,Education_College,Lighting_yes,TV_yes,Cooking_no,Refrigeration_yes,11888.595501350308,142.55106813420343,557.7685950413223,501.9086330583287
303,303,sex_male,Urbanity_Urban,Size_6,age_46_55,Education_Post_Secondary,Lighting_yes,TV_yes,Cooking_no,Refrigeration_no,7334.079016820357,68.44910036930378,557.7685950413223,0.0
304,304,sex_male,Urbanity_Rural,Size_6,age_46_55,Education_Elementary_School,Lighting_yes,TV_yes,Cooking_no,Refrigeration_yes,2395.434222975699,97.53468166532468,557.7685950413223,48.50838415797529
305,305,sex_male,Urbanity_Urban,Size_6,age_56_65,Education_High_School,Lighting_yes,TV_yes,Cooking_no,Refrigeration_yes,4693.4455879819925,85.9233062966847,557.7685950413223,0.0
306,306,sex_female,Urbanity_Urban,Size_7,age_36_45,Education_Elementary_School,Lighting_yes,TV_yes,Cooking_no,Refrigeration_yes,3818.400815210932,151.85027254174526,557.7685950413223,823.3203615474565
307,307,sex_male,Urbanity_Urban,Size_7,age_46_55,Education_High_School,Lighting_yes,TV_yes,Cooking_no,Refrigeration_yes,4811.7640375167275,158.75060686901043,557.7685950413223,399.65358953595046
308,308,sex_male,Urbanity_Urban,Size_7,age_86_100,Education_High_School,Lighting_yes,TV_yes,Cooking_no,Refrigeration_yes,5450.194396009943,125.88789473041952,557.7685950413223,461.7837561840503
309,309,sex_male,Urbanity_Urban,Size_7,age_26_35,Education_Elementary_School,Lighting_yes,TV_yes,Cooking_no,Refrigeration_yes,3358.518644845712,141.25797999590176,557.7685950413223,371.0989639956202
310,310,sex_male,Urbanity_Urban,Size_5,age_46_55,Education_Post_Secondary,Lighting_yes,TV_yes,Cooking_no,Refrigeration_yes,7021.881407066252,148.0794705068364,557.7685950413223,483.4377724546293
311,311,sex_male,Urbanity_Urban,Size_4,age_26_35,Education_College,Lighting_yes,TV_yes,Cooking_no,Refrigeration_no,11435.268854601183,84.6648298311309,557.7685950413223,0.0
312,312,sex_male,Urbanity_Urban,Size_3,age_46_55,Education_Post_Secondary,Lighting_yes,TV_yes,Cooking_no,Refrigeration_yes,6476.6907235597055,160.34665972268596,557.7685950413223,1606.9954620810654
313,313,sex_male,Urbanity_Urban,Size_4,age_26_35,Education_College,Lighting_yes,TV_yes,Cooking_no,Refrigeration_yes,11596.656125465066,143.2539397760275,557.7685950413223,288.61172262006676
314,314,sex_male,Urbanity_Urban,Size_4,age_36_45,Education_Post_Secondary,Lighting_yes,TV_yes,Cooking_no,Refrigeration_yes,6644.17164170985,121.9378043967523,557.7685950413223,818.4062906704986
315,315,sex_male,Urbanity_Urban,Size_4,age_26_35,Education_Post_Secondary,Lighting_yes,TV_yes,Cooking_no,Refrigeration_yes,6410.734294824764,108.17618092766187,557.7685950413223,317.6947025726573
316,316,sex_male,Urbanity_Urban,Size_3,age_56_65,Education_High_School,Lighting_yes,TV_yes,Cooking_no,Refrigeration_yes,3804.317295674224,122.51861813436486,557.7685950413223,639.5260833729149
317,317,sex_female,Urbanity_Urban,Size_6,age_66_75,Education_Post_Secondary,Lighting_no,TV_yes,Cooking_yes,Refrigeration_yes,7704.044311694569,171.46736238880825,557.7685950413223,0.0
318,318,sex_male,Urbanity_Urban,Size_4,age_46_55,Education_Post_Secondary,Lighting_yes,TV_yes,Cooking_no,Refrigeration_yes,6964.905011517331,165.04847236325742,557.7685950413223,530.9916130109194
319,319,sex_male,Urbanity_Urban,Size_4,age_46_55,Education_Elementary_School,Lighting_yes,TV_yes,Cooking_no,Refrigeration_yes,2900.3959004445537,106.77971235199864,557.7685950413223,675.9728960763072
320,320,sex_female,Urbanity_Urban,Size_7,age_36_45,Education_Post_Secondary,Lighting_yes,TV_yes,Cooking_no,Refrigeration_yes,7536.584344594616,98.72533226339756,557.7685950413223,678.3390784820685
321,321,sex_male,Urbanity_Urban,Size_7,age_36_45,Education_Post_Secondary,Lighting_yes,TV_yes,Cooking_no,Refrigeration_yes,7419.172092961377,162.00297102816725,557.7685950413223,726.8292690280736
322,322,sex_female,Urbanity_Urban,Size_2,age_56_65,Education_Elementary_School,Lighting_yes,TV_yes,Cooking_no,Refrigeration_yes,2903.9334195239594,124.9606149792771,557.7685950413223,707.1298250947335
323,323,sex_female,Urbanity_Urban,Size_2,age_36_45,Education_Post_Secondary,Lighting_yes,TV_yes,Cooking_no,Refrigeration_yes,6157.4477395181,108.04274100064112,557.7685950413223,1777.2715965645318
324,324,sex_female,Urbanity_Urban,Size_7,age_56_65,Education_High_School,Lighting_yes,TV_yes,Cooking_no,Refrigeration_no,5145.545053393393,80.48919424224573,557.7685950413223,0.0
325,325,sex_female,Urbanity_Urban,Size_7,age_66_75,Education_Elementary_School,Lighting_yes,TV_yes,Cooking_no,Refrigeration_yes,4304.055794703139,132.39154690856142,557.7685950413223,0.0
326,326,sex_female,Urbanity_Urban,Size_5,age_46_55,Education_College,Lighting_yes,TV_yes,Cooking_no,Refrigeration_yes,12282.814990835,164.45263095228677,557.7685950413223,405.86460195603286
327,327,sex_male,Urbanity_Urban,Size_5,age_36_45,Education_High_School,Lighting_yes,TV_yes,Cooking_no,Refrigeration_yes,4169.223560717022,151.76091966549558,557.7685950413223,731.091448281665
328,328,sex_male,Urbanity_Urban,Size_4,age_46_55,Education_High_School,Lighting_yes,TV_yes,Cooking_no,Refrigeration_yes,3914.0409498222825,148.5388336740578,557.7685950413223,491.2306111783755
329,329,sex_male,Urbanity_Urban,Size_4,age_36_45,Education_College,Lighting_yes,TV_yes,Cooking_no,Refrigeration_yes,11665.093621715645,165.7393524233459,557.7685950413223,789.323310717908
330,330,sex_male,Urbanity_Urban,Size_2,age_26_35,Education_High_School,Lighting_yes,TV_yes,Cooking_no,Refrigeration_yes,3152.0033840720794,106.08423197878919,557.7685950413223,1285.2891971801516
331,331,sex_male,Urbanity_Urban,Size_8,age_56_65,Education_College,Lighting_yes,TV_yes,Cooking_no,Refrigeration_yes,13093.874887061662,180.07751754884185,557.7685950413223,0.0
332,332,sex_male,Urbanity_Urban,Size_8,age_36_45,Education_High_School,Lighting_yes,TV_yes,Cooking_no,Refrigeration_yes,4867.866569764021,143.61166906287082,557.7685950413223,537.8026795775705
333,333,sex_male,Urbanity_Urban,Size_8,age_56_65,Education_Elementary_School,Lighting_yes,TV_yes,Cooking_no,Refrigeration_yes,4276.41139856805,100.80600175381892,557.7685950413223,0.0
334,334,sex_male,Urbanity_Urban,Size_8,age_56_65,Education_College,Lighting_yes,TV_yes,Cooking_no,Refrigeration_yes,13260.064855496179,160.9598069679054,557.7685950413223,0.0
335,335,sex_male,Urbanity_Urban,Size_8,age_46_55,Education_Post_Secondary,Lighting_yes,TV_yes,Cooking_no,Refrigeration_yes,7980.0338017656795,127.44590257854185,557.7685950413223,290.14900375053486
336,336,sex_female,Urbanity_Urban,Size_5,age_26_35,Education_High_School,Lighting_yes,TV_yes,Cooking_no,Refrigeration_yes,4057.861369030975,145.01295708324918,557.7685950413223,181.88966963781874
337,337,sex_male,Urbanity_Urban,Size_7,age_56_65,Education_Elementary_School,Lighting_yes,TV_yes,Cooking_no,Refrigeration_yes,4018.6290457620094,120.98049510892372,557.7685950413223,0.0
338,338,sex_male,Urbanity_Urban,Size_4,age_66_75,Education_College,Lighting_yes,TV_yes,Cooking_no,Refrigeration_no,12200.39294229291,79.40775515873013,557.7685950413223,0.0
339,339,sex_female,Urbanity_Urban,Size_4,age_56_65,Education_Post_Secondary,Lighting_yes,TV_yes,Cooking_no,Refrigeration_yes,7168.17394474943,153.21456029219038,557.7685950413223,0.0
340,340,sex_female,Urbanity_Urban,Size_3,age_56_65,Education_Post_Secondary,Lighting_yes,TV_yes,Cooking_no,Refrigeration_yes,6719.924037355863,123.22657152468723,557.7685950413223,630.7968946594536
341,341,sex_male,Urbanity_Urban,Size_5,age_56_65,Education_High_School,Lighting_yes,TV_yes,Cooking_no,Refrigeration_yes,4282.019129846884,106.09489583314064,557.7685950413223,0.0
342,342,sex_male,Urbanity_Urban,Size_5,age_56_65,Education_Post_Secondary,Lighting_yes,TV_yes,Cooking_no,Refrigeration_yes,7199.412027617814,145.8611610729256,557.7685950413223,0.0
343,343,sex_male,Urbanity_Urban,Size_2,age_56_65,Education_Post_Secondary,Lighting_yes,TV_yes,Cooking_no,Refrigeration_yes,6468.3619018530435,129.18886084037337,557.7685950413223,610.6387325753515
344,344,sex_male,Urbanity_Urban,Size_7,age_66_75,Education_Post_Secondary,Lighting_yes,TV_yes,Cooking_no,Refrigeration_yes,8016.478684323794,150.85658986478933,557.7685950413223,0.0
345,345,sex_female,Urbanity_Urban,Size_3,age_66_75,Education_Elementary_School,Lighting_yes,TV_yes,Cooking_no,Refrigeration_yes,3376.788514030381,141.91827230851248,557.7685950413223,645.1661379257918
346,346,sex_female,Urbanity_Urban,Size_3,age_66_75,Education_College,Lighting_yes,TV_yes,Cooking_no,Refrigeration_yes,12041.179444000863,106.49556783433891,557.7685950413223,471.10187490781317
347,347,sex_male,Urbanity_Urban,Size_3,age_46_55,Education_Post_Secondary,Lighting_yes,TV_yes,Cooking_no,Refrigeration_yes,6515.683214066525,159.20123596409326,557.7685950413223,1606.9954620810654
348,348,sex_female,Urbanity_Urban,Size_8,age_46_55,Education_Post_Graduate,Lighting_yes,TV_yes,Cooking_no,Refrigeration_yes,14807.301218997269,129.42467993006372,557.7685950413223,643.3884300397485
349,349,sex_female,Urbanity_Urban,Size_6,age_76_85,Education_College,Lighting_yes,TV_yes,Cooking_no,Refrigeration_yes,13159.216585973247,181.61980135314442,557.7685950413223,0.0
350,350,sex_male,Urbanity_Urban,Size_5,age_19_25,Education_High_School,Lighting_yes,TV_yes,Cooking_no,Refrigeration_yes,3775.3940749266712,131.5230480868068,557.7685950413223,150.89757513435558
351,351,sex_male,Urbanity_Urban,Size_3,age_46_55,Education_Elementary_School,Lighting_yes,TV_yes,Cooking_no,Refrigeration_yes,2661.889387200553,168.16371040048702,557.7685950413223,1751.9767451464534
352,352,sex_male,Urbanity_Urban,Size_4,age_26_35,Education_Post_Secondary,Lighting_yes,TV_yes,Cooking_no,Refrigeration_yes,6437.3440283007885,170.27894787644897,557.7685950413223,317.6947025726573
353,353,sex_male,Urbanity_Urban,Size_7,age_66_75,Education_High_School,Lighting_yes,TV_yes,Cooking_no,Refrigeration_yes,5035.872902934534,76.46925064691857,557.7685950413223,0.0
354,354,sex_male,Urbanity_Urban,Size_4,age_56_65,Education_College,Lighting_yes,TV_yes,Cooking_yes,Refrigeration_yes,12061.09112188203,134.0625238202692,557.7685950413223,0.0
355,355,sex_male,Urbanity_Urban,Size_2,age_56_65,Education_High_School,Lighting_yes,TV_yes,Cooking_no,Refrigeration_yes,3514.144812039777,151.39787504806583,557.7685950413223,570.8777307428068
356,356,sex_male,Urbanity_Urban,Size_3,age_66_75,Education_College,Lighting_yes,TV_yes,Cooking_no,Refrigeration_yes,12036.069484505044,174.08693033159958,557.7685950413223,519.5920654538181
357,357,sex_male,Urbanity_Urban,Size_3,age_46_55,Education_High_School,Lighting_yes,TV_yes,Cooking_no,Refrigeration_yes,3787.313852135943,138.57261393641838,557.7685950413223,1567.2344602485216
358,358,sex_female,Urbanity_Urban,Size_2,age_56_65,Education_Post_Secondary,Lighting_yes,TV_yes,Cooking_no,Refrigeration_yes,6806.248878190889,124.08835526156028,557.7685950413223,562.1485420293457
359,359,sex_female,Urbanity_Urban,Size_3,age_66_75,Education_Post_Secondary,Lighting_yes,TV_yes,Cooking_no,Refrigeration_yes,7057.581972007615,144.41503076680604,557.7685950413223,500.18485486040373
360,360,sex_male,Urbanity_Urban,Size_3,age_66_75,Education_High_School,Lighting_yes,TV_yes,Cooking_no,Refrigeration_yes,4019.4850815897807,161.0956722581114,557.7685950413223,508.9140435738649
361,361,sex_male,Urbanity_Urban,Size_3,age_36_45,Education_High_School,Lighting_yes,TV_yes,Cooking_no,Refrigeration_yes,3423.9754009188146,134.62408467736108,557.7685950413223,1854.6491379081008
362,362,sex_male,Urbanity_Urban,Size_3,age_56_65,Education_High_School,Lighting_yes,TV_yes,Cooking_no,Refrigeration_yes,3973.5620812941347,159.3770909983269,557.7685950413223,639.5260833729149
363,363,sex_female,Urbanity_Urban,Size_4,age_46_55,Education_Post_Secondary,Lighting_yes,TV_yes,Cooking_no,Refrigeration_yes,7073.424222516166,165.24035238831866,557.7685950413223,482.50142246491436
364,364,sex_male,Urbanity_Urban,Size_4,age_46_55,Education_High_School,Lighting_yes,TV_yes,Cooking_no,Refrigeration_yes,3896.13087630386,126.25885561970124,557.7685950413223,491.2306111783755
365,365,sex_male,Urbanity_Urban,Size_4,age_56_65,Education_Post_Graduate,Lighting_yes,TV_yes,Cooking_no,Refrigeration_yes,13733.81492465009,135.5725342571497,557.7685950413223,5.012852970532017
366,366,sex_male,Urbanity_Urban,Size_3,age_46_55,Education_Post_Secondary,Lighting_yes,TV_yes,Cooking_no,Refrigeration_yes,6533.488127068519,160.9058279286043,557.7685950413223,1606.9954620810654
367,367,sex_male,Urbanity_Urban,Size_3,age_56_65,Education_Elementary_School,Lighting_yes,TV_yes,Cooking_no,Refrigeration_yes,2860.1598714693705,135.26888324540644,557.7685950413223,824.2683682708465
368,368,sex_male,Urbanity_Urban,Size_3,age_46_55,Education_College,Lighting_yes,TV_yes,Cooking_no,Refrigeration_yes,11601.110600362024,114.4694909422722,557.7685950413223,1577.9124821284747
369,369,sex_female,Urbanity_Urban,Size_3,age_46_55,Education_Elementary_School,Lighting_yes,TV_yes,Cooking_no,Refrigeration_yes,2796.318899263383,159.20516208273702,557.7685950413223,1703.486554600448
370,370,sex_male,Urbanity_Urban,Size_3,age_56_65,Education_Elementary_School,Lighting_yes,TV_yes,Cooking_no,Refrigeration_yes,2889.28146084872,160.8232736421974,557.7685950413223,824.2683682708465
371,371,sex_female,Urbanity_Rural,Size_2,age_36_45,Education_College,Lighting_yes,TV_yes,Cooking_no,Refrigeration_yes,10240.172974676247,115.24819985485485,557.7685950413223,1414.8880966079068
372,372,sex_female,Urbanity_Urban,Size_2,age_66_75,Education_Post_Secondary,Lighting_yes,TV_yes,Cooking_no,Refrigeration_yes,6739.979662076925,146.00718807148263,557.7685950413223,431.5365022302957
373,373,sex_male,Urbanity_Urban,Size_8,age_46_55,Education_Post_Secondary,Lighting_yes,TV_yes,Cooking_no,Refrigeration_yes,7834.366240736338,117.25809671270115,557.7685950413223,290.14900375053486
374,374,sex_male,Urbanity_Urban,Size_5,age_46_55,Education_Post_Secondary,Lighting_yes,TV_yes,Cooking_no,Refrigeration_yes,7043.9060154319595,133.84446731187026,557.7685950413223,483.4377724546293
375,375,sex_male,Urbanity_Urban,Size_5,age_46_55,Education_High_School,Lighting_yes,TV_yes,Cooking_no,Refrigeration_yes,4365.846774686143,129.668466196617,557.7685950413223,443.6767706220856
376,376,sex_male,Urbanity_Urban,Size_6,age_46_55,Education_College,Lighting_yes,TV_yes,Cooking_no,Refrigeration_yes,12468.407960684171,179.12242238778828,557.7685950413223,207.7446411440305
377,377,sex_female,Urbanity_Urban,Size_6,age_26_35,Education_Elementary_School,Lighting_yes,TV_yes,Cooking_no,Refrigeration_yes,3471.2395356594866,181.60456040221615,557.7685950413223,120.02180317774219
378,378,sex_male,Urbanity_Urban,Size_8,age_66_75,Education_College,Lighting_yes,TV_yes,Cooking_no,Refrigeration_yes,13206.598923463698,169.95648303360574,557.7685950413223,0.0
379,379,sex_male,Urbanity_Urban,Size_6,age_46_55,Education_Elementary_School,Lighting_yes,TV_yes,Cooking_no,Refrigeration_yes,3656.473686375653,145.79192780543062,557.7685950413223,381.80890416200907
380,380,sex_male,Urbanity_Urban,Size_7,age_56_65,Education_College,Lighting_yes,TV_yes,Cooking_no,Refrigeration_yes,12984.891626936067,167.8634070341997,557.7685950413223,0.0
381,381,sex_male,Urbanity_Urban,Size_6,age_46_55,Education_College,Lighting_yes,TV_yes,Cooking_no,Refrigeration_yes,12433.972389969247,165.64025618378864,557.7685950413223,207.7446411440305
382,382,sex_male,Urbanity_Urban,Size_5,age_76_85,Education_Post_Secondary,Lighting_yes,TV_yes,Cooking_no,Refrigeration_yes,7532.148887336159,150.6069749515209,557.7685950413223,205.67055701975562
383,383,sex_male,Urbanity_Urban,Size_5,age_76_85,Education_High_School,Lighting_yes,TV_yes,Cooking_no,Refrigeration_yes,4734.137775272454,163.80139179764348,557.7685950413223,165.90955518721188
384,384,sex_female,Urbanity_Urban,Size_5,age_46_55,Education_Elementary_School,Lighting_yes,TV_yes,Cooking_no,Refrigeration_yes,3566.7121211688177,107.0788247140222,557.7685950413223,579.9288649740123
385,385,sex_male,Urbanity_Urban,Size_5,age_36_45,Education_Post_Secondary,Lighting_yes,TV_yes,Cooking_no,Refrigeration_yes,6890.599670425661,184.6820762518429,557.7685950413223,770.8524501142086
386,386,sex_male,Urbanity_Urban,Size_5,age_46_55,Education_High_School,Lighting_yes,TV_yes,Cooking_no,Refrigeration_yes,4274.3794856828445,176.78939159952594,557.7685950413223,443.6767706220856
387,387,sex_male,Urbanity_Urban,Size_6,age_56_65,Education_Elementary_School,Lighting_yes,TV_yes,Cooking_no,Refrigeration_yes,3802.711175548074,140.2823336152741,557.7685950413223,0.0
388,388,sex_male,Urbanity_Urban,Size_7,age_66_75,Education_High_School,Lighting_yes,TV_yes,Cooking_no,Refrigeration_yes,5057.60735041903,159.38512914610118,557.7685950413223,0.0
389,389,sex_male,Urbanity_Urban,Size_4,age_66_75,Education_College,Lighting_yes,TV_yes,Cooking_no,Refrigeration_yes,12245.814565550958,165.4028747025731,557.7685950413223,0.0
390,390,sex_male,Urbanity_Urban,Size_6,age_76_85,Education_Elementary_School,Lighting_yes,TV_yes,Cooking_no,Refrigeration_yes,4025.5133206862615,138.5633166941424,557.7685950413223,104.04168872713531
391,391,sex_male,Urbanity_Urban,Size_9,age_36_45,Education_College,Lighting_yes,TV_yes,Cooking_no,Refrigeration_yes,12957.619055835004,174.9962855869297,557.7685950413223,536.5882111664081
392,392,sex_female,Urbanity_Urban,Size_3,age_46_55,Education_High_School,Lighting_yes,TV_yes,Cooking_yes,Refrigeration_yes,3723.189712834386,164.34914176713258,557.7685950413223,1146.5521947201573
393,393,sex_male,Urbanity_Urban,Size_3,age_86_100,Education_Elementary_School,Lighting_yes,TV_yes,Cooking_no,Refrigeration_yes,3435.090869837659,161.83287091635643,557.7685950413223,1814.1069117945533
394,394,sex_male,Urbanity_Urban,Size_5,age_56_65,Education_College,Lighting_yes,TV_yes,Cooking_no,Refrigeration_yes,12254.433590414385,161.49318456707337,557.7685950413223,0.0
395,395,sex_female,Urbanity_Urban,Size_5,age_56_65,Education_Elementary_School,Lighting_yes,TV_yes,Cooking_no,Refrigeration_yes,3628.561186518957,151.01794075973592,557.7685950413223,0.0
396,396,sex_male,Urbanity_Urban,Size_6,age_56_65,Education_High_School,Lighting_yes,TV_yes,Cooking_no,Refrigeration_yes,4680.217875471817,157.52905658501302,557.7685950413223,0.0
397,397,sex_female,Urbanity_Rural,Size_6,age_26_35,Education_Post_Graduate,Lighting_yes,TV_yes,Cooking_no,Refrigeration_yes,12923.601918728564,179.5345496866366,557.7685950413223,43.46961694353903
398,398,sex_female,Urbanity_Urban,Size_3,age_36_45,Education_College,Lighting_yes,TV_yes,Cooking_no,Refrigeration_yes,11590.068091067202,184.2505851292117,557.7685950413223,1816.8369692420488
399,399,sex_male,Urbanity_Urban,Size_2,age_56_65,Education_Post_Secondary,Lighting_yes,TV_yes,Cooking_no,Refrigeration_yes,6366.523219512495,141.63265492913985,557.7685950413223,610.6387325753515
400,400,sex_female,Urbanity_Urban,Size_5,age_46_55,Education_College,Lighting_yes,TV_yes,Cooking_no,Refrigeration_yes,12313.118105798536,164.94782858246433,557.7685950413223,405.86460195603286
401,401,sex_male,Urbanity_Urban,Size_10,age_56_65,Education_Post_Secondary,Lighting_yes,TV_yes,Cooking_no,Refrigeration_yes,8562.741699607534,157.58236916202455,557.7685950413223,5798.524750834465
402,402,sex_female,Urbanity_Urban,Size_10,age_66_75,Education_College,Lighting_no,TV_yes,Cooking_no,Refrigeration_yes,13891.158781107251,150.43035806305886,557.7685950413223,5090.47521234467
403,403,sex_female,Urbanity_Urban,Size_7,age_56_65,Education_High_School,Lighting_yes,TV_yes,Cooking_no,Refrigeration_yes,4974.997514137835,177.8681056590199,557.7685950413223,0.0
404,404,sex_male,Urbanity_Urban,Size_4,age_56_65,Education_High_School,Lighting_yes,TV_yes,Cooking_no,Refrigeration_yes,4253.174448135387,153.34012865625283,557.7685950413223,0.0
405,405,sex_female,Urbanity_Urban,Size_3,age_56_65,Education_Post_Secondary,Lighting_yes,TV_yes,Cooking_no,Refrigeration_yes,6836.270910925823,141.29357950015992,557.7685950413223,630.7968946594536
406,406,sex_female,Urbanity_Urban,Size_4,age_46_55,Education_Elementary_School,Lighting_yes,TV_yes,Cooking_no,Refrigeration_yes,3060.0782325669625,129.22196161302642,557.7685950413223,627.4827055303012
407,407,sex_female,Urbanity_Urban,Size_8,age_26_35,Education_Post_Secondary,Lighting_yes,TV_no,Cooking_no,Refrigeration_yes,7648.073729521282,133.92794758333582,557.7685950413223,269.9999990866548
408,408,sex_male,Urbanity_Urban,Size_5,age_36_45,Education_Post_Secondary,Lighting_yes,TV_yes,Cooking_no,Refrigeration_yes,6846.417513177492,133.14681091081368,557.7685950413223,770.8524501142086
409,409,sex_male,Urbanity_Urban,Size_5,age_36_45,Education_College,Lighting_yes,TV_yes,Cooking_no,Refrigeration_yes,11960.515275237229,154.97914595873468,557.7685950413223,741.7694701616181
410,410,sex_female,Urbanity_Urban,Size_4,age_26_35,Education_Elementary_School,Lighting_yes,TV_yes,Cooking_no,Refrigeration_yes,2897.197499870231,112.12899826021228,557.7685950413223,414.1857950920404
411,411,sex_male,Urbanity_Urban,Size_4,age_86_100,Education_High_School,Lighting_no,TV_yes,Cooking_no,Refrigeration_yes,4642.01007684349,132.93223130178828,557.7685950413223,53.496449634327284
412,412,sex_male,Urbanity_Urban,Size_6,age_66_75,Education_Post_Secondary,Lighting_yes,TV_yes,Cooking_no,Refrigeration_yes,7633.318017486197,144.93341499156202,557.7685950413223,0.0
413,413,sex_male,Urbanity_Urban,Size_6,age_66_75,Education_Post_Secondary,Lighting_yes,TV_yes,Cooking_no,Refrigeration_yes,7690.127818507314,144.13544836483968,557.7685950413223,0.0
414,414,sex_male,Urbanity_Urban,Size_6,age_36_45,Education_Elementary_School,Lighting_yes,TV_yes,Cooking_no,Refrigeration_yes,3368.3905382007015,137.623134794953,557.7685950413223,669.2235818215884
415,415,sex_male,Urbanity_Urban,Size_6,age_46_55,Education_Post_Graduate,Lighting_yes,TV_yes,Cooking_yes,Refrigeration_yes,14188.307039340083,181.7213518146912,557.7685950413223,266.36516294948126
416,416,sex_female,Urbanity_Urban,Size_4,age_56_65,Education_Elementary_School,Lighting_yes,TV_yes,Cooking_no,Refrigeration_yes,3306.2018291336585,129.70853207412694,557.7685950413223,0.0
417,417,sex_male,Urbanity_Urban,Size_2,age_56_65,Education_College,Lighting_yes,TV_yes,Cooking_no,Refrigeration_yes,11489.01341106393,147.92961473209925,557.7685950413223,581.55575262276
418,418,sex_male,Urbanity_Urban,Size_2,age_56_65,Education_Elementary_School,Lighting_yes,TV_yes,Cooking_no,Refrigeration_yes,2734.4881386467623,125.72111507748085,557.7685950413223,755.6200156407385
419,419,sex_male,Urbanity_Urban,Size_2,age_56_65,Education_Post_Secondary,Lighting_yes,TV_yes,Cooking_no,Refrigeration_yes,6337.827111790987,146.5965372370189,557.7685950413223,610.6387325753515
420,420,sex_female,Urbanity_Urban,Size_2,age_66_75,Education_Post_Secondary,Lighting_yes,TV_yes,Cooking_no,Refrigeration_yes,6872.578870883961,160.58070132035817,557.7685950413223,431.5365022302957
421,421,sex_female,Urbanity_Urban,Size_7,age_46_55,Education_College,Lighting_yes,TV_yes,Cooking_no,Refrigeration_yes,12720.95343062276,141.40329953938064,557.7685950413223,361.84142086989766
422,422,sex_male,Urbanity_Urban,Size_6,age_56_65,Education_Elementary_School,Lighting_yes,TV_yes,Cooking_no,Refrigeration_yes,3763.568728839447,92.95743920018872,557.7685950413223,0.0
423,423,sex_female,Urbanity_Urban,Size_3,age_66_75,Education_College,Lighting_yes,TV_yes,Cooking_no,Refrigeration_yes,12214.417119878266,159.18568671679526,557.7685950413223,471.10187490781317
424,424,sex_male,Urbanity_Urban,Size_6,age_56_65,Education_College,Lighting_yes,TV_yes,Cooking_no,Refrigeration_yes,12411.000546653342,126.72793738269844,557.7685950413223,0.0
425,425,sex_male,Urbanity_Urban,Size_7,age_46_55,Education_High_School,Lighting_yes,TV_yes,Cooking_no,Refrigeration_yes,4826.093482125723,116.0964453010115,557.7685950413223,399.65358953595046
426,426,sex_male,Urbanity_Urban,Size_7,age_36_45,Education_High_School,Lighting_yes,TV_yes,Cooking_no,Refrigeration_yes,4673.342147553808,186.96838100373998,557.7685950413223,687.0682671955298
427,427,sex_male,Urbanity_Urban,Size_3,age_56_65,Education_Post_Secondary,Lighting_yes,TV_yes,Cooking_no,Refrigeration_yes,6745.503303846592,89.95162027381657,557.7685950413223,679.2870852054597
428,428,sex_male,Urbanity_Urban,Size_3,age_56_65,Education_High_School,Lighting_yes,TV_yes,Cooking_yes,Refrigeration_yes,3948.813972148235,220.07341874824525,557.7685950413223,267.3340083905565
429,429,sex_female,Urbanity_Rural,Size_3,age_56_65,Education_Post_Secondary,Lighting_yes,TV_yes,Cooking_no,Refrigeration_yes,5959.954365441876,121.76366003087169,557.7685950413223,297.49637465541997
430,430,sex_male,Urbanity_Urban,Size_3,age_66_75,Education_High_School,Lighting_yes,TV_yes,Cooking_no,Refrigeration_yes,4048.510542627831,128.40143369717015,557.7685950413223,508.9140435738649
431,431,sex_female,Urbanity_Urban,Size_3,age_19_25,Education_College,Lighting_yes,TV_yes,Cooking_no,Refrigeration_yes,11248.33199774558,156.02724856746622,557.7685950413223,1236.64309609474
432,432,sex_male,Urbanity_Urban,Size_3,age_46_55,Education_Elementary_School,Lighting_yes,TV_yes,Cooking_yes,Refrigeration_yes,2805.026429013551,161.28809294778532,557.7685950413223,1379.784670164094
433,433,sex_female,Urbanity_Urban,Size_7,age_36_45,Education_Elementary_School,Lighting_yes,TV_yes,Cooking_no,Refrigeration_yes,3908.221943797557,153.76009106913025,557.7685950413223,823.3203615474565
434,434,sex_male,Urbanity_Urban,Size_4,age_66_75,Education_High_School,Lighting_yes,TV_yes,Cooking_no,Refrigeration_yes,4344.506622498228,163.98367756485518,557.7685950413223,0.0
435,435,sex_male,Urbanity_Urban,Size_4,age_56_65,Education_High_School,Lighting_yes,TV_yes,Cooking_no,Refrigeration_yes,4315.163485622936,109.2579109071264,557.7685950413223,0.0
436,436,sex_female,Urbanity_Urban,Size_4,age_76_85,Education_Elementary_School,Lighting_yes,TV_yes,Cooking_no,Refrigeration_yes,3737.839854205233,108.64148910499813,557.7685950413223,349.7154900954276
437,437,sex_male,Urbanity_Urban,Size_3,age_66_75,Education_High_School,Lighting_no,TV_yes,Cooking_no,Refrigeration_yes,4181.621283468728,126.42889300952857,557.7685950413223,9.049715381717823
438,438,sex_male,Urbanity_Urban,Size_5,age_56_65,Education_Post_Secondary,Lighting_yes,TV_yes,Cooking_no,Refrigeration_yes,7296.026288182174,138.60589042005236,557.7685950413223,0.0
439,439,sex_female,Urbanity_Urban,Size_3,age_26_35,Education_Elementary_School,Lighting_yes,TV_yes,Cooking_no,Refrigeration_yes,2634.23769639979,109.0006855212013,557.7685950413223,1490.189644162186
440,440,sex_female,Urbanity_Urban,Size_3,age_26_35,Education_Post_Secondary,Lighting_yes,TV_yes,Cooking_no,Refrigeration_yes,6335.6489728784545,135.6337599847808,557.7685950413223,1345.2083610967984
441,441,sex_male,Urbanity_Urban,Size_3,age_26_35,Education_Post_Graduate,Lighting_yes,TV_yes,Cooking_no,Refrigeration_yes,13046.982726370063,134.65990129914235,557.7685950413223,1795.4281684780221
442,442,sex_female,Urbanity_Urban,Size_5,age_36_45,Education_College,Lighting_yes,TV_yes,Cooking_no,Refrigeration_yes,12162.306000447888,161.51984069440945,557.7685950413223,693.2792796156122
443,443,sex_male,Urbanity_Urban,Size_5,age_46_55,Education_Post_Secondary,Lighting_yes,TV_yes,Cooking_no,Refrigeration_yes,7101.160384646627,143.23512539821238,557.7685950413223,483.4377724546293
444,444,sex_male,Urbanity_Urban,Size_5,age_46_55,Education_Post_Secondary,Lighting_yes,TV_yes,Cooking_no,Refrigeration_yes,7059.101842191943,164.25522973678756,557.7685950413223,483.4377724546293
445,445,sex_male,Urbanity_Urban,Size_3,age_36_45,Education_Elementary_School,Lighting_yes,TV_yes,Cooking_no,Refrigeration_yes,2546.932938238619,94.28993473343976,557.7685950413223,2039.3914228060328
446,446,sex_male,Urbanity_Rural,Size_3,age_46_55,Education_High_School,Lighting_yes,TV_yes,Cooking_no,Refrigeration_yes,2596.078349158308,72.94738854214197,557.7685950413223,1233.933940244488
447,447,sex_female,Urbanity_Urban,Size_3,age_36_45,Education_Post_Secondary,Lighting_yes,TV_yes,Cooking_no,Refrigeration_no,6476.217695848686,89.82944200044389,557.7685950413223,1477.399528899394
448,448,sex_male,Urbanity_Urban,Size_5,age_46_55,Education_High_School,Lighting_yes,TV_yes,Cooking_no,Refrigeration_yes,4152.111702452069,138.1047525511779,557.7685950413223,443.6767706220856
449,449,sex_male,Urbanity_Urban,Size_5,age_36_45,Education_Elementary_School,Lighting_yes,TV_yes,Cooking_no,Refrigeration_yes,3177.594310832901,126.38149064445145,557.7685950413223,915.8337331795966
450,450,sex_male,Urbanity_Rural,Size_5,age_26_35,Education_High_School,Lighting_yes,TV_yes,Cooking_no,Refrigeration_yes,2781.154202157937,106.44207856646388,557.7685950413223,0.0
451,451,sex_male,Urbanity_Urban,Size_5,age_56_65,Education_College,Lighting_yes,TV_yes,Cooking_no,Refrigeration_yes,12301.420424106547,159.2995016668422,557.7685950413223,0.0
452,452,sex_male,Urbanity_Urban,Size_3,age_46_55,Education_Elementary_School,Lighting_yes,TV_yes,Cooking_no,Refrigeration_yes,2792.0217706884505,131.48775155496804,557.7685950413223,1751.9767451464534
453,453,sex_male,Urbanity_Urban,Size_3,age_36_45,Education_Elementary_School,Lighting_yes,TV_yes,Cooking_no,Refrigeration_yes,2676.1413155318774,134.06239452059071,557.7685950413223,2039.3914228060328
454,454,sex_male,Urbanity_Urban,Size_3,age_46_55,Education_High_School,Lighting_no,TV_yes,Cooking_no,Refrigeration_yes,3788.866143662772,132.0403970412341,557.7685950413223,1067.3701320563746
455,455,sex_male,Urbanity_Urban,Size_3,age_56_65,Education_Elementary_School,Lighting_yes,TV_yes,Cooking_no,Refrigeration_yes,2942.2151818027,121.9322022621638,557.7685950413223,824.2683682708465
456,456,sex_female,Urbanity_Urban,Size_4,age_36_45,Education_Post_Secondary,Lighting_yes,TV_yes,Cooking_no,Refrigeration_yes,6847.6289797582385,129.168235411504,557.7685950413223,769.9161001244937
457,457,sex_male,Urbanity_Urban,Size_2,age_66_75,Education_Elementary_School,Lighting_yes,TV_yes,Cooking_no,Refrigeration_yes,2881.3576874344676,162.1470416552522,557.7685950413223,625.0079758416884
458,458,sex_male,Urbanity_Urban,Size_5,age_56_65,Education_Post_Secondary,Lighting_yes,TV_yes,Cooking_no,Refrigeration_yes,7190.37100660764,147.27307164637568,557.7685950413223,0.0
459,459,sex_female,Urbanity_Urban,Size_5,age_46_55,Education_High_School,Lighting_yes,TV_yes,Cooking_no,Refrigeration_yes,4381.537336720427,134.1822600832083,557.7685950413223,395.18658007608065
460,460,sex_male,Urbanity_Urban,Size_3,age_56_65,Education_Post_Secondary,Lighting_yes,TV_yes,Cooking_no,Refrigeration_no,6881.531415645527,45.78901836782165,557.7685950413223,310.76666491021376
461,461,sex_male,Urbanity_Urban,Size_4,age_36_45,Education_Elementary_School,Lighting_yes,TV_yes,Cooking_no,Refrigeration_yes,2754.819542175061,101.93786183278088,557.7685950413223,963.3875737358866
462,462,sex_male,Urbanity_Urban,Size_6,age_46_55,Education_Post_Secondary,Lighting_yes,TV_yes,Cooking_no,Refrigeration_yes,7384.828288538868,137.4029083059088,557.7685950413223,236.8276210966211
463,463,sex_female,Urbanity_Urban,Size_4,age_26_35,Education_High_School,Lighting_yes,TV_yes,Cooking_no,Refrigeration_yes,3691.498893867533,110.09479705669241,557.7685950413223,229.4435101941087
464,464,sex_female,Urbanity_Urban,Size_4,age_36_45,Education_Post_Secondary,Lighting_yes,TV_yes,Cooking_no,Refrigeration_yes,6824.691450437401,199.34023391720226,557.7685950413223,769.9161001244937
465,465,sex_male,Urbanity_Urban,Size_8,age_36_45,Education_High_School,Lighting_yes,TV_yes,Cooking_no,Refrigeration_yes,4853.784125378723,158.88987283290027,557.7685950413223,537.8026795775705
466,466,sex_male,Urbanity_Urban,Size_8,age_36_45,Education_College,Lighting_yes,TV_yes,Cooking_no,Refrigeration_yes,12749.76201183866,155.7568574431881,557.7685950413223,548.4807014575235
467,467,sex_male,Urbanity_Urban,Size_7,age_46_55,Education_College,Lighting_yes,TV_yes,Cooking_no,Refrigeration_yes,12543.4516327003,158.11638853595855,557.7685950413223,410.3316114159036
468,468,sex_male,Urbanity_Urban,Size_2,age_36_45,Education_High_School,Lighting_yes,TV_yes,Cooking_no,Refrigeration_yes,3329.1667303730987,135.95371967071068,557.7685950413223,1786.000785277993
469,469,sex_male,Urbanity_Urban,Size_2,age_36_45,Education_Post_Secondary,Lighting_yes,TV_yes,Cooking_no,Refrigeration_yes,6093.644874729522,95.78300451982159,557.7685950413223,1825.7617871105367
470,470,sex_male,Urbanity_Urban,Size_2,age_56_65,Education_Post_Graduate,Lighting_yes,TV_yes,Cooking_no,Refrigeration_yes,13312.07091633823,130.50779725599836,557.7685950413223,1012.3683494105701
471,471,sex_male,Urbanity_Urban,Size_2,age_56_65,Education_Elementary_School,Lighting_yes,TV_yes,Cooking_no,Refrigeration_yes,2814.121037956433,184.04780014857144,557.7685950413223,755.6200156407385
472,472,sex_male,Urbanity_Urban,Size_2,age_56_65,Education_Post_Secondary,Lighting_yes,TV_yes,Cooking_no,Refrigeration_yes,6370.086320608252,114.41306818395556,557.7685950413223,610.6387325753515
473,473,sex_male,Urbanity_Urban,Size_8,age_56_65,Education_Elementary_School,Lighting_yes,TV_yes,Cooking_no,Refrigeration_no,4437.154289273123,104.96311000344713,557.7685950413223,0.0
474,474,sex_male,Urbanity_Urban,Size_8,age_46_55,Education_Post_Secondary,Lighting_yes,TV_yes,Cooking_no,Refrigeration_no,8003.298328617426,71.43996781446306,557.7685950413223,0.0
475,475,sex_female,Urbanity_Urban,Size_2,age_46_55,Education_High_School,Lighting_yes,TV_yes,Cooking_no,Refrigeration_yes,3629.2250010826574,136.8450887343727,557.7685950413223,1450.0959170724086
476,476,sex_male,Urbanity_Urban,Size_2,age_26_35,Education_College,Lighting_yes,TV_yes,Cooking_no,Refrigeration_yes,11048.94176034094,199.6925730457389,557.7685950413223,1295.9672190601048
477,477,sex_male,Urbanity_Urban,Size_6,age_46_55,Education_High_School,Lighting_yes,TV_yes,Cooking_no,Refrigeration_yes,4599.041921468442,99.6586934329801,557.7685950413223,197.0666192640774
478,478,sex_male,Urbanity_Urban,Size_4,age_46_55,Education_Post_Secondary,Lighting_yes,TV_yes,Cooking_no,Refrigeration_yes,6704.052984033762,136.9006717815459,557.7685950413223,530.9916130109194
479,479,sex_male,Urbanity_Urban,Size_6,age_46_55,Education_Elementary_School,Lighting_yes,TV_yes,Cooking_no,Refrigeration_yes,3478.879996641207,141.65010029404948,557.7685950413223,381.80890416200907
480,480,sex_male,Urbanity_Urban,Size_6,age_46_55,Education_High_School,Lighting_yes,TV_yes,Cooking_no,Refrigeration_yes,4643.943010513285,113.82413170264364,557.7685950413223,197.0666192640774
481,481,sex_male,Urbanity_Urban,Size_5,age_46_55,Education_Post_Secondary,Lighting_yes,TV_yes,Cooking_no,Refrigeration_yes,7138.5517821359335,169.41588786648168,557.7685950413223,483.4377724546293
482,482,sex_male,Urbanity_Urban,Size_5,age_46_55,Education_Post_Secondary,Lighting_yes,TV_yes,Cooking_no,Refrigeration_no,7145.296870837525,76.5387999648353,557.7685950413223,114.91735215938343
483,483,sex_female,Urbanity_Urban,Size_5,age_46_55,Education_Post_Secondary,Lighting_yes,TV_yes,Cooking_no,Refrigeration_yes,7137.294256686421,106.3764750993435,557.7685950413223,434.94758190862444
