,index,i_Sex,i_Urbanity,i_FamilySize,i_Age,i_Education,e_Lighting,e_TV,e_Cooking,e_Refrigeration,e_AC,Income,Electricity,w,wf
0,0,0,1,5,age_36_45,3,1,1,0,0,0,12265.714546063726,85.97305880486995,524.9894736842106,918.7518712636548
1,1,0,0,5,age_46_55,3,1,1,0,1,0,11288.479691539778,123.61251314680254,524.9894736842106,565.6245974573519
2,2,0,1,5,age_66_75,3,1,0,0,0,0,12673.968835430413,72.02117188379665,524.9894736842106,278.4296526984971
3,3,0,1,3,age_56_65,1,1,1,0,0,0,4128.740351223411,59.46639966657454,524.9894736842106,297.59880659739906
4,4,0,1,3,age_56_65,0,0,1,0,1,0,3190.5453836863812,133.66695919585888,524.9894736842106,297.59880659739906
5,5,0,1,6,age_46_55,1,1,1,0,0,0,4735.034442232573,57.6194624385484,524.9894736842106,565.6245974573519
6,6,1,1,6,age_56_65,1,1,0,0,0,0,5020.639470979843,41.35095355244122,524.9894736842106,297.59880659739906
7,7,1,1,6,age_46_55,1,1,1,0,1,0,4915.649337675661,142.89756550006982,524.9894736842106,565.6245974573519
8,8,1,0,6,age_36_45,2,1,1,0,1,0,6550.34434099772,60.31793431398989,524.9894736842106,918.7518712636548
9,9,0,1,6,age_66_75,1,1,0,0,0,0,5093.506045821579,41.01113665972879,524.9894736842106,278.4296526984971
10,10,0,0,7,age_36_45,1,1,0,0,1,0,3788.3447828975263,61.46012094398026,524.9894736842106,918.7518712636548
11,11,0,1,6,age_26_35,2,1,1,0,0,0,7221.564526300673,123.97710540934193,524.9894736842106,798.4816464892334
12,12,0,0,5,age_56_65,2,1,1,0,0,0,6405.4796583788675,-12.923962817755244,524.9894736842106,297.59880659739906
13,13,1,1,5,age_36_45,0,1,1,0,0,0,3530.652079470273,117.56243414554892,524.9894736842106,918.7518712636548
14,14,0,0,5,age_46_55,2,1,1,0,0,0,6300.634443726753,24.61738142283865,524.9894736842106,565.6245974573519
15,15,0,1,7,age_66_75,2,1,0,0,1,0,8124.9631014274655,134.01289246587677,524.9894736842106,278.4296526984971
16,16,0,1,6,age_76_85,0,1,1,0,1,0,4216.725788135115,189.2695834037637,524.9894736842106,138.26867629725623
17,17,0,0,5,age_36_45,0,1,1,0,1,0,2187.7648107840128,31.866978120683303,524.9894736842106,918.7518712636548
18,18,0,1,6,age_46_55,0,1,1,0,0,0,3969.968339482144,54.541502198791676,524.9894736842106,565.6245974573519
19,19,0,0,7,age_46_55,0,1,1,0,0,0,2863.059787765209,37.385820309542645,524.9894736842106,565.6245974573519
20,20,1,1,7,age_66_75,0,1,0,0,1,0,4516.034471952564,105.16937880919217,524.9894736842106,278.4296526984971
21,21,0,1,6,age_66_75,0,1,1,0,1,0,4185.1031317243205,148.54474876915052,524.9894736842106,278.4296526984971
22,22,0,1,5,age_56_65,3,1,0,0,1,0,12595.314616560547,135.1451972909963,524.9894736842106,297.59880659739906
23,23,0,1,5,age_46_55,0,0,0,0,0,0,3532.0474197384124,40.68956509272122,524.9894736842106,565.6245974573519
24,24,0,1,4,age_66_75,1,1,0,0,1,0,4652.324974094514,76.21226644940396,524.9894736842106,278.4296526984971
25,25,0,1,4,age_56_65,0,1,1,0,0,0,3563.964957890749,97.23023312565218,524.9894736842106,297.59880659739906
26,26,0,0,2,age_76_85,2,1,1,0,1,0,5995.594945221634,119.11159565963932,524.9894736842106,138.26867629725623
27,27,0,1,7,age_56_65,0,1,1,0,0,0,4278.3472671558175,96.30027591325218,524.9894736842106,297.59880659739906
28,28,0,0,6,age_56_65,0,1,0,0,1,0,2795.610909942546,88.85376898866066,524.9894736842106,297.59880659739906
29,29,0,1,6,age_46_55,1,1,1,0,0,0,4687.865463840628,50.73768351553052,524.9894736842106,565.6245974573519
30,30,1,1,8,age_36_45,0,1,1,0,0,0,4388.05075661302,-4.703426972823145,524.9894736842106,918.7518712636548
31,31,0,1,9,age_46_55,2,0,0,0,1,0,8509.182766923765,122.52643596481413,524.9894736842106,565.6245974573519
32,32,0,0,7,age_36_45,2,1,0,0,0,0,6510.145673401838,14.956192925248224,524.9894736842106,918.7518712636548
33,33,1,0,6,age_26_35,1,1,1,0,0,0,3477.9022810027063,32.86018967479643,524.9894736842106,798.4816464892334
34,34,0,0,2,age_56_65,1,0,1,0,1,0,2838.6915033991963,105.1795158917391,524.9894736842106,297.59880659739906
35,35,1,1,4,age_56_65,0,1,0,0,1,0,3630.4576546088897,137.10935981599147,524.9894736842106,297.59880659739906
36,36,0,1,7,age_46_55,0,1,1,0,0,0,4179.084864887179,67.2932956006937,524.9894736842106,565.6245974573519
37,37,0,1,3,age_36_45,3,1,1,0,0,0,11734.91667216676,74.34309390288091,524.9894736842106,918.7518712636548
38,38,0,0,5,age_36_45,2,1,0,0,0,0,6111.269466133604,32.17325931973302,524.9894736842106,918.7518712636548
39,39,0,1,3,age_66_75,1,1,1,0,0,0,4354.0601717668105,35.656025657528026,524.9894736842106,278.4296526984971
40,40,0,1,3,age_36_45,2,1,1,0,1,0,6693.257061774442,116.0160209219392,524.9894736842106,918.7518712636548
41,41,1,1,3,age_56_65,0,1,0,0,1,0,3317.547556303056,92.04524783848173,524.9894736842106,297.59880659739906
42,42,0,1,10,age_66_75,4,1,1,0,1,0,15781.240727044267,146.6954551907626,524.9894736842106,278.4296526984971
43,43,0,1,7,age_46_55,2,1,1,0,1,0,7831.779584875419,125.79628453926664,524.9894736842106,565.6245974573519
44,44,0,0,4,age_66_75,4,1,1,0,0,0,13181.96392277363,23.01953082658593,524.9894736842106,278.4296526984971
45,45,1,0,4,age_66_75,1,1,1,0,0,0,3673.275878066484,2.1948737124083664,524.9894736842106,278.4296526984971
46,46,0,1,5,age_46_55,0,1,1,0,1,0,3537.4474117890763,125.61750273159723,524.9894736842106,565.6245974573519
47,47,0,1,4,age_46_55,0,1,1,0,0,0,3341.2053738438904,43.200984509882005,524.9894736842106,565.6245974573519
48,48,0,1,4,age_36_45,0,1,1,0,0,0,3038.011247481159,93.24722848067991,524.9894736842106,918.7518712636548
49,49,0,0,2,age_56_65,1,1,0,0,0,0,2758.0145756074908,27.17180873441617,524.9894736842106,297.59880659739906
50,50,0,1,5,age_46_55,1,0,1,0,0,0,4624.467246860391,70.52097752217135,524.9894736842106,565.6245974573519
51,51,0,0,5,age_56_65,3,1,1,0,0,0,11432.982694194143,34.57850470570367,524.9894736842106,297.59880659739906
52,52,0,1,4,age_36_45,0,1,1,0,0,0,3248.8474548932386,61.572132698757066,524.9894736842106,918.7518712636548
53,53,1,1,2,age_36_45,0,1,1,0,1,0,2813.2688109694063,143.31101897823368,524.9894736842106,918.7518712636548
54,54,0,1,2,age_66_75,1,1,0,0,1,0,4056.0215690574328,88.21841971437787,524.9894736842106,278.4296526984971
55,55,0,0,2,age_56_65,0,1,1,1,0,0,1680.231617017568,50.07520679886346,524.9894736842106,297.59880659739906
56,56,0,1,2,age_46_55,3,1,1,0,1,0,11746.766211376598,146.09444784033744,524.9894736842106,565.6245974573519
57,57,0,1,2,age_36_45,3,1,1,0,0,0,11525.194016348702,94.52377808605024,524.9894736842106,918.7518712636548
58,58,0,1,2,age_46_55,2,1,0,0,1,0,6446.652416281201,143.72137543508262,524.9894736842106,565.6245974573519
59,59,0,0,4,age_56_65,0,1,1,0,0,0,2321.1847341837633,28.067724328695398,524.9894736842106,297.59880659739906
60,60,0,1,4,age_56_65,1,1,1,0,0,0,4330.598188278847,68.73299414881045,524.9894736842106,297.59880659739906
61,61,0,1,6,age_46_55,0,1,1,1,0,0,3709.3982208704297,77.67518319077621,524.9894736842106,565.6245974573519
62,62,0,1,5,age_36_45,2,1,1,0,1,0,7167.874939084806,92.74621790225865,524.9894736842106,918.7518712636548
63,63,1,1,5,age_46_55,2,0,1,0,1,0,7478.02858872287,139.9527603596383,524.9894736842106,565.6245974573519
64,64,0,0,5,age_66_75,0,1,1,0,0,0,2694.5372936728554,26.83523899327167,524.9894736842106,278.4296526984971
65,65,0,1,2,age_66_75,0,1,0,0,0,0,3186.795086500299,24.20011056929512,524.9894736842106,278.4296526984971
66,66,0,1,2,age_46_55,1,1,1,0,0,0,3737.916909759177,38.660404700748714,524.9894736842106,565.6245974573519
67,67,0,1,2,age_46_55,0,1,0,0,1,0,2718.7865599201546,156.68338639378518,524.9894736842106,565.6245974573519
68,68,0,0,4,age_66_75,3,1,1,1,1,0,11474.935785209429,202.59081136510258,524.9894736842106,278.4296526984971
69,69,0,0,4,age_76_85,3,1,1,0,1,0,11784.271915177058,113.23173057608315,524.9894736842106,138.26867629725623
70,70,0,1,6,age_36_45,0,0,1,0,0,0,3704.096964260872,59.51072478286379,524.9894736842106,918.7518712636548
71,71,0,1,2,age_66_75,0,1,1,0,1,0,2988.2876871541107,139.86940494500575,524.9894736842106,278.4296526984971
72,72,1,1,2,age_26_35,2,1,1,0,0,0,6351.990980608367,74.49340754651433,524.9894736842106,798.4816464892334
73,73,0,0,6,age_46_55,0,1,0,0,1,0,2589.9012167346677,47.55394698344676,524.9894736842106,565.6245974573519
74,74,0,1,6,age_36_45,3,1,1,0,0,0,12530.994693205304,79.97579337745647,524.9894736842106,918.7518712636548
75,75,0,0,1,age_56_65,2,1,1,0,0,0,5409.377771892028,34.853387901225226,524.9894736842106,297.59880659739906
76,76,0,0,7,age_46_55,0,1,1,0,1,0,2923.8672891416363,123.09470639501085,524.9894736842106,565.6245974573519
77,77,0,1,2,age_46_55,1,1,1,0,1,0,3666.1707784184837,166.5971952424277,524.9894736842106,565.6245974573519
78,78,0,1,6,age_66_75,0,1,0,0,1,0,4201.298619916106,100.58667627700191,524.9894736842106,278.4296526984971
79,79,1,1,5,age_66_75,1,1,0,0,0,0,5046.1880733799935,39.07171704034279,524.9894736842106,278.4296526984971
80,80,0,1,3,age_46_55,3,1,1,0,1,0,12035.147102604009,191.6345856076522,524.9894736842106,565.6245974573519
81,81,0,1,1,age_56_65,3,1,0,0,1,0,11472.730558693225,127.58468758710312,524.9894736842106,297.59880659739906
82,82,0,0,1,age_36_45,4,1,1,0,0,0,11854.890851919148,59.218393685614636,524.9894736842106,918.7518712636548
83,83,0,1,6,age_36_45,1,1,1,0,0,0,4599.815046621794,60.50843121825394,524.9894736842106,918.7518712636548
84,84,0,1,6,age_66_75,0,0,1,0,0,0,4118.0400947856815,62.984254061682826,524.9894736842106,278.4296526984971
85,85,0,0,2,age_46_55,0,1,0,0,0,0,1628.7271832204294,25.448248261083602,524.9894736842106,565.6245974573519
86,86,0,1,3,age_46_55,1,1,0,0,0,0,3943.1772613605135,48.06900521826085,524.9894736842106,565.6245974573519
87,87,0,0,7,age_36_45,3,1,1,0,0,0,11655.85414031962,67.3354969975831,524.9894736842106,918.7518712636548
88,88,0,1,3,age_36_45,2,1,1,0,0,0,6613.331524573418,31.547197758745902,524.9894736842106,918.7518712636548
89,89,0,1,5,age_56_65,0,1,1,0,0,0,3706.517261993093,52.84355217198903,524.9894736842106,297.59880659739906
90,90,0,0,5,age_66_75,0,1,0,0,0,0,2815.12948651567,15.798014742342398,524.9894736842106,278.4296526984971
91,91,0,1,3,age_46_55,2,1,0,0,0,0,6918.657042851142,50.799000763266584,524.9894736842106,565.6245974573519
92,92,0,0,6,age_46_55,3,1,1,0,0,0,11534.778824814874,1.286282384250374,524.9894736842106,565.6245974573519
93,93,0,1,6,age_46_55,2,1,1,0,0,0,7588.715304383021,48.97911089649004,524.9894736842106,565.6245974573519
94,94,0,1,6,age_26_35,4,1,1,0,0,0,13980.570308241817,33.46766514679681,524.9894736842106,798.4816464892334
95,95,1,1,5,age_46_55,2,1,0,0,1,0,7535.640905009466,106.23394956010584,524.9894736842106,565.6245974573519
96,96,0,1,7,age_46_55,2,1,1,0,0,0,7882.76746175025,84.40469517398876,524.9894736842106,565.6245974573519
97,97,1,1,4,age_56_65,1,1,1,0,0,0,4478.008609124427,41.72411962207161,524.9894736842106,297.59880659739906
98,98,0,1,4,age_46_55,0,0,1,0,0,0,3220.853242111214,60.886513005953006,524.9894736842106,565.6245974573519
99,99,0,1,6,age_36_45,0,1,1,0,0,0,3616.423524556225,79.13271247131527,524.9894736842106,918.7518712636548
100,100,0,1,6,age_36_45,0,1,0,0,0,0,3629.8655972748793,44.992264038325814,524.9894736842106,918.7518712636548
101,101,0,1,6,age_36_45,4,1,0,0,0,0,14272.27569695608,60.687716041481984,524.9894736842106,918.7518712636548
102,102,0,1,2,age_36_45,1,1,1,0,0,0,3602.4650144719812,42.566884359887325,524.9894736842106,918.7518712636548
103,103,0,1,2,age_66_75,3,1,1,0,0,0,12023.331355118891,121.09950947726699,524.9894736842106,278.4296526984971
104,104,0,1,2,age_36_45,2,1,1,0,0,0,6378.408985068788,66.87838078232909,524.9894736842106,918.7518712636548
105,105,1,1,2,age_76_85,1,1,1,0,1,0,4362.2964067111825,138.78363833435685,524.9894736842106,138.26867629725623
106,106,0,0,5,age_56_65,1,1,1,0,0,0,3584.5475366608125,-9.611917509416443,524.9894736842106,297.59880659739906
107,107,0,1,5,age_56_65,0,1,1,0,0,0,3603.4600004859294,50.7483983956019,524.9894736842106,297.59880659739906
108,108,0,1,5,age_56_65,0,1,1,0,0,0,3644.067137416685,49.584981537564,524.9894736842106,297.59880659739906
109,109,0,1,5,age_66_75,0,1,1,0,0,0,3916.370344914168,54.89026569971822,524.9894736842106,278.4296526984971
110,110,0,0,5,age_66_75,0,1,1,0,0,0,2838.2900089021773,27.39883509002081,524.9894736842106,278.4296526984971
111,111,0,1,9,age_26_35,1,1,0,0,0,0,5105.7064198140115,45.45932259540455,524.9894736842106,798.4816464892334
112,112,0,1,1,age_46_55,1,1,1,0,0,0,3509.2203743865234,70.5367455728626,524.9894736842106,565.6245974573519
113,113,0,0,1,age_19_25,0,1,1,0,0,0,898.5884160240507,66.92746358589609,524.9894736842106,895.7464079624334
114,114,0,1,2,age_56_65,1,1,1,0,0,0,4015.28373335802,87.43180368192354,524.9894736842106,297.59880659739906
115,115,1,1,4,age_46_55,2,1,1,0,0,0,7311.99915882816,107.85425808685041,524.9894736842106,565.6245974573519
116,116,0,1,8,age_66_75,0,1,1,0,0,0,4642.452260907632,107.68749020702057,524.9894736842106,278.4296526984971
117,117,1,0,8,age_66_75,1,1,1,0,0,0,4597.8672449316855,38.10625965458284,524.9894736842106,278.4296526984971
118,118,1,1,8,age_46_55,1,0,1,0,0,0,5342.692785409931,64.25318019717557,524.9894736842106,565.6245974573519
119,119,1,1,8,age_56_65,0,1,1,0,0,0,4612.706565658466,60.522804412426346,524.9894736842106,297.59880659739906
120,120,0,1,8,age_46_55,3,1,1,0,0,0,13231.439973174342,56.24519647056593,524.9894736842106,565.6245974573519
121,121,0,1,8,age_46_55,1,1,1,0,0,0,5367.076574736577,52.69276063221323,524.9894736842106,565.6245974573519
122,122,0,1,8,age_46_55,1,1,1,0,0,0,5332.389106443097,60.22677861787054,524.9894736842106,565.6245974573519
123,123,0,1,6,age_46_55,1,1,1,0,0,0,4719.320871272702,54.278367369080726,524.9894736842106,565.6245974573519
124,124,0,1,3,age_26_35,3,0,0,0,1,0,11540.2126018274,120.72755446839511,524.9894736842106,798.4816464892334
125,125,0,1,2,age_36_45,0,1,1,0,0,0,2628.533765909678,61.30856532114044,524.9894736842106,918.7518712636548
126,126,0,1,7,age_46_55,0,1,1,0,0,0,3990.918832996941,36.766696745668575,524.9894736842106,565.6245974573519
127,127,1,1,7,age_76_85,2,1,0,0,1,0,8483.559433360604,141.12650387328642,524.9894736842106,138.26867629725623
128,128,0,0,8,age_46_55,0,1,1,0,0,0,3191.7111303385755,26.51359121500448,524.9894736842106,565.6245974573519
129,129,0,1,2,age_66_75,3,1,0,0,0,0,11979.423074342922,34.79558844685002,524.9894736842106,278.4296526984971
130,130,0,1,7,age_66_75,0,1,1,0,0,0,4411.7948983137685,54.29401588396382,524.9894736842106,278.4296526984971
131,131,1,1,7,age_76_85,0,1,0,0,0,0,4666.719931953574,30.937688099695016,524.9894736842106,138.26867629725623
132,132,1,1,7,age_46_55,0,1,1,0,0,0,4212.374076341096,38.64775102904883,524.9894736842106,565.6245974573519
133,133,0,1,3,age_26_35,0,1,0,0,0,0,2631.12234941191,4.052031253333655,524.9894736842106,798.4816464892334
134,134,1,1,5,age_56_65,4,1,1,0,0,0,14450.525492870105,75.47557115854235,524.9894736842106,297.59880659739906
135,135,0,1,5,age_36_45,2,1,1,0,0,0,7176.582079792479,89.43515587418797,524.9894736842106,918.7518712636548
136,136,0,0,4,age_56_65,4,1,1,0,0,0,12906.31355633008,92.20741836589005,524.9894736842106,297.59880659739906
137,137,0,1,4,age_66_75,2,1,1,0,0,0,7269.056521478797,66.16303280792584,524.9894736842106,278.4296526984971
138,138,0,0,6,age_66_75,3,0,1,0,0,0,12131.56049937276,48.44814521140759,524.9894736842106,278.4296526984971
139,139,0,0,4,age_36_45,2,1,0,0,1,0,5796.1534555668395,72.21459359277863,524.9894736842106,918.7518712636548
140,140,0,1,4,age_56_65,1,1,1,0,0,0,4395.8824834796615,46.231408578172356,524.9894736842106,297.59880659739906
141,141,0,1,4,age_46_55,2,1,0,0,0,0,6989.166080508759,39.358887507968994,524.9894736842106,565.6245974573519
142,142,0,1,6,age_56_65,2,1,1,0,0,0,7811.042399245944,71.26946133466706,524.9894736842106,297.59880659739906
143,143,0,0,6,age_76_85,3,1,1,0,1,0,12063.289210661875,113.17550564423188,524.9894736842106,138.26867629725623
144,144,0,1,6,age_76_85,2,1,1,0,0,0,8110.665359567362,52.63600124309472,524.9894736842106,138.26867629725623
145,145,1,1,3,age_0_18,0,1,1,0,0,0,2576.548225101091,45.892524774258916,524.9894736842106,0.0
146,146,0,0,8,age_56_65,1,1,1,0,1,0,4415.0786116030595,103.02465786263984,524.9894736842106,297.59880659739906
147,147,0,0,3,age_56_65,0,1,1,0,0,0,2089.652080912524,27.10661469948337,524.9894736842106,297.59880659739906
148,148,0,0,4,age_56_65,1,1,1,0,0,0,3289.6261874012635,37.729995211864,524.9894736842106,297.59880659739906
149,149,0,0,3,age_26_35,1,1,1,0,0,0,2505.1880246328005,20.28880282769936,524.9894736842106,798.4816464892334
150,150,1,1,8,age_36_45,1,1,1,0,0,0,5281.066312910771,56.92097836997097,524.9894736842106,918.7518712636548
151,151,0,1,4,age_76_85,3,1,1,0,0,0,12556.331680477964,59.22597354696081,524.9894736842106,138.26867629725623
152,152,1,1,1,age_46_55,2,1,0,0,0,0,6346.967746609173,86.08345517703422,524.9894736842106,565.6245974573519
153,153,0,1,3,age_56_65,2,1,1,0,1,0,6879.394540629179,125.50922610241163,524.9894736842106,297.59880659739906
154,154,0,0,3,age_66_75,2,1,1,0,0,0,6120.413930469623,70.70592224981375,524.9894736842106,278.4296526984971
155,155,1,1,5,age_56_65,3,1,1,0,1,0,12799.162658277288,171.4898757235999,524.9894736842106,297.59880659739906
156,156,1,1,6,age_36_45,2,1,0,0,0,0,7614.792042752292,53.2372822335992,524.9894736842106,918.7518712636548
157,157,0,0,1,age_76_85,2,1,1,0,1,0,5736.920092333813,110.50226689112907,524.9894736842106,138.26867629725623
158,158,0,1,5,age_76_85,0,1,1,0,0,0,4060.777603297679,76.95360125297793,524.9894736842106,138.26867629725623
159,159,0,0,5,age_36_45,4,1,0,0,0,0,12792.552005842434,-16.453009043240044,524.9894736842106,918.7518712636548
160,160,0,1,5,age_66_75,3,1,1,0,0,0,12935.803235779442,52.552534379255256,524.9894736842106,278.4296526984971
161,161,0,1,2,age_36_45,3,1,1,0,1,0,11536.609479335772,152.57355014107515,524.9894736842106,918.7518712636548
162,162,0,0,9,age_66_75,2,1,0,0,0,0,7685.600099696202,14.200574060563113,524.9894736842106,278.4296526984971
163,163,0,1,8,age_66_75,3,1,1,0,1,0,13495.307311283332,157.84382569863888,524.9894736842106,278.4296526984971
164,164,1,1,10,age_66_75,2,1,1,0,1,0,9173.120475372447,157.49933303433957,524.9894736842106,278.4296526984971
165,165,1,0,9,age_46_55,3,1,1,0,0,0,12520.095151829826,45.03093333692581,524.9894736842106,565.6245974573519
166,166,0,0,9,age_56_65,2,1,1,0,0,0,7533.677075655883,47.625687481196906,524.9894736842106,297.59880659739906
167,167,0,1,8,age_46_55,1,1,1,0,0,0,5279.3860336517355,104.5999873572075,524.9894736842106,565.6245974573519
168,168,0,1,9,age_46_55,2,1,0,0,1,0,8348.11301916187,125.03745495541789,524.9894736842106,565.6245974573519
169,169,0,1,9,age_56_65,1,0,1,0,0,0,5748.7196858139405,64.36654387238893,524.9894736842106,297.59880659739906
170,170,1,1,7,age_76_85,2,1,1,0,0,0,8743.771554491159,74.40160547148389,524.9894736842106,138.26867629725623
171,171,1,1,7,age_46_55,3,1,0,0,0,0,13125.712659878827,67.50950542575907,524.9894736842106,565.6245974573519
172,172,0,0,6,age_56_65,1,1,1,0,1,0,3687.8195221972114,84.37974064499541,524.9894736842106,297.59880659739906
173,173,1,1,6,age_56_65,1,1,1,0,1,0,5179.9451900624235,125.68954756606053,524.9894736842106,297.59880659739906
174,174,1,1,6,age_56_65,2,1,1,0,1,0,7935.509930595996,155.73067227893645,524.9894736842106,297.59880659739906
175,175,0,1,4,age_46_55,2,1,0,0,0,0,7182.401749905429,51.08135511240502,524.9894736842106,565.6245974573519
176,176,0,0,8,age_36_45,2,1,1,0,0,0,6890.948118135663,79.50682112891124,524.9894736842106,918.7518712636548
177,177,0,1,3,age_66_75,1,1,1,0,1,0,4427.344665414633,121.0845269058924,524.9894736842106,278.4296526984971
178,178,0,1,8,age_56_65,0,1,1,0,1,0,4708.338775147967,161.24004110027857,524.9894736842106,297.59880659739906
179,179,1,1,2,age_56_65,0,1,1,0,1,0,3038.790428621885,92.76688222722828,524.9894736842106,297.59880659739906
180,180,0,1,4,age_56_65,4,1,0,0,0,0,13957.23007248544,33.82327070611138,524.9894736842106,297.59880659739906
181,181,0,0,4,age_56_65,1,1,1,0,1,0,3200.543900339123,100.37901383163734,524.9894736842106,297.59880659739906
182,182,0,1,8,age_46_55,2,1,0,0,0,0,7993.259741289716,52.23600753189658,524.9894736842106,565.6245974573519
183,183,1,1,4,age_66_75,3,1,1,0,1,0,12564.744308831392,169.88703711684926,524.9894736842106,278.4296526984971
184,184,0,0,5,age_46_55,0,1,1,0,0,0,2410.270796132746,64.41847720836492,524.9894736842106,565.6245974573519
185,185,0,1,9,age_56_65,1,1,1,0,1,0,5773.988883670014,146.5223698772921,524.9894736842106,297.59880659739906
186,186,1,0,6,age_56_65,1,1,1,0,1,0,3992.217239047781,118.077253746096,524.9894736842106,297.59880659739906
187,187,1,0,7,age_36_45,3,1,1,0,1,0,11796.802249685945,126.30634508832462,524.9894736842106,918.7518712636548
188,188,1,0,7,age_66_75,0,1,1,0,0,0,3346.445319805862,20.9170609413936,524.9894736842106,278.4296526984971
189,189,0,0,7,age_26_35,0,1,1,0,0,0,2588.705195179773,28.39606090997375,524.9894736842106,798.4816464892334
190,190,0,1,5,age_46_55,0,1,1,0,1,0,3478.2969447192604,129.06030099481734,524.9894736842106,565.6245974573519
191,191,0,1,5,age_19_25,0,1,1,0,1,0,3127.5850200349046,175.07271568486752,524.9894736842106,895.7464079624334
192,192,1,1,6,age_46_55,3,0,0,0,1,0,12836.373973801512,125.4272676639862,524.9894736842106,565.6245974573519
193,193,0,1,6,age_56_65,3,1,1,0,0,0,12849.02754319083,82.55328134687007,524.9894736842106,297.59880659739906
194,194,0,1,1,age_56_65,1,1,0,0,0,0,3588.3122295471144,33.19145258992411,524.9894736842106,297.59880659739906
195,195,0,1,1,age_46_55,0,1,1,0,1,0,2556.175836783821,127.3040521623016,524.9894736842106,565.6245974573519
196,196,1,1,8,age_56_65,2,1,1,0,0,0,8653.667485916252,56.77446471159728,524.9894736842106,297.59880659739906
197,197,0,0,6,age_46_55,2,1,1,0,0,0,6362.469727116259,21.182804274978725,524.9894736842106,565.6245974573519
198,198,1,1,4,age_56_65,0,1,0,0,0,0,3479.934875969308,46.966445878421574,524.9894736842106,297.59880659739906
199,199,0,1,6,age_46_55,2,1,1,0,0,0,7521.249271626501,87.07413846033603,524.9894736842106,565.6245974573519
200,200,1,0,5,age_46_55,1,1,1,0,1,0,3491.3088213661035,144.36829618105855,524.9894736842106,565.6245974573519
201,201,0,1,3,age_56_65,3,1,1,0,1,0,12127.697356823892,162.15334366053813,524.9894736842106,297.59880659739906
202,202,1,0,2,age_56_65,0,1,1,0,0,0,1987.8112313509878,-10.66812464545036,524.9894736842106,297.59880659739906
203,203,0,0,7,age_46_55,1,1,1,0,0,0,3920.035584171481,24.79727526395168,524.9894736842106,565.6245974573519
204,204,0,1,3,age_56_65,1,1,1,0,1,0,4219.141165292804,159.89938485260524,524.9894736842106,297.59880659739906
205,205,1,0,6,age_56_65,0,1,1,0,1,0,2961.489992984056,123.1330890172715,524.9894736842106,297.59880659739906
206,206,1,1,7,age_46_55,1,1,1,0,0,0,5064.325140755575,69.32956990315246,524.9894736842106,565.6245974573519
207,207,0,0,3,age_36_45,2,1,1,0,0,0,5557.076798114109,10.991158618252282,524.9894736842106,918.7518712636548
208,208,1,1,3,age_36_45,2,1,1,0,0,0,6878.5923522737985,88.71326730671471,524.9894736842106,918.7518712636548
209,209,1,1,9,age_36_45,3,1,1,0,0,0,13494.697598776404,61.14157265777914,524.9894736842106,918.7518712636548
210,210,0,1,2,age_66_75,2,1,1,0,0,0,6862.82131584216,98.28350125277537,524.9894736842106,278.4296526984971
211,211,0,1,7,age_36_45,1,1,1,0,1,0,4829.59111234158,146.1645852212972,524.9894736842106,918.7518712636548
212,212,0,0,6,age_76_85,0,1,1,0,0,0,3157.908812991557,28.115134816881238,524.9894736842106,138.26867629725623
213,213,1,0,10,age_46_55,0,1,0,0,0,0,4000.460774383863,64.33778448349881,524.9894736842106,565.6245974573519
214,214,0,1,4,age_26_35,1,1,0,0,1,0,3877.9336510954936,73.253392295597,524.9894736842106,798.4816464892334
215,215,0,1,8,age_26_35,1,1,1,0,1,0,4942.174844875739,93.16333555804373,524.9894736842106,798.4816464892334
216,216,1,0,3,age_56_65,1,1,1,0,0,0,3370.5061250936574,15.941942252834652,524.9894736842106,297.59880659739906
217,217,0,0,8,age_19_25,0,1,1,0,1,0,2642.168497498179,168.9462709058719,524.9894736842106,895.7464079624334
218,218,1,0,6,age_26_35,3,1,1,0,0,0,11289.134986772651,104.44541423537224,524.9894736842106,798.4816464892334
219,219,1,1,4,age_66_75,1,0,0,0,1,0,4640.14819418564,110.6262997271327,524.9894736842106,278.4296526984971
220,220,0,1,2,age_46_55,3,1,0,0,0,0,11697.075885268201,71.92886042092378,524.9894736842106,565.6245974573519
221,221,0,1,2,age_46_55,1,1,0,0,0,0,3695.2873613462048,54.44211134967309,524.9894736842106,565.6245974573519
222,222,0,1,8,age_26_35,1,1,0,0,1,0,4962.681964324371,93.78645785192109,524.9894736842106,798.4816464892334
223,223,0,1,9,age_46_55,1,0,1,0,0,0,5500.155685245204,64.53633708010304,524.9894736842106,565.6245974573519
224,224,1,1,5,age_66_75,1,1,0,0,1,0,4879.5433607637815,127.22781206481176,524.9894736842106,278.4296526984971
225,225,0,1,7,age_46_55,2,1,0,0,0,0,7798.599930735921,38.68357708841922,524.9894736842106,565.6245974573519
226,226,1,1,5,age_66_75,1,1,1,0,0,0,4956.855350031421,77.44514377941603,524.9894736842106,278.4296526984971
227,227,0,1,9,age_26_35,0,1,0,0,1,0,4328.471514492524,84.28870616000033,524.9894736842106,798.4816464892334
228,228,1,1,6,age_66_75,1,1,1,0,0,0,5284.876057504373,62.45153627045364,524.9894736842106,278.4296526984971
229,229,0,1,6,age_36_45,0,1,1,0,0,0,3744.745144903783,60.35239477525095,524.9894736842106,918.7518712636548
230,230,1,1,9,age_26_35,0,1,1,0,0,0,4490.35732678406,46.87300385440845,524.9894736842106,798.4816464892334
231,231,0,1,9,age_56_65,2,1,1,0,0,0,8510.796881545888,87.21808087373662,524.9894736842106,297.59880659739906
232,232,0,1,5,age_46_55,0,1,0,0,1,0,3577.619859567013,114.46599903610543,524.9894736842106,565.6245974573519
233,233,0,1,2,age_46_55,0,0,1,0,1,0,2800.1309726060326,131.94922451806192,524.9894736842106,565.6245974573519
234,234,0,0,2,age_36_45,1,1,1,0,0,0,2483.1493728811565,35.308528971543495,524.9894736842106,918.7518712636548
235,235,0,1,3,age_26_35,1,1,1,0,0,0,3646.331415465343,68.03417497555884,524.9894736842106,798.4816464892334
236,236,0,0,3,age_46_55,2,1,0,0,1,0,5673.328824477387,123.6918133509645,524.9894736842106,565.6245974573519
237,237,0,1,5,age_56_65,0,1,1,0,0,0,3743.596372649278,75.51671487377374,524.9894736842106,297.59880659739906
238,238,1,0,1,age_46_55,1,1,1,0,1,0,2456.704193507767,105.7999268265728,524.9894736842106,565.6245974573519
239,239,0,0,4,age_56_65,2,1,1,0,1,0,6153.194385002004,115.02019375578895,524.9894736842106,297.59880659739906
240,240,0,1,4,age_36_45,1,1,0,0,1,0,4023.883757613139,120.263498769821,524.9894736842106,918.7518712636548
241,241,0,1,4,age_26_35,0,1,0,0,0,0,2888.3320736878823,86.90250536050779,524.9894736842106,798.4816464892334
242,242,0,0,4,age_56_65,3,1,1,0,0,0,11163.241765966111,4.1268424317516725,524.9894736842106,297.59880659739906
243,243,0,0,5,age_46_55,0,1,1,0,0,0,2378.2920688269,57.53970185348094,524.9894736842106,565.6245974573519
244,244,0,0,5,age_56_65,1,1,1,0,1,0,3524.4552016434736,122.39563961979084,524.9894736842106,297.59880659739906
245,245,0,1,6,age_46_55,1,1,1,0,1,0,4651.591833880506,172.10939377930504,524.9894736842106,565.6245974573519
246,246,0,1,6,age_46_55,2,1,0,0,0,0,7634.380547543106,49.46808175130018,524.9894736842106,565.6245974573519
247,247,0,0,4,age_36_45,1,1,1,0,1,0,3004.338949843097,130.58230358202604,524.9894736842106,918.7518712636548
248,248,1,1,4,age_36_45,0,1,0,0,1,0,3232.5833546259673,116.3374032364208,524.9894736842106,918.7518712636548
249,249,0,1,3,age_56_65,2,1,1,0,0,0,6983.123202134809,71.85145469779602,524.9894736842106,297.59880659739906
250,250,0,0,3,age_66_75,1,1,1,0,0,0,3131.9285425251874,7.976349218616488,524.9894736842106,278.4296526984971
251,251,0,1,3,age_56_65,2,1,0,0,0,0,6978.707736598957,74.56246823534244,524.9894736842106,297.59880659739906
252,252,0,1,5,age_46_55,1,1,0,0,1,0,4538.5819664553,142.03231563819054,524.9894736842106,565.6245974573519
253,253,0,1,6,age_46_55,1,1,1,0,1,0,4727.536063892085,156.25035311287718,524.9894736842106,565.6245974573519
254,254,1,1,6,age_56_65,0,1,1,0,0,0,4313.26384176479,102.80272220545255,524.9894736842106,297.59880659739906
255,255,0,1,3,age_46_55,1,1,1,0,0,0,3936.6871172864758,53.65757559683776,524.9894736842106,565.6245974573519
256,256,0,0,3,age_36_45,3,1,1,0,0,0,10685.719181855611,75.70861384425524,524.9894736842106,918.7518712636548
257,257,0,0,3,age_36_45,0,1,0,0,1,0,1689.1117379538807,95.49150434391359,524.9894736842106,918.7518712636548
258,258,0,1,1,age_36_45,3,1,0,0,1,0,11225.240269652542,121.7915571109988,524.9894736842106,918.7518712636548
259,259,0,0,2,age_36_45,2,1,1,0,0,0,5250.475992390287,61.05676964638418,524.9894736842106,918.7518712636548
260,260,0,1,4,age_86_100,3,1,0,0,0,0,12870.044935364322,51.01493684896398,524.9894736842106,1775.4928800862972
261,261,1,1,4,age_36_45,2,1,0,0,0,0,7036.756433753467,99.42325636190073,524.9894736842106,918.7518712636548
262,262,0,1,6,age_46_55,3,1,0,0,0,0,12672.563892580923,50.05269152782672,524.9894736842106,565.6245974573519
263,263,0,0,6,age_46_55,3,1,1,0,1,0,11595.311337699199,91.8646101724215,524.9894736842106,565.6245974573519
264,264,0,1,6,age_76_85,3,1,1,0,1,0,13146.602308185293,136.1523982733526,524.9894736842106,138.26867629725623
265,265,0,0,6,age_46_55,0,1,1,0,0,0,2659.525869505586,8.174515959371389,524.9894736842106,565.6245974573519
266,266,0,0,6,age_66_75,3,1,0,0,1,0,11986.511583926982,100.7499274001742,524.9894736842106,278.4296526984971
267,267,0,1,8,age_56_65,2,1,1,0,0,0,8171.652745194115,87.06966721039291,524.9894736842106,297.59880659739906
268,268,0,0,6,age_36_45,0,1,1,0,0,0,2532.0071924130866,49.38711421953258,524.9894736842106,918.7518712636548
269,269,0,0,3,age_36_45,3,1,1,0,1,0,10605.370195581872,129.55177147561557,524.9894736842106,918.7518712636548
270,270,0,1,5,age_46_55,1,1,1,0,0,0,4495.60866746543,82.81100694140801,524.9894736842106,565.6245974573519
271,271,0,1,5,age_66_75,1,1,1,0,0,0,4813.248038237238,7.324640693477795,524.9894736842106,278.4296526984971
272,272,0,1,6,age_46_55,1,0,1,0,1,0,4788.004765561027,135.52021704798722,524.9894736842106,565.6245974573519
273,273,0,1,4,age_46_55,3,1,1,0,1,0,12155.7971351693,168.33766277691478,524.9894736842106,565.6245974573519
274,274,0,1,4,age_56_65,0,1,0,0,0,0,3485.3660494743785,71.71311983216327,524.9894736842106,297.59880659739906
275,275,0,1,4,age_46_55,0,0,1,0,0,0,3214.628258979293,57.33904481192057,524.9894736842106,565.6245974573519
276,276,0,0,4,age_36_45,0,1,1,0,0,0,1976.1961924738407,10.701949407668383,524.9894736842106,918.7518712636548
277,277,0,1,3,age_46_55,3,1,1,0,0,0,11857.243197993066,85.92765556200449,524.9894736842106,565.6245974573519
278,278,0,1,6,age_66_75,2,0,1,0,0,0,7963.976573434034,69.48536183106184,524.9894736842106,278.4296526984971
279,279,0,0,9,age_56_65,1,1,0,0,0,0,4614.13544680803,7.282411947184116,524.9894736842106,297.59880659739906
280,280,1,1,6,age_36_45,1,1,1,0,0,0,4771.089985304794,99.85884311133051,524.9894736842106,918.7518712636548
281,281,0,0,6,age_26_35,0,1,0,0,0,0,2415.346425066655,53.80012849834536,524.9894736842106,798.4816464892334
282,282,0,1,5,age_36_45,0,1,1,0,1,0,3520.2685929575987,161.2693187398508,524.9894736842106,918.7518712636548
283,283,1,1,9,age_26_35,0,1,1,0,1,0,4307.6000465000925,146.62381088850313,524.9894736842106,798.4816464892334
284,284,0,1,9,age_36_45,0,1,0,0,0,0,4391.037441847675,64.44752879235253,524.9894736842106,918.7518712636548
285,285,0,1,8,age_56_65,1,1,1,0,0,0,5410.671446227301,48.509621664140425,524.9894736842106,297.59880659739906
286,286,1,1,7,age_36_45,0,1,1,0,1,0,4078.6524831852007,152.84370514526626,524.9894736842106,918.7518712636548
287,287,0,1,7,age_36_45,0,0,1,0,0,0,4006.073180566362,65.55842590433521,524.9894736842106,918.7518712636548
288,288,1,1,7,age_46_55,1,1,0,0,0,0,5138.793012672948,41.23314941246194,524.9894736842106,565.6245974573519
289,289,0,0,7,age_56_65,0,0,1,0,1,0,3150.418682004827,103.18644885745972,524.9894736842106,297.59880659739906
290,290,0,1,7,age_56_65,0,1,1,0,0,0,4290.721069121049,43.871255217192925,524.9894736842106,297.59880659739906
291,291,0,1,5,age_56_65,1,1,0,0,0,0,4728.839919867929,70.47118565961794,524.9894736842106,297.59880659739906
292,292,0,0,3,age_46_55,0,1,0,0,1,0,1921.6599989625147,88.86316912661535,524.9894736842106,565.6245974573519
293,293,0,1,3,age_56_65,0,1,0,0,0,0,3204.427099013984,49.86432272658396,524.9894736842106,297.59880659739906
294,294,0,1,7,age_36_45,2,1,1,0,0,0,7748.269689704896,69.12077863484431,524.9894736842106,918.7518712636548
295,295,0,1,2,age_36_45,0,1,1,0,0,0,2627.9946408657365,82.21487773571282,524.9894736842106,918.7518712636548
296,296,0,1,2,age_36_45,0,0,1,0,1,0,2523.4936398310433,133.53814530061206,524.9894736842106,918.7518712636548
297,297,1,0,8,age_26_35,1,0,1,0,1,0,3934.52768638996,101.5525224642346,524.9894736842106,798.4816464892334
298,298,0,1,5,age_46_55,1,1,0,0,0,0,4457.539843552964,8.079212115527486,524.9894736842106,565.6245974573519
299,299,1,0,6,age_66_75,1,1,0,0,0,0,4099.744182893271,6.178447276098657,524.9894736842106,278.4296526984971
300,300,1,1,4,age_56_65,0,1,1,0,1,0,3642.407177850373,108.43761683684292,524.9894736842106,297.59880659739906
301,301,0,1,4,age_66_75,1,1,1,0,1,0,4680.518313195414,156.61200796438825,524.9894736842106,278.4296526984971
302,302,0,1,5,age_56_65,2,1,0,0,0,0,7548.689378134193,90.3815197599951,524.9894736842106,297.59880659739906
303,303,0,1,5,age_46_55,0,1,0,0,0,0,3527.9539421746254,43.30914868862021,524.9894736842106,565.6245974573519
304,304,0,1,5,age_66_75,2,1,1,0,0,0,7658.9935163058935,60.3137607827637,524.9894736842106,278.4296526984971
305,305,1,1,5,age_66_75,0,1,0,0,0,0,3960.3041725517046,23.445107367927946,524.9894736842106,278.4296526984971
306,306,1,1,4,age_66_75,1,1,1,0,0,0,4633.409145416853,55.55878828668242,524.9894736842106,278.4296526984971
307,307,0,0,6,age_46_55,1,1,0,0,0,0,3653.0567250093486,-44.93222416832798,524.9894736842106,565.6245974573519
308,308,0,1,9,age_56_65,0,1,1,0,0,0,4809.101832454981,87.39027359174742,524.9894736842106,297.59880659739906
309,309,0,1,9,age_56_65,1,1,1,0,0,0,5756.998889534621,81.49540928885537,524.9894736842106,297.59880659739906
310,310,0,1,3,age_46_55,1,0,1,0,1,0,3843.720716384709,134.106702617097,524.9894736842106,565.6245974573519
311,311,0,1,3,age_66_75,0,1,1,1,0,0,3389.623275872208,99.22058204806686,524.9894736842106,278.4296526984971
312,312,1,1,4,age_36_45,1,1,1,0,0,0,4235.067772923012,93.96774887498998,524.9894736842106,918.7518712636548
313,313,0,0,4,age_46_55,3,1,0,0,0,0,11096.988180169255,10.416031549444076,524.9894736842106,565.6245974573519
314,314,0,0,4,age_36_45,0,1,0,0,0,0,2036.7581852605076,8.98288008853162,524.9894736842106,918.7518712636548
315,315,1,0,10,age_46_55,3,1,0,0,1,0,12716.168261574749,87.75946791774517,524.9894736842106,565.6245974573519
316,316,0,1,10,age_76_85,0,1,0,0,0,0,5445.665008944988,32.59275188024142,524.9894736842106,138.26867629725623
317,317,0,1,3,age_46_55,0,1,1,0,0,0,2932.5577901486577,36.3945657209207,524.9894736842106,565.6245974573519
318,318,0,1,4,age_56_65,0,1,1,0,0,0,3554.7674787713117,42.29768135308139,524.9894736842106,297.59880659739906
319,319,0,0,4,age_46_55,1,1,1,0,0,0,3145.730695756293,38.632876218062755,524.9894736842106,565.6245974573519
320,320,0,1,2,age_46_55,3,1,1,0,0,0,11583.720071425923,60.90372523255299,524.9894736842106,565.6245974573519
321,321,0,1,2,age_76_85,2,1,1,0,0,0,7117.869106061273,43.30752416479382,524.9894736842106,138.26867629725623
322,322,0,1,2,age_76_85,1,1,1,0,0,0,4259.465915914103,38.32291641927221,524.9894736842106,138.26867629725623
323,323,0,1,6,age_36_45,0,1,0,0,0,0,3665.727433948695,73.85949250702362,524.9894736842106,918.7518712636548
324,324,0,0,6,age_36_45,0,1,1,0,1,0,2486.845465431637,121.71906372707869,524.9894736842106,918.7518712636548
325,325,0,1,4,age_56_65,1,1,1,0,0,0,4341.151131682213,58.66670675848209,524.9894736842106,297.59880659739906
326,326,1,1,5,age_46_55,0,1,1,0,0,0,3697.815920136159,103.33645162991837,524.9894736842106,565.6245974573519
327,327,0,0,5,age_46_55,2,1,1,0,0,0,6187.854715183244,72.34498791452914,524.9894736842106,565.6245974573519
328,328,0,0,6,age_46_55,2,0,0,0,0,0,6432.542091593484,15.109942295435939,524.9894736842106,565.6245974573519
329,329,1,1,4,age_56_65,1,1,1,0,0,0,4516.899404305337,56.168625942100725,524.9894736842106,297.59880659739906
330,330,0,1,2,age_46_55,1,1,1,0,0,0,3751.716349811024,79.51525490979706,524.9894736842106,565.6245974573519
331,331,0,1,2,age_56_65,1,1,1,0,1,0,3900.778845545835,111.73854248138807,524.9894736842106,297.59880659739906
332,332,1,0,4,age_36_45,2,1,1,0,1,0,5969.538242384359,110.51323637365878,524.9894736842106,918.7518712636548
333,333,0,1,5,age_46_55,1,0,1,0,0,0,4513.006633627912,64.07916412703388,524.9894736842106,565.6245974573519
334,334,1,1,3,age_56_65,0,1,0,0,1,0,3317.832847738052,112.3150059503599,524.9894736842106,297.59880659739906
335,335,0,1,3,age_46_55,1,1,1,0,0,0,4061.1626907486357,67.71234186158945,524.9894736842106,565.6245974573519
336,336,0,1,4,age_46_55,3,1,1,0,1,0,12214.62237749383,155.83928455287975,524.9894736842106,565.6245974573519
337,337,1,0,4,age_46_55,3,1,1,0,0,0,11198.429791985891,74.37649427374367,524.9894736842106,565.6245974573519
338,338,0,1,2,age_76_85,2,1,0,0,0,0,7092.062624367074,47.614947592218854,524.9894736842106,138.26867629725623
339,339,0,1,3,age_66_75,0,1,1,0,0,0,3465.158865784804,9.514758337104134,524.9894736842106,278.4296526984971
340,340,1,0,3,age_56_65,1,1,1,0,0,0,3239.532462115381,58.21661504271051,524.9894736842106,297.59880659739906
341,341,0,1,7,age_36_45,1,1,1,0,0,0,4901.461194923906,82.0257462156447,524.9894736842106,918.7518712636548
342,342,0,1,7,age_46_55,2,1,0,0,1,0,7953.399004351074,96.14906094392704,524.9894736842106,565.6245974573519
343,343,0,0,6,age_56_65,0,1,1,0,0,0,2919.515452190645,38.91170090652117,524.9894736842106,297.59880659739906
344,344,1,0,6,age_46_55,0,0,1,0,1,0,2894.4291953635447,102.9824881992655,524.9894736842106,565.6245974573519
345,345,0,0,6,age_56_65,0,1,0,0,1,0,2922.388836962659,47.62637293308117,524.9894736842106,297.59880659739906
346,346,1,1,6,age_66_75,3,0,1,0,1,0,13112.834630022451,148.52307260845066,524.9894736842106,278.4296526984971
347,347,0,1,3,age_56_65,3,1,1,0,1,0,12132.018803485871,144.49836109360598,524.9894736842106,297.59880659739906
348,348,0,1,3,age_56_65,2,1,1,0,1,0,6882.3395071367,110.53878106887106,524.9894736842106,297.59880659739906
349,349,1,0,6,age_26_35,2,1,1,0,0,0,6273.070610757977,31.49231775133414,524.9894736842106,798.4816464892334
350,350,0,1,7,age_26_35,1,1,1,0,0,0,4720.013450410262,78.9947055092585,524.9894736842106,798.4816464892334
351,351,1,1,2,age_46_55,1,1,1,0,0,0,3805.035722261584,80.52246144510309,524.9894736842106,565.6245974573519
352,352,0,1,6,age_66_75,4,1,1,0,0,0,14752.75148368917,105.64472465493513,524.9894736842106,278.4296526984971
353,353,0,0,4,age_36_45,0,0,1,0,0,0,2053.322619904527,34.07271811560184,524.9894736842106,918.7518712636548
354,354,0,1,6,age_36_45,1,1,1,0,0,0,4499.851048555499,64.02771775142831,524.9894736842106,918.7518712636548
355,355,0,1,7,age_56_65,0,0,0,0,1,0,4159.275317132061,116.06283882694176,524.9894736842106,297.59880659739906
356,356,0,0,7,age_56_65,1,1,0,0,1,0,3922.252801672202,65.73144382663594,524.9894736842106,297.59880659739906
357,357,1,1,5,age_56_65,3,1,1,0,0,0,12765.41273112307,76.81873804742044,524.9894736842106,297.59880659739906
358,358,0,1,8,age_56_65,4,1,1,0,0,0,15146.907850541038,101.39488238028414,524.9894736842106,297.59880659739906
359,359,0,0,8,age_46_55,3,1,1,0,0,0,12103.380872976417,35.944874647080944,524.9894736842106,565.6245974573519
360,360,0,1,5,age_46_55,0,1,0,0,1,0,3536.9636381587043,112.24977987709008,524.9894736842106,565.6245974573519
361,361,0,1,4,age_46_55,0,1,0,0,0,0,3180.575680417917,27.914046695395502,524.9894736842106,565.6245974573519
362,362,0,0,4,age_46_55,0,1,1,0,0,0,2109.4310547785203,25.719001669385573,524.9894736842106,565.6245974573519
363,363,0,1,4,age_56_65,1,1,1,0,0,0,4312.985023233531,88.33344588927433,524.9894736842106,297.59880659739906
364,364,0,1,4,age_56_65,2,1,1,0,1,0,7415.862074723953,162.63451449678132,524.9894736842106,297.59880659739906
365,365,0,1,5,age_36_45,0,1,1,0,1,0,3278.758178305698,125.04554461845764,524.9894736842106,918.7518712636548
366,366,0,0,4,age_36_45,3,1,1,0,1,0,10874.07807108032,141.31497081723128,524.9894736842106,918.7518712636548
367,367,0,1,4,age_26_35,1,1,1,0,1,0,3839.442867810205,156.02734059253726,524.9894736842106,798.4816464892334
368,368,0,0,3,age_56_65,0,1,1,0,1,0,2104.5870710161785,128.11596293101985,524.9894736842106,297.59880659739906
369,369,0,1,2,age_36_45,1,1,1,0,0,0,3516.2909913905714,76.21948503681273,524.9894736842106,918.7518712636548
370,370,0,1,9,age_36_45,3,0,1,0,0,0,13125.986539942207,82.44222264589885,524.9894736842106,918.7518712636548
371,371,0,0,5,age_46_55,1,0,1,0,0,0,3315.869627768452,35.10803492459171,524.9894736842106,565.6245974573519
372,372,0,1,7,age_46_55,1,1,1,1,1,0,5004.17260704482,195.5822570047929,524.9894736842106,565.6245974573519
373,373,0,1,4,age_36_45,0,1,1,0,1,0,3062.159177011129,174.40678589726485,524.9894736842106,918.7518712636548
374,374,0,1,5,age_56_65,1,1,0,0,0,0,4700.829342283836,8.689001678355472,524.9894736842106,297.59880659739906
375,375,0,0,3,age_56_65,0,1,1,0,1,0,2047.1667731069515,69.43833076652218,524.9894736842106,297.59880659739906
376,376,1,0,3,age_46_55,2,1,1,0,0,0,5891.175753340829,24.547957546837853,524.9894736842106,565.6245974573519
377,377,0,1,6,age_46_55,1,1,1,0,0,0,4651.165024036057,82.56482024139034,524.9894736842106,565.6245974573519
378,378,0,1,6,age_36_45,0,1,0,0,0,0,3696.706109185709,51.30302283349529,524.9894736842106,918.7518712636548
379,379,0,1,7,age_56_65,0,1,1,0,0,0,4221.17818391417,23.394018390819173,524.9894736842106,297.59880659739906
380,380,0,1,9,age_56_65,2,1,1,0,1,0,8529.750368537578,103.69370992433932,524.9894736842106,297.59880659739906
381,381,0,0,7,age_66_75,3,1,1,0,1,0,12224.285435353164,63.156554815314685,524.9894736842106,278.4296526984971
382,382,0,0,4,age_76_85,4,1,1,0,0,0,13242.678484314672,62.908469948202,524.9894736842106,138.26867629725623
383,383,0,1,4,age_26_35,3,1,0,0,0,0,11927.836592035039,64.46580746808179,524.9894736842106,798.4816464892334
384,384,0,1,5,age_26_35,2,1,0,0,0,0,7058.591661793525,73.57617181593812,524.9894736842106,798.4816464892334
385,385,0,1,5,age_56_65,1,1,1,0,1,0,4721.280355499044,160.28513630779054,524.9894736842106,297.59880659739906
386,386,0,0,5,age_46_55,1,1,1,0,0,0,3371.398330147088,43.55253505942404,524.9894736842106,565.6245974573519
387,387,0,0,5,age_36_45,3,1,0,0,1,0,11119.680047084817,75.48241625945144,524.9894736842106,918.7518712636548
388,388,1,1,6,age_26_35,1,1,1,0,0,0,4601.508088137285,59.914244191180146,524.9894736842106,798.4816464892334
389,389,1,0,4,age_56_65,1,0,0,0,0,0,3432.711376105731,9.802545114158203,524.9894736842106,297.59880659739906
390,390,1,1,3,age_46_55,2,1,1,0,1,0,6990.467249966551,94.67985313650509,524.9894736842106,565.6245974573519
391,391,0,1,3,age_26_35,2,1,1,0,1,0,6470.122867437987,135.67796425014336,524.9894736842106,798.4816464892334
392,392,0,1,8,age_36_45,4,1,1,0,1,0,14626.040964158272,144.3091649586421,524.9894736842106,918.7518712636548
393,393,0,0,8,age_46_55,0,1,0,0,0,0,3157.5923850099434,21.62144278347415,524.9894736842106,565.6245974573519
394,394,0,1,2,age_19_25,4,1,1,0,0,0,12910.934268235678,112.87374636264522,524.9894736842106,895.7464079624334
395,395,1,0,8,age_36_45,3,1,1,0,0,0,12120.343772447894,36.297804426169684,524.9894736842106,918.7518712636548
396,396,0,0,6,age_46_55,1,0,1,0,1,0,3729.4133187585326,104.24197901340328,524.9894736842106,565.6245974573519
397,397,0,1,7,age_46_55,1,1,1,0,0,0,5050.216001187413,30.252549485351768,524.9894736842106,565.6245974573519
398,398,0,1,7,age_56_65,1,1,0,0,1,0,5251.897483113224,84.63663348647428,524.9894736842106,297.59880659739906
399,399,0,1,7,age_76_85,3,1,1,0,1,0,13566.285214711008,149.4118788424943,524.9894736842106,138.26867629725623
400,400,0,0,7,age_46_55,0,0,1,0,1,0,3044.347301907183,104.31089560393957,524.9894736842106,565.6245974573519
401,401,0,1,6,age_46_55,3,1,0,0,0,0,12779.756314019296,67.87873301658007,524.9894736842106,565.6245974573519
402,402,1,0,4,age_76_85,0,1,0,0,1,0,2990.4820204854213,70.63401788358445,524.9894736842106,138.26867629725623
403,403,0,1,4,age_36_45,0,0,0,0,1,0,3116.406816802889,106.65448506028198,524.9894736842106,918.7518712636548
404,404,0,1,4,age_36_45,1,1,1,0,1,0,4152.253354692567,117.66155690180712,524.9894736842106,918.7518712636548
405,405,0,1,6,age_56_65,1,1,0,0,0,0,4895.705522897548,46.937446084679095,524.9894736842106,297.59880659739906
406,406,0,0,6,age_36_45,0,1,1,0,1,0,2559.7370022115724,80.52819426091794,524.9894736842106,918.7518712636548
407,407,1,0,4,age_46_55,0,1,1,0,0,0,2235.0830577722377,28.31384863412828,524.9894736842106,565.6245974573519
408,408,0,0,6,age_36_45,0,1,1,0,0,0,2551.324068096918,-3.8284192966712993,524.9894736842106,918.7518712636548
409,409,1,1,7,age_56_65,1,0,1,0,0,0,5356.923653360092,69.27686451163875,524.9894736842106,297.59880659739906
410,410,0,0,2,age_46_55,0,1,1,0,1,0,1614.916250784367,96.13177837897337,524.9894736842106,565.6245974573519
411,411,0,0,6,age_56_65,3,1,1,0,0,0,11736.83199560191,35.37793363581013,524.9894736842106,297.59880659739906
412,412,1,1,6,age_46_55,3,1,1,0,0,0,12756.608988661092,64.91331737823866,524.9894736842106,565.6245974573519
413,413,0,1,4,age_76_85,1,1,0,0,0,0,4783.856266641569,27.888523184539427,524.9894736842106,138.26867629725623
414,414,1,1,7,age_46_55,2,1,0,0,0,0,8014.1057816109715,5.831264881183803,524.9894736842106,565.6245974573519
415,415,0,1,7,age_66_75,0,1,1,0,0,0,4454.867871766069,50.135250958234145,524.9894736842106,278.4296526984971
416,416,0,1,7,age_66_75,0,1,1,0,0,0,4389.643637441425,50.3727338330223,524.9894736842106,278.4296526984971
417,417,0,1,7,age_46_55,0,1,0,0,1,0,4138.389659639883,116.53202192753727,524.9894736842106,565.6245974573519
418,418,1,1,3,age_56_65,1,1,0,0,0,0,4275.47387944902,36.782288733271656,524.9894736842106,297.59880659739906
419,419,1,0,6,age_36_45,0,1,1,0,0,0,2740.9413457785195,31.044336011842464,524.9894736842106,918.7518712636548
420,420,0,1,4,age_26_35,1,1,1,0,0,0,4011.463666729751,53.23442228694814,524.9894736842106,798.4816464892334
421,421,0,1,4,age_46_55,0,1,1,0,0,0,3331.7793445014013,44.76674467500556,524.9894736842106,565.6245974573519
422,422,0,1,3,age_56_65,1,1,1,0,0,0,4264.2383893403885,112.46361959036949,524.9894736842106,297.59880659739906
423,423,0,1,3,age_36_45,0,1,1,0,0,0,2835.097165515215,49.40113050022008,524.9894736842106,918.7518712636548
424,424,0,1,3,age_86_100,1,1,0,0,0,0,4697.930399259254,44.50130891948514,524.9894736842106,1775.4928800862972
425,425,0,1,3,age_66_75,1,0,0,0,0,0,4352.7210345485855,41.36270663529701,524.9894736842106,278.4296526984971
426,426,1,0,9,age_66_75,2,1,1,0,1,0,7848.981602107194,128.60084084620738,524.9894736842106,278.4296526984971
427,427,0,1,9,age_66_75,0,1,1,0,1,0,4855.469775791399,137.18989730936147,524.9894736842106,278.4296526984971
428,428,0,1,5,age_46_55,1,1,0,0,1,0,4550.285099160305,89.60331227989279,524.9894736842106,565.6245974573519
429,429,0,0,5,age_76_85,1,1,0,0,0,0,3784.7481919764464,35.40800105190433,524.9894736842106,138.26867629725623
430,430,0,1,5,age_56_65,3,1,1,0,1,0,12539.932955814464,157.68086899700106,524.9894736842106,297.59880659739906
431,431,0,1,5,age_56_65,1,1,1,0,0,0,4574.431238556779,116.38555804048708,524.9894736842106,297.59880659739906
432,432,0,1,5,age_26_35,1,1,1,0,1,0,4132.234214606702,128.83300081998436,524.9894736842106,798.4816464892334
433,433,0,1,5,age_56_65,3,1,1,0,1,0,12759.041331559887,163.4288636430368,524.9894736842106,297.59880659739906
434,434,1,0,4,age_56_65,0,0,1,0,0,0,2545.8096394030554,31.152401452117296,524.9894736842106,297.59880659739906
435,435,0,0,4,age_46_55,3,1,1,0,0,0,10961.151490285762,37.385205021996754,524.9894736842106,565.6245974573519
436,436,1,0,6,age_66_75,3,1,0,0,0,0,12149.102559312458,-10.44141395834749,524.9894736842106,278.4296526984971
437,437,0,0,4,age_36_45,2,1,1,1,1,0,5825.789895871224,121.96530324088673,524.9894736842106,918.7518712636548
438,438,0,0,4,age_36_45,0,1,0,0,1,0,1948.7050169956894,87.26743152230532,524.9894736842106,918.7518712636548
439,439,0,1,5,age_76_85,0,1,0,0,0,0,3982.737293894334,48.060327278696974,524.9894736842106,138.26867629725623
440,440,0,0,4,age_46_55,4,1,1,0,1,0,12849.598737049737,108.54302425551191,524.9894736842106,565.6245974573519
441,441,0,1,6,age_46_55,1,1,1,0,1,0,4720.791324938948,130.94144402789055,524.9894736842106,565.6245974573519
442,442,0,0,7,age_36_45,1,1,1,0,0,0,3777.5779610108643,11.53932480839893,524.9894736842106,918.7518712636548
443,443,0,0,9,age_46_55,0,1,0,0,1,0,3463.758581168345,68.69453988881314,524.9894736842106,565.6245974573519
444,444,0,0,9,age_56_65,3,1,1,0,0,0,12480.309767813671,38.71393856273089,524.9894736842106,297.59880659739906
445,445,1,0,10,age_46_55,2,1,1,0,0,0,7775.1237052961205,44.82856979332347,524.9894736842106,565.6245974573519
446,446,0,1,10,age_36_45,0,1,1,0,1,0,4796.9383740595695,125.13767725625944,524.9894736842106,918.7518712636548
447,447,0,1,9,age_66_75,2,1,1,0,1,0,8800.673741161429,114.32191021130551,524.9894736842106,278.4296526984971
448,448,0,1,6,age_36_45,0,1,1,0,0,0,3691.6704923997368,104.57863524397987,524.9894736842106,918.7518712636548
449,449,1,1,6,age_36_45,0,1,1,0,0,0,3822.8667248318575,92.18867511251312,524.9894736842106,918.7518712636548
450,450,0,0,6,age_56_65,4,1,1,0,1,0,13402.662357116391,139.60856410472988,524.9894736842106,297.59880659739906
451,451,0,1,5,age_56_65,1,1,1,0,1,0,4767.96230837264,150.92990968413162,524.9894736842106,297.59880659739906
452,452,0,1,5,age_56_65,3,1,1,0,0,0,12574.768863045683,84.77114052581167,524.9894736842106,297.59880659739906
453,453,0,1,6,age_76_85,0,1,0,0,0,0,4309.924583590712,50.93341089181332,524.9894736842106,138.26867629725623
454,454,1,1,6,age_26_35,0,1,1,0,0,0,3523.496360572128,54.697333823219346,524.9894736842106,798.4816464892334
455,455,0,1,4,age_56_65,0,1,1,0,0,0,3370.1604873132646,59.958420031291844,524.9894736842106,297.59880659739906
456,456,0,1,5,age_26_35,1,1,1,0,0,0,4110.812088938957,51.993215430546094,524.9894736842106,798.4816464892334
457,457,0,1,2,age_26_35,0,1,0,0,0,0,2313.6887645037923,23.8071672565463,524.9894736842106,798.4816464892334
458,458,0,0,6,age_56_65,1,1,0,0,0,0,3818.3631835594224,29.35903438952022,524.9894736842106,297.59880659739906
459,459,0,0,4,age_56_65,3,1,0,0,0,0,11229.220786091155,20.75055712736424,524.9894736842106,297.59880659739906
460,460,0,0,4,age_56_65,2,0,0,0,1,0,6123.8587430062535,83.8209452474236,524.9894736842106,297.59880659739906
461,461,0,1,4,age_66_75,0,1,1,0,1,0,3520.106766746135,122.38460179124789,524.9894736842106,278.4296526984971
462,462,0,1,4,age_56_65,0,1,1,0,0,0,3455.811682983746,39.657040573006455,524.9894736842106,297.59880659739906
463,463,0,0,2,age_66_75,1,1,1,0,1,0,2905.960490760726,130.89287355570644,524.9894736842106,278.4296526984971
464,464,1,1,2,age_46_55,0,1,1,0,0,0,2969.2380016602674,79.99488281745808,524.9894736842106,565.6245974573519
465,465,0,1,2,age_46_55,2,1,1,0,0,0,6406.128320817978,94.63519398579508,524.9894736842106,565.6245974573519
466,466,0,1,3,age_46_55,0,1,0,0,0,0,3124.290573943205,18.729233286398106,524.9894736842106,565.6245974573519
467,467,0,0,6,age_56_65,3,1,1,0,0,0,11643.376889382529,77.41512377424966,524.9894736842106,297.59880659739906
468,468,1,1,5,age_56_65,1,1,0,0,0,0,4702.309515753146,-21.66181335601252,524.9894736842106,297.59880659739906
469,469,0,1,6,age_36_45,1,1,1,0,0,0,4618.3295860741555,32.959457368116105,524.9894736842106,918.7518712636548
470,470,0,1,3,age_56_65,2,1,1,0,0,0,6908.615149607165,57.01546121447599,524.9894736842106,297.59880659739906
471,471,0,1,3,age_66_75,0,1,0,0,0,0,3407.0944999821045,31.093800363734857,524.9894736842106,278.4296526984971
472,472,0,0,3,age_26_35,0,1,1,0,0,0,1567.6023907333188,-23.122126433555326,524.9894736842106,798.4816464892334
473,473,0,1,6,age_56_65,1,1,1,0,0,0,4993.482938683057,35.172768692111546,524.9894736842106,297.59880659739906
474,474,0,1,6,age_76_85,0,1,1,0,0,0,4462.50181218753,33.567011395006425,524.9894736842106,138.26867629725623
