,wf,Food
2,54.15350743917489,538379.0157715287
19,4.068340952216797,551356.4577367794
24,45.085848458100514,461872.58528952405
25,0.9942711807139357,539431.8891880059
26,16.44927625225921,1285309.42469466
27,16.36441371318172,2143676.756283176
28,56.11106288938578,1085058.3648365177
29,38.33764158889355,601319.596349275
31,55.20993720696143,1054777.1108379166
32,65.1152828158472,1942085.1065782115
33,28.851951397811263,1990876.5730118447
34,24.182637849041043,1118322.572988585
46,30.37684623187515,439573.68988751655
47,22.37684623187515,436511.78134746134
52,1.151012627327308,581788.8207729748
53,42.738470569980336,1753283.929711715
54,31.51379219881207,1995829.3281080641
56,0.1997144678645039,586224.8312329889
62,71.1152828158472,1944144.8646637772
64,22.516935233333726,1322316.235878379
67,1.4751391519444157,1817647.3494401032
68,23.865777658846994,321112.98909740924
70,24.04719541123282,270917.63244610204
74,46.09181767674124,611221.6392355972
75,60.2001453549247,1078094.9065145743
76,11.454931420802076,582834.7890203233
77,10.000292615560376,994590.9364692285
79,13.029289265078312,1385774.2945229264
85,29.093555383502135,1130025.5295322635
86,28.83806785961346,1207615.0527586294
94,16.439722427309192,1999098.869702208
95,14.528804892848072,1991212.1919576384
96,81.11106288938578,1080464.6719769049
98,30.950123639213416,403585.19579939736
99,6.495582616754913,480098.9621254101
100,10.967789804666815,2145903.1060442342
102,0.7784420219671997,767380.9189790819
103,11.03294531331277,426196.90898967907
107,10.298476255896546,1251104.9133221991
111,82.26780433599919,1123901.742382485
112,59.70503268700989,2203028.901488149
113,8.07431017085759,672390.7535726913
114,81.02620035030833,1964126.675201121
115,0.1997144678645039,595409.0501539619
117,30.96548270577705,1211616.8892470466
121,2.8298800010475764,685287.501226855
125,40.065404993289974,1774501.0291089546
132,39.96833322127051,1912015.8300091904
135,73.27425996187452,2165569.2713680603
136,21.792414477899058,1159309.0120581444
138,27.5508104922082,2021322.658456421
139,27.861041173674508,430705.1872840767
140,42.51309012263846,422945.6779681681
142,50.9103999243554,663849.0090210778
148,35.18090014228011,587039.5666242692
154,50.24258990471381,501478.957816721
157,23.596463873922602,2043711.899712842
158,22.73002825353724,1199338.8894940035
159,40.42400765709962,460557.9799294972
160,45.51309012263846,440804.2160679638
161,3.1914237856541945,704927.9135333528
162,34.680132305822426,2435973.611343686
163,26.64516571445978,2072223.4025974663
164,27.207672266568352,2124416.5300005986
167,17.886769700150637,1247587.5990786343
168,36.389314094369155,1934106.685236712
169,14.943862847773886,455391.8308820438
170,12.943862847773886,428464.3862017277
171,21.881496943437938,1146257.1149604593
173,28.617933658854966,556960.7833693171
175,25.21265129320895,2025302.0703657246
176,45.9103999243554,644026.1782268519
180,22.53358767848856,483673.2130890418
182,11.528804892848072,1996360.941460766
185,66.1152828158472,1925549.1413553944
187,10.03294531331277,424238.472008904
188,30.851951397811263,2003268.9171063232
195,8.298476255896546,1266238.40886159
197,14.927150325152326,1165405.79106476
198,15.77040887853893,1129809.5165426095
200,22.528804892848072,1972391.371729884
201,0.04297302125112184,562934.4394415419
202,29.797687234611757,1239936.232227498
203,0.1997144678645039,600964.6052904321
204,64.92964513700002,1116108.8024795754
205,60.12085474142259,1099637.4707863496
210,23.64516571445978,2071453.2223509192
211,59.82131745881654,687035.7461445519
212,35.52288197467527,449041.2343454132
213,39.90723956804436,2001463.255515982
217,52.31122890544222,1784116.000692156
222,6.700755332954344,567297.4444178636
226,10.298476255896546,1258588.404685464
229,31.522881974675272,425036.1242950322
230,51.30700897898083,925373.2051466552
232,18.21265129320895,2032318.0125768755
233,22.528804892848072,1994908.0101891547
234,15.927150325152326,1173736.063297431
235,16.927150325152326,1168173.5273177123
237,63.2001453549247,1046035.1346553956
238,40.085848458100514,480989.66528445703
239,34.19069199431685,603448.7184808712
240,5.07431017085759,680866.2856679909
250,41.51309012263846,435368.98765847366
251,57.24258990471381,495176.6784984488
253,0.8298800010475764,701954.2180289433
258,40.9103999243554,662514.5438110259
259,9.068340952216797,517236.3508077784
261,25.681326413000065,1181306.2438133815
266,17.439722427309192,2022349.6418627216
267,0.04297302125112184,567092.1255691212
270,5.7784420219672,750824.7797947081
271,21.63687503224945,2191527.931004315
282,13.376846231875149,452999.54793998896
284,32.94103386335014,1957522.3857954247
285,42.9103999243554,670300.6100250481
292,12.136277876771715,230737.624281884
295,26.797687234611757,1248557.6736827076
299,12.068340952216797,527458.3177852874
300,12.528804892848072,1983577.56733905
304,8.927150325152326,1171347.5781223078
308,12.927150325152326,1180130.5268649515
310,56.33764158889355,597984.6921430903
316,29.04719541123282,279246.54322366486
317,18.96082934302664,431943.1966329685
318,23.7150054308744,415834.8115524592
319,13.881496943437938,1151786.7590384944
320,28.093555383502135,1135884.9839313072
326,39.82131745881654,680465.1039905834
328,52.75365847774199,624589.6164432829
329,67.92964513700002,1124159.703554902
332,6.857155027593592,766086.6200080124
338,16.44927625225921,1284399.785418089
339,20.528804892848072,1992619.0185679288
341,18.528804892848072,1980919.6414610615
343,42.3960914445197,912398.2141302128
346,24.596463873922602,2027367.6123579524
347,62.248559123354596,647348.5474605454
349,37.283102537666736,2217909.6911315317
355,62.95854136923384,1914593.7408814745
356,77.77290369038656,1108408.1819267215
357,74.00375974394973,2253784.567222588
358,30.755396184502928,1151953.360632525
370,14.865777658846994,307888.09827145713
371,34.55283289113311,926049.1897189972
372,17.454255278899808,1181542.2838124635
375,9.900130823592292,2042230.623772748
377,73.1152828158472,1932679.6789254968
383,20.454255278899808,1179348.4829493607
389,22.776695193308086,340354.5053112305
390,39.31122890544222,1781175.6803808515
391,3.289501473097186,980450.1093481772
394,19.53358767848856,469826.0669721409
397,24.83312496109457,879818.9361711469
398,2.151557639982812,2140335.848346062
399,8.900130823592292,2080577.781705916
403,18.83806785961346,1187512.6100464305
405,44.24258990471381,516537.0835766492
407,7.857155027593592,766891.8845882084
409,2.5727292789796685,1700298.6153799756
411,39.31122890544222,1790001.6777750256
412,23.755396184502928,1159323.61853218
416,17.681326413000065,1163252.6758291514
423,15.26056146006853,1968962.4180958883
425,3.7637583224945317,539251.7732292311
427,27.797687234611757,1241637.702770194
428,28.563259098985526,1016120.1877888859
429,32.47839655990805,1868885.7304116646
433,28.617933658854966,567229.0467042461
434,1.767200046613664,572113.9836550336
439,5.6116728674154785,585275.2984206919
444,9.056872270205673,2102303.509686084
451,15.967789804666815,2135468.2247630167
452,20.22660707061962,1978491.614797649
458,8.068340952216797,525716.2078760441
459,58.84056267146116,1167493.827956656
461,63.95854136923384,1893255.2587827244
462,14.639892957747051,2022851.695502684
465,18.287763766336283,461580.3643590658
466,23.444505212949693,507963.5835445022
469,17.886769700150637,1210767.4024043465
477,3.158771087901787,1279387.0545442118
481,65.8792507557317,1955613.842657084
482,55.75365847774199,641357.4314263525
486,2.9254577844212317,1991333.1235925918
487,7.077979304573216,1172555.8144709882
492,47.9103999243554,646884.4282618611
494,1.1460697288084258,271496.4579706724
496,4.047897487406306,1828747.3732682741
497,60.15448745882887,1780889.4738327463
499,48.82333310905784,863192.2623511069
500,5.0973643875797805,856593.614080577
506,4.110632002325627,607106.6572710872
508,0.04297302125112184,560460.2736223886
510,17.21265129320895,2019205.924270833
511,27.21265129320895,2031783.171084559
512,15.052652343744285,1258946.3331523745
513,31.480133585636096,2163943.7244757544
514,23.64516571445978,2053900.2044692487
518,6.07431017085759,665496.8503697049
520,27.755396184502928,1157753.6319253978
521,28.563259098985526,1016540.8445075386
522,8.03294531331277,413486.9440316753
524,77.59895868577019,1982782.89256926
527,69.77290369038656,1098831.802637885
528,70.5312997046957,1948913.1763598968
529,0.04297302125112184,554081.420218836
530,15.927150325152326,1150287.246509164
533,27.27533124764284,2174650.3495842507
534,78.92964513700002,1134662.9905933235
536,18.640945787998376,1216939.2136492894
537,0.7672000466136639,567219.1866788076
540,20.36441371318172,2139188.206003544
541,17.53358767848856,477319.7295733843
543,22.59152097540371,1726726.4312048345
546,6.406500151216008,515060.7227897869
551,11.056872270205673,2088864.4663975541
555,48.39557488580863,1885916.662152399
556,81.5312997046957,1953065.384389704
557,34.949541524846495,1885962.894687609
569,18.685546339461453,2036422.822170716
571,12.528804892848072,1976446.62326072
576,49.9103999243554,666581.628905914
580,21.53358767848856,480186.3140982318
581,45.78500217180283,2170655.241903971
585,56.2001453549247,1065376.459739241
586,29.001264932102202,2279680.7179048336
587,1.151012627327308,559009.973199881
588,46.24258990471381,503105.7340641649
590,14.596463873922602,2037409.2614161456
592,8.068340952216797,530180.1297334344
593,47.9103999243554,661116.176333206
595,2.5307837345128323,2232237.1610264443
600,20.207672266568352,2121254.181830057
603,29.283508397307514,2397953.8039573864
604,0.7024923586823881,833753.1770100282
606,6.5440138863409665,529974.5621491972
608,8.056872270205673,2100904.716945198
613,8.900130823592292,2086726.454461261
616,20.215849416233027,2341995.5601698947
618,16.685546339461453,2018266.333752167
619,20.886769700150637,1235400.189407085
621,26.556083248920913,2101720.2412196333
622,5.158771087901787,1297940.0282129995
623,20.87847901794035,1349893.8297829998
626,22.63989295774705,1978048.8202448173
630,37.31122890544222,1788056.379528159
631,75.44221723915689,1953518.657605476
632,20.7150054308744,433611.8509000531
633,0.7167431376352935,979669.3662376384
637,64.77290369038656,1111560.665308264
638,65.77290369038656,1095303.7556080185
639,70.68382122484769,1118562.6034051941
640,6.068340952216797,551527.7202471485
641,6.495582616754913,491843.9117487904
644,25.365172813360957,1219169.7055925124
646,19.83806785961346,1180385.0072722144
650,5.599141962430931,536561.7560567396
660,16.41635934864322,2139248.1556121814
662,16.556083248920913,2109290.891049124
663,1.8592338052957693,899290.193934446
664,0.9942711807139357,532211.1019678558
668,44.626947498082956,2063602.5579984847
669,15.927150325152326,1190135.9141259515
671,37.66631371896406,1172022.5857851522
672,57.085848458100514,489110.94636834
673,48.9103999243554,673996.9657324125
674,5.047897487406306,1843606.14849248
675,20.53358767848856,489849.521687971
676,73.92964513700002,1128668.8774340888
679,40.3960914445197,913478.4626123236
686,28.776695193308086,326625.7958026261
688,49.31122890544222,1794440.2263921585
690,79.5312997046957,1927211.6161631048
693,17.886769700150637,1211829.4449391593
696,36.980074555671195,899467.1737041646
697,54.42400765709962,438659.2339969311
698,52.58074910371303,490216.0726344842
699,7.700755332954344,588020.5894342697
700,51.51309012263846,419403.50421397534
702,56.20993720696143,1055249.6422232988
703,10.171900297892826,588752.6195362521
706,26.2039368578462,302146.8184972925
710,3.427330614620262,2131833.728030158
714,7.0472670100977695,831518.8235575354
719,53.664576012203185,634590.6517396659
720,1.767200046613664,563739.4974669779
722,18.886769700150637,1205861.328519535
724,67.59895868577019,1998484.2138069943
726,74.77290369038656,1079127.6216957408
730,27.73002825353724,1186039.246508247
731,61.15350743917489,529530.0425604059
732,10.07431017085759,686187.5191716019
733,0.04297302125112184,557745.750622869
734,12.640945787998376,1206423.3849293722
736,26.19069199431685,584642.0930141254
737,21.64516571445978,2079660.2765520432
739,0.04297302125112184,553211.3169731954
740,83.18517749633565,2219709.0848957268
741,25.151120384624292,2035662.758630802
747,10.960424375783901,2377459.908797522
748,24.516935233333726,1335030.487904382
749,6.817207826261011,2035841.8406371025
751,0.04297302125112184,559292.2474523804
756,3.4955826167549127,497238.91962302173
758,5.6116728674154785,591002.4569988694
761,22.2039368578462,295681.4369277415
762,22.776695193308086,338569.40661766
763,35.581729123366955,1729830.271500096
766,56.772903690386556,1109058.8097098395
767,6.736150971858372,692333.9999459471
771,76.95854136923384,1897482.4266279263
774,12.730028253537242,1182349.7842176692
778,12.068340952216797,533115.8051272475
779,92.68382122484769,1132187.1395326692
780,6.736150971858372,679934.1851010937
782,11.943862847773886,430039.6250713759
785,27.21265129320895,2051853.2294709464
786,30.424709733273176,2038988.3601693131
788,90.5312997046957,1950861.030574508
791,39.55283289113311,949216.3700630141
792,32.75539618450293,1148707.0024490466
794,77.68382122484769,1140230.7453076395
795,13.647068506319492,698541.2153634097
804,20.596463873922602,2041464.4808163287
811,0.1997144678645039,585515.8955337447
812,28.51379219881207,2008163.7197770341
813,35.90723956804436,1998211.8294411453
816,0.1997144678645039,586712.1003467223
817,36.829510791452776,2298655.368892647
818,6.062475174443932,2160762.59936953
819,38.581729123366955,1716697.514107645
820,30.709036212233556,285439.23475654743
822,16.709036212233556,294043.62585403485
826,36.31122890544222,1780965.2975602818
827,24.865777658846994,312919.9064580057
832,26.865777658846994,329720.116299025
833,29.19069199431685,613701.138734564
836,11.77040887853893,1124404.611277165
837,15.528804892848072,1991052.4315786525
843,13.960829343026639,442861.47912141494
845,7.454931420802076,576022.7469886761
847,31.87847901794035,1347066.0092287404
850,57.24258990471381,508892.2090000267
853,74.02620035030833,1938210.7223743547
854,17.36441371318172,2148049.5303104143
855,29.9556115503878,2271411.68271105
856,50.66983156925198,450870.25551084994
859,19.886769700150637,1211136.6884316762
862,26.886769700150637,1226388.8451031093
863,0.04297302125112184,570960.9821336783
866,46.51309012263846,424685.829643114
867,20.182637849041043,1125863.895632368
868,20.182637849041043,1122235.5458597115
869,60.115282815847195,1918893.498721024
870,5.510059496892055,554591.0465327782
873,49.64938810444147,1765155.3382479444
877,25.87847901794035,1342573.6698555665
878,5.07431017085759,675372.5055446997
879,4.7784420219672,773614.2221916887
883,38.31122890544222,1789533.6898218715
887,0.1997144678645039,573636.2162075258
889,39.980074555671195,908578.8340506628
891,20.454255278899808,1179959.501885427
892,3.1914237856541945,712638.8668287308
893,16.528804892848072,1993371.854755325
895,6.647068506319492,731324.831843487
896,21.51379219881207,2020394.831966061
897,67.688041151309,1970476.38520138
901,20.21265129320895,2013260.2933862985
907,20.64516571445978,2060985.2625042847
911,17.927150325152326,1169630.8100867756
912,7.298476255896546,1265139.131344929
914,70.688041151309,1972017.199633069
915,31.90723956804436,2028383.6630071232
920,6.278427473490897,603837.6236002613
921,63.12085474142259,1091120.5695319604
922,19.439722427309192,2019913.541339264
923,22.44927625225921,1285840.4874611434
928,19.207672266568352,2128249.247980531
930,46.55283289113311,935234.4632279432
932,64.77290369038656,1113019.484009031
933,19.927150325152326,1170620.4014455494
934,58.24258990471381,501576.2197365057
935,10.068340952216797,517795.840490281
936,22.53358767848856,466163.4649694471
939,48.39557488580863,1877513.173413908
941,66.688041151309,1960078.1609346743
948,20.865777658846994,322351.1380970301
951,1.9796080290232592,794305.2770146807
952,21.36441371318172,2153146.612817538
953,67.92964513700002,1138087.931412435
954,2.736150971858372,690532.7158915707
957,7.056872270205673,2107630.468665433
959,0.1997144678645039,593442.5949270026
960,47.085848458100514,491353.3447439131
961,22.51379219881207,1997191.3864867063
964,25.865777658846994,316037.8554109814
965,6.758688629869496,1839580.1480777385
966,31.51379219881207,2008129.074742771
968,14.533587678488558,478847.39774742397
969,0.4751391519444157,1778110.8729256466
970,42.581729123366955,1715981.948569431
975,23.27533124764284,2188451.501171249
976,3.4955826167549127,501730.2334458835
982,0.1997144678645039,604681.0350939893
983,30.399341802307504,2056352.490999269
2,159.0,488386.6785927439
4,1.0,371972.7780227211
19,27.0,500159.072375507
24,151.0,418984.4166554968
25,2.0,489341.7851919768
26,57.0,1165959.2638301558
27,56.0,1944621.0574854526
28,227.0,984302.9452445554
29,138.0,545482.7766882709
31,150.0,956833.5219743957
32,200.0,1761748.632395949
33,88.0,1806009.4626607448
34,77.0,1014478.3340682165
46,44.0,398756.13296939
47,52.0,395978.5445080542
52,2.0,527765.57312977
53,108.0,1590478.9933813415
54,81.0,1810502.3190694582
62,194.0,1763617.1272307122
64,68.0,1199529.728261101
67,1.0,1648865.8098492364
68,58.0,291295.35439550696
70,62.0,245760.99514753543
74,147.0,554465.3441637204
75,206.0,977986.0937667924
76,29.0,528714.4157541505
77,30.0,902236.0637970858
79,18.0,1257095.2528886546
85,89.0,1025094.5875042676
86,57.0,1095479.3692881854
94,68.0,1813468.2603727174
95,53.0,1806313.9169901435
96,202.0,980135.8095790494
98,79.0,366109.42761802475
99,12.0,435518.3442137649
100,41.0,1946640.6747686982
102,9.0,696124.1193595957
103,20.0,386621.4817263517
107,26.0,1134930.8856565664
111,201.0,1019539.4377326828
112,114.0,1998461.9320642494
113,20.0,609954.46931237
114,201.0,1781743.4839324455
117,77.0,1099109.6066741066
121,5.0,621653.6618272185
125,140.0,1609725.9335488374
132,164.0,1734471.5029369085
135,236.0,1964480.6961695976
136,68.0,1051658.8895098881
138,61.0,1833628.4115997534
139,99.0,390711.1341791267
140,141.0,383672.1507282668
142,138.0,602205.8867548348
148,141.0,532528.7497234442
154,146.0,454913.0545908826
157,61.0,1853938.6518823637
158,60.0,1087971.7068981316
159,160.0,417791.8817931867
160,138.0,399872.39600451
161,11.0,639470.3215623986
162,82.0,2209776.061718915
163,55.0,1879802.6580705587
164,45.0,1927149.2807862572
167,65.0,1131740.1791641896
168,93.0,1754511.0644647316
169,33.0,413105.44658585405
170,35.0,388678.4074829959
171,51.0,1039818.9542855595
173,74.0,505242.9963421662
175,59.0,1837238.3066889073
176,143.0,584223.7473915013
180,52.0,438760.70044505934
182,56.0,1810984.5683251233
185,199.0,1746748.1496581077
187,21.0,384844.8996080772
188,86.0,1817251.0890893075
195,28.0,1148659.1280387281
197,54.0,1057189.539037318
198,53.0,1024898.6328636529
200,45.0,1789240.7443549663
202,70.0,1124799.2963778018
204,214.0,1012470.1279636148
205,162.0,997528.2770704743
210,58.0,1879103.994561191
211,146.0,623239.5697168435
212,87.0,407344.5482990534
213,94.0,1815613.0960752121
217,111.0,1618448.08634217
222,17.0,514619.824579062
226,26.0,1141719.4813932423
229,91.0,385568.48418192205
230,130.0,839445.69324018
232,66.0,1843602.76855188
233,45.0,1809666.5521001618
234,53.0,1064746.285991241
235,52.0,1059700.271209639
237,203.0,948903.3007231089
238,156.0,436326.33922232885
239,81.0,547414.1946219332
240,23.0,617642.9877131061
250,142.0,394941.8673759011
251,139.0,449195.98692359286
253,7.0,636772.7549262557
258,148.0,600995.3361714307
259,22.0,469207.26108991326
261,60.0,1071613.5211735675
266,67.0,1834560.0322611833
270,4.0,681105.3359566281
271,74.0,1988028.9088396288
282,61.0,410935.3042027043
284,67.0,1775752.4499715639
285,146.0,608058.4105227223
292,57.0,209311.98774142333
295,73.0,1132620.1754121704
299,19.0,478480.0454195107
300,55.0,1799388.221800424
304,60.0,1062579.5887252362
308,56.0,1070546.9779417773
310,120.0,542457.5421583748
316,57.0,253316.5070671817
317,43.0,391834.18551705
318,55.0,377221.57905115944
319,59.0,1044835.1314134913
320,90.0,1030409.9497091144
326,166.0,617279.0586200292
328,136.0,566592.009202121
329,211.0,1019773.4453676611
332,28.0,694950.0052929827
338,57.0,1165134.091057838
339,47.0,1807590.1097009068
341,49.0,1796977.1033253917
343,122.0,827675.5228181216
345,3.0,495442.36365225184
346,60.0,1839112.0483532853
347,131.0,587237.6109106377
349,85.0,2011960.9340978896
355,202.0,1736810.0363710518
356,201.0,1005484.5650335259
357,248.0,2044504.5716947764
358,83.0,1044986.2628595049
370,67.0,279298.4891462504
371,130.0,840058.9078165189
372,68.0,1071827.6431727346
375,25.0,1852594.92299385
377,192.0,1753216.5658824148
383,65.0,1069837.5523897773
389,76.0,308750.1583894734
390,124.0,1615780.7957740582
391,13.0,889408.3134801321
394,55.0,426199.36075329926
397,66.0,798121.4635266833
398,12.0,1941590.3767139276
399,26.0,1887381.2734046523
403,67.0,1077243.5819706905
405,152.0,468572.92581596033
407,27.0,695680.4953050176
409,9.0,1542413.743951835
411,124.0,1623787.2362673446
412,90.0,1051672.1396684777
416,68.0,1055236.3559307302
423,27.0,1786130.193558413
425,22.0,489178.3942865168
427,72.0,1126342.7732272474
428,85.0,921766.1703513465
429,80.0,1695346.3411591528
433,74.0,514557.77808170894
434,1.0,518989.11374420905
439,35.0,530928.3064244847
444,26.0,1907089.6123580905
451,36.0,1937174.746749308
452,40.0,1794774.5362807245
458,23.0,476899.70285898284
459,237.0,1059083.6867892523
461,201.0,1717452.9847529
462,57.0,1835015.4666345776
465,73.0,418719.3305257239
466,68.0,460795.53650108416
469,65.0,1098339.0007525142
477,20.0,1160586.8280508206
481,155.0,1774021.1286960691
482,133.0,581802.8127939055
486,5.0,1806423.619258994
487,19.0,1063675.6316986822
492,141.0,586816.5884946883
494,7.0,246286.07258768138
496,11.0,1658935.1171790774
497,103.0,1615521.1655482769
499,103.0,783038.6951327898
500,11.0,777052.7784873806
506,13.0,550732.4676673433
510,67.0,1831708.231302827
511,57.0,1843117.5909124215
512,38.0,1142044.1736453683
513,64.0,1963006.0929172914
514,58.0,1863180.8997685327
518,22.0,603700.7142639465
520,86.0,1050247.937532325
521,85.0,922147.7660889814
522,23.0,375091.72780016257
524,217.0,1798667.3382592571
527,209.0,996797.4209643672
528,207.0,1767942.6671264777
530,53.0,1043474.8593333132
533,62.0,1972718.5314085702
534,200.0,1029301.4271810863
536,81.0,1103937.7152389982
537,2.0,514548.8336300612
540,52.0,1940549.3011603577
541,57.0,432997.18325585575
543,67.0,1566387.5483072428
546,29.0,467233.65567359235
551,24.0,1894898.480232067
555,143.0,1710795.8292382478
556,196.0,1771709.3129820887
557,91.0,1710837.7687523311
569,49.0,1847326.4172548638
571,55.0,1792919.4368150816
576,139.0,604684.7633646505
580,53.0,435597.58493196743
581,144.0,1969094.398012888
585,210.0,966448.6456205972
586,83.0,2067996.0798136704
587,2.0,507101.90425989206
588,150.0,456388.77304392104
590,70.0,1848221.2585703607
592,23.0,480949.11768675834
593,141.0,599726.8171022654
595,6.0,2024957.9960739887
600,52.0,1924280.5792315516
603,67.0,2175286.6650184863
604,6.0,756333.2391448113
606,17.0,480762.6385210575
608,27.0,1905820.7075145724
613,26.0,1892958.9979755725
616,59.0,2124524.5438684043
618,51.0,1830855.88847518
619,62.0,1120684.45753357
621,72.0,1906560.504534953
622,18.0,1177417.025593221
623,76.0,1224546.545588864
626,49.0,1794372.8583649413
630,126.0,1622022.572857687
631,219.0,1772120.4965421103
632,58.0,393347.8933164767
633,3.0,888700.0679441434
637,214.0,1008344.3178153539
638,213.0,993596.9783015596
639,225.0,1014696.0759461403
640,25.0,500314.4319384847
641,12.0,446172.691372117
644,77.0,1105961.0900732076
646,66.0,1070777.8280255087
650,19.0,486738.1644228995
660,46.0,1940603.6840196217
662,82.0,1913428.1654517052
663,5.0,815784.6759262474
664,2.0,482791.4996422692
668,163.0,1871982.320470054
669,53.0,1079623.2935285417
671,93.0,1063191.9171051022
672,139.0,443693.5013484227
673,140.0,611411.5332001171
674,10.0,1672414.1489896069
675,54.0,444363.49467408797
676,205.0,1023863.9102437806
679,124.0,828655.4625126078
686,70.0,296296.25762095366
688,114.0,1627813.633941458
690,198.0,1748256.2518051022
693,65.0,1099302.4250519518
696,115.0,815945.2218602065
697,146.0,397926.59084007324
698,148.0,444696.0087469964
699,16.0,533418.6775582304
700,132.0,380458.8931083919
702,149.0,957262.175445421
703,27.0,534082.7334364572
706,60.0,274090.3282082582
710,8.0,1933877.7389987863
714,19.0,754306.36137005
719,152.0,575664.3769352683
720,1.0,511392.2584164728
722,64.0,1093888.4908712925
724,227.0,1812910.6796677734
726,204.0,978922.9139668506
730,55.0,1075907.0307610526
731,152.0,480359.39575122535
732,18.0,622470.106677096
734,87.0,1094398.3563287877
736,89.0,530353.8986628137
737,60.0,1886548.965157925
740,243.0,2013593.2412982665
741,69.0,1846636.931043656
747,32.0,2156695.7744091805
748,66.0,1211063.3711704037
749,18.0,1846799.3840065144
756,15.0,451066.7342294554
758,35.0,536123.657420403
761,64.0,268225.30349873693
762,76.0,307130.8188603059
763,115.0,1569203.1748608013
766,222.0,1006074.7773796401
767,17.0,628045.8428081091
771,188.0,1721287.629869619
774,70.0,1072560.1613974571
778,19.0,483612.1946511459
779,203.0,1027055.4765760642
780,17.0,616797.4393417065
782,36.0,390107.374171891
785,57.0,1861324.0010200727
786,99.0,1849653.7267250197
788,187.0,1769709.649164018
791,125.0,861074.8499857342
792,81.0,1042041.3522216352
794,218.0,1034352.1761005016
795,27.0,633676.6739368074
804,64.0,1851899.9218833838
812,84.0,1821691.3743691666
813,98.0,1812663.588135896
817,120.0,2085208.798924044
818,25.0,1960120.3579995022
819,112.0,1557289.8877976495
820,51.0,258934.16295772517
822,65.0,266739.5748818745
826,127.0,1615589.9485011129
827,57.0,283863.0580011909
832,55.0,299103.2483569727
833,86.0,556714.6044234973
836,57.0,1019995.611658571
837,52.0,1806168.9915034918
843,48.0,401738.62748871214
845,33.0,522534.9204825848
847,65.0,1221981.3083717858
850,139.0,461637.93245002424
853,208.0,1758234.0124395932
854,55.0,1948587.7882101615
855,86.0,2060494.8836021668
856,133.0,409003.73178484244
859,63.0,1098673.9959344491
862,56.0,1112509.8809149633
866,137.0,385250.71689053916
867,81.0,1021319.3910379339
868,81.0,1018027.9594584525
869,205.0,1740710.5309826431
870,36.0,503093.30649759166
873,118.0,1601248.0568392067
877,71.0,1217906.1147975496
878,23.0,612659.344315549
879,5.0,701778.6158453176
883,125.0,1623362.704338412
889,112.0,824210.7994602441
891,65.0,1070391.8338532087
892,11.0,646465.257766063
893,51.0,1808273.039670902
895,34.0,663416.0974580203
896,91.0,1832786.7404263553
897,210.0,1787503.578004109
901,64.0,1826314.6947147136
902,1.0,381655.73144902795
907,61.0,1869608.0595574584
911,51.0,1061022.2348644321
912,29.0,1147661.9262914713
914,207.0,1788901.3168099984
915,102.0,1840033.751442176
920,19.0,547766.9871230941
921,159.0,989802.2309325641
922,65.0,1832350.1410720467
923,51.0,1166441.0136254658
928,53.0,1930626.1035251957
930,118.0,848391.2630710627
932,214.0,1009667.674779621
933,49.0,1061919.9355970342
934,138.0,455001.2850466873
935,21.0,469714.7981590406
936,52.0,422876.8575079985
939,143.0,1703172.6644540452
941,211.0,1778070.9031335975
948,61.0,292418.5324165916
951,7.0,720548.358434746
952,51.0,1953211.5701987667
953,211.0,1032408.3377812803
954,21.0,626411.8208444963
957,28.0,1911921.9251465
960,149.0,445727.6770176926
961,90.0,1811737.900598655
964,56.0,286691.4831228188
965,32.0,1668761.99147052
966,81.0,1821659.9463737994
968,60.0,434382.9965280203
969,2.0,1613000.577582551
970,108.0,1556640.767630841
975,66.0,1985238.1474910616
976,15.0,455140.99748305144
983,68.0,1865405.4739779083
