,wf,Food
0,21.104066627473223,838075.8557391652
1,30.822280624852574,651641.4151171389
2,50.878464347552125,538379.0157715287
3,26.508676168370975,741892.2500052062
4,37.2059563575329,410048.73167859024
5,17.459960290057996,545562.8896799848
6,18.997377726831484,663458.035246002
7,21.178101181592496,1961087.2149991163
8,8.879547162835989,490703.6075088413
9,23.181105513477476,1044677.4169281862
11,29.633500233506773,1035948.9697889913
13,46.37344406808476,937022.84967089
14,60.84893453616162,218496.7647209989
16,40.37344406808476,932201.1295476223
17,19.831243595733504,2011731.8660230488
18,14.28415670373375,365551.2812963522
19,22.869260723536392,551356.4577367794
20,27.633500233506773,1010701.37314074
22,31.977353487480784,1927527.902512101
23,20.52505423631686,698264.6225755451
24,71.02457423929941,461872.58528952405
25,26.401814319314205,539431.8891880059
26,45.74592863839163,1285309.42469466
27,33.32158233772083,2143676.756283176
28,91.32538115411708,1085058.3648365177
29,68.03037672905765,601319.596349275
31,63.192047218691314,1054777.1108379166
32,82.24789243930529,1942085.1065782115
33,48.54497364357155,1990876.5730118447
34,47.51692522421308,1118322.572988585
35,33.1516543469997,509448.29119770974
37,21.178101181592496,1969542.1835701568
39,24.367962548741424,581314.9109559432
40,18.167965196032014,730536.6093857329
41,7.805938443156604,363093.2705536641
43,23.449796054545715,299757.8116070703
44,22.556011518694948,1895028.378703136
45,31.355263824583247,1844660.4223832563
46,61.96213139168002,439573.68988751655
47,64.96213139168002,436511.78134746134
49,41.37344406808476,928728.12059386
50,17.695528681277462,596775.6399055162
51,12.992496871026088,490543.81562144787
52,17.602562013425914,581788.8207729748
53,70.10441128317696,1753283.929711715
54,41.1678147422929,1995829.3281080641
56,18.40093865606677,586224.8312329889
59,8.992496871026088,503523.6986414953
60,8.886976751665525,528066.9888820098
61,6.797994847315724,1402769.5850946654
62,77.24789243930529,1944144.8646637772
64,35.59981874664432,1322316.235878379
65,26.0243335861646,1805429.261941437
66,17.725779567408075,345676.3069146427
67,40.40149248744325,1817647.3494401032
68,52.08184077728281,321112.98909740924
69,23.582710722490255,1831479.6117338703
70,66.25825198444973,270917.63244610204
71,43.602447482263315,1078285.9692529305
72,0.8338335277697856,597030.1863630669
74,87.48277144908695,611221.6392355972
75,103.67223873997611,1078094.9065145743
76,39.536675026537935,582834.7890203233
77,27.969967283279907,994590.9364692285
78,10.091921373752545,2218305.0959010664
79,31.478806307312347,1385774.2945229264
85,56.17006763835407,1130025.5295322635
86,32.52621002696494,1207615.0527586294
90,3.24375753676961,1348798.5805304395
91,35.28122927046393,735228.3871013253
94,41.70036833807072,1999098.869702208
95,40.047225923929695,1991212.1919576384
96,99.32538115411708,1080464.6719769049
97,0.6216678738720717,1264974.9892675295
98,64.99241569228994,403585.19579939736
99,35.59327721067404,480098.9621254101
100,14.847972808286691,2145903.1060442342
101,7.1451208591519535,1408353.4203897503
102,23.135119378716677,767380.9189790819
103,24.00324199799971,426196.90898967907
104,2.945734806881491,1902827.472622395
105,7.896276375389185,632275.1271786572
106,17.695528681277462,609412.8115227469
107,19.819924388928214,1251104.9133221991
110,6.142760445960599,2391099.545763013
111,80.5261288482288,1123901.742382485
112,43.10112499776828,2203028.901488149
113,43.32745793332396,672390.7535726913
114,69.90103485344628,1964126.675201121
115,15.40093865606677,595409.0501539619
116,0.3193959231237469,1135972.0539610854
117,49.347414473598775,1211616.8892470466
119,24.411159521791532,542957.8766703602
120,11.497133486801623,2217938.382011328
121,20.676170733105288,685287.501226855
122,32.08534009957798,519048.7697636601
123,27.659013147759673,188622.0187756553
124,11.983876422121488,342008.41824370384
125,66.83278951606859,1774501.0291089546
126,22.729586456695642,990440.0458884756
127,28.977353487480784,1925522.959051512
130,32.25067902878417,2127059.558989942
132,71.56695322390881,1912015.8300091904
133,32.1516543469997,529744.30658212
134,5.223971215805014,1078911.5069444
135,100.19333131206463,2165569.2713680603
136,45.728444774679744,1159309.0120581444
137,30.1516543469997,522224.58539700345
138,41.10335077989721,2021322.658456421
139,64.64555810643093,430705.1872840767
140,70.74859072643706,422945.6779681681
141,3.5708288016640193,1058940.0023891982
142,57.306360241920046,663849.0090210778
144,27.181105513477476,1011729.0189272728
145,1.84901571489777,297945.92745614954
148,78.82962903494598,587039.5666242692
149,37.0992205366949,1673279.9146311663
150,18.20139213236908,1643685.450391546
151,46.929972844670544,365521.5396920496
153,26.759837777233194,616562.5206006989
154,56.225321933411166,501478.957816721
157,30.901116032182415,2043711.899712842
158,46.12383897549408,1199338.8894940035
159,83.40173314057806,460557.9799294972
160,83.74859072643706,440804.2160679638
161,31.554640677919856,704927.9135333528
162,38.46776890459186,2435973.611343686
163,32.699492674823254,2072223.4025974663
164,47.1208346436091,2124416.5300005986
165,25.822280624852574,658759.1131802867
167,30.32458666960578,1247587.5990786343
168,39.95493843089723,1934106.685236712
169,29.656384412140717,455391.8308820438
170,22.656384412140717,428464.3862017277
171,40.07530236053873,1146257.1149604593
173,73.07345400079883,556960.7833693171
174,3.5906151226286127,1343497.7472352355
175,29.726191878618593,2025302.0703657246
176,58.306360241920046,644026.1782268519
177,16.378921981549073,368185.05678520893
180,50.16287908579173,483673.2130890418
182,37.047225923929695,1996360.941460766
183,20.03045790779385,709951.1203091028
184,7.896276375389185,629498.8422179803
185,74.24789243930529,1925549.1413553944
186,19.046319269740877,358210.7089837037
187,22.00324199799971,424238.472008904
188,47.54497364357155,2003268.9171063232
190,10.879547162835989,510391.05076988117
191,21.459960290057996,534420.4954337855
193,27.449796054545715,303005.94425824465
194,9.257457499938454,405000.7966698174
195,24.819924388928214,1266238.40886159
197,29.873067612823952,1165405.79106476
198,46.67231991871222,1129809.5165426095
200,41.047225923929695,1972391.371729884
201,34.200190961955045,562934.4394415419
202,40.977729083746816,1239936.232227498
203,21.40093865606677,600964.6052904321
204,77.14896994695015,1116108.8024795754
205,63.84518963283233,1099637.4707863496
206,8.896276375389185,639319.2798460394
209,24.60830151766904,663789.2930861829
210,25.699492674823254,2071453.2223509192
211,66.95950265606102,687035.7461445519
212,57.268399205152264,449041.2343454132
213,59.5696586346515,2001463.255515982
214,15.28415670373375,386940.2856180077
215,6.805938443156604,372793.0904144273
216,17.67879946872427,455931.2196737496
217,62.38039479603931,1784116.000692156
218,18.19753580488845,2213418.5190493744
219,37.04993133467247,2092651.000906989
220,10.28415670373375,382809.3373145626
222,28.084280306508624,567297.4444178636
223,17.64332005367268,2488235.535420423
226,23.819924388928214,1258588.404685464
228,8.89105008002786,2064881.9019329788
229,51.268399205152264,425036.1242950322
230,77.45788351085112,925373.2051466552
231,11.237907665886862,2052255.9393623213
232,34.72619187861859,2032318.0125768755
233,39.047225923929695,1994908.0101891547
234,34.87306761282395,1173736.063297431
235,34.87306761282395,1168173.5273177123
236,16.949419599284926,555399.1446832814
237,97.67223873997611,1046035.1346553956
238,70.02457423929941,480989.66528445703
239,56.3494375136612,603448.7184808712
240,34.32745793332396,680866.2856679909
242,3.279617776554028,887585.4231688072
244,21.92662772953358,740861.9012633059
246,21.475695538688186,1057584.6107945978
249,6.038098975037752,2325298.464078313
250,71.74859072643706,435368.98765847366
251,57.225321933411166,495176.6784984488
252,23.68360032193484,726604.348816072
253,17.676170733105288,701954.2180289433
254,6.11170769471714,2478872.912993989
256,11.33849580844737,566687.4438285427
257,19.556011518694948,1865192.246720744
258,68.30636024192005,662514.5438110259
259,29.869260723536392,517236.3508077784
261,39.32546233285325,1181306.2438133815
263,22.686229057553806,470841.7878282844
264,28.903744767801392,1819638.3329190684
265,13.444015927807925,532661.3071209629
266,37.70036833807072,2022349.6418627216
267,28.200190961955045,567092.1255691212
268,30.281229270463932,737680.0041008869
269,22.02302831896431,687789.6664900102
270,19.135119378716677,750824.7797947081
271,47.853194696676354,2191527.931004315
272,32.967217501920295,736113.6500340148
273,20.755268670722607,750188.3243341562
277,19.178101181592496,1956226.205202817
279,19.428558178020786,1994155.932595305
280,1.8287486774169344,2388632.54445144
282,69.96213139168002,452999.54793998896
284,49.891831229430565,1957522.3857954247
285,70.30636024192005,670300.6100250481
288,7.805938443156604,347961.1206031243
289,10.257457499938454,396338.71753100783
290,53.84893453616162,201311.5648068439
292,69.60510957030873,230737.624281884
293,43.74835007330224,1782369.1153918786
295,31.977729083746816,1248557.6736827076
297,23.181105513477476,1037359.2421305828
299,27.869260723536392,527458.3177852874
300,39.047225923929695,1983577.56733905
301,3.0715121394725653,1258931.3994828179
304,30.873067612823952,1171347.5781223078
307,34.48285262782311,722387.2042366534
308,33.87306761282395,1180130.5268649515
309,31.82971021368212,681813.3046205784
310,74.03037672905765,597984.6921430903
311,0.5170064029492277,1190254.7292026915
312,31.482852627823107,689516.1378588403
316,82.25825198444973,279246.54322366486
317,59.88689557292936,431943.1966329685
318,69.33929029295864,415834.8115524592
319,46.07530236053873,1151786.7590384944
320,55.17006763835407,1135884.9839313072
321,9.257457499938454,418649.662465614
322,14.96058547134491,653001.8282074964
323,2.353652330673314,2025526.285647913
325,24.582710722490255,1823326.1780022727
326,64.95950265606102,680465.1039905834
328,63.105612547808306,624589.6164432829
329,70.14896994695015,1124159.703554902
330,8.11170769471714,2459370.581675658
332,33.15794718270965,766086.6200080124
333,10.630457098039095,828568.6842262606
335,2.6700848310428205,2485041.7072290475
338,44.74592863839163,1284399.785418089
339,38.047225923929695,1992619.0185679288
340,28.916144884565135,1113155.8754107985
341,42.047225923929695,1980919.6414610615
343,67.80474109671015,912398.2141302128
344,28.530834363054637,473161.7920070064
345,27.427637859862067,546156.9363095689
346,28.901116032182415,2027367.6123579524
347,69.6835191431987,647348.5474605454
348,12.066105590705469,634723.6813464704
349,49.3282143682962,2217909.6911315317
350,10.991638222588367,583595.4887816444
353,9.257457499938454,395065.8251985085
355,86.04714474519355,1914593.7408814745
356,79.94822225283846,1108408.1819267215
357,84.6700625190387,2253784.567222588
358,46.79290873707542,1151953.360632525
359,1.5906151226286127,1321651.5498421695
361,23.364659609462002,2075629.146752677
363,25.181105513477476,1016388.0282107977
364,10.805938443156604,356904.73415374063
365,0.84901571489777,305246.5141563716
366,16.28415670373375,378016.87945479545
367,20.459960290057996,533271.1826624157
369,21.20915393283596,1907143.1056986172
370,53.08184077728281,307888.09827145713
371,67.00548879082184,926049.1897189972
372,39.35128587340112,1181542.2838124635
373,4.590615122628613,1315531.043720975
375,26.994082700033978,2042230.623772748
377,68.24789243930529,1932679.6789254968
378,5.896276375389185,646704.6210777841
379,24.508676168370975,712702.4740136468
380,7.977314683898099,798723.6415050413
382,7.7044916521583815,1934276.4047209572
383,40.35128587340112,1179348.4829493607
384,25.729586456695642,998327.2130120085
385,19.729586456695642,989114.1763782988
387,33.52883876258392,964912.2173049946
388,26.903744767801392,1798145.8724223743
389,50.73498319142382,340354.5053112305
390,60.38039479603931,1781175.6803808515
391,36.30256999508812,980450.1093481772
392,7.459080857297602,385490.68081626756
393,9.051349238017375,1927642.012697953
394,53.16287908579173,469826.0669721409
395,18.806817875917005,487464.6320938068
396,15.725779567408075,356245.7774464069
397,65.04856606256301,879818.9361711469
398,29.728897289361328,2140335.848346062
399,30.994082700033978,2080577.781705916
400,5.630457098039095,830531.6042996711
401,8.992496871026088,498135.506999523
403,31.52621002696494,1187512.6100464305
404,20.03045790779385,719901.518405017
405,60.225321933411166,516537.0835766492
407,32.15794718270965,766891.8845882084
409,27.375204049557254,1700298.6153799756
410,31.649427580947112,969662.8281491259
411,68.38039479603931,1790001.6777750256
412,37.79290873707542,1159323.61853218
415,20.258333163185892,356953.1154610161
416,41.32546233285325,1163252.6758291514
417,27.382728870836637,1014037.0096478787
418,16.60519074904488,344058.65522843844
423,44.103753733387265,1968962.4180958883
424,17.599681068764426,504912.75585465104
425,27.662123916383848,539251.7732292311
427,32.977729083746816,1241637.702770194
428,51.72614231742705,1016120.1877888859
429,34.301796016756214,1868885.7304116646
430,4.523031196254412,1307820.6329420828
431,37.23269265550864,685158.105321227
432,35.23269265550864,665051.473278332
433,72.07345400079883,567229.0467042461
434,22.427637859862067,572113.9836550336
435,6.4896180318195995,2368471.039174559
438,8.549418789530176,667012.9253475912
439,25.73742272064961,585275.2984206919
440,10.552047525149145,417552.2777949575
441,0.8338335277697856,593338.4945815777
444,21.194830394145693,2102303.509686084
447,1.9457348068814908,1919391.22421538
448,21.916144884565135,1106537.5617431805
449,17.949419599284926,560846.2177577426
451,19.84797280828669,2135468.2247630167
452,45.89854951770697,1978491.614797649
453,34.181981176724946,979736.7315246351
455,8.257457499938454,400605.4101647461
456,15.806817875917005,500123.3291397685
458,24.869260723536392,525716.2078760441
459,71.80211236109116,1167493.827956656
460,0.5170064029492277,1204658.3564378521
461,91.04714474519355,1893255.2587827244
462,45.450208365756225,2022851.695502684
464,27.539321607552388,583107.711385341
465,60.61527380582102,461580.3643590658
466,48.8160214999327,507963.5835445022
467,8.991638222588367,601517.8426605548
469,35.32458666960578,1210767.4024043465
470,27.748671905173175,512100.8869741174
471,24.729586456695642,997516.4406969728
472,20.949419599284926,549633.5164228522
475,18.686229057553806,488063.56321801647
476,41.37344406808476,919836.3904607823
477,51.52136596320004,1279387.0545442118
479,7.896276375389185,634786.2514096817
481,70.2200956380498,1955613.842657084
482,64.1056125478083,641357.4314263525
483,15.695528681277462,617397.6736070657
484,6.896276375389185,634352.5672977732
486,22.742569946564444,1991333.1235925918
487,31.020806355487977,1172555.8144709882
488,13.097158341948926,551039.3855891789
489,1.9685254597310744,1238204.094175359
490,23.834247927618485,1073074.805023245
492,60.306360241920046,646884.4282618611
494,51.124918049023975,271496.4579706724
495,24.36132361244033,548000.3599411079
496,25.677476000305596,1828747.3732682741
497,68.17964710192759,1780889.4738327463
498,21.008173190871396,334589.7809906969
499,75.52875758384778,863192.2623511069
500,44.23580357543972,856593.614080577
501,17.10449246191312,1840945.2878091747
502,15.850601543905672,1885433.3426793672
503,0.5924960612713425,605748.1397738364
506,15.054081070207769,607106.6572710872
507,19.481976964575672,750566.7147283704
508,30.200190961955045,560460.2736223886
510,35.72619187861859,2019205.924270833
511,33.72619187861859,2031783.171084559
512,34.27231910895749,1258946.3331523745
513,58.65244700256463,2163943.7244757544
514,33.699492674823254,2053900.2044692487
515,9.097158341948926,572606.3125313902
517,6.886976751665525,515797.9751548717
518,40.32745793332396,665496.8503697049
519,30.482852627823107,707336.1972623406
520,38.79290873707542,1157753.6319253978
521,51.72614231742705,1016540.8445075386
522,25.00324199799971,413486.9440316753
524,71.17701836630863,1982782.89256926
526,30.281229270463932,708329.6229492414
527,85.94822225283846,1098831.802637885
528,78.32312825805592,1948913.1763598968
529,28.200190961955045,554081.420218836
530,34.87306761282395,1150287.246509164
531,2.24375753676961,1372191.168637622
533,35.974724751861814,2174650.3495842507
534,80.14896994695015,1134662.9905933235
536,43.77698138963507,1216939.2136492894
537,18.427637859862067,567219.1866788076
538,21.03045790779385,717234.8606837806
539,0.5170064029492277,1195090.8622528922
540,31.321582337720827,2139188.206003544
541,53.16287908579173,477319.7295733843
542,11.33849580844737,547869.4093440458
543,48.42347206778048,1726726.4312048345
544,29.449796054545715,300995.8491418773
546,30.246419624815033,515060.7227897869
551,16.194830394145693,2088864.4663975541
555,82.29096971104649,1885916.662152399
556,83.32312825805592,1953065.384389704
557,35.51868520568557,1885962.894687609
560,38.602447482263315,1071890.8607647605
562,25.291050889782603,1961634.942050775
564,14.525054236316858,681351.9483167578
566,15.676443232799901,1089717.391430853
569,31.247973618041428,2036422.822170716
571,42.047225923929695,1976446.62326072
574,12.32958564694091,1085307.6095101
576,64.30636024192005,666581.628905914
579,7.7044916521583815,1944109.1505785503
580,57.16287908579173,480186.3140982318
581,87.90947976843216,2170655.241903971
582,30.649427580947112,969085.9639810685
584,14.937299117874762,398352.7627683777
585,95.67223873997611,1065376.459739241
586,30.394160184912472,2279680.7179048336
587,18.602562013425914,559009.973199881
588,58.225321933411166,503105.7340641649
589,5.388969438430437,2224850.751555148
590,28.901116032182415,2037409.2614161456
592,26.869260723536392,530180.1297334344
593,58.306360241920046,661116.176333206
595,7.745063787893542,2232237.1610264443
598,24.178101181592496,1941099.842084209
600,40.1208346436091,2121254.181830057
602,3.6735343697802696,767864.9293146072
603,28.994159375157757,2397953.8039573864
604,45.434931292317046,833753.1770100282
606,41.8835326123969,529974.5621491972
608,19.194830394145693,2100904.716945198
609,2.24375753676961,1358431.4587586646
611,33.58496361855143,1004172.549958056
612,23.137748114335643,520059.9982395422
613,30.994082700033978,2086726.454461261
614,28.649930524917735,2194496.265694311
616,38.14026926690502,2341995.5601698947
617,13.89105008002786,2079561.1445120247
618,31.247973618041428,2018266.333752167
619,40.32458666960578,1235400.189407085
621,32.352635088964284,2101720.2412196333
622,39.52136596320004,1297940.0282129995
623,46.478288691458886,1349893.8297829998
624,12.977314683898099,782160.6429134108
625,20.949419599284926,544762.1738529659
626,40.450208365756225,1978048.8202448173
628,18.67879946872427,469013.33236099186
629,10.96058547134491,650228.4277828055
630,59.38039479603931,1788056.379528159
631,77.9762706721969,1953518.657605476
632,67.33929029295864,433611.8509000531
633,42.02658648222578,979669.3662376384
636,35.28122927046393,720848.5353694203
637,83.94822225283846,1111560.665308264
638,89.94822225283846,1095303.7556080185
639,83.60136466697944,1118562.6034051941
640,23.869260723536392,551527.7202471485
641,31.59327721067404,491843.9117487904
642,18.949419599284926,545366.347284674
643,28.597717949661025,657749.0476976763
644,34.004428287542105,1219169.7055925124
645,26.748671905173175,519996.7958150649
646,33.52621002696494,1180385.0072722144
648,12.07353517953501,627669.3079213832
649,16.52505423631686,694499.5158788043
650,39.025185982575614,536561.7560567396
651,15.499414862257204,1090460.5636292782
652,11.96058547134491,651023.9629534861
653,28.8399874318616,1139013.1565252366
654,7.991638222588367,576066.6383436163
655,20.556011518694948,1865703.806056068
660,35.90685553642553,2139248.1556121814
661,23.03045790779385,689038.9205990409
662,29.352635088964284,2109290.891049124
663,37.635678986428736,899290.193934446
664,24.401814319314205,532211.1019678558
666,5.910599914079446,417352.31909618335
668,71.5265813629104,2063602.5579984847
669,27.873067612823952,1190135.9141259515
670,32.28122927046393,725721.4853883799
671,46.44605115121644,1172022.5857851522
672,62.02457423929941,489110.94636834
673,61.306360241920046,673996.9657324125
674,29.677476000305596,1843606.14849248
675,55.16287908579173,489849.521687971
676,69.14896994695015,1128668.8774340888
677,19.167965196032014,744688.3174449839
678,0.8338335277697856,594572.2706744918
679,82.80474109671015,913478.4626123236
680,30.355263824583247,1847148.027430243
681,26.82971021368212,692857.9765517628
682,8.54011916580652,544542.1802290947
683,4.459080857297602,379910.78776582354
685,21.806817875917005,512383.954726833
686,51.73498319142382,326625.7958026261
688,65.38039479603931,1794440.2263921585
689,16.280285303931407,400210.2761102172
690,82.32312825805592,1927211.6161631048
693,37.32458666960578,1211829.4449391593
694,15.516144074810395,1238520.352506637
695,11.33849580844737,556411.4365562564
696,78.72950527795948,899467.1737041646
697,80.40173314057806,438659.2339969311
698,71.60248083468977,490216.0726344842
699,23.084280306508624,588020.5894342697
700,71.74859072643706,419403.50421397534
702,65.19204721869131,1055249.6422232988
703,33.301169495438,588752.6195362521
704,21.104066627473223,847816.4405366959
706,62.45899967856144,302146.8184972925
708,15.60519074904488,317433.3005236388
710,38.501450391454284,2131833.728030158
712,20.02302831896431,689217.8890017187
714,21.365333813122447,831518.8235575354
715,20.949419599284926,559783.6267653536
716,18.68360032193484,732068.4820982133
719,79.75875496194935,634590.6517396659
720,24.427637859862067,563739.4974669779
721,25.0243335861646,1815321.162379741
722,35.32458666960578,1205861.328519535
723,29.55688718194242,1837081.693554793
724,72.17701836630863,1998484.2138069943
725,27.508676168370975,723174.4609713706
726,86.94822225283846,1079127.6216957408
728,39.82971021368212,676304.0073512605
729,37.82971021368212,684492.9777192317
730,42.12383897549408,1186039.246508247
731,69.87846434755212,529530.0425604059
732,32.32745793332396,686187.5191716019
733,30.200190961955045,557745.750622869
734,41.77698138963507,1206423.3849293722
735,26.597717949661025,659836.9897136671
736,56.3494375136612,584642.0930141254
737,30.699492674823254,2079660.2765520432
739,29.200190961955045,553211.3169731954
740,110.8464737262056,2219709.0848957268
741,50.44633696595386,2035662.758630802
742,16.02302831896431,677284.5201402821
746,20.364659609462002,2092689.4200285275
747,38.51084617633304,2377459.908797522
748,34.59981874664432,1335030.487904382
749,32.83787562630891,2035841.8406371025
750,7.5520475251491455,438773.3926446815
751,29.200190961955045,559292.2474523804
756,36.59327721067404,497238.91962302173
758,20.73742272064961,591002.4569988694
759,17.348671095418467,613957.9318653864
760,37.74835007330224,1769757.808938363
761,54.45899967856144,295681.4369277415
762,42.73498319142382,338569.40661766
763,66.90366358906523,1729830.271500096
764,25.102938468686716,329045.4110749301
765,37.74835007330224,1767513.8284527063
766,86.94822225283846,1109058.8097098395
767,36.950299032045315,692333.9999459471
769,4.805938443156604,372514.7103368401
771,91.04714474519355,1897482.4266279263
772,16.45380893207939,208225.92108516672
774,46.12383897549408,1182349.7842176692
776,0.5170064029492277,1198106.406563215
777,5.223971215805014,1089303.3469895157
778,25.869260723536392,533115.8051272475
779,75.60136466697944,1132187.1395326692
780,35.950299032045315,679934.1851010937
781,6.570828801664019,1086997.513599043
782,29.656384412140717,430039.6250713759
783,12.940799150380307,401930.40611622867
785,37.72619187861859,2051853.2294709464
786,40.820957156433906,2038988.3601693131
788,84.32312825805592,1950861.030574508
789,14.949419599284926,533906.1312696534
790,20.725779567408075,342468.11805181147
791,69.00548879082184,949216.3700630141
792,40.79290873707542,1148707.0024490466
794,86.60136466697944,1140230.7453076395
795,27.603441446186295,698541.2153634097
796,28.903744767801392,1805117.18947504
797,11.54011916580652,543776.3652258513
798,19.686229057553806,502160.22646404884
799,30.181981176724946,990752.0595103628
800,36.98035781936576,988040.7716274395
801,10.54011916580652,528025.4376392991
802,15.60519074904488,342781.2313160656
803,10.886976751665525,527298.3077119305
804,25.901116032182415,2041464.4808163287
810,22.056709805826728,374415.5637587632
811,17.40093865606677,585515.8955337447
812,32.1678147422929,2008163.7197770341
813,54.5696586346515,1998211.8294411453
814,22.60519074904488,339864.77505720645
815,8.805938443156604,352433.0075322147
816,21.40093865606677,586712.1003467223
817,49.31400130916397,2298655.368892647
818,36.38203970350232,2160762.59936953
819,81.90366358906523,1716697.514107645
820,66.8810930831711,285439.23475654743
821,30.860947131413795,1015998.8488893216
822,57.881093083171095,294043.62585403485
823,11.532689576976988,508189.5764549184
824,15.60519074904488,335708.98759065603
825,18.834247927618485,1052188.10048765
826,50.38039479603931,1780965.2975602818
827,50.08184077728281,312919.9064580057
828,13.997377726831484,678651.916903798
830,17.22418278521866,988437.0275399244
831,27.181105513477476,1038878.5977996822
832,47.08184077728281,329720.116299025
833,54.3494375136612,613701.138734564
834,23.03045790779385,712510.793784083
836,39.67231991871222,1124404.611277165
837,41.047225923929695,1991052.4315786525
838,29.82971021368212,686544.6353970213
839,25.748671905173175,501439.6021372699
840,20.137748114335643,535041.8450056058
842,12.859760841871399,221418.91642052
843,56.88689557292936,442861.47912141494
845,32.536675026537935,576022.7469886761
847,55.478288691458886,1347066.0092287404
848,26.803195176375034,1120246.5654695549
850,62.225321933411166,508892.2090000267
851,25.508676168370975,716900.8069687576
852,30.82971021368212,668011.1490149235
853,80.90103485344628,1938210.7223743547
854,31.321582337720827,2148049.5303104143
855,49.59639493262726,2271411.68271105
856,60.94933842054877,450870.25551084994
857,24.02302831896431,658595.4815739546
859,37.32458666960578,1211136.6884316762
862,33.32458666960578,1226388.8451031093
863,30.200190961955045,570960.9821336783
866,77.74859072643706,424685.829643114
867,56.51692522421308,1125863.895632368
868,53.51692522421308,1122235.5458597115
869,78.24789243930529,1918893.498721024
870,39.678328396716616,554591.0465327782
871,27.102938468686716,334567.62131146214
872,25.008173190871396,326755.4764435077
873,68.75755369731796,1765155.3382479444
876,17.18841751618262,667904.8365903273
877,51.478288691458886,1342573.6698555665
878,32.32745793332396,675372.5055446997
879,27.135119378716677,773614.2221916887
880,25.482852627823107,694040.3721612751
881,0.84901571489777,287650.29530808504
882,16.10449246191312,1835035.6772155743
883,57.38039479603931,1789533.6898218715
884,17.725779567408075,338946.4954519105
885,25.181105513477476,1042097.4291968013
886,19.137748114335643,526947.6011905058
887,18.40093865606677,573636.2162075258
888,28.649427580947112,964979.8855187913
889,69.72950527795948,908578.8340506628
890,32.64942758094711,979911.8870054842
891,34.35128587340112,1179959.501885427
892,32.554640677919856,712638.8668287308
893,43.047225923929695,1993371.854755325
894,7.223971215805014,1107867.6687367763
895,31.603441446186295,731324.831843487
896,39.1678147422929,2020394.831966061
897,69.52387595216759,1970476.38520138
898,10.257457499938454,392343.08938612544
899,9.257457499938454,405568.655081108
900,21.056709805826728,373774.7406239503
901,33.72619187861859,2013260.2933862985
902,45.2059563575329,420722.8535658576
903,25.582710722490255,1847516.535522493
907,25.699492674823254,2060985.2625042847
908,0.5170064029492277,1201872.6562282892
910,2.009514397782403,1466526.38935797
911,31.873067612823952,1169630.8100867756
912,24.819924388928214,1265139.131344929
914,77.52387595216759,1972017.199633069
915,69.5696586346515,2028383.6630071232
917,9.257457499938454,401301.33394434623
920,28.42376646005973,603837.6236002613
921,67.84518963283233,1091120.5695319604
922,39.70036833807072,2019913.541339264
923,37.74592863839163,1285840.4874611434
925,4.590615122628613,1332063.0134524177
926,22.02302831896431,689197.304379105
927,8.896276375389185,615602.2692055297
928,40.1208346436091,2128249.247980531
930,68.00548879082184,935234.4632279432
931,12.886976751665525,512498.1146687592
932,79.94822225283846,1113019.484009031
933,37.87306761282395,1170620.4014455494
934,58.225321933411166,501576.2197365057
935,25.869260723536392,517795.840490281
936,46.16287908579173,466163.4649694471
937,8.910599914079446,415366.4734048708
939,81.29096971104649,1877513.173413908
941,70.52387595216759,1960078.1609346743
944,18.499414862257204,1086417.0022445759
946,9.859760841871399,246772.47029621663
948,48.08184077728281,322351.1380970301
951,35.51144370486975,794305.2770146807
952,28.321582337720827,2153146.612817538
953,78.14896994695015,1138087.931412435
954,24.950299032045315,690532.7158915707
955,19.03045790779385,701620.4351398365
956,28.748671905173175,531704.4695771403
957,22.194830394145693,2107630.468665433
958,11.444015927807925,552003.9490800252
959,14.40093865606677,593442.5949270026
960,68.02457423929941,491353.3447439131
961,36.1678147422929,1997191.3864867063
962,16.429709403927387,750272.9537594798
963,22.695528681277462,609393.3589458585
964,55.08184077728281,316037.8554109814
965,34.34487328849738,1839580.1480777385
966,36.1678147422929,2008129.074742771
967,14.36519501224268,544351.8972098599
968,53.16287908579173,478847.39774742397
969,33.40149248744325,1778110.8729256466
970,77.90366358906523,1715981.948569431
971,42.13405984121886,1146622.1367967287
972,51.13405984121886,1136359.4568011926
973,28.355263824583247,1849932.2252316503
975,29.974724751861814,2188451.501171249
976,29.59327721067404,501730.2334458835
977,10.992496871026088,490207.9785259956
979,22.291050889782603,1956323.016463929
981,8.896276375389185,636337.3708558687
982,21.40093865606677,604681.0350939893
983,49.151887394852544,2056352.490999269
0,14.0,802158.3190646296
1,16.0,623713.925897833
2,39.0,515305.6293813204
3,13.0,710096.867862126
4,33.0,392475.2146066507
5,11.0,522181.622979414
6,6.0,635024.1194497448
7,12.0,1877040.6200705827
8,7.0,469673.45290131954
9,14.0,999905.527631264
11,22.0,991551.1567980346
13,17.0,896864.7275421376
14,19.0,209132.61766152753
16,23.0,892249.6525670099
17,12.0,1925514.7860506324
18,6.0,349884.79781222285
19,18.0,527726.895262346
20,24.0,967385.6000061369
22,17.0,1844919.563833011
23,2.0,668338.995893736
24,36.0,442078.04591997305
25,15.0,516313.37965137715
26,25.0,1230224.7350648888
27,15.0,2051804.8952996116
28,52.0,1038555.8634863812
29,41.0,575548.7565057346
31,42.0,1009572.3775162917
32,40.0,1858852.8877248596
33,22.0,1905553.2913113371
34,31.0,1070394.4627176458
35,16.0,487614.7930035222
37,12.0,1885133.2328457215
39,12.0,556401.414772117
40,8.0,699227.8975549159
41,4.0,347532.1303870785
43,16.0,286911.0482524816
44,8.0,1813812.876758716
45,15.0,1765603.5471382597
46,34.0,420734.81746376585
47,31.0,417804.1335754273
49,22.0,888925.4868541232
50,10.0,571199.5410524226
51,4.0,469520.50923767156
52,8.0,556855.0141684187
53,37.0,1678143.1898669275
54,17.0,1910293.7854748615
56,10.0,561100.9098944322
59,8.0,481944.1115568598
60,7.0,505435.5465013522
61,4.0,1342650.8885906085
62,45.0,1860824.3704639012
64,18.0,1265645.54005502
65,17.0,1728053.722143947
66,8.0,330861.6080468723
67,15.0,1739748.1773212417
68,24.0,307351.00385037746
69,14.0,1752987.6283738473
70,38.0,259306.87676984054
71,12.0,1032073.713427805
74,36.0,585026.4261255002
75,41.0,1031890.8390925211
76,15.0,557856.1552051667
77,22.0,951965.6106205473
78,7.0,2123234.8775053066
79,12.0,1326383.9676148011
85,21.0,1081595.863980881
86,17.0,1155860.1219261168
89,3.0,1173389.7511893867
91,13.0,703718.5990826972
94,17.0,1913423.203857828
95,20.0,1905874.5265880253
96,44.0,1034159.0431778947
98,30.0,386288.68740799464
99,19.0,459523.2923200354
100,13.0,2053935.83007091
101,3.0,1347995.416658761
102,8.0,734493.1653085499
103,12.0,407931.3271758357
105,4.0,605177.6217281433
106,10.0,583295.1196003435
107,16.0,1197486.1313226763
110,2.0,2288623.850944598
111,47.0,1075734.5248518072
112,23.0,2108613.377138657
113,14.0,643574.0069910046
114,51.0,1879949.8176925017
115,13.0,569891.5194330778
117,21.0,1159690.451136459
119,12.0,519688.25338448765
120,7.0,2122883.879925128
121,9.0,655918.0368885612
122,17.0,496803.82248807466
123,9.0,180538.21797098438
124,3.0,327350.91460468795
125,41.0,1698450.9850042851
126,13.0,947992.6153503981
127,20.0,1843000.546520733
130,11.0,2035899.863604659
132,27.0,1830072.294437368
133,17.0,507040.979157172
134,3.0,1032672.4423610687
135,52.0,2072759.1597380007
136,26.0,1109624.3401127954
137,19.0,499843.5317371319
138,24.0,1934694.5445225744
139,29.0,412246.3935433306
140,50.0,404819.4346266752
141,6.0,1013556.8594296612
142,38.0,635398.3372058887
144,10.0,968369.2038303897
148,46.0,561880.7280546577
149,18.0,1601567.9182898307
150,10.0,1573241.7882319083
151,37.0,349856.33084810467
153,9.0,590138.4125749547
154,35.0,479987.00248171866
155,1.0,1150998.437502592
157,12.0,1956124.246868006
158,22.0,1147938.651372832
159,36.0,440819.7807896616
160,37.0,421912.6068079082
161,20.0,674716.7172390663
162,24.0,2331574.7422860996
163,13.0,1983413.828200432
164,17.0,2033370.1072862872
165,21.0,630526.5797582745
167,22.0,1194119.5591181214
168,12.0,1851216.3987265672
169,5.0,435875.0381299562
170,12.0,410101.6267930823
171,33.0,1097131.8100335826
173,26.0,533091.0355106321
174,1.0,1285919.2723537255
175,23.0,1938503.4102071936
176,37.0,616425.056302844
177,8.0,352405.6972087
180,30.0,462944.3610995115
182,23.0,1910802.6153981618
183,11.0,679524.643724427
184,4.0,602520.3204086383
185,48.0,1843025.6067258776
186,7.0,342858.8214558307
187,14.0,406056.8232085224
188,23.0,1917414.5349446237
190,5.0,488517.14859402913
191,7.0,511516.7599151947
193,12.0,290019.9752186056
194,4.0,387643.6196696824
195,11.0,1211971.0484818078
197,21.0,1115459.828590556
198,20.0,1081389.1086907834
200,19.0,1887860.3129414606
201,10.0,538808.6777511901
202,10.0,1186796.1079891766
203,7.0,575208.9793494137
204,38.0,1068275.5680875937
205,40.0,1052510.1506097917
206,3.0,611919.882138352
209,10.0,635341.1805253465
210,20.0,1982676.655678737
211,27.0,657591.3570240712
212,24.0,429796.6100163241
213,38.0,1915686.2588510113
214,5.0,370357.1305200931
215,5.0,356816.2436823804
216,14.0,436391.31025916035
217,31.0,1707653.886376778
218,10.0,2118557.7253758297
219,22.0,2002965.9580109753
220,10.0,366403.2228582242
222,12.0,542984.6967999552
223,15.0,2381596.8696166906
226,12.0,1204648.9016275157
228,9.0,1976386.9632787083
229,30.0,406820.29039667366
230,37.0,885714.3534975129
231,8.0,1964302.1133896504
232,18.0,1945218.6691807238
233,21.0,1909411.9526096196
234,16.0,1123433.0891561126
235,16.0,1118108.9475755247
236,10.0,531596.3241968551
237,47.0,1001205.0574558787
238,37.0,460375.82248655177
239,29.0,577586.6305459767
240,23.0,651686.3019965056
242,2.0,849546.047890144
244,4.0,709110.67692345
246,15.0,1012259.556046258
249,2.0,2225642.815617814
250,49.0,416710.3167588248
251,34.0,473954.8208485153
252,6.0,695464.1624382404
253,12.0,671870.4658277029
254,6.0,2372635.502437104
256,6.0,542400.8390930338
257,11.0,1785255.436146998
258,27.0,634121.063361982
259,11.0,495069.0786303022
261,26.0,1130678.8333642366
263,9.0,450662.8540642151
264,16.0,1741653.8329368227
265,5.0,509832.96538720734
266,21.0,1935677.5143543193
267,16.0,542788.1773304446
268,18.0,706065.1467822775
269,9.0,658312.9664975812
270,12.0,718646.5749463636
271,21.0,2097605.305389845
272,9.0,704565.9221754143
273,5.0,718037.3961484067
277,14.0,1872387.9392655534
279,10.0,1908692.106912649
282,26.0,433585.2815997037
284,22.0,1873628.569261335
285,25.0,641573.4410239747
288,4.0,333048.50114870473
289,3.0,379352.77249396464
290,26.0,192683.92631512202
292,36.0,220848.86895551754
293,13.0,1705981.8675893696
295,19.0,1195048.0590963059
297,14.0,992900.988896415
299,13.0,504852.9613087751
300,21.0,1898567.1001673765
301,3.0,1204977.19664784
304,20.0,1121146.9676313517
307,11.0,691427.7526265112
308,17.0,1129553.504285025
309,15.0,652592.7344225537
310,35.0,572356.7767655293
312,14.0,659965.4462363186
316,22.0,267278.8342283649
317,34.0,413431.34534869844
318,39.0,398013.3196287824
319,27.0,1102424.469365416
320,22.0,1087204.1989056799
321,4.0,400707.5340742305
322,5.0,625016.0355700323
323,1.0,1938718.0162630025
325,13.0,1745183.627516461
326,29.0,651302.3138195585
328,48.0,597821.4900242852
329,45.0,1075981.4305454062
330,4.0,2353968.98531813
332,16.0,733254.3362933833
333,4.0,793058.597759421
335,4.0,2378539.919776374
338,26.0,1229354.0803287425
339,22.0,1907221.0606293033
340,12.0,1065449.19503605
341,18.0,1896023.0853984447
343,48.0,873295.4335246322
344,15.0,452883.42949242046
345,8.0,522750.2104677303
346,14.0,1940480.428971183
347,38.0,619605.038283665
348,9.0,607521.2378601931
349,21.0,2122856.418654466
350,5.0,558584.2535481454
353,4.0,378134.43269000103
355,52.0,1832539.7234151256
356,51.0,1060904.974129862
357,38.0,2157193.800055906
358,18.0,1102583.9308911313
359,3.0,1265009.3405632195
361,15.0,1986673.611891848
363,12.0,972828.5412874778
364,1.0,341608.8169757232
365,1.0,292164.5206925271
366,4.0,361816.1560495899
367,8.0,510416.70340545505
369,8.0,1825408.4011686766
370,23.0,294692.89405982324
371,33.0,886361.3673024689
372,20.0,1130904.757363358
375,18.0,1954706.4541824874
377,54.0,1849850.5498286898
378,6.0,618988.7087458791
379,15.0,682158.0822702049
380,8.0,764492.6282976824
382,5.0,1851378.8445186305
383,19.0,1128804.9765372453
384,10.0,955541.7610257795
385,16.0,946723.5688192289
387,18.0,923558.836563352
388,18.0,1721082.477889987
389,24.0,325767.88365503494
390,33.0,1704839.5797931007
391,12.0,938430.8189475411
392,3.0,368969.6516384275
393,5.0,1845028.7835823265
394,27.0,449690.66410190635
395,11.0,466573.29071835795
396,10.0,340978.10127013235
397,25.0,842112.4103352407
398,22.0,2048607.1691312308
399,14.0,1991410.162489948
400,9.0,794937.3926868282
401,8.0,476786.8424138292
403,18.0,1136619.212473012
404,11.0,689048.5961876592
405,31.0,494399.7799947928
407,17.0,734025.0895344281
409,14.0,1627428.674720834
410,18.0,928105.8497998777
411,25.0,1713287.320156096
412,27.0,1109638.3205950868
413,1.0,572775.8387033029
415,6.0,341655.12479840114
416,24.0,1113398.9897221879
417,7.0,970578.2806629697
418,11.0,329313.2842900768
423,24.0,1884578.3144632075
424,15.0,483273.6377465946
425,16.0,516140.98294797837
427,18.0,1188424.6583657572
428,24.0,972572.1797407909
429,19.0,1788790.6276797361
430,3.0,1251771.177244565
431,16.0,655794.1865217459
432,18.0,636549.2672806892
433,27.0,542919.2304169213
434,13.0,547594.8129269608
435,3.0,2266965.1374956495
438,2.0,638426.6571184087
439,13.0,560192.0713455194
440,2.0,399657.1801751736
444,8.0,2012204.7878423948
447,1.0,1837131.6003204351
448,19.0,1059114.5233827585
449,9.0,536809.9512824108
451,8.0,2043948.1579874589
452,22.0,1893699.117020607
453,16.0,937748.0144592937
455,5.0,383436.6068719713
456,14.0,478689.4721766356
458,16.0,503185.5132527851
459,42.0,1117458.378187085
461,47.0,1812115.7476920362
462,21.0,1936158.0514097118
464,9.0,558117.3808973979
465,34.0,441798.34874367726
466,30.0,486193.71567830927
467,7.0,575738.5065465311
469,17.0,1158877.3708727318
470,15.0,490153.7061037981
471,11.0,954765.736095674
472,6.0,526077.7942904442
475,13.0,467146.5533658158
476,22.0,880414.830869606
477,14.0,1224556.1807780315
479,4.0,607581.1263492669
481,27.0,1871801.8208289235
482,47.0,613870.6843652232
483,12.0,590937.7733096201
484,5.0,607166.0286992972
486,13.0,1905990.2754386237
487,10.0,1122303.4224222316
488,4.0,527423.4119210712
490,12.0,1027085.8848079632
492,35.0,619160.8099077813
494,15.0,259860.895486215
495,11.0,524514.6302293462
496,16.0,1750372.485842491
497,41.0,1704565.6392399142
498,13.0,320250.2189482385
499,54.0,826198.3082503452
500,15.0,819882.4591914095
501,12.0,1762047.632617353
502,14.0,1804629.056564537
506,12.0,581087.8005308978
507,13.0,718399.5698114403
508,14.0,536440.5476100006
510,17.0,1932668.5275163688
511,19.0,1944706.7494666495
512,16.0,1204991.4903029872
513,26.0,2071203.2791410794
514,12.0,1965875.9099919952
515,8.0,548066.0419943307
517,9.0,493692.34764823434
518,17.0,636975.5567824319
519,15.0,677021.7888082403
520,26.0,1108135.619128595
521,24.0,972974.8083143585
522,11.0,395766.07500174636
524,36.0,1897806.4828877205
525,2.0,1191382.2717944535
526,18.0,677972.6391085597
527,45.0,1051739.0110962614
528,46.0,1865388.3259444728
529,16.0,530335.0736380288
530,16.0,1100989.2216587714
531,1.0,1313382.9756960096
533,11.0,2081451.048887783
534,35.0,1086034.5767107524
536,23.0,1164784.6759214627
537,17.0,542909.7929640015
538,10.0,686496.223797333
540,17.0,2047508.711460535
541,27.0,456863.16973452497
542,6.0,524389.2918007296
543,35.0,1652723.8698674846
544,10.0,288096.0270357969
546,23.0,492986.69181308174
551,13.0,1999341.7035519448
555,30.0,1805091.6623458678
556,41.0,1869362.582201574
557,21.0,1805135.9134867117
560,17.0,1025952.6810176994
562,9.0,1877564.8731057418
563,1.0,1149622.057754636
564,8.0,652151.1505317539
566,5.0,1043015.2175123879
569,13.0,1949147.5583633997
571,18.0,1891741.7679781178
574,7.0,1038794.4262453815
576,31.0,638013.8448099463
579,5.0,1860790.186982327
580,23.0,459606.900636879
581,41.0,2077627.1601080867
582,19.0,927553.7083818798
584,4.0,381280.50150687585
585,49.0,1019717.4686075593
586,28.0,2181980.1157089123
587,7.0,535052.4029198862
588,33.0,481544.05974712933
589,1.0,2129500.0050599277
590,14.0,1950091.721641168
592,14.0,507458.1241734301
593,37.0,632782.6259189257
595,8.0,2136569.854125311
598,9.0,1857909.8488520286
600,24.0,2030343.2883230546
602,1.0,734956.4323439812
603,13.0,2295184.3552163555
604,26.0,798020.8979953127
606,14.0,507261.36662851734
608,10.0,2010865.9433618323
609,1.0,1300212.9676690076
611,23.0,961136.5835312821
612,10.0,497771.7126007047
613,14.0,1997295.3206986357
614,14.0,2100446.4257359835
616,21.0,2241624.3218768993
617,4.0,1990437.0954615094
618,13.0,1931769.2051627885
619,12.0,1182454.4670039243
621,12.0,2011646.5165959348
622,26.0,1242314.027003871
623,29.0,1292041.237078014
624,3.0,748639.472502836
625,6.0,521415.2235449817
626,26.0,1893275.2993771823
628,13.0,448912.76097409223
629,9.0,622361.4951635425
630,34.0,1711425.3918340951
631,45.0,1869796.4294223841
632,41.0,415028.4858614794
633,20.0,937683.5362560253
636,13.0,689955.0267107309
637,47.0,1063922.351080767
638,41.0,1048362.1660819605
639,46.0,1070624.2061164002
640,17.0,527890.8179508422
641,23.0,470764.88695955655
642,8.0,521993.50382961653
643,13.0,629559.8027963474
644,24.0,1166919.5753528334
645,16.0,497711.2188515622
646,16.0,1129797.0783891196
648,9.0,600769.1947247525
649,6.0,664735.2509125698
650,18.0,513566.2522257365
651,13.0,1043726.5394737378
652,8.0,623122.9359697653
653,16.0,1090198.3069598693
654,8.0,551378.0681288899
655,10.0,1785745.071510808
660,16.0,2047566.0918002308
661,8.0,659508.6811447963
662,15.0,2018892.7100041616
663,18.0,860749.1856229698
664,17.0,509402.05474066205
666,6.0,399465.79113491834
668,36.0,1975162.4483699782
669,23.0,1139130.0892348394
670,16.0,694619.1360145923
671,17.0,1121793.04639436
672,45.0,468149.0486668397
673,34.0,645111.3814867378
674,12.0,1764594.4564142309
675,25.0,468855.9707584866
676,46.0,1080297.354115485
677,7.0,712773.1038401988
679,33.0,874329.385643224
680,16.0,1767984.5405403755
681,20.0,663164.0632709729
682,6.0,521204.65821927635
683,6.0,363628.896861574
685,8.0,490424.6423813973
686,23.0,312627.547411085
688,28.0,1717535.645261066
689,15.0,383058.40713406506
690,42.0,1844616.8326132575
693,15.0,1159893.8972989097
694,9.0,1185440.9088277812
695,6.0,532565.2321324168
696,35.0,860918.5805454147
697,39.0,419859.5525399198
698,32.0,469206.8123787206
699,17.0,562819.7070299439
700,49.0,401429.0683190907
702,40.0,1010024.657556586
703,10.0,563520.3644132699
704,14.0,811481.4502279804
706,26.0,289197.66913312284
708,12.0,303829.01621548284
710,22.0,2040469.4254002944
712,11.0,659679.9794730736
714,13.0,795882.3025479268
715,6.0,535792.8999039814
716,11.0,700694.1185797184
719,30.0,607393.9095222517
720,11.0,539579.2332898218
721,18.0,1737521.6839920378
722,17.0,1154181.5572972693
723,14.0,1758349.6209738734
724,35.0,1912834.8903581232
725,12.0,692181.2697868833
726,44.0,1032879.2950516377
728,7.0,647319.5498933494
729,9.0,655157.5643884075
730,26.0,1135208.993086465
731,20.0,506835.8978792457
732,25.0,656779.482635676
733,14.0,533842.3613104604
734,25.0,1154719.5255752564
735,15.0,631558.2615830813
736,29.0,559586.00331352
737,15.0,1990531.978985527
739,15.0,529502.2605314871
740,40.0,2124578.6955430526
741,27.0,1948420.0689751962
742,15.0,648258.0407056987
746,18.0,2003002.7305987335
747,14.0,2275568.769849057
748,19.0,1277814.8955656227
749,21.0,1948591.4760383696
750,5.0,419968.81867419515
751,15.0,535322.5797044212
756,18.0,475928.68021060654
758,18.0,565673.7802703464
759,9.0,587645.4490711556
760,19.0,1693911.0456981475
761,34.0,283009.37534512405
762,32.0,324059.2891911889
763,56.0,1655694.6884358062
764,13.0,314943.4648860045
765,19.0,1691763.2358047334
766,44.0,1061527.7178651323
767,8.0,662662.5428054065
769,7.0,356549.79417954694
771,47.0,1816161.7512010152
772,20.0,199301.9530386596
774,22.0,1131677.6506083405
777,3.0,1042618.9178328222
778,15.0,510267.9849075083
779,54.0,1083664.8335526977
780,9.0,650794.1485967612
781,3.0,1040411.9058733698
782,5.0,411609.35542545986
783,12.0,384704.817282676
785,15.0,1963916.66249362
786,16.0,1951603.1447334855
788,40.0,1867252.7006927435
789,12.0,511024.4399295255
790,5.0,327790.91299244814
791,31.0,908535.6684888849
792,24.0,1099476.7023440874
794,43.0,1091363.7133658836
795,16.0,668603.734704978
796,16.0,1727755.024211824
797,3.0,520471.6638590291
798,12.0,480639.0739013039
799,20.0,948291.2569599188
800,16.0,945696.1671291208
801,4.0,505395.7760261863
802,12.0,328090.6071168056
803,5.0,504699.80880999065
804,17.0,1953973.1459242003
810,7.0,358369.18245481624
811,11.0,560422.3571537271
812,26.0,1922099.5603580184
813,43.0,1912574.1796079534
814,5.0,325299.14184046903
815,3.0,337328.73578083405
816,7.0,561567.2960461485
817,23.0,2200141.5673686764
818,14.0,2068158.487967979
819,41.0,1643124.7635030318
820,25.0,273206.1246955526
821,12.0,972456.0410797793
822,34.0,281441.75617457624
823,3.0,486410.0231782791
824,12.0,321321.4595510565
825,17.0,1007094.324752465
826,43.0,1704638.213379127
827,26.0,299509.0533240912
828,11.0,649566.8347507782
830,10.0,946075.4406453562
831,10.0,994355.229322553
832,29.0,315589.25417192397
833,31.0,587399.6613602255
834,8.0,681974.6169076223
836,27.0,1076215.8422224293
837,19.0,1905721.6130824245
838,17.0,657121.2938800062
839,17.0,479949.3334742441
840,13.0,512111.4802196513
842,8.0,211929.534288212
843,37.0,423881.7014447829
845,22.0,551336.0578320186
847,20.0,1289334.6088332229
848,13.0,1072235.9983780026
850,29.0,487082.54290002555
851,14.0,686176.4866700966
852,16.0,639382.0997714268
853,40.0,1855144.548558311
854,17.0,2055990.2647256823
855,31.0,2174065.4677377194
856,44.0,431547.24456038495
857,7.0,630369.9609350709
859,15.0,1159230.830356033
862,19.0,1173829.323170119
863,14.0,546491.2257565206
866,43.0,406485.00837269484
867,22.0,1077612.5858195524
868,25.0,1074139.7367514381
869,44.0,1836655.2059186946
870,16.0,530822.8588242306
871,11.0,320229.00896954234
872,9.0,312751.6703102145
873,37.0,1689505.823751604
876,12.0,639280.343593599
877,24.0,1285034.798290328
878,25.0,646427.9695927841
879,4.0,740459.3269549021
880,20.0,664295.7847829348
881,1.0,275322.42550916714
882,13.0,1756391.2910491927
883,36.0,1712839.3888295055
884,8.0,324420.21707540005
885,12.0,997436.1108026527
886,14.0,504364.13256805553
887,10.0,549051.806941489
888,21.0,923623.6047108431
889,44.0,869639.7411627773
890,17.0,937915.6632766777
891,25.0,1129389.80894748
892,19.0,682097.2011074995
893,17.0,1907941.6324086683
894,1.0,1060387.6257909145
895,12.0,699982.3390501947
896,19.0,1933806.4820246585
897,39.0,1886027.397264178
898,3.0,375528.3855552915
899,4.0,388187.14129191765
900,8.0,357755.82316863816
901,19.0,1926977.7093840286
902,25.0,402691.8741273208
903,12.0,1768337.255428672
907,20.0,1972657.3226826726
910,2.0,1403675.2583854857
911,19.0,1119503.775368771
912,11.0,1210918.8828587178
914,31.0,1887502.1767916519
915,28.0,1941452.9345925322
917,4.0,384102.7053467314
920,18.0,577958.8683031072
921,36.0,1044358.2594091621
922,19.0,1933345.8181390099
923,33.0,1230733.037998523
926,9.0,659660.277048572
927,3.0,589219.314811007
928,24.0,2037038.5659242223
930,32.0,895152.9862324599
931,3.0,490533.90975438384
932,51.0,1065318.6489800725
933,13.0,1120450.9556693116
934,33.0,480080.0960335126
935,15.0,495604.5901835547
936,34.0,446185.0307564708
937,3.0,397565.0531160906
939,31.0,1797048.3231247407
941,38.0,1876074.8111803313
944,10.0,1039856.2735769512
945,1.0,1960833.9465243344
946,11.0,236196.50728352164
948,28.0,308536.0893214431
951,16.0,760263.6222854801
952,20.0,2060868.9008396436
953,37.0,1089312.734351902
954,20.0,660938.4566390748
955,12.0,671550.9879195578
956,14.0,508917.13516669144
957,7.0,2017303.4485797717
958,7.0,528346.6369765956
959,14.0,568009.3408587024
960,39.0,470295.34425488824
961,22.0,1911597.4699229903
962,14.0,718118.3985983593
963,5.0,583276.5007053218
964,21.0,302493.3758933679
965,9.0,1760740.9988744068
966,22.0,1922066.4001109381
967,10.0,521022.5301865802
968,27.0,458325.3664153915
969,22.0,1701906.1212288332
970,45.0,1642439.8650593127
971,34.0,1097481.188076869
972,25.0,1087658.3372239987
973,18.0,1770649.4155788654
975,17.0,2094660.722549624
976,25.0,480227.5091553457
977,6.0,469199.0651605958
978,1.0,1159457.049704599
979,12.0,1872480.6014726178
981,3.0,609065.7692477601
982,7.0,578766.1335899612
983,11.0,1968223.098527872
