,wf,Food
0,6.947544257758963,838075.8557391652
1,7.180931761503839,651641.4151171389
2,73.02255469331519,538379.0157715287
3,7.439124971471017,741892.2500052062
4,12.299614276704027,410048.73167859024
9,1.7605771392835976,1044677.4169281862
11,7.831291088762601,1035948.9697889913
13,10.512869816694511,937022.84967089
14,17.322209931605208,218496.7647209989
16,13.512869816694511,932201.1295476223
19,11.332631967995404,551356.4577367794
20,5.831291088762601,1010701.37314074
22,3.351605676554298,1927527.902512101
24,61.717504759470756,461872.58528952405
25,8.664730554372696,539431.8891880059
26,27.1872223548951,1285309.42469466
27,20.96686657240275,2143676.756283176
28,99.58371745349729,1085058.3648365177
29,49.656157414699436,601319.596349275
31,53.15455326968862,1054777.1108379166
32,86.67547972934327,1942085.1065782115
33,32.36132088734689,1990876.5730118447
34,35.51096272036024,1118322.572988585
35,10.461720626372173,509448.29119770974
37,1.9687736687369897,1969542.1835701568
44,1.9230533646085366,1895028.378703136
45,3.305885372425843,1844660.4223832563
46,44.86885635987744,439573.68988751655
47,49.86885635987744,436511.78134746134
49,5.512869816694511,928728.12059386
52,8.28189854655539,581788.8207729748
53,69.67738682567747,1753283.929711715
54,30.50139878671162,1995829.3281080641
56,6.752379449558079,586224.8312329889
62,81.67547972934327,1944144.8646637772
64,28.492272288739514,1322316.235878379
65,8.503305883045869,1805429.261941437
67,11.363227983681156,1817647.3494401032
68,36.33657984798772,321112.98909740924
69,4.460354382449043,1831479.6117338703
70,47.57933395644031,270917.63244610204
71,9.189129451229356,1078285.9692529305
74,56.72687136417849,611221.6392355972
75,86.89583551183566,1078094.9065145743
76,20.470591281419885,582834.7890203233
77,14.070313345903607,994590.9364692285
79,13.557549936114206,1385774.2945229264
85,38.19884466202198,1130025.5295322635
86,29.288189139946667,1207615.0527586294
91,10.284655961447822,735228.3871013253
94,27.833497373088917,1999098.869702208
95,23.145615431427217,1991212.1919576384
96,90.58371745349729,1080464.6719769049
98,34.32030283527092,403585.19579939736
99,14.504672126968991,480098.9621254101
100,13.356586902023217,2145903.1060442342
102,7.589705895292205,767380.9189790819
103,12.250432827868458,426196.90898967907
107,16.506228735036572,1251104.9133221991
111,85.20088544568006,1123901.742382485
112,44.24767121976777,2203028.901488149
113,17.34199857270312,672390.7535726913
114,76.3633616710049,1964126.675201121
115,5.752379449558079,595409.0501539619
117,37.80206697371416,1211616.8892470466
121,3.485981695348226,685287.501226855
125,59.5760606161829,1774501.0291089546
126,0.6022142946192135,990440.0458884756
127,2.351605676554298,1925522.959051512
130,9.905280151465586,2127059.558989942
132,63.31702949501357,1912015.8300091904
133,7.461720626372173,529744.30658212
135,93.19890136868199,2165569.2713680603
136,35.155893161425126,1159309.0120581444
137,11.461720626372173,522224.58539700345
138,34.318369386750064,2021322.658456421
139,48.00818477693268,430705.1872840767
140,57.8895449184443,422945.6779681681
142,60.48411725572589,663849.0090210778
144,1.7605771392835976,1011729.0189272728
148,52.03898942251675,587039.5666242692
149,10.295066581169127,1673279.9146311663
151,21.471654435677614,365521.5396920496
154,69.33467275165344,501478.957816721
157,24.450665365271604,2043711.899712842
158,25.14150205076666,1199338.8894940035
159,59.57742686010607,460557.9799294972
160,61.8895449184443,440804.2160679638
161,9.935173558591217,704927.9135333528
162,33.1074562039242,2435973.611343686
163,27.921146268274285,2072223.4025974663
164,38.34969858022005,2124416.5300005986
165,11.180931761503839,658759.1131802867
167,24.758670042949362,1247587.5990786343
168,40.107081588246345,1934106.685236712
169,22.938314769530145,455391.8308820438
170,16.938314769530145,428464.3862017277
171,25.46801121976344,1146257.1149604593
173,40.46974733934334,556960.7833693171
175,27.458447286114804,2025302.0703657246
176,59.48411725572589,644026.1782268519
180,37.48602435206013,483673.2130890418
182,22.145615431427217,1996360.941460766
183,2.743461108966117,709951.1203091028
185,81.67547972934327,1925549.1413553944
187,16.250432827868458,424238.472008904
188,34.36132088734689,2003268.9171063232
195,11.506228735036572,1266238.40886159
197,22.600307198284952,1165405.79106476
198,28.983139206102265,1129809.5165426095
200,19.145615431427217,1972391.371729884
201,5.135211457375387,562934.4394415419
202,27.446551984611048,1239936.232227498
203,5.752379449558079,600964.6052904321
204,85.34096334504483,1116108.8024795754
205,64.84243521135033,1099637.4707863496
209,0.6453378059713177,663789.2930861829
210,24.921146268274285,2071453.2223509192
211,56.171999197387606,687035.7461445519
212,41.148262676297364,449041.2343454132
213,47.45952622286924,2001463.255515982
217,48.5053466667039,1784116.000692156
218,2.8112016882172064,2213418.5190493744
219,12.288112159282896,2092651.000906989
222,12.399877331940893,567297.4444178636
226,20.506228735036572,1258588.404685464
228,0.1701768266671173,2064881.9019329788
229,37.148262676297364,425036.1242950322
230,78.41358439085798,925373.2051466552
232,32.458447286114804,2032318.0125768755
233,23.145615431427217,1994908.0101891547
234,24.600307198284952,1173736.063297431
235,19.600307198284952,1168173.5273177123
236,1.5940166048936888,555399.1446832814
237,82.89583551183566,1046035.1346553956
238,56.717504759470756,480989.66528445703
239,40.297707180369784,603448.7184808712
240,19.34199857270312,680866.2856679909
244,4.909767548217705,740861.9012633059
250,55.8895449184443,435368.98765847366
251,58.33467275165344,495176.6784984488
252,9.431343050627824,726604.348816072
253,9.485981695348226,701954.2180289433
258,66.48411725572589,662514.5438110259
259,12.332631967995404,517236.3508077784
261,27.671021147763952,1181306.2438133815
264,2.14752252776146,1819638.3329190684
266,20.833497373088917,2022349.6418627216
267,8.135211457375387,567092.1255691212
268,7.284655961447822,737680.0041008869
269,6.798099753686532,687789.6664900102
270,8.589705895292205,750824.7797947081
271,39.103940377307424,2191527.931004315
282,38.86885635987744,452999.54793998896
284,35.67343894568519,1957522.3857954247
285,62.48411725572589,670300.6100250481
290,22.322209931605208,201311.5648068439
292,31.891452014778594,230737.624281884
293,5.675346042019452,1782369.1153918786
295,23.446551984611048,1248557.6736827076
297,1.7605771392835976,1037359.2421305828
299,8.332631967995404,527458.3177852874
300,28.145615431427217,1983577.56733905
304,23.600307198284952,1171347.5781223078
307,9.81417505844513,722387.2042366534
308,20.600307198284952,1180130.5268649515
309,7.126293116783426,681813.3046205784
310,45.656157414699436,597984.6921430903
312,8.81417505844513,689516.1378588403
316,36.57933395644031,279246.54322366486
317,34.65806451103373,431943.1966329685
318,36.72877846051273,415834.8115524592
319,26.46801121976344,1151786.7590384944
320,39.19884466202198,1135884.9839313072
325,1.4603543824490428,1823326.1780022727
326,65.1719991973876,680465.1039905834
328,63.86694926354318,624589.6164432829
329,87.34096334504483,1124159.703554902
332,14.633102826056998,766086.6200080124
338,34.1872223548951,1284399.785418089
339,23.145615431427217,1992619.0185679288
340,10.413897122928852,1113155.8754107985
341,21.145615431427217,1980919.6414610615
343,75.72570244919632,912398.2141302128
345,5.289680467398586,546156.9363095689
346,24.450665365271604,2027367.6123579524
347,61.34403935636118,647348.5474605454
349,39.959894508445586,2217909.6911315317
355,76.05831173716058,1914593.7408814745
356,88.72379535286203,1108408.1819267215
357,90.64402920189119,2253784.567222588
358,32.33892256138668,1151953.360632525
361,5.780456497046639,2075629.146752677
363,6.760577139283598,1016388.0282107977
369,3.610935306270232,1907143.1056986172
370,26.33657984798772,307888.09827145713
371,53.34287044137898,926049.1897189972
372,22.29597106078984,1181542.2838124635
375,20.051536968178823,2042230.623772748
377,71.67547972934327,1932679.6789254968
379,5.439124971471017,712702.4740136468
383,27.29597106078984,1179348.4829493607
384,1.6022142946192135,998327.2130120085
385,0.6022142946192135,989114.1763782988
387,2.9850463024365226,964912.2173049946
388,1.1475225277614598,1798145.8724223743
389,37.02446178964941,340354.5053112305
390,55.5053466667039,1781175.6803808515
391,11.028711599382639,980450.1093481772
394,44.48602435206013,469826.0669721409
397,35.15646036602291,879818.9361711469
398,10.60094401397047,2140335.848346062
399,19.051536968178823,2080577.781705916
403,29.288189139946667,1187512.6100464305
404,1.743461108966117,719901.518405017
405,65.33467275165344,516537.0835766492
407,14.633102826056998,766891.8845882084
409,14.12302642219554,1700298.6153799756
410,13.340829657720924,969662.8281491259
411,57.5053466667039,1790001.6777750256
412,30.33892256138668,1159323.61853218
416,28.671021147763952,1163252.6758291514
417,2.290096236280908,1014037.0096478787
423,22.94452838225765,1968962.4180958883
425,10.301754028946092,539251.7732292311
427,23.446551984611048,1241637.702770194
428,41.63955542907702,1016120.1877888859
429,34.419199646584644,1868885.7304116646
431,6.611165130444604,685158.105321227
432,6.611165130444604,665051.473278332
433,33.46974733934334,567229.0467042461
434,7.289680467398586,572113.9836550336
439,12.087759273602579,585275.2984206919
444,13.668704960361524,2102303.509686084
448,7.4138971229288515,1106537.5617431805
449,1.5940166048936888,560846.2177577426
451,26.356586902023217,2135468.2247630167
452,25.12353815435226,1978491.614797649
453,6.672928244098214,979736.7315246351
458,13.332631967995404,525716.2078760441
459,72.02884528670643,1167493.827956656
461,86.05831173716058,1893255.2587827244
462,28.630487445088377,2022851.695502684
464,0.4809167277253592,583107.711385341
465,39.55673830153914,461580.3643590658
466,43.17390629372187,507963.5835445022
469,30.758670042949362,1210767.4024043465
470,4.976848612710993,512100.8869741174
471,0.6022142946192135,997516.4406969728
472,2.594016604893689,549633.5164228522
476,11.512869816694511,919836.3904607823
477,9.75505407662638,1279387.0545442118
481,58.00491143667526,1955613.842657084
482,68.86694926354318,641357.4314263525
486,9.734736192918177,1991333.1235925918
487,16.260141909254962,1172555.8144709882
490,4.448459080945295,1073074.805023245
492,74.48411725572589,646884.4282618611
494,17.1501697726316,271496.4579706724
496,12.191187824707576,1828747.3732682741
497,56.888178674521185,1780889.4738327463
499,62.89774260816989,863192.2623511069
500,11.329344467072971,856593.614080577
506,9.440261391219774,607106.6572710872
507,6.901823953630512,750566.7147283704
508,4.135211457375387,560460.2736223886
510,29.458447286114804,2019205.924270833
511,34.458447286114804,2031783.171084559
512,28.576942684515593,1258946.3331523745
513,30.486772385124723,2163943.7244757544
514,24.921146268274285,2053900.2044692487
518,14.341998572703119,665496.8503697049
519,6.81417505844513,707336.1972623406
520,37.33892256138668,1157753.6319253978
521,42.63955542907702,1016540.8445075386
522,18.250432827868458,413486.9440316753
524,98.19132151203135,1982782.89256926
526,3.2846559614478217,708329.6229492414
527,78.72379535286203,1098831.802637885
528,70.88627157818692,1948913.1763598968
529,6.135211457375387,554081.420218836
530,23.600307198284952,1150287.246509164
533,27.654748514064423,2174650.3495842507
534,85.34096334504483,1134662.9905933235
536,28.82938399242836,1216939.2136492894
537,4.289680467398586,567219.1866788076
538,3.743461108966117,717234.8606837806
540,23.96686657240275,2139188.206003544
541,32.48602435206013,477319.7295733843
543,33.31893659134785,1726726.4312048345
546,19.192554068630685,515060.7227897869
551,16.668704960361524,2088864.4663975541
555,74.48906965398712,1885916.662152399
556,90.88627157818692,1953065.384389704
557,39.12111932586129,1885962.894687609
560,3.1891294512293555,1071890.8607647605
562,4.576373348253796,1961634.942050775
569,20.762783423609903,2036422.822170716
571,24.145615431427217,1976446.62326072
576,55.48411725572589,666581.628905914
580,33.48602435206013,480186.3140982318
581,73.86929765827648,2170655.241903971
582,13.340829657720924,969085.9639810685
585,80.89583551183566,1065376.459739241
586,32.90337305513134,2279680.7179048336
587,7.281898546555389,559009.973199881
588,59.33467275165344,503105.7340641649
590,31.450665365271604,2037409.2614161456
592,11.332631967995404,530180.1297334344
593,70.48411725572589,661116.176333206
595,2.245630436109744,2232237.1610264443
598,1.9687736687369897,1941099.842084209
600,26.34969858022005,2121254.181830057
603,28.49717653354466,2397953.8039573864
604,13.467450070480965,833753.1770100282
606,15.782709339758185,529974.5621491972
608,15.668704960361524,2100904.716945198
611,10.15780025775937,1004172.549958056
613,22.051536968178823,2086726.454461261
614,4.881915637696206,2194496.265694311
616,23.192126599700273,2341995.5601698947
617,0.1701768266671173,2079561.1445120247
618,22.762783423609903,2018266.333752167
619,28.758670042949362,1235400.189407085
621,24.60902820993597,2101720.2412196333
622,5.755054076626379,1297940.0282129995
623,40.94146415198247,1349893.8297829998
625,3.594016604893689,544762.1738529659
626,32.63048744508838,1978048.8202448173
630,71.5053466667039,1788056.379528159
631,77.57415351984864,1953518.657605476
632,40.72877846051273,433611.8509000531
633,11.200751758356226,979669.3662376384
636,6.284655961447822,720848.5353694203
637,83.72379535286203,1111560.665308264
638,86.72379535286203,1095303.7556080185
639,73.41167729452368,1118562.6034051941
640,9.332631967995404,551527.7202471485
641,17.50467212696899,491843.9117487904
642,4.594016604893689,545366.347284674
644,25.98385300245154,1219169.7055925124
645,6.976848612710993,519996.7958150649
646,25.288189139946667,1180385.0072722144
650,9.273837170191094,536561.7560567396
653,2.8118983403612283,1139013.1565252366
655,0.9230533646085366,1865703.806056068
660,19.814104624687516,2139248.1556121814
661,1.743461108966117,689038.9205990409
662,22.60902820993597,2109290.891049124
663,9.084618062663651,899290.193934446
664,11.664730554372696,532211.1019678558
668,61.645936298225394,2063602.5579984847
669,21.600307198284952,1190135.9141259515
670,4.284655961447822,725721.4853883799
671,44.026804503048396,1172022.5857851522
672,69.71750475947076,489110.94636834
673,66.48411725572589,673996.9657324125
674,14.191187824707576,1843606.14849248
675,36.48602435206013,489849.521687971
676,82.34096334504483,1128668.8774340888
679,63.72570244919632,913478.4626123236
680,2.305885372425843,1847148.027430243
681,2.126293116783426,692857.9765517628
686,38.02446178964941,326625.7958026261
688,50.5053466667039,1794440.2263921585
690,90.88627157818692,1927211.6161631048
693,25.758670042949362,1211829.4449391593
694,1.0077006013421785,1238520.352506637
696,56.51491060035255,899467.1737041646
697,54.57742686010607,438659.2339969311
698,65.19459485228873,490216.0726344842
699,13.399877331940893,588020.5894342697
700,54.8895449184443,419403.50421397534
702,65.15455326968862,1055249.6422232988
703,13.101797011217506,588752.6195362521
704,2.9475442577589632,847816.4405366959
706,42.19650194862301,302146.8184972925
710,14.446475003947285,2131833.728030158
712,4.798099753686532,689217.8890017187
714,9.1525819545687,831518.8235575354
715,2.594016604893689,559783.6267653536
716,4.431343050627824,732068.4820982133
719,71.55483120520492,634590.6517396659
720,8.289680467398586,563739.4974669779
721,6.5033058830458685,1815321.162379741
722,29.758670042949362,1205861.328519535
723,5.835404469423155,1837081.693554793
724,94.19132151203135,1998484.2138069943
725,5.439124971471017,723174.4609713706
726,92.72379535286203,1079127.6216957408
728,5.126293116783426,676304.0073512605
729,0.12629311678342603,684492.9777192317
730,33.14150205076666,1186039.246508247
731,58.022554693315186,529530.0425604059
732,13.341998572703119,686187.5191716019
733,10.135211457375387,557745.750622869
734,31.82938399242836,1206423.3849293722
736,35.297707180369784,584642.0930141254
737,32.921146268274285,2079660.2765520432
739,9.135211457375387,553211.3169731954
740,102.88678331034373,2219709.0848957268
741,41.13658335801264,2035662.758630802
742,3.7980997536865324,677284.5201402821
746,7.780456497046639,2092689.4200285275
747,15.921046128568094,2377459.908797522
748,30.492272288739514,1335030.487904382
749,25.649683546441572,2035841.8406371025
751,6.135211457375387,559292.2474523804
756,20.50467212696899,497238.91962302173
758,15.087759273602579,591002.4569988694
760,10.675346042019452,1769757.808938363
761,46.19650194862301,295681.4369277415
762,36.02446178964941,338569.40661766
763,52.060218833494844,1729830.271500096
765,10.675346042019452,1767513.8284527063
766,71.72379535286203,1109058.8097098395
767,13.482076472067838,692333.9999459471
771,86.05831173716058,1897482.4266279263
774,39.14150205076666,1182349.7842176692
778,11.332631967995404,533115.8051272475
779,88.41167729452368,1132187.1395326692
780,16.48207647206784,679934.1851010937
782,17.938314769530145,430039.6250713759
785,17.458447286114804,2051853.2294709464
786,32.189280728373305,2038988.3601693131
788,87.88627157818692,1950861.030574508
789,0.5940166048936888,533906.1312696534
791,55.34287044137898,949216.3700630141
792,35.33892256138668,1148707.0024490466
794,91.41167729452368,1140230.7453076395
795,15.169958413729532,698541.2153634097
796,1.1475225277614598,1805117.18947504
799,5.672928244098214,990752.0595103628
800,9.143409147100904,988040.7716274395
804,25.450665365271604,2041464.4808163287
811,4.752379449558079,585515.8955337447
812,37.50139878671162,2008163.7197770341
813,40.45952622286924,1998211.8294411453
816,8.75237944955808,586712.1003467223
817,39.64198841823307,2298655.368892647
818,16.288825955632156,2160762.59936953
819,57.060218833494844,1716697.514107645
820,26.719411855804992,285439.23475654743
821,4.985760098785789,1015998.8488893216
822,34.71941185580499,294043.62585403485
825,7.448459080945295,1052188.10048765
826,57.5053466667039,1780965.2975602818
827,24.33657984798772,312919.9064580057
831,2.7605771392835976,1038878.5977996822
832,35.33657984798772,329720.116299025
833,45.297707180369784,613701.138734564
834,0.743461108966117,712510.793784083
836,22.983139206102265,1124404.611277165
837,29.145615431427217,1991052.4315786525
838,5.126293116783426,686544.6353970213
839,6.976848612710993,501439.6021372699
843,31.65806451103373,442861.47912141494
845,18.470591281419885,576022.7469886761
847,42.94146415198247,1347066.0092287404
848,4.806297443412051,1120246.5654695549
850,64.33467275165344,508892.2090000267
851,8.439124971471017,716900.8069687576
852,3.126293116783426,668011.1490149235
853,81.3633616710049,1938210.7223743547
854,23.96686657240275,2148049.5303104143
855,27.7710770766098,2271411.68271105
856,57.506712910627016,450870.25551084994
857,4.798099753686532,658595.4815739546
859,29.758670042949362,1211136.6884316762
862,25.758670042949362,1226388.8451031093
863,7.135211457375387,570960.9821336783
866,53.8895449184443,424685.829643114
867,31.51096272036024,1125863.895632368
868,34.51096272036024,1122235.5458597115
869,80.67547972934327,1918893.498721024
870,11.961719111852787,554591.0465327782
873,63.36526876733919,1765155.3382479444
877,33.94146415198247,1342573.6698555665
878,10.341998572703119,675372.5055446997
879,6.589705895292205,773614.2221916887
880,9.81417505844513,694040.3721612751
883,55.5053466667039,1789533.6898218715
885,1.7605771392835976,1042097.4291968013
887,2.752379449558079,573636.2162075258
888,10.340829657720924,964979.8855187913
889,55.51491060035255,908578.8340506628
890,10.340829657720924,979911.8870054842
891,25.29597106078984,1179959.501885427
892,7.935173558591217,712638.8668287308
893,27.145615431427217,1993371.854755325
895,14.169958413729532,731324.831843487
896,31.50139878671162,2020394.831966061
897,74.5034395703697,1970476.38520138
901,30.458447286114804,2013260.2933862985
902,16.299614276704027,420722.8535658576
903,1.4603543824490428,1847516.535522493
907,17.921146268274285,2060985.2625042847
911,21.600307198284952,1169630.8100867756
912,22.506228735036572,1265139.131344929
914,75.5034395703697,1972017.199633069
915,46.45952622286924,2028383.6630071232
920,19.795776380322863,603837.6236002613
921,63.842435211350335,1091120.5695319604
922,29.833497373088917,2019913.541339264
923,30.1872223548951,1285840.4874611434
926,4.798099753686532,689197.304379105
928,20.34969858022005,2128249.247980531
930,53.34287044137898,935234.4632279432
932,82.72379535286203,1113019.484009031
933,25.600307198284952,1170620.4014455494
934,55.33467275165344,501576.2197365057
935,12.332631967995404,517795.840490281
936,35.48602435206013,466163.4649694471
939,67.48906965398712,1877513.173413908
941,71.5034395703697,1960078.1609346743
948,38.33657984798772,322351.1380970301
951,11.84753202072432,794305.2770146807
952,25.96686657240275,2153146.612817538
953,80.34096334504483,1138087.931412435
954,12.482076472067838,690532.7158915707
955,1.743461108966117,701620.4351398365
956,6.976848612710993,531704.4695771403
957,12.668704960361524,2107630.468665433
959,5.752379449558079,593442.5949270026
960,55.717504759470756,491353.3447439131
961,41.50139878671162,1997191.3864867063
964,27.33657984798772,316037.8554109814
965,15.232789571228544,1839580.1480777385
966,27.50139878671162,2008129.074742771
968,31.486024352060127,478847.39774742397
969,6.363227983681156,1778110.8729256466
970,55.060218833494844,1715981.948569431
971,12.326203256134054,1146622.1367967287
972,11.326203256134054,1136359.4568011926
973,5.305885372425843,1849932.2252316503
975,27.654748514064423,2188451.501171249
976,14.504672126968991,501730.2334458835
979,3.576373348253796,1956323.016463929
982,3.752379449558079,604681.0350939893
983,28.99186021775327,2056352.490999269
0,4.0,772227.0385025165
1,13.0,600441.0182150779
2,94.0,496077.80738948
3,8.0,683600.7160762256
4,30.0,377830.61704670097
7,2.0,1807001.7909634714
9,6.0,962595.6198838287
11,14.0,954552.9793055705
13,20.0,863399.6257681772
14,29.0,201329.1617786347
16,17.0,858956.7550831662
17,10.0,1853667.219406952
19,25.0,508035.5932003181
20,16.0,931289.1223939675
22,5.0,1776079.2816004357
24,104.0,425582.5964453471
25,14.0,497047.95503751974
26,52.0,1184320.8270400793
27,47.0,1975245.0111466406
28,134.0,999803.7790279341
29,108.0,554073.0566361176
31,117.0,971901.7664149374
32,128.0,1789492.7053470663
33,67.0,1834450.5565609138
34,61.0,1030454.3708251963
35,9.0,469420.21117503254
44,1.0,1746133.2918050324
45,6.0,1699722.817767429
46,52.0,405035.75711064023
47,47.0,402214.4270987322
49,25.0,855756.6254043424
52,8.0,536076.8419979552
53,79.0,1615525.9066629375
54,60.0,1839014.166613859
56,8.0,540164.3087789683
62,133.0,1791390.6252973375
64,52.0,1218419.9602022206
65,16.0,1663574.1056460382
67,22.0,1674832.2005555236
68,57.0,295882.6828111842
69,2.0,1687577.6422404947
70,61.0,249631.24703962257
71,4.0,993563.5002402002
74,115.0,563197.081867086
75,139.0,993387.4495741434
76,31.0,537040.6270258693
77,37.0,916444.5057466462
78,1.0,2044009.6955088396
79,31.0,1276892.0285246964
85,66.0,1041237.8093547284
86,46.0,1112731.0128990228
91,8.0,677460.4424005068
94,49.0,1842026.8156541775
95,46.0,1834759.8054466809
96,143.0,995571.0191787194
98,78.0,371874.930415159
99,23.0,442376.9008155564
100,36.0,1977296.4334264728
102,12.0,707086.7039164397
103,28.0,392710.00899763283
107,30.0,1152803.8129897406
111,142.0,1035595.1769095754
112,87.0,2029933.77351408
113,25.0,619560.0515062655
114,146.0,1809802.4364353186
115,9.0,548626.9104990077
117,64.0,1116418.4193776357
121,18.0,631443.4832733163
125,102.0,1635075.9482503938
126,1.0,912619.7565686668
127,6.0,1774231.8694117502
130,16.0,1959933.4507835894
132,102.0,1761786.0147941825
133,12.0,488121.53963638196
135,157.0,1995417.400046284
136,51.0,1068220.4468250044
137,8.0,481192.65368723887
138,47.0,1862504.449577702
139,72.0,396864.06542604207
140,109.0,389714.2318420977
142,96.0,611689.4440265645
144,6.0,932236.024582987
148,112.0,540915.0292466481
149,18.0,1541807.9213387175
151,22.0,336801.9901448171
154,90.0,462077.03970255004
157,46.0,1883134.5361639757
158,55.0,1105105.119605189
159,115.0,424371.2815064652
160,105.0,406169.5990911952
161,19.0,649540.7203271608
162,64.0,2244575.6847381108
163,41.0,1909405.8495362366
164,36.0,1957498.0883576944
165,9.0,606999.4685732642
167,49.0,1149562.8591510272
168,62.0,1782141.159968113
169,25.0,419611.0441698832
170,31.0,394799.32728587766
171,53.0,1056194.0559278517
173,69.0,513199.57896172785
175,45.0,1866171.1934084175
176,97.0,593424.1213661706
180,53.0,445670.3177749028
182,47.0,1839504.0103459912
183,3.0,654169.2465705305
185,133.0,1774255.9945346133
187,24.0,390905.44920820434
188,65.0,1845869.2164765405
195,35.0,1166748.2481653222
197,45.0,1073838.1931953859
198,45.0,1041038.7688142615
200,50.0,1817417.7639511074
201,16.0,518703.8763425636
202,54.0,1142512.6711239088
203,9.0,553745.9577318982
204,133.0,1028414.5394276087
205,113.0,1013237.3837959935
209,6.0,611634.4200579828
210,44.0,1908696.1834519182
211,108.0,633054.366090337
212,70.0,413759.4230754164
213,81.0,1844205.428296869
217,99.0,1643935.4577806292
218,2.0,2039507.0639812092
219,20.0,1928228.4222642968
222,25.0,522724.07378503145
226,26.0,1159699.3157458918
228,1.0,1902641.181066816
229,74.0,391640.4288147082
230,88.0,852665.3104565608
232,40.0,1872635.8830172638
233,46.0,1838165.2379600066
234,43.0,1081513.944038347
235,48.0,1076388.4644570348
236,7.0,511760.6404581664
237,143.0,963846.6597896145
238,109.0,443197.620154964
239,68.0,556034.8906002312
240,23.0,627369.6489369344
244,8.0,682651.3233069032
250,111.0,401161.4243424507
251,101.0,456269.9394735707
252,4.0,669514.0071233806
253,12.0,646800.6723266691
257,3.0,1718641.4273355426
258,90.0,610459.8296544453
259,24.0,476596.35181573866
261,54.0,1088489.3246566157
264,1.0,1676666.7496182844
266,56.0,1863450.7414306505
267,13.0,522534.8871315474
268,11.0,679719.4323501028
269,7.0,633749.0498372237
270,11.0,691831.4042394096
271,44.0,2019336.4507111188
277,2.0,1802522.717651167
282,58.0,417406.72631613264
284,56.0,1803717.055482927
285,94.0,617634.13352308
290,24.0,185494.22757202043
291,1.0,160761.7783456743
292,69.0,212608.23951687882
293,20.0,1642325.8277539453
295,58.0,1150456.7136076377
297,6.0,955852.4445346084
299,28.0,486015.1642450148
300,41.0,1827725.0441909817
304,44.0,1079313.1255555549
307,10.0,665628.2096180592
308,47.0,1087405.9854684195
309,5.0,628242.2592575329
310,112.0,551000.1806175618
312,11.0,635339.869884217
316,72.0,257305.7433989483
317,57.0,398004.80261180666
318,69.0,383162.0763590517
319,52.0,1061289.227971184
320,65.0,1046636.8780509902
325,5.0,1680064.8354449512
326,99.0,626999.9886770375
328,99.0,575514.7180084535
329,131.0,1035832.8697041597
332,33.0,705894.0998645257
338,45.0,1183482.6594209534
339,46.0,1836056.0956804487
340,9.0,1025693.6280570928
341,48.0,1825275.9553462637
343,83.0,840709.7830199817
345,13.0,503244.6055995313
346,46.0,1868074.4428155418
347,104.0,596485.4473029311
349,74.0,2043645.3582569112
355,145.0,1764161.3755265013
356,136.0,1021318.967632479
357,152.0,2076701.4940836704
358,63.0,1061442.7394399694
361,14.0,1912543.9995078237
363,1.0,936528.9688513778
369,7.0,1757296.1473937258
370,67.0,283696.89055012836
371,99.0,853288.1819553616
372,55.0,1088706.8186557698
375,28.0,1881769.6461906035
377,143.0,1780826.2755813506
379,10.0,656704.4224840031
383,50.0,1086685.3878604823
385,1.0,911398.0625200039
387,5.0,889097.6859453163
388,2.0,1656862.9824463306
389,64.0,313612.3656082052
390,92.0,1641226.1626366416
391,26.0,903414.7436136776
394,46.0,432911.16171004414
397,69.0,810690.3054719854
398,25.0,1972166.6031188713
399,29.0,1917103.813143308
403,46.0,1094208.0478284967
404,4.0,663337.8276731942
405,94.0,475952.0270099124
407,33.0,706636.0936562777
409,13.0,1566703.7241715488
410,16.0,893475.0345088374
411,90.0,1649358.6888069878
412,65.0,1068233.9056475088
416,53.0,1071854.251299718
417,7.0,934362.6731755453
423,41.0,1814258.2281026398
425,28.0,496881.9910469344
427,58.0,1144080.454695393
428,64.0,936282.1730340448
429,60.0,1722044.7087364623
431,10.0,631324.2541888448
432,10.0,612797.4289493202
433,76.0,522661.0501774839
434,11.0,527162.1706535667
439,33.0,539289.3821162089
444,28.0,1937122.5196393202
448,12.0,1019595.3247490734
449,7.0,516779.72921963426
451,23.0,1967681.435674494
452,40.0,1823038.702206405
453,9.0,902757.4169048422
458,23.0,484409.9344000692
459,154.0,1075762.1700457758
461,135.0,1744499.4884497959
462,45.0,1863913.3479989015
464,1.0,537292.1054907785
465,65.0,425313.33573085343
466,55.0,468052.1591231484
469,43.0,1115635.6779297192
470,10.0,471864.3887118653
471,1.0,919140.1489279248
472,6.0,506448.0258467709
476,19.0,847563.5312102922
477,30.0,1178863.785972881
481,115.0,1801958.469305456
482,94.0,590965.0618142819
486,11.0,1834871.2353103166
487,17.0,1080426.4290482677
490,11.0,988761.7846285615
492,82.0,596057.7946127148
494,28.0,250164.59341583384
496,20.0,1685060.0796543383
497,97.0,1640962.4437458876
499,97.0,795370.013166377
500,36.0,789289.8301171031
506,13.0,559405.4199140732
507,5.0,691593.6157139984
508,17.0,516424.10926634376
510,43.0,1860554.0302209817
511,38.0,1872143.064785058
512,32.0,1160029.1212618307
513,59.0,1993919.5746955164
514,44.0,1892522.3312609505
518,28.0,613207.8121263708
519,13.0,651759.7817631566
520,58.0,1066787.2751312593
521,63.0,936669.7781533748
522,22.0,380998.68414347223
524,123.0,1826992.8081531038
526,15.0,652675.1525746582
527,146.0,1012495.0181449084
528,149.0,1795784.283931619
529,15.0,510546.45148735604
530,44.0,1059907.534283444
533,48.0,2003784.9649740595
534,133.0,1045510.8984752765
536,59.0,1121322.5611482738
537,14.0,522651.9648683298
538,2.0,660880.6930586264
540,44.0,1971109.1326746938
541,58.0,439816.03653547546
543,66.0,1591055.068753026
546,26.0,474591.66599916073
551,25.0,1924739.4011806033
555,92.0,1737737.4958404247
556,129.0,1799610.2470447987
557,54.0,1737780.0958192968
560,10.0,987670.864561815
562,10.0,1807506.4823182141
569,42.0,1876418.1718573025
571,45.0,1821154.388575949
576,101.0,614207.3580633064
580,57.0,442457.389419085
581,102.0,2000103.7586115159
582,16.0,892943.4953825559
585,145.0,981668.3093311577
586,59.0,2100562.947212311
587,9.0,515087.7610198904
588,100.0,463575.9978162662
590,39.0,1877327.1051620198
592,25.0,488523.1195400931
593,86.0,609171.3339070255
595,6.0,2056847.0983743663
600,48.0,1954584.2104005523
603,50.0,2209543.147932163
604,19.0,768243.9988163831
606,28.0,488333.7036946174
608,26.0,1935833.6320423607
611,10.0,925273.2781756372
613,26.0,1922769.3758964476
614,14.0,2022071.5591040435
616,54.0,2157981.6232994027
617,1.0,1916167.05458608
618,40.0,1859688.2646716395
619,45.0,1138333.0316679568
621,52.0,1936585.0794095192
622,34.0,1195959.0259962636
623,47.0,1243830.7431571926
625,5.0,501959.4316216614
626,41.0,1822630.698654153
630,76.0,1647566.235422375
631,150.0,1800027.9059364742
632,65.0,399542.34832933464
633,27.0,902695.344604681
636,12.0,664210.436161823
637,141.0,1024223.7558911862
638,138.0,1009244.1748102455
639,159.0,1030675.5417090717
640,27.0,508193.39937058685
641,20.0,453199.0329685283
642,4.0,502516.13428373524
644,59.0,1123377.8001531006
645,8.0,479139.9047153098
646,50.0,1087640.4709865404
650,28.0,494403.33236656716
653,3.0,1049519.2656553965
655,2.0,1719112.792723091
660,41.0,1971164.3719569384
661,4.0,634900.1482662591
662,54.0,1943560.8924666925
663,17.0,828631.6786967395
664,11.0,490394.51538466715
668,115.0,1901462.3570128893
669,46.0,1096625.2351589124
670,14.0,668700.5115364357
671,59.0,1079935.096902033
672,96.0,450680.8005822561
673,90.0,621040.0612820087
674,18.0,1698751.3796823565
675,54.0,451361.34498391615
676,136.0,1039987.7513499818
679,95.0,841705.1548356409
680,7.0,1702014.9681321525
681,10.0,638419.1355369814
686,63.0,300962.34041813406
688,97.0,1653448.4943184888
690,129.0,1775787.8463217178
693,48.0,1116614.2742653682
694,5.0,1141208.0390954013
696,97.0,828794.752913123
697,120.0,404193.15132574365
698,103.0,451699.09549891757
699,24.0,541818.9716930056
700,112.0,386450.3717400201
702,105.0,972337.1703343253
703,23.0,542493.485144118
704,8.0,781202.291637384
706,60.0,278406.7113296481
710,24.0,1964332.5065420743
712,9.0,635065.0548658693
714,18.0,766185.2017065862
715,6.0,515800.62751950434
716,9.0,674548.8156476393
719,99.0,584729.9576744064
720,10.0,519445.6798088582
721,18.0,1672688.7853356183
722,44.0,1111115.0812787144
723,5.0,1692739.5604897735
724,127.0,1841460.4541507303
725,10.0,666353.6104664771
726,132.0,994339.0228482183
728,7.0,623165.83534509
729,12.0,630711.3866127207
730,47.0,1092850.4485683131
731,109.0,487924.1106449454
732,29.0,632272.7855224045
733,11.0,513922.8702167864
734,56.0,1111632.9761134929
736,73.0,538705.9285630155
737,36.0,1916258.3976800968
739,12.0,509744.71349673
740,155.0,2045303.371082491
741,57.0,1875717.8275955245
742,10.0,624069.3078435456
746,12.0,1928263.8227405716
747,33.0,2190659.4873920023
748,50.0,1230135.2352833233
749,30.0,1875882.8388727587
751,15.0,515347.85658112186
756,17.0,458170.1473669271
758,30.0,544566.5496632439
759,2.0,565718.3800759632
760,15.0,1630705.4096646344
761,56.0,272449.32402627607
762,65.0,311967.5246691296
763,103.0,1593915.035882231
765,15.0,1628637.7419314221
766,153.0,1021918.4746612093
767,20.0,637936.3285216226
771,135.0,1748394.521678589
774,41.0,1089450.8726005666
778,25.0,491228.13472439226
779,144.0,1043229.578569388
780,17.0,626510.7848431506
782,30.0,396250.79738719633
785,55.0,1890636.1900125148
786,66.0,1878782.1318702956
788,132.0,1797579.0924579394
789,8.0,491956.36381275207
791,97.0,874635.0838437772
792,60.0,1058451.4522566213
794,141.0,1050641.1867477535
795,26.0,643655.8341562846
796,2.0,1663286.5531591438
799,10.0,912907.2548345486
800,5.0,910408.996713855
804,45.0,1881063.70018076
811,10.0,539511.075170379
812,53.0,1850379.4275088385
813,88.0,1841209.4714136266
816,6.0,540613.292462337
817,80.0,2118046.7327653673
818,27.0,1990988.3951333526
819,98.0,1581814.1379991872
820,73.0,263011.8663113901
821,14.0,936170.3679051605
822,65.0,270940.1981083607
825,8.0,969516.1783064774
826,90.0,1641032.309894831
827,69.0,288333.3423791624
831,5.0,957252.4222582785
832,58.0,303813.535732673
833,63.0,565481.7635482767
834,5.0,656527.802843905
836,51.0,1036058.5346768162
837,40.0,1834612.597668901
838,7.0,632601.8426158268
839,8.0,462040.77625505585
843,60.0,408065.22004758945
845,33.0,530763.8168681372
847,45.0,1241225.108503625
848,2.0,1032227.1924683754
850,95.0,468907.82115002454
851,7.0,660572.8864212123
852,9.0,615524.5587351795
853,141.0,1785922.737044941
854,44.0,1979274.2100717388
855,75.0,2092943.6219266101
856,103.0,415444.7354349974
857,9.0,606848.6937360009
859,44.0,1115975.9486263301
862,48.0,1130029.7215592936
863,14.0,526099.7621088893
866,113.0,391317.6573140122
867,65.0,1037403.1609755391
868,62.0,1034059.895827877
869,134.0,1768123.2952500863
870,33.0,511016.03573377413
873,93.0,1626464.56167132
877,54.0,1237085.738652629
878,32.0,622307.5229661876
879,13.0,712830.2475909131
880,10.0,639508.6286343178
883,92.0,1648927.4713358672
885,6.0,960218.3454741954
887,12.0,528564.7992197917
888,19.0,889160.0373708862
889,98.0,837190.4970895393
890,19.0,902918.810169339
891,52.0,1087248.3981658577
892,21.0,656645.8130064734
893,42.0,1836749.7804531208
895,27.0,673863.5950557844
896,59.0,1861649.523740156
897,139.0,1815653.240649843
901,42.0,1855075.5560488035
902,26.0,387666.05792854016
903,5.0,1702354.5220171541
907,51.0,1899050.7061646623
911,46.0,1077731.2464371002
912,24.0,1165735.3424535417
914,138.0,1817072.9910904707
915,82.0,1869010.6609137063
920,23.0,556393.2388888121
921,114.0,1005389.6676401634
922,47.0,1861206.0488054645
923,49.0,1184810.1634463393
926,9.0,635046.087606461
928,54.0,1961029.664210632
930,99.0,861751.7554028904
932,142.0,1025567.9531226071
933,42.0,1078643.0841891135
934,104.0,462166.65961435164
935,24.0,477111.88159461605
936,55.0,429536.3355789905
939,99.0,1729994.281217101
941,142.0,1806072.0197183783
948,55.0,297023.5486751206
951,14.0,731895.5766778128
952,42.0,1983970.8075247314
953,138.0,1048666.7368014578
954,21.0,636276.5739286615
955,4.0,646493.1152359921
956,8.0,489927.68982465065
957,29.0,1942030.9318417204
959,9.0,546814.9624684523
960,110.0,452747.0105140342
961,49.0,1840269.2061198936
964,66.0,291206.30962869
965,31.0,1695041.7078716303
966,63.0,1850347.5045844102
968,59.0,441223.6736386978
969,27.0,1638402.1614814885
970,100.0,1581154.795467547
971,16.0,1056530.3974769856
972,17.0,1047074.0709096703
973,4.0,1704580.4075348778
975,48.0,2016501.7403649364
976,23.0,462308.572246564
979,11.0,1802611.9223131917
982,11.0,557170.3823366044
983,54.0,1894781.9381350407
