,sex_male,sex_female,age_0_14,age_15_19,age_20_24,age_25_29,age_30_34,age_35_39,age_40_44,age_45_49,age_50_54,age_55_59,age_60_64,age_65_69,age_70_74,age_75_100,Education_NoSchooling,Education_Elementary,Education_SLTP,Education_SLTA,Education_Diploma,Education_University,EconomicSector_A,EconomicSector_B,EconomicSector_C,EconomicSector_D,EconomicSector_E,EconomicSector_F,EconomicSector_G,EconomicSector_H,EconomicSector_I,EconomicSector_J,EconomicSector_K,EconomicSector_L,EconomicSector_MN,EconomicSector_O,EconomicSector_P,EconomicSector_Q,EconomicSector_RSTU,EconomicSector_UnempOut,Eployed_LocalInf,Eployed_LocalFor,Eployed_OutInf,Eployed_OutFor,Eployed_Unemp,RME_A,RME_C,RME_D,RME_E,RME_F,RME_G,RME_H,RME_I,RME_J,RME_K,RME_L,RME_MN,RME_O,RME_P,RME_Q,RME_RSTU,pop,Size,Labor,Informal,Income
2018,559382,537446,273071,95724,102330,95487,90356,87729,83225,72635,62198,49530,32616,21835,14240,15852,574028.0,136709.0,80509.0,224932.0,19863.0,60787.0,4918.0,0.0,8612.0,548.0,21.0,5986.0,12762.0,62672.0,3916.0,2105.0,3945.0,3274.0,3028.0,10479.0,6816.0,1867.0,5029.0,960850.0,46221.0,89757.0,131274.0,254918.0,574658.0,597291.1,2723114.4,34019.84,1303.68,120617.9,257664.78,5747649.12,92143.48,68854.55,94680.0,203249.92,19167.24,650536.32,423137.28,26530.07,62611.05,1096828,4,522170.0,177495.0,46000.0
2019,567568,545310,277067,97125,103827,96884,91678,89013,84443,73698,63108,50255,33093,22155,14448,16084,582428.0,138709.0,81687.0,228223.0,20154.0,61677.0,5011.0,0.0,8772.0,557.0,21.0,6093.0,12989.0,63547.0,3971.0,2132.0,3999.0,3317.0,3067.0,10613.0,6901.0,1889.0,5090.0,974913.0,46960.0,90771.0,132952.0,259127.0,583066.0,639764.0,2914973.0,36427.0,1395.0,129140.0,276112.0,6125215.0,98177.0,73352.0,100861.0,216498.0,20416.0,694693.0,451752.0,28319.0,66841.0,1112878,4,,,
2020,575873,553290,281121,98546,105347,98302,93020,90315,85679,74776,64032,50990,33578,22479,14660,16319,577013.0,137419.0,85313.0,241712.0,21372.0,66334.0,6605.0,0.0,11564.0,737.0,31.0,8038.0,18940.0,84288.0,5811.0,3356.0,5858.0,4406.0,4497.0,15595.0,10148.0,2781.0,6790.0,939716.0,53137.0,103585.0,137555.0,272866.0,562019.0,608069.0,2747453.0,34340.0,1451.0,121682.0,287701.0,5569433.0,98478.0,79121.0,101255.0,196785.0,20471.0,699971.0,452953.0,28379.0,60654.0,1129163,4,,,
2021,584300,561387,285234,99988,106888,99741,94381,91637,86932,75871,64969,51736,34069,22808,14874,16558,570833.0,135948.0,88991.0,255914.0,22656.0,71343.0,8093.0,0.0,14160.0,904.0,42.0,9837.0,25590.0,102690.0,7808.0,4852.0,7873.0,5369.0,6044.0,20970.0,13649.0,3738.0,8275.0,905800.0,62424.0,121141.0,143275.0,277116.0,541732.0,663807.0,2968588.0,37107.0,1729.0,131425.0,343568.0,5755379.0,112249.0,96978.0,115494.0,203149.0,23312.0,800402.0,518058.0,32452.0,62851.0,1145687,4,,,
2022,592851,569601,289409,101451,108452,101200,95762,92978,88204,76981,65919,52493,34567,23141,15092,16800,563860.0,134287.0,92706.0,270857.0,24013.0,76730.0,9418.0,0.0,16473.0,1050.0,53.0,11443.0,32858.0,118852.0,9970.0,6657.0,10057.0,6214.0,7719.0,26792.0,17440.0,4776.0,9580.0,873093.0,72549.0,140118.0,147804.0,279805.0,522175.0,722146.0,3197861.0,39977.0,2059.0,141516.0,409105.0,5943005.0,127849.0,118800.0,131665.0,209607.0,26533.0,915269.0,592689.0,37118.0,65147.0,1162452,4,,,
2023,601526,577937,293645,102936,110040,102681,97163,94339,89495,78107,66884,53262,35073,23480,15313,17046,556058.0,132430.0,96443.0,286566.0,25443.0,82524.0,10599.0,0.0,18513.0,1181.0,69.0,12849.0,40729.0,132807.0,12290.0,8823.0,12397.0,6944.0,9512.0,33050.0,21518.0,5892.0,10711.0,841586.0,83511.0,160456.0,151158.0,281013.0,503326.0,782890.0,3434380.0,42937.0,2436.0,151920.0,485729.0,6131416.0,145494.0,145428.0,150003.0,216143.0,30184.0,1046601.0,678260.0,42467.0,67545.0,1179463,4,,,
2024,610329,586394,297941,104442,111650,104184,98585,95719,90805,79250,67863,54041,35587,23824,15537,17296,547404.0,130368.0,100179.0,303068.0,26948.0,88755.0,11610.0,0.0,20272.0,1290.0,82.0,14059.0,49214.0,144605.0,14760.0,11395.0,14896.0,7564.0,11427.0,39731.0,25870.0,7082.0,11667.0,811205.0,95292.0,182082.0,153364.0,280829.0,485158.0,845752.0,3676912.0,45973.0,2877.0,162582.0,574995.0,6319455.0,165416.0,177889.0,170776.0,222732.0,34313.0,1196697.0,776386.0,48598.0,70051.0,1196723,4,,,
2025,619260,594975,302302,105971,113284,105708,100028,97120,92134,80410,68856,54832,36107,24172,15764,17549,537866.0,128097.0,103892.0,320389.0,28534.0,95458.0,12469.0,0.0,21753.0,1383.0,97.0,15086.0,58287.0,154299.0,17374.0,14411.0,17541.0,8069.0,13452.0,46812.0,30483.0,8343.0,12456.0,781914.0,107874.0,204901.0,154469.0,279347.0,467644.0,910435.0,3924130.0,49068.0,3388.0,173444.0,678621.0,6505877.0,187856.0,217405.0,194269.0,229348.0,38976.0,1368164.0,888946.0,55628.0,72671.0,1214235,4,,,
2026,628322,603682,306725,107521,114941,107255,101492,98541,93482,81587,69863,55634,36636,24526,15995,17806,527421.0,125610.0,107555.0,338551.0,30201.0,102666.0,13175.0,0.0,22976.0,1465.0,112.0,15915.0,67930.0,161955.0,20115.0,17942.0,20324.0,8468.0,15580.0,54265.0,35340.0,9669.0,13083.0,753699.0,121228.0,228808.0,154537.0,276668.0,450763.0,976441.0,4174107.0,52199.0,3976.0,184417.0,798410.0,6689050.0,213071.0,265439.0,220795.0,235956.0,44238.0,1563895.0,1018056.0,63688.0,75407.0,1232004,4,,,
2027,637517,612516,311213,109095,116623,108825,102977,99983,94850,82781,70886,56448,37172,24885,16229,18066,516046.0,122901.0,111137.0,357577.0,31954.0,110418.0,13738.0,0.0,23932.0,1521.0,130.0,16566.0,78105.0,167678.0,22967.0,22037.0,23217.0,8773.0,17797.0,62052.0,40420.0,11055.0,13557.0,726484.0,135329.0,253680.0,153637.0,272895.0,434491.0,1043284.0,4424787.0,55334.0,4651.0,195414.0,936288.0,6867372.0,241331.0,323732.0,250686.0,242521.0,50160.0,1787211.0,1166200.0,72933.0,78267.0,1250033,4,,,
2028,646846,621479,315768,110691,118330,110417,104484,101446,96238,83992,71923,57274,37716,25249,16467,18331,503720.0,119965.0,114604.0,377486.0,33794.0,118756.0,14169.0,0.0,24647.0,1564.0,148.0,17051.0,88774.0,171559.0,25913.0,26745.0,26227.0,8981.0,20094.0,70130.0,45687.0,12492.0,13883.0,700261.0,150144.0,279379.0,151851.0,268144.0,418806.0,1110271.0,4673529.0,58447.0,5417.0,206319.0,1094216.0,7038508.0,272891.0,394329.0,284295.0,248995.0,56815.0,2041716.0,1336150.0,83536.0,81253.0,1268325,4,,,
2029,656311,630574,320389,112311,120062,112033,106013,102931,97646,85221,72976,58112,38268,25619,16707,18599,490426.0,116799.0,117916.0,398296.0,35725.0,127723.0,14447.0,0.0,25132.0,1598.0,162.0,17377.0,99896.0,173722.0,28942.0,32128.0,29308.0,9098.0,22461.0,78463.0,51122.0,13975.0,14072.0,674983.0,165638.0,305765.0,149267.0,262527.0,403689.0,1176711.0,4917537.0,61504.0,6288.0,217008.0,1274203.0,7200665.0,308032.0,479679.0,322007.0,255341.0,64278.0,2331625.0,1531208.0,95701.0,84376.0,1286885,4,,,
2030,665916,639801,325077,113954,121819,113672,107564,104437,99075,86468,74044,58963,38828,25993,16952,18871,476152.0,113399.0,121030.0,420019.0,37749.0,137368.0,14616.0,0.0,25387.0,1617.0,178.0,17537.0,111422.0,174293.0,32028.0,38237.0,32470.0,9127.0,24872.0,86993.0,56695.0,15487.0,14134.0,650612.0,181776.0,332685.0,145978.0,256162.0,389117.0,1241673.0,5153329.0,64456.0,7270.0,227326.0,1478116.0,7350846.0,346979.0,582599.0,364197.0,261493.0,72624.0,2661384.0,1755017.0,109657.0,87637.0,1305717,4,,,
