,sex_male,sex_female,age_0_14,age_15_19,age_20_24,age_25_29,age_30_34,age_35_39,age_40_44,age_45_49,age_50_54,age_55_59,age_60_64,age_65_69,age_70_74,age_75_100,Education_NoSchooling,Education_Elementary,Education_SLTP,Education_SLTA,Education_Diploma,Education_University,EconomicSector_A,EconomicSector_B,EconomicSector_C,EconomicSector_D,EconomicSector_E,EconomicSector_F,EconomicSector_G,EconomicSector_H,EconomicSector_I,EconomicSector_J,EconomicSector_K,EconomicSector_L,EconomicSector_MN,EconomicSector_O,EconomicSector_P,EconomicSector_Q,EconomicSector_RSTU,EconomicSector_UnempOut,Eployed_LocalInf,Eployed_LocalFor,Eployed_OutInf,Eployed_OutFor,Eployed_Unemp,RME_A,RME_C,RME_D,RME_E,RME_F,RME_G,RME_H,RME_I,RME_J,RME_K,RME_L,RME_MN,RME_O,RME_P,RME_Q,RME_RSTU,pop,Size,Labor,Informal,Income
2018,559382,537446,273071,95724,102330,95487,90356,87729,83225,72635,62198,49530,32616,21835,14240,15852,574028.0,136709.0,80509.0,224932.0,19863.0,60787.0,4918.0,0.0,8612.0,548.0,21.0,5986.0,12762.0,62672.0,3916.0,2105.0,3945.0,3274.0,3028.0,10479.0,6816.0,1867.0,5029.0,960850.0,46221.0,89757.0,131274.0,254918.0,574658.0,597291.1,2723114.4,34019.84,1303.68,120617.9,257664.78,5747649.12,92143.48,68854.55,94680.0,203249.92,19167.24,650536.32,423137.28,26530.07,62611.05,1096828,4,522170.0,177495.0,46000.0
2019,567568,545310,277067,97125,103827,96884,91678,89013,84443,73698,63108,50255,33093,22155,14448,16084,582428.0,138709.0,81687.0,228223.0,20154.0,61677.0,5024.0,0.0,8795.0,558.0,21.0,6109.0,13022.0,63710.0,3981.0,2137.0,4009.0,3326.0,3075.0,10640.0,6919.0,1894.0,5103.0,974558.0,49220.0,95580.0,130872.0,254139.0,583067.0,639764.0,2914973.0,36427.0,1395.0,129140.0,276112.0,6125215.0,98177.0,73352.0,100861.0,216498.0,20416.0,694693.0,451752.0,28319.0,66841.0,1112878,4,,,
2020,575873,553290,281121,98546,105347,98302,93020,90315,85679,74776,64032,50990,33578,22479,14660,16319,581968.0,138599.0,84271.0,237426.0,21189.0,65708.0,4885.0,0.0,8553.0,545.0,23.0,5945.0,14008.0,62341.0,4298.0,2482.0,4333.0,3259.0,3326.0,11534.0,7506.0,2057.0,5022.0,989044.0,45621.06,88591.23,113352.3,220116.09,661482.32,608069.0,2747453.0,34340.0,1451.0,121682.0,287701.0,5569433.0,98478.0,79121.0,101255.0,196785.0,20471.0,699971.0,452953.0,28379.0,60654.0,1129163,4,,,
2021,584300,561387,285234,99988,106888,99741,94381,91637,86932,75871,64969,51736,34069,22808,14874,16558,581160.0,138407.0,86893.0,246948.0,22275.0,70003.0,4834.0,0.0,8458.0,540.0,25.0,5876.0,15286.0,61340.0,4664.0,2898.0,4703.0,3207.0,3610.0,12526.0,8153.0,2233.0,4943.0,1002396.0,48627.78,94429.8,112671.09,218795.43,671162.9,663807.0,2968588.0,37107.0,1729.0,131425.0,343568.0,5755379.0,112249.0,96978.0,115494.0,203149.0,23312.0,800402.0,518058.0,32452.0,62851.0,1145687,4,,,
2022,592851,569601,289409,101451,108452,101200,95762,92978,88204,76981,65919,52493,34567,23141,15092,16800,579991.0,138128.0,89546.0,256797.0,23412.0,74579.0,4782.0,0.0,8364.0,533.0,27.0,5810.0,16683.0,60345.0,5062.0,3380.0,5106.0,3155.0,3919.0,13603.0,8855.0,2425.0,4864.0,1015532.0,51856.35,100699.02,111803.7,217109.37,680983.56,722146.0,3197861.0,39977.0,2059.0,141516.0,409105.0,5943005.0,127849.0,118800.0,131665.0,209607.0,26533.0,915269.0,592689.0,37118.0,65147.0,1162452,4,,,
2023,601526,577937,293645,102936,110040,102681,97163,94339,89495,78107,66884,53262,35073,23480,15313,17046,578443.0,137760.0,92228.0,266977.0,24602.0,79454.0,4738.0,0.0,8276.0,528.0,31.0,5744.0,18207.0,59368.0,5494.0,3944.0,5542.0,3104.0,4252.0,14774.0,9619.0,2634.0,4788.0,1028427.0,55325.04,107435.43,110729.25,215023.98,690949.3,782890.0,3434380.0,42937.0,2436.0,151920.0,485729.0,6131416.0,145494.0,145428.0,150003.0,216143.0,30184.0,1046601.0,678260.0,42467.0,67545.0,1179463,4,,,
2024,610329,586394,297941,104442,111650,104184,98585,95719,90805,79250,67863,54041,35587,23824,15537,17296,576504.0,137298.0,94932.0,277494.0,25847.0,84647.0,4689.0,0.0,8187.0,521.0,33.0,5678.0,19876.0,58401.0,5961.0,4602.0,6016.0,3055.0,4615.0,16046.0,10448.0,2860.0,4712.0,1041028.0,59052.99,114673.83,109431.21,212504.46,701060.51,845752.0,3676912.0,45973.0,2877.0,162582.0,574995.0,6319455.0,165416.0,177889.0,170776.0,222732.0,34313.0,1196697.0,776386.0,48598.0,70051.0,1196723,4,,,
2025,619260,594975,302302,105971,113284,105708,100028,97120,92134,80410,68856,54832,36107,24172,15764,17549,574158.0,136740.0,97655.0,288352.0,27150.0,90180.0,4642.0,0.0,8098.0,515.0,36.0,5616.0,21699.0,57442.0,6468.0,5365.0,6530.0,3004.0,5008.0,17427.0,11348.0,3106.0,4637.0,1053287.0,63060.21,122455.98,107889.57,209509.92,711319.32,910435.0,3924130.0,49068.0,3388.0,173444.0,678621.0,6505877.0,187856.0,217405.0,194269.0,229348.0,38976.0,1368164.0,888946.0,55628.0,72671.0,1214235,4,,,
2026,628322,603682,306725,107521,114941,107255,101492,98541,93482,81587,69863,55634,36636,24526,15995,17806,571392.0,136081.0,100389.0,299557.0,28512.0,96075.0,4596.0,0.0,8015.0,511.0,39.0,5552.0,23697.0,56497.0,7017.0,6259.0,7090.0,2954.0,5435.0,18930.0,12328.0,3373.0,4564.0,1065157.0,67369.32,130824.51,106082.58,205999.47,721728.12,976441.0,4174107.0,52199.0,3976.0,184417.0,798410.0,6689050.0,213071.0,265439.0,220795.0,235956.0,44238.0,1563895.0,1018056.0,63688.0,75407.0,1232004,4,,,
2027,637517,612516,311213,109095,116623,108825,102977,99983,94850,82781,70886,56448,37172,24885,16229,18066,568187.0,135319.0,103128.0,311109.0,29935.0,102355.0,4552.0,0.0,7930.0,504.0,43.0,5489.0,25880.0,55560.0,7610.0,7302.0,7693.0,2907.0,5897.0,20561.0,13393.0,3663.0,4492.0,1076553.0,72005.55,139826.4,103985.01,201926.13,732289.91,1043284.0,4424787.0,55334.0,4651.0,195414.0,936288.0,6867372.0,241331.0,323732.0,250686.0,242521.0,50160.0,1787211.0,1166200.0,72933.0,78267.0,1250033,4,,,
2028,646846,621479,315768,110691,118330,110417,104484,101446,96238,83992,71923,57274,37716,25249,16467,18331,564535.0,134448.0,105865.0,323012.0,31422.0,109045.0,4512.0,0.0,7849.0,498.0,47.0,5430.0,28270.0,54633.0,8252.0,8517.0,8352.0,2860.0,6399.0,22333.0,14549.0,3978.0,4421.0,1087424.0,76991.52,149508.63,101574.24,197244.66,743005.95,1110271.0,4673529.0,58447.0,5417.0,206319.0,1094216.0,7038508.0,272891.0,394329.0,284295.0,248995.0,56815.0,2041716.0,1336150.0,83536.0,81253.0,1268325,4,,,
2029,656311,630574,320389,112311,120062,112033,106013,102931,97646,85221,72976,58112,38268,25619,16707,18599,560415.0,133467.0,108590.0,335265.0,32974.0,116173.0,4467.0,0.0,7771.0,494.0,50.0,5373.0,30888.0,53715.0,8949.0,9934.0,9062.0,2813.0,6945.0,24261.0,15807.0,4321.0,4351.0,1097684.0,82360.29,159933.84,98818.08,191894.16,753878.63,1176711.0,4917537.0,61504.0,6288.0,217008.0,1274203.0,7200665.0,308032.0,479679.0,322007.0,255341.0,64278.0,2331625.0,1531208.0,95701.0,84376.0,1286885,4,,,
2030,665916,639801,325077,113954,121819,113672,107564,104437,99075,86468,74044,58963,38828,25993,16952,18871,555820.0,132373.0,111295.0,347871.0,34592.0,123767.0,4428.0,0.0,7691.0,490.0,54.0,5313.0,33756.0,52803.0,9703.0,11584.0,9837.0,2765.0,7535.0,26355.0,17176.0,4692.0,4282.0,1107241.0,88137.96,171155.1,95691.3,185821.56,764911.08,1241673.0,5153329.0,64456.0,7270.0,227326.0,1478116.0,7350846.0,346979.0,582599.0,364197.0,261493.0,72624.0,2661384.0,1755017.0,109657.0,87637.0,1305717,4,,,
